<?xml version="1.0" encoding="UTF-8"?>
<svg xmlns="http://www.w3.org/2000/svg" xmlns:xlink="http://www.w3.org/1999/xlink" width="11.909" height="7.308" viewBox="0 0 11.909 7.308">
<defs>
<g>
<g id="glyph-0-0">
</g>
<g id="glyph-0-1">
<path d="M 6.765625 -2.484375 C 6.890625 -2.5625 6.96875 -2.59375 6.96875 -2.71875 C 6.96875 -2.859375 6.890625 -2.890625 6.765625 -2.96875 L 1.015625 -6.109375 C 0.96875 -6.125 0.890625 -6.171875 0.8125 -6.171875 C 0.71875 -6.171875 0.59375 -6.109375 0.59375 -5.953125 C 0.59375 -5.828125 0.6875 -5.796875 0.8125 -5.71875 L 6.296875 -2.71875 L 0.8125 0.265625 C 0.6875 0.34375 0.59375 0.375 0.59375 0.5 C 0.59375 0.71875 0.8125 0.71875 0.890625 0.71875 Z M 10.09375 -2.484375 C 10.21875 -2.5625 10.296875 -2.59375 10.296875 -2.71875 C 10.296875 -2.859375 10.21875 -2.890625 10.09375 -2.96875 L 4.34375 -6.109375 C 4.296875 -6.125 4.21875 -6.171875 4.140625 -6.171875 C 4.046875 -6.171875 3.921875 -6.109375 3.921875 -5.953125 C 3.921875 -5.828125 4.015625 -5.796875 4.140625 -5.71875 L 9.625 -2.71875 L 4.140625 0.265625 C 4.015625 0.34375 3.921875 0.375 3.921875 0.5 C 3.921875 0.71875 4.140625 0.71875 4.203125 0.71875 Z M 10.09375 -2.484375 "/>
</g>
</g>
<clipPath id="clip-0">
<path clip-rule="nonzero" d="M 1 0 L 11 0 L 11 7.308594 L 1 7.308594 Z M 1 0 "/>
</clipPath>
</defs>
<g clip-path="url(#clip-0)">
<g fill="rgb(0%, 0%, 0%)" fill-opacity="1">
<use xlink:href="#glyph-0-1" x="0.5" y="6.381"/>
</g>
</g>
</svg>
