<?xml version="1.0" encoding="UTF-8"?>
<svg xmlns="http://www.w3.org/2000/svg" xmlns:xlink="http://www.w3.org/1999/xlink" width="48.929" height="27.296" viewBox="0 0 48.929 27.296">
<defs>
<g>
<g id="glyph-0-0">
</g>
<g id="glyph-0-1">
<path d="M 6.921875 -6.296875 C 7.03125 -6.75 7.234375 -7.078125 8.109375 -7.109375 C 8.15625 -7.109375 8.28125 -7.125 8.28125 -7.328125 C 8.28125 -7.34375 8.28125 -7.453125 8.140625 -7.453125 C 7.78125 -7.453125 7.40625 -7.421875 7.03125 -7.421875 C 6.65625 -7.421875 6.265625 -7.453125 5.90625 -7.453125 C 5.828125 -7.453125 5.703125 -7.453125 5.703125 -7.234375 C 5.703125 -7.109375 5.8125 -7.109375 5.90625 -7.109375 C 6.515625 -7.09375 6.640625 -6.875 6.640625 -6.625 C 6.640625 -6.59375 6.625 -6.4375 6.609375 -6.40625 L 5.625 -2.515625 C 5.25 -1.046875 4 -0.09375 2.90625 -0.09375 C 2.171875 -0.09375 1.578125 -0.578125 1.578125 -1.515625 C 1.578125 -1.53125 1.578125 -1.890625 1.703125 -2.359375 L 2.765625 -6.609375 C 2.859375 -7 2.875 -7.109375 3.671875 -7.109375 C 3.953125 -7.109375 4.046875 -7.109375 4.046875 -7.328125 C 4.046875 -7.453125 3.921875 -7.453125 3.890625 -7.453125 C 3.59375 -7.453125 2.796875 -7.421875 2.5 -7.421875 C 2.1875 -7.421875 1.40625 -7.453125 1.09375 -7.453125 C 1 -7.453125 0.890625 -7.453125 0.890625 -7.234375 C 0.890625 -7.109375 0.984375 -7.109375 1.1875 -7.109375 C 1.203125 -7.109375 1.421875 -7.109375 1.609375 -7.09375 C 1.796875 -7.0625 1.890625 -7.0625 1.890625 -6.921875 C 1.890625 -6.84375 1.78125 -6.390625 1.71875 -6.140625 L 1.46875 -5.1875 C 1.375 -4.75 0.84375 -2.6875 0.8125 -2.484375 C 0.734375 -2.1875 0.734375 -2.015625 0.734375 -1.859375 C 0.734375 -0.53125 1.71875 0.234375 2.875 0.234375 C 4.25 0.234375 5.59375 -1 5.953125 -2.4375 Z M 6.921875 -6.296875 "/>
</g>
<g id="glyph-1-0">
</g>
<g id="glyph-1-1">
<path d="M 4.59375 5.828125 L 0.71875 10.609375 C 0.625 10.71875 0.625 10.75 0.625 10.78125 C 0.625 10.90625 0.71875 10.90625 0.921875 10.90625 L 9.953125 10.90625 L 10.890625 8.1875 L 10.625 8.1875 C 10.34375 9.015625 9.625 9.671875 8.6875 9.984375 C 8.515625 10.046875 7.765625 10.3125 6.15625 10.3125 L 1.53125 10.3125 L 5.3125 5.625 C 5.390625 5.53125 5.40625 5.5 5.40625 5.453125 C 5.40625 5.40625 5.40625 5.40625 5.328125 5.296875 L 1.78125 0.4375 L 6.109375 0.4375 C 7.34375 0.4375 9.859375 0.515625 10.625 2.546875 L 10.890625 2.546875 L 9.953125 0 L 0.921875 0 C 0.625 0 0.609375 0.015625 0.609375 0.34375 Z M 4.59375 5.828125 "/>
</g>
<g id="glyph-2-0">
</g>
<g id="glyph-2-1">
<path d="M 2.375 -4.96875 C 2.375 -5.140625 2.25 -5.28125 2.0625 -5.28125 C 1.859375 -5.28125 1.625 -5.078125 1.625 -4.84375 C 1.625 -4.671875 1.75 -4.546875 1.9375 -4.546875 C 2.140625 -4.546875 2.375 -4.734375 2.375 -4.96875 Z M 1.21875 -2.046875 L 0.78125 -0.953125 C 0.734375 -0.828125 0.703125 -0.734375 0.703125 -0.59375 C 0.703125 -0.203125 1 0.078125 1.421875 0.078125 C 2.203125 0.078125 2.53125 -1.03125 2.53125 -1.140625 C 2.53125 -1.21875 2.46875 -1.25 2.40625 -1.25 C 2.3125 -1.25 2.296875 -1.1875 2.265625 -1.109375 C 2.09375 -0.46875 1.765625 -0.140625 1.4375 -0.140625 C 1.34375 -0.140625 1.25 -0.1875 1.25 -0.390625 C 1.25 -0.59375 1.3125 -0.734375 1.40625 -0.984375 C 1.484375 -1.1875 1.5625 -1.40625 1.65625 -1.625 L 1.90625 -2.265625 C 1.96875 -2.453125 2.078125 -2.703125 2.078125 -2.84375 C 2.078125 -3.234375 1.75 -3.515625 1.34375 -3.515625 C 0.578125 -3.515625 0.234375 -2.40625 0.234375 -2.296875 C 0.234375 -2.21875 0.296875 -2.1875 0.359375 -2.1875 C 0.46875 -2.1875 0.46875 -2.234375 0.5 -2.3125 C 0.71875 -3.078125 1.078125 -3.296875 1.328125 -3.296875 C 1.4375 -3.296875 1.515625 -3.25 1.515625 -3.03125 C 1.515625 -2.953125 1.5 -2.84375 1.421875 -2.59375 Z M 1.21875 -2.046875 "/>
</g>
<g id="glyph-3-0">
</g>
<g id="glyph-3-1">
<path d="M 2.53125 -7.3125 C 2.4375 -7.4375 2.421875 -7.453125 2.21875 -7.453125 L 0.359375 -7.453125 L 0.359375 -7.109375 L 0.671875 -7.109375 C 0.84375 -7.109375 1.0625 -7.09375 1.21875 -7.09375 C 1.46875 -7.0625 1.484375 -7.046875 1.484375 -6.84375 L 1.484375 -1.140625 C 1.484375 -0.84375 1.484375 -0.34375 0.359375 -0.34375 L 0.359375 0 C 0.734375 -0.015625 1.28125 -0.03125 1.640625 -0.03125 C 2 -0.03125 2.53125 -0.015625 2.90625 0 L 2.90625 -0.34375 C 1.78125 -0.34375 1.78125 -0.84375 1.78125 -1.140625 L 1.78125 -6.8125 C 1.84375 -6.765625 1.859375 -6.75 1.890625 -6.6875 L 6.34375 -0.140625 C 6.453125 -0.015625 6.453125 0 6.53125 0 C 6.6875 0 6.6875 -0.078125 6.6875 -0.28125 L 6.6875 -6.296875 C 6.6875 -6.59375 6.6875 -7.109375 7.8125 -7.109375 L 7.8125 -7.453125 C 7.421875 -7.4375 6.890625 -7.421875 6.53125 -7.421875 C 6.171875 -7.421875 5.640625 -7.4375 5.25 -7.453125 L 5.25 -7.109375 C 6.375 -7.109375 6.375 -6.59375 6.375 -6.296875 L 6.375 -1.640625 Z M 2.53125 -7.3125 "/>
</g>
<g id="glyph-3-2">
<path d="M 7.859375 -3.703125 C 7.859375 -5.921875 6.21875 -7.6875 4.234375 -7.6875 C 2.28125 -7.6875 0.609375 -5.9375 0.609375 -3.703125 C 0.609375 -1.46875 2.296875 0.234375 4.234375 0.234375 C 6.21875 0.234375 7.859375 -1.5 7.859375 -3.703125 Z M 4.25 -0.046875 C 3.203125 -0.046875 1.734375 -1 1.734375 -3.84375 C 1.734375 -6.671875 3.328125 -7.421875 4.234375 -7.421875 C 5.1875 -7.421875 6.734375 -6.640625 6.734375 -3.84375 C 6.734375 -0.953125 5.25 -0.046875 4.25 -0.046875 Z M 4.25 -0.046875 "/>
</g>
<g id="glyph-3-3">
<path d="M 1.484375 -0.84375 C 1.484375 -0.453125 1.46875 -0.34375 0.625 -0.34375 L 0.359375 -0.34375 L 0.359375 0 L 6.65625 0 L 7.109375 -2.8125 L 6.84375 -2.8125 C 6.5625 -1.140625 6.3125 -0.34375 4.4375 -0.34375 L 2.984375 -0.34375 C 2.46875 -0.34375 2.453125 -0.421875 2.453125 -0.78125 L 2.453125 -3.6875 L 3.4375 -3.6875 C 4.5 -3.6875 4.609375 -3.34375 4.609375 -2.40625 L 4.890625 -2.40625 L 4.890625 -5.296875 L 4.609375 -5.296875 C 4.609375 -4.359375 4.5 -4.03125 3.4375 -4.03125 L 2.453125 -4.03125 L 2.453125 -6.640625 C 2.453125 -7 2.46875 -7.078125 2.984375 -7.078125 L 4.390625 -7.078125 C 6.0625 -7.078125 6.359375 -6.484375 6.53125 -4.96875 L 6.8125 -4.96875 L 6.5 -7.421875 L 0.359375 -7.421875 L 0.359375 -7.078125 L 0.625 -7.078125 C 1.46875 -7.078125 1.484375 -6.953125 1.484375 -6.5625 Z M 1.484375 -0.84375 "/>
</g>
<g id="glyph-4-0">
</g>
<g id="glyph-4-1">
<path d="M 2.25 -1.625 C 2.375 -1.75 2.703125 -2.015625 2.84375 -2.125 C 3.328125 -2.578125 3.796875 -3.015625 3.796875 -3.734375 C 3.796875 -4.6875 3 -5.296875 2.015625 -5.296875 C 1.046875 -5.296875 0.421875 -4.578125 0.421875 -3.859375 C 0.421875 -3.46875 0.734375 -3.421875 0.84375 -3.421875 C 1.015625 -3.421875 1.265625 -3.53125 1.265625 -3.84375 C 1.265625 -4.25 0.859375 -4.25 0.765625 -4.25 C 1 -4.84375 1.53125 -5.03125 1.921875 -5.03125 C 2.65625 -5.03125 3.046875 -4.40625 3.046875 -3.734375 C 3.046875 -2.90625 2.46875 -2.296875 1.515625 -1.34375 L 0.515625 -0.296875 C 0.421875 -0.21875 0.421875 -0.203125 0.421875 0 L 3.5625 0 L 3.796875 -1.421875 L 3.546875 -1.421875 C 3.53125 -1.265625 3.46875 -0.875 3.375 -0.71875 C 3.328125 -0.65625 2.71875 -0.65625 2.59375 -0.65625 L 1.171875 -0.65625 Z M 2.25 -1.625 "/>
</g>
</g>
</defs>
<g fill="rgb(0%, 0%, 0%)" fill-opacity="1">
<use xlink:href="#glyph-0-1" x="20.146" y="7.954"/>
</g>
<path fill="none" stroke-width="0.436" stroke-linecap="butt" stroke-linejoin="miter" stroke="rgb(0%, 0%, 0%)" stroke-opacity="1" stroke-miterlimit="10" d="M -0.0006875 0.00153125 L 45.538375 0.00153125 " transform="matrix(1, 0, 0, -1, 1.696, 12.607)"/>
<g fill="rgb(0%, 0%, 0%)" fill-opacity="1">
<use xlink:href="#glyph-1-1" x="1.696" y="15.389"/>
</g>
<g fill="rgb(0%, 0%, 0%)" fill-opacity="1">
<use xlink:href="#glyph-2-1" x="13.211" y="26.796"/>
</g>
<g fill="rgb(0%, 0%, 0%)" fill-opacity="1">
<use xlink:href="#glyph-3-1" x="18.41" y="23.571"/>
<use xlink:href="#glyph-3-2" x="26.591825" y="23.571"/>
<use xlink:href="#glyph-3-3" x="35.076923" y="23.571"/>
</g>
<g fill="rgb(0%, 0%, 0%)" fill-opacity="1">
<use xlink:href="#glyph-4-1" x="42.501" y="19.271"/>
</g>
</svg>
