<?xml version="1.0" encoding="UTF-8"?>
<svg xmlns="http://www.w3.org/2000/svg" xmlns:xlink="http://www.w3.org/1999/xlink" width="15.545" height="12.345" viewBox="0 0 15.545 12.345">
<defs>
<g>
<g id="glyph-0-0">
</g>
<g id="glyph-0-1">
<path d="M 4.25 9.328125 L 2.328125 5.078125 C 2.25 4.90625 2.1875 4.90625 2.15625 4.90625 C 2.15625 4.90625 2.09375 4.90625 1.96875 5 L 0.9375 5.78125 C 0.796875 5.890625 0.796875 5.921875 0.796875 5.953125 C 0.796875 6.015625 0.828125 6.078125 0.90625 6.078125 C 0.96875 6.078125 1.15625 5.921875 1.28125 5.828125 C 1.34375 5.78125 1.5 5.65625 1.625 5.578125 L 3.78125 10.296875 C 3.84375 10.46875 3.90625 10.46875 4 10.46875 C 4.171875 10.46875 4.203125 10.40625 4.28125 10.25 L 9.234375 0 C 9.296875 -0.15625 9.296875 -0.203125 9.296875 -0.21875 C 9.296875 -0.328125 9.21875 -0.4375 9.078125 -0.4375 C 9 -0.4375 8.921875 -0.375 8.828125 -0.203125 Z M 4.25 9.328125 "/>
</g>
<g id="glyph-1-0">
</g>
<g id="glyph-1-1">
<path d="M 3.15625 -3.84375 C 4.0625 -4.140625 4.6875 -4.890625 4.6875 -5.765625 C 4.6875 -6.65625 3.734375 -7.265625 2.6875 -7.265625 C 1.578125 -7.265625 0.75 -6.609375 0.75 -5.78125 C 0.75 -5.421875 1 -5.21875 1.3125 -5.21875 C 1.640625 -5.21875 1.859375 -5.453125 1.859375 -5.765625 C 1.859375 -6.3125 1.359375 -6.3125 1.1875 -6.3125 C 1.53125 -6.84375 2.25 -6.984375 2.640625 -6.984375 C 3.09375 -6.984375 3.6875 -6.75 3.6875 -5.765625 C 3.6875 -5.640625 3.671875 -5 3.375 -4.53125 C 3.046875 -4 2.6875 -3.96875 2.40625 -3.953125 C 2.328125 -3.953125 2.0625 -3.921875 1.984375 -3.921875 C 1.890625 -3.921875 1.828125 -3.90625 1.828125 -3.796875 C 1.828125 -3.671875 1.890625 -3.671875 2.078125 -3.671875 L 2.5625 -3.671875 C 3.453125 -3.671875 3.859375 -2.9375 3.859375 -1.859375 C 3.859375 -0.375 3.109375 -0.0625 2.625 -0.0625 C 2.15625 -0.0625 1.34375 -0.25 0.953125 -0.890625 C 1.34375 -0.84375 1.671875 -1.078125 1.671875 -1.5 C 1.671875 -1.890625 1.390625 -2.109375 1.0625 -2.109375 C 0.8125 -2.109375 0.453125 -1.953125 0.453125 -1.46875 C 0.453125 -0.484375 1.46875 0.234375 2.65625 0.234375 C 3.984375 0.234375 4.984375 -0.75 4.984375 -1.859375 C 4.984375 -2.765625 4.296875 -3.609375 3.15625 -3.84375 Z M 3.15625 -3.84375 "/>
</g>
</g>
<clipPath id="clip-0">
<path clip-rule="nonzero" d="M 9 0 L 15.546875 0 L 15.546875 2 L 9 2 Z M 9 0 "/>
</clipPath>
</defs>
<g fill="rgb(0%, 0%, 0%)" fill-opacity="1">
<use xlink:href="#glyph-0-1" x="0.5" y="1.372"/>
</g>
<g clip-path="url(#clip-0)">
<path fill="none" stroke-width="0.436" stroke-linecap="butt" stroke-linejoin="miter" stroke="rgb(0%, 0%, 0%)" stroke-opacity="1" stroke-miterlimit="10" d="M -0.00115625 0.00165625 L 5.455875 0.00165625 " transform="matrix(1, 0, 0, -1, 9.591, 1.154)"/>
</g>
<g fill="rgb(0%, 0%, 0%)" fill-opacity="1">
<use xlink:href="#glyph-1-1" x="9.591" y="10.929"/>
</g>
</svg>
