<?xml version="1.0" encoding="UTF-8"?>
<svg xmlns="http://www.w3.org/2000/svg" xmlns:xlink="http://www.w3.org/1999/xlink" width="7.515" height="20.637" viewBox="0 0 7.515 20.637">
<defs>
<g>
<g id="glyph-0-0">
</g>
<g id="glyph-0-1">
<path d="M 5.609375 19.0625 C 5.640625 19.078125 5.734375 19.1875 5.75 19.1875 L 5.984375 19.1875 C 6.015625 19.1875 6.109375 19.171875 6.109375 19.078125 C 6.109375 19.03125 6.078125 19.015625 6.0625 18.984375 C 5.671875 18.578125 5.078125 17.984375 4.40625 16.78125 C 3.234375 14.6875 2.796875 12 2.796875 9.375 C 2.796875 4.53125 4.171875 1.6875 6.078125 -0.234375 C 6.109375 -0.265625 6.109375 -0.3125 6.109375 -0.328125 C 6.109375 -0.4375 6.03125 -0.4375 5.90625 -0.4375 C 5.765625 -0.4375 5.734375 -0.4375 5.640625 -0.34375 C 4.609375 0.546875 3.4375 2.0625 2.6875 4.359375 C 2.21875 5.796875 1.96875 7.5625 1.96875 9.375 C 1.96875 11.953125 2.4375 14.875 4.140625 17.40625 C 4.4375 17.828125 4.84375 18.28125 4.84375 18.296875 C 4.953125 18.421875 5.109375 18.59375 5.1875 18.671875 Z M 5.609375 19.0625 "/>
</g>
</g>
<clipPath id="clip-0">
<path clip-rule="nonzero" d="M 2 0 L 7 0 L 7 20.636719 L 2 20.636719 Z M 2 0 "/>
</clipPath>
</defs>
<g clip-path="url(#clip-0)">
<g fill="rgb(0%, 0%, 0%)" fill-opacity="1">
<use xlink:href="#glyph-0-1" x="0.5" y="0.937"/>
</g>
</g>
</svg>
