<?xml version="1.0" encoding="UTF-8"?>
<svg xmlns="http://www.w3.org/2000/svg" xmlns:xlink="http://www.w3.org/1999/xlink" width="75.176" height="22.505" viewBox="0 0 75.176 22.505">
<defs>
<g>
<g id="glyph-0-0">
</g>
<g id="glyph-0-1">
<path d="M 3.703125 -5.546875 C 3.109375 -5.375 2.5 -4.890625 2.5 -4.234375 C 2.5 -3.671875 2.984375 -3.375 3.546875 -3.375 C 4.390625 -3.375 5.28125 -3.71875 6.046875 -3.71875 C 6.921875 -3.71875 7.390625 -3.03125 7.390625 -2.25 C 7.390625 -1.75 7.21875 -1.1875 6.875 -0.84375 C 6.375 -0.34375 5.65625 -0.28125 4.96875 -0.28125 C 2.796875 -0.28125 1.515625 -2.140625 1.515625 -4.125 C 1.515625 -5.390625 2.375 -6.84375 3.671875 -6.84375 C 4.640625 -6.84375 5.765625 -5.65625 6.625 -5.578125 C 7.390625 -5.875 8.03125 -6.28125 8.25 -7.140625 L 8.03125 -7.265625 C 7.90625 -6.859375 7.6875 -6.453125 7.140625 -6.453125 C 6.546875 -6.453125 5.6875 -6.953125 4.640625 -7.515625 C 3.625 -7.3125 2.515625 -6.890625 1.78125 -6.15625 C 1.03125 -5.40625 0.609375 -4.421875 0.609375 -3.375 C 0.609375 -2.3125 1.03125 -1.265625 1.78125 -0.53125 C 2.375 0.078125 3.234375 0.296875 4.0625 0.296875 C 6.015625 0.296875 8.1875 -0.734375 8.1875 -3.015625 C 8.1875 -3.921875 7.5 -4.46875 6.6875 -4.46875 C 5.90625 -4.46875 4.65625 -4 4.015625 -4 C 3.609375 -4 3.3125 -4.21875 3.3125 -4.640625 C 3.3125 -4.96875 3.484375 -5.296875 3.84375 -5.40625 Z M 3.703125 -5.546875 "/>
</g>
<g id="glyph-1-0">
</g>
<g id="glyph-1-1">
<path d="M 2.09375 -4.125 C 2.09375 -4.4375 1.828125 -4.703125 1.515625 -4.703125 C 1.203125 -4.703125 0.9375 -4.4375 0.9375 -4.125 C 0.9375 -3.8125 1.203125 -3.546875 1.515625 -3.546875 C 1.828125 -3.546875 2.09375 -3.8125 2.09375 -4.125 Z M 2.09375 -0.578125 C 2.09375 -0.890625 1.828125 -1.15625 1.515625 -1.15625 C 1.203125 -1.15625 0.9375 -0.890625 0.9375 -0.578125 C 0.9375 -0.265625 1.203125 0 1.515625 0 C 1.828125 0 2.09375 -0.265625 2.09375 -0.578125 Z M 2.09375 -0.578125 "/>
</g>
<g id="glyph-1-2">
<path d="M 1.203125 -3.75 L 1.203125 -0.828125 C 1.203125 -0.34375 1.078125 -0.34375 0.34375 -0.34375 L 0.34375 0 C 0.734375 -0.015625 1.28125 -0.03125 1.578125 -0.03125 C 1.859375 -0.03125 2.4375 -0.015625 2.796875 0 L 2.796875 -0.34375 C 2.078125 -0.34375 1.953125 -0.34375 1.953125 -0.828125 L 1.953125 -2.828125 C 1.953125 -3.96875 2.71875 -4.578125 3.421875 -4.578125 C 4.109375 -4.578125 4.234375 -3.984375 4.234375 -3.375 L 4.234375 -0.828125 C 4.234375 -0.34375 4.109375 -0.34375 3.375 -0.34375 L 3.375 0 C 3.765625 -0.015625 4.3125 -0.03125 4.609375 -0.03125 C 4.890625 -0.03125 5.46875 -0.015625 5.828125 0 L 5.828125 -0.34375 C 5.109375 -0.34375 4.984375 -0.34375 4.984375 -0.828125 L 4.984375 -2.828125 C 4.984375 -3.96875 5.765625 -4.578125 6.453125 -4.578125 C 7.140625 -4.578125 7.265625 -3.984375 7.265625 -3.375 L 7.265625 -0.828125 C 7.265625 -0.34375 7.140625 -0.34375 6.40625 -0.34375 L 6.40625 0 C 6.796875 -0.015625 7.34375 -0.03125 7.640625 -0.03125 C 7.921875 -0.03125 8.5 -0.015625 8.859375 0 L 8.859375 -0.34375 C 8.296875 -0.34375 8.03125 -0.34375 8.015625 -0.671875 L 8.015625 -2.75 C 8.015625 -3.6875 8.015625 -4.03125 7.671875 -4.421875 C 7.53125 -4.609375 7.171875 -4.828125 6.53125 -4.828125 C 5.609375 -4.828125 5.140625 -4.171875 4.953125 -3.75 C 4.796875 -4.703125 3.984375 -4.828125 3.5 -4.828125 C 2.703125 -4.828125 2.1875 -4.359375 1.890625 -3.671875 L 1.890625 -4.828125 L 0.34375 -4.703125 L 0.34375 -4.359375 C 1.109375 -4.359375 1.203125 -4.28125 1.203125 -3.75 Z M 1.203125 -3.75 "/>
</g>
<g id="glyph-1-3">
<path d="M 1.9375 -4.828125 L 0.40625 -4.703125 L 0.40625 -4.359375 C 1.109375 -4.359375 1.203125 -4.296875 1.203125 -3.765625 L 1.203125 -0.828125 C 1.203125 -0.34375 1.09375 -0.34375 0.359375 -0.34375 L 0.359375 0 C 0.703125 -0.015625 1.296875 -0.03125 1.5625 -0.03125 C 1.9375 -0.03125 2.328125 -0.015625 2.6875 0 L 2.6875 -0.34375 C 1.96875 -0.34375 1.9375 -0.390625 1.9375 -0.8125 Z M 1.96875 -6.71875 C 1.96875 -7.0625 1.703125 -7.296875 1.390625 -7.296875 C 1.0625 -7.296875 0.8125 -7 0.8125 -6.71875 C 0.8125 -6.421875 1.0625 -6.140625 1.390625 -6.140625 C 1.703125 -6.140625 1.96875 -6.375 1.96875 -6.71875 Z M 1.96875 -6.71875 "/>
</g>
<g id="glyph-1-4">
<path d="M 1.203125 -3.75 L 1.203125 -0.828125 C 1.203125 -0.34375 1.078125 -0.34375 0.34375 -0.34375 L 0.34375 0 C 0.734375 -0.015625 1.28125 -0.03125 1.578125 -0.03125 C 1.859375 -0.03125 2.4375 -0.015625 2.796875 0 L 2.796875 -0.34375 C 2.078125 -0.34375 1.953125 -0.34375 1.953125 -0.828125 L 1.953125 -2.828125 C 1.953125 -3.96875 2.71875 -4.578125 3.421875 -4.578125 C 4.109375 -4.578125 4.234375 -3.984375 4.234375 -3.375 L 4.234375 -0.828125 C 4.234375 -0.34375 4.109375 -0.34375 3.375 -0.34375 L 3.375 0 C 3.765625 -0.015625 4.3125 -0.03125 4.609375 -0.03125 C 4.890625 -0.03125 5.46875 -0.015625 5.828125 0 L 5.828125 -0.34375 C 5.265625 -0.34375 5 -0.34375 4.984375 -0.671875 L 4.984375 -2.75 C 4.984375 -3.6875 4.984375 -4.03125 4.640625 -4.421875 C 4.5 -4.609375 4.140625 -4.828125 3.5 -4.828125 C 2.703125 -4.828125 2.1875 -4.359375 1.890625 -3.671875 L 1.890625 -4.828125 L 0.34375 -4.703125 L 0.34375 -4.359375 C 1.109375 -4.359375 1.203125 -4.28125 1.203125 -3.75 Z M 1.203125 -3.75 "/>
</g>
<g id="glyph-1-5">
<path d="M 4.828125 -7.609375 C 4.75 -7.75 4.71875 -7.8125 4.53125 -7.8125 C 4.359375 -7.8125 4.328125 -7.75 4.25 -7.609375 L 0.5625 -0.21875 C 0.515625 -0.125 0.515625 -0.09375 0.515625 -0.09375 C 0.515625 0 0.578125 0 0.75 0 L 8.328125 0 C 8.5 0 8.5625 0 8.5625 -0.09375 C 8.5625 -0.09375 8.5625 -0.125 8.5 -0.21875 Z M 4.1875 -6.71875 L 7.125 -0.828125 L 1.25 -0.828125 Z M 4.1875 -6.71875 "/>
</g>
<g id="glyph-1-6">
<path d="M 3.609375 2.625 C 3.609375 2.578125 3.609375 2.5625 3.421875 2.375 C 2.0625 1 1.71875 -1.0625 1.71875 -2.71875 C 1.71875 -4.625 2.125 -6.515625 3.46875 -7.890625 C 3.609375 -8.015625 3.609375 -8.03125 3.609375 -8.078125 C 3.609375 -8.140625 3.5625 -8.171875 3.5 -8.171875 C 3.390625 -8.171875 2.40625 -7.4375 1.765625 -6.046875 C 1.203125 -4.859375 1.078125 -3.640625 1.078125 -2.71875 C 1.078125 -1.875 1.203125 -0.5625 1.796875 0.671875 C 2.453125 2.015625 3.390625 2.71875 3.5 2.71875 C 3.5625 2.71875 3.609375 2.6875 3.609375 2.625 Z M 3.609375 2.625 "/>
</g>
<g id="glyph-1-7">
<path d="M 2.71875 -7.5625 L 1.265625 -6.078125 L 1.46875 -5.890625 L 2.71875 -7 L 3.984375 -5.890625 L 4.171875 -6.078125 Z M 2.71875 -7.5625 "/>
</g>
<g id="glyph-1-8">
<path d="M 3.15625 -2.71875 C 3.15625 -3.578125 3.03125 -4.890625 2.4375 -6.125 C 1.78125 -7.46875 0.84375 -8.171875 0.734375 -8.171875 C 0.671875 -8.171875 0.625 -8.140625 0.625 -8.078125 C 0.625 -8.03125 0.625 -8.015625 0.828125 -7.8125 C 1.890625 -6.734375 2.515625 -5 2.515625 -2.71875 C 2.515625 -0.859375 2.109375 1.0625 0.765625 2.4375 C 0.625 2.5625 0.625 2.578125 0.625 2.625 C 0.625 2.6875 0.671875 2.71875 0.734375 2.71875 C 0.84375 2.71875 1.828125 1.984375 2.46875 0.59375 C 3.015625 -0.59375 3.15625 -1.8125 3.15625 -2.71875 Z M 3.15625 -2.71875 "/>
</g>
<g id="glyph-2-0">
</g>
<g id="glyph-2-1">
<path d="M 2.109375 -5.53125 L 0.984375 -4.46875 L 1.140625 -4.265625 L 2.109375 -5.0625 L 3.078125 -4.265625 L 3.25 -4.453125 Z M 2.109375 -5.53125 "/>
</g>
<g id="glyph-3-0">
</g>
<g id="glyph-3-1">
<path d="M 3.8125 -3.90625 C 3.8125 -4.90625 3.4375 -5.609375 2.765625 -5.609375 C 1.578125 -5.609375 0.34375 -3.390625 0.34375 -1.625 C 0.34375 -0.859375 0.609375 0.078125 1.40625 0.078125 C 2.5625 0.078125 3.8125 -2.078125 3.8125 -3.90625 Z M 1.25 -2.90625 C 1.625 -4.515625 2.265625 -5.390625 2.765625 -5.390625 C 3.25 -5.390625 3.25 -4.53125 3.25 -4.375 C 3.25 -3.9375 3.09375 -3.296875 3 -2.90625 Z M 2.9375 -2.625 C 2.5625 -1.03125 1.90625 -0.140625 1.40625 -0.140625 C 0.984375 -0.140625 0.9375 -0.78125 0.9375 -1.140625 C 0.9375 -1.65625 1.078125 -2.296875 1.171875 -2.625 Z M 2.9375 -2.625 "/>
</g>
<g id="glyph-4-0">
</g>
<g id="glyph-4-1">
<path d="M 4.625 -1.8125 C 4.75 -1.8125 4.9375 -1.8125 4.9375 -1.984375 C 4.9375 -2.171875 4.75 -2.171875 4.625 -2.171875 L 1.078125 -2.171875 C 1.171875 -3.28125 2.109375 -4.125 3.3125 -4.125 L 4.625 -4.125 C 4.75 -4.125 4.9375 -4.125 4.9375 -4.3125 C 4.9375 -4.5 4.75 -4.5 4.625 -4.5 L 3.296875 -4.5 C 1.859375 -4.5 0.703125 -3.375 0.703125 -1.984375 C 0.703125 -0.59375 1.859375 0.515625 3.296875 0.515625 L 4.625 0.515625 C 4.75 0.515625 4.9375 0.515625 4.9375 0.328125 C 4.9375 0.140625 4.75 0.140625 4.625 0.140625 L 3.3125 0.140625 C 2.109375 0.140625 1.171875 -0.703125 1.078125 -1.8125 Z M 4.625 -1.8125 "/>
</g>
<g id="glyph-5-0">
</g>
<g id="glyph-5-1">
<path d="M 3.625 -0.953125 L 4.15625 0.21875 L 5.3125 -0.640625 L 5.3125 -0.8125 C 5.234375 -0.75 5.015625 -0.625 4.828125 -0.625 C 4.296875 -0.625 4.25 -1.953125 4.25 -2.078125 L 4.25 -3.6875 C 4.25 -4.28125 4.234375 -4.921875 4.703125 -5.390625 L 4.578125 -5.46875 L 3.5625 -4.75 C 3.640625 -3.828125 3.65625 -2.921875 3.65625 -1.984375 C 3.65625 -1.765625 3.65625 -1.4375 3.609375 -1.3125 C 3.5 -0.984375 2.921875 -0.375 2.515625 -0.375 C 2.109375 -0.375 1.421875 -0.84375 0.90625 -0.84375 L 1.703125 -1.734375 C 1.796875 -1.921875 1.828125 -2.125 1.828125 -2.328125 C 1.828125 -3.078125 1.140625 -3.8125 1.140625 -4.421875 C 1.140625 -4.84375 1.5 -5.1875 1.828125 -5.421875 L 1.75 -5.546875 C 1.171875 -5.234375 0.46875 -4.484375 0.46875 -4.03125 C 0.46875 -3.390625 1.28125 -2.5625 1.28125 -1.984375 C 1.28125 -1.703125 1.1875 -1.40625 0.984375 -1.1875 C 0.828125 -1.03125 0.625 -0.828125 0.4375 -0.8125 L -0.203125 -0.09375 L -0.125 0.046875 C -0.03125 -0.09375 0.15625 -0.296875 0.296875 -0.296875 C 0.9375 -0.296875 1.546875 0.21875 2.25 0.21875 C 2.421875 0.21875 2.578125 0.15625 2.71875 0.046875 Z M 3.625 -0.953125 "/>
</g>
<g id="glyph-6-0">
</g>
<g id="glyph-6-1">
<path d="M 2.890625 -2.484375 L 4.171875 -3.515625 C 4.578125 -3.84375 4.9375 -3.859375 5.078125 -3.859375 L 5.078125 -4.09375 C 4.984375 -4.078125 4.765625 -4.0625 4.53125 -4.0625 C 4.28125 -4.0625 3.8125 -4.078125 3.6875 -4.09375 L 3.6875 -3.859375 C 3.78125 -3.859375 3.90625 -3.8125 3.90625 -3.6875 C 3.90625 -3.59375 3.8125 -3.53125 3.78125 -3.484375 L 1.625 -1.75 L 1.625 -3.578125 C 1.625 -3.78125 1.625 -3.859375 2.09375 -3.859375 L 2.25 -3.859375 L 2.25 -4.09375 C 2.171875 -4.078125 1.578125 -4.0625 1.328125 -4.0625 C 1.078125 -4.0625 0.484375 -4.078125 0.390625 -4.09375 L 0.390625 -3.859375 L 0.546875 -3.859375 C 1.015625 -3.859375 1.015625 -3.78125 1.015625 -3.578125 L 1.015625 -0.5 C 1.015625 -0.3125 1.015625 -0.234375 0.546875 -0.234375 L 0.390625 -0.234375 L 0.390625 0 C 0.46875 0 1.078125 -0.03125 1.328125 -0.03125 C 1.578125 -0.03125 2.15625 0 2.25 0 L 2.25 -0.234375 L 2.09375 -0.234375 C 1.625 -0.234375 1.625 -0.3125 1.625 -0.5 L 1.625 -1.453125 L 2.46875 -2.140625 L 3.75 -0.578125 C 3.796875 -0.515625 3.84375 -0.453125 3.84375 -0.390625 C 3.84375 -0.234375 3.640625 -0.234375 3.53125 -0.234375 L 3.53125 0 C 3.65625 0 4.21875 -0.03125 4.453125 -0.03125 C 4.578125 -0.03125 4.984375 -0.015625 5.171875 0 L 5.171875 -0.234375 C 4.859375 -0.234375 4.703125 -0.25 4.5 -0.5 Z M 2.890625 -2.484375 "/>
</g>
<g id="glyph-6-2">
<path d="M 2.015625 -1.078125 L 2.015625 -1.5 L 0.15625 -1.5 L 0.15625 -1.078125 Z M 2.015625 -1.078125 "/>
</g>
<g id="glyph-6-3">
<path d="M 4.125 -1.59375 L 3.90625 -1.59375 C 3.84375 -0.875 3.65625 -0.234375 2.5625 -0.234375 L 1.921875 -0.234375 C 1.625 -0.234375 1.625 -0.28125 1.625 -0.46875 L 1.625 -3.578125 C 1.625 -3.78125 1.625 -3.859375 2.203125 -3.859375 L 2.421875 -3.859375 L 2.421875 -4.09375 C 2.09375 -4.0625 1.65625 -4.0625 1.34375 -4.0625 C 1.078125 -4.0625 0.53125 -4.078125 0.390625 -4.09375 L 0.390625 -3.859375 L 0.546875 -3.859375 C 1.015625 -3.859375 1.015625 -3.78125 1.015625 -3.578125 L 1.015625 -0.5 C 1.015625 -0.3125 1.015625 -0.234375 0.546875 -0.234375 L 0.390625 -0.234375 L 0.390625 0 L 3.9375 0 Z M 4.125 -1.59375 "/>
</g>
<g id="glyph-7-0">
</g>
<g id="glyph-7-1">
<path d="M 4.96875 -5.453125 C 4.96875 -6.171875 4.765625 -7.6875 3.65625 -7.6875 C 2.140625 -7.6875 0.453125 -4.609375 0.453125 -2.109375 C 0.453125 -1.09375 0.78125 0.125 1.765625 0.125 C 3.296875 0.125 4.96875 -3.015625 4.96875 -5.453125 Z M 1.609375 -3.953125 C 1.796875 -4.65625 2.015625 -5.53125 2.453125 -6.296875 C 2.75 -6.84375 3.15625 -7.453125 3.640625 -7.453125 C 4.171875 -7.453125 4.25 -6.75 4.25 -6.125 C 4.25 -5.59375 4.15625 -5.03125 3.890625 -3.953125 Z M 3.796875 -3.609375 C 3.671875 -3.109375 3.453125 -2.1875 3.03125 -1.390625 C 2.65625 -0.65625 2.234375 -0.125 1.765625 -0.125 C 1.40625 -0.125 1.171875 -0.4375 1.171875 -1.453125 C 1.171875 -1.90625 1.25 -2.546875 1.53125 -3.609375 Z M 3.796875 -3.609375 "/>
</g>
</g>
</defs>
<g fill="rgb(0%, 0%, 0%)" fill-opacity="1">
<use xlink:href="#glyph-0-1" x="0.5" y="10.955"/>
</g>
<g fill="rgb(0%, 0%, 0%)" fill-opacity="1">
<use xlink:href="#glyph-1-1" x="12.57" y="10.955"/>
</g>
<g fill="rgb(0%, 0%, 0%)" fill-opacity="1">
<use xlink:href="#glyph-1-2" x="18.633278" y="10.955"/>
<use xlink:href="#glyph-1-3" x="27.723831" y="10.955"/>
<use xlink:href="#glyph-1-4" x="30.754379" y="10.955"/>
</g>
<g fill="rgb(0%, 0%, 0%)" fill-opacity="1">
<use xlink:href="#glyph-2-1" x="20.914" y="18.308"/>
</g>
<g fill="rgb(0%, 0%, 0%)" fill-opacity="1">
<use xlink:href="#glyph-3-1" x="20.232" y="20.411"/>
</g>
<g fill="rgb(0%, 0%, 0%)" fill-opacity="1">
<use xlink:href="#glyph-4-1" x="24.418" y="20.411"/>
</g>
<g fill="rgb(0%, 0%, 0%)" fill-opacity="1">
<use xlink:href="#glyph-5-1" x="30.063" y="20.411"/>
</g>
<g fill="rgb(0%, 0%, 0%)" fill-opacity="1">
<use xlink:href="#glyph-1-5" x="38.63" y="10.955"/>
</g>
<g fill="rgb(0%, 0%, 0%)" fill-opacity="1">
<use xlink:href="#glyph-6-1" x="47.721" y="12.591"/>
<use xlink:href="#glyph-6-2" x="53.272397" y="12.591"/>
<use xlink:href="#glyph-6-3" x="55.763263" y="12.591"/>
</g>
<g fill="rgb(0%, 0%, 0%)" fill-opacity="1">
<use xlink:href="#glyph-1-6" x="60.766" y="10.955"/>
</g>
<g fill="rgb(0%, 0%, 0%)" fill-opacity="1">
<use xlink:href="#glyph-1-7" x="65.903" y="8.076"/>
</g>
<g fill="rgb(0%, 0%, 0%)" fill-opacity="1">
<use xlink:href="#glyph-7-1" x="65.009" y="10.955"/>
</g>
<g fill="rgb(0%, 0%, 0%)" fill-opacity="1">
<use xlink:href="#glyph-1-8" x="70.433" y="10.955"/>
</g>
</svg>
