<?xml version="1.0" encoding="UTF-8"?>
<svg xmlns="http://www.w3.org/2000/svg" xmlns:xlink="http://www.w3.org/1999/xlink" width="7.347" height="20.637" viewBox="0 0 7.347 20.637">
<defs>
<g>
<g id="glyph-0-0">
</g>
<g id="glyph-0-1">
<path d="M 2.15625 18.671875 L 0.203125 18.671875 L 0.203125 19.1875 L 2.671875 19.1875 L 2.671875 -0.4375 L 0.203125 -0.4375 L 0.203125 0.078125 L 2.15625 0.078125 Z M 2.15625 18.671875 "/>
</g>
</g>
<clipPath id="clip-0">
<path clip-rule="nonzero" d="M 1 0 L 5 0 L 5 20.636719 L 1 20.636719 Z M 1 0 "/>
</clipPath>
</defs>
<g clip-path="url(#clip-0)">
<g fill="rgb(0%, 0%, 0%)" fill-opacity="1">
<use xlink:href="#glyph-0-1" x="1.696" y="0.937"/>
</g>
</g>
</svg>
