<?xml version="1.0" encoding="UTF-8"?>
<svg xmlns="http://www.w3.org/2000/svg" xmlns:xlink="http://www.w3.org/1999/xlink" width="13.443" height="23.508" viewBox="0 0 13.443 23.508">
<defs>
<g>
<g id="glyph-0-0">
</g>
<g id="glyph-0-1">
<path d="M 4.53125 9.375 C 4.53125 6.234375 3.8125 2.90625 1.65625 0.453125 C 1.5 0.28125 1.09375 -0.140625 0.84375 -0.375 C 0.765625 -0.4375 0.734375 -0.4375 0.59375 -0.4375 C 0.484375 -0.4375 0.390625 -0.4375 0.390625 -0.328125 C 0.390625 -0.28125 0.4375 -0.234375 0.453125 -0.21875 C 0.828125 0.15625 1.421875 0.765625 2.09375 1.96875 C 3.265625 4.0625 3.703125 6.75 3.703125 9.375 C 3.703125 14.109375 2.40625 16.984375 0.4375 18.984375 C 0.421875 19.015625 0.390625 19.046875 0.390625 19.078125 C 0.390625 19.1875 0.484375 19.1875 0.59375 19.1875 C 0.734375 19.1875 0.765625 19.1875 0.859375 19.09375 C 1.890625 18.203125 3.0625 16.6875 3.8125 14.390625 C 4.296875 12.890625 4.53125 11.125 4.53125 9.375 Z M 4.53125 9.375 "/>
</g>
<g id="glyph-1-0">
</g>
<g id="glyph-1-1">
<path d="M 2.25 -1.625 C 2.375 -1.75 2.703125 -2.015625 2.84375 -2.125 C 3.328125 -2.578125 3.796875 -3.015625 3.796875 -3.734375 C 3.796875 -4.6875 3 -5.296875 2.015625 -5.296875 C 1.046875 -5.296875 0.421875 -4.578125 0.421875 -3.859375 C 0.421875 -3.46875 0.734375 -3.421875 0.84375 -3.421875 C 1.015625 -3.421875 1.265625 -3.53125 1.265625 -3.84375 C 1.265625 -4.25 0.859375 -4.25 0.765625 -4.25 C 1 -4.84375 1.53125 -5.03125 1.921875 -5.03125 C 2.65625 -5.03125 3.046875 -4.40625 3.046875 -3.734375 C 3.046875 -2.90625 2.46875 -2.296875 1.515625 -1.34375 L 0.515625 -0.296875 C 0.421875 -0.21875 0.421875 -0.203125 0.421875 0 L 3.5625 0 L 3.796875 -1.421875 L 3.546875 -1.421875 C 3.53125 -1.265625 3.46875 -0.875 3.375 -0.71875 C 3.328125 -0.65625 2.71875 -0.65625 2.59375 -0.65625 L 1.171875 -0.65625 Z M 2.25 -1.625 "/>
</g>
</g>
</defs>
<g fill="rgb(0%, 0%, 0%)" fill-opacity="1">
<use xlink:href="#glyph-0-1" x="1.696" y="2.918"/>
</g>
<g fill="rgb(0%, 0%, 0%)" fill-opacity="1">
<use xlink:href="#glyph-1-1" x="8.211" y="5.636"/>
</g>
</svg>
