<?xml version="1.0" encoding="UTF-8"?>
<svg xmlns="http://www.w3.org/2000/svg" xmlns:xlink="http://www.w3.org/1999/xlink" width="13.589" height="27.182" viewBox="0 0 13.589 27.182">
<defs>
<g>
<g id="glyph-0-0">
</g>
<g id="glyph-0-1">
<path d="M 0.671875 25.21875 C 0.609375 25.375 0.609375 25.40625 0.609375 25.4375 C 0.609375 25.59375 0.734375 25.734375 0.90625 25.734375 C 1.09375 25.734375 1.171875 25.59375 1.21875 25.4375 L 10.703125 0.0625 C 10.765625 -0.09375 10.765625 -0.109375 10.765625 -0.140625 C 10.765625 -0.3125 10.640625 -0.4375 10.46875 -0.4375 C 10.28125 -0.4375 10.203125 -0.296875 10.15625 -0.15625 Z M 0.671875 25.21875 "/>
</g>
</g>
</defs>
<g fill="rgb(0%, 0%, 0%)" fill-opacity="1">
<use xlink:href="#glyph-0-1" x="1.696" y="0.936"/>
</g>
</svg>
