<?xml version="1.0" encoding="UTF-8"?>
<svg xmlns="http://www.w3.org/2000/svg" xmlns:xlink="http://www.w3.org/1999/xlink" width="229.301" height="41.648" viewBox="0 0 229.301 41.648">
<defs>
<g>
<g id="glyph-0-0">
</g>
<g id="glyph-0-1">
<path d="M 4.078125 19.296875 C 4.3125 19.296875 4.390625 19.296875 4.390625 19.15625 C 4.40625 11.5 5.296875 5.15625 9.109375 -0.171875 C 9.1875 -0.265625 9.1875 -0.296875 9.1875 -0.3125 C 9.1875 -0.421875 9.109375 -0.421875 8.9375 -0.421875 C 8.75 -0.421875 8.734375 -0.421875 8.71875 -0.40625 C 8.671875 -0.375 7.28125 1.21875 6.1875 3.40625 C 4.75 6.296875 3.84375 9.59375 3.4375 13.5625 C 3.40625 13.90625 3.171875 16.171875 3.171875 18.765625 L 3.171875 19.1875 C 3.1875 19.296875 3.25 19.296875 3.484375 19.296875 Z M 4.078125 19.296875 "/>
</g>
<g id="glyph-0-2">
<path d="M 3.484375 -0.546875 C 3.25 -0.546875 3.1875 -0.546875 3.171875 -0.421875 L 3.171875 0 C 3.171875 6.65625 4.359375 10.5625 4.703125 11.671875 C 5.4375 14.09375 6.65625 16.640625 8.46875 18.890625 C 8.640625 19.078125 8.6875 19.140625 8.71875 19.15625 C 8.75 19.171875 8.75 19.1875 8.9375 19.1875 C 9.109375 19.1875 9.1875 19.1875 9.1875 19.078125 C 9.1875 19.046875 9.1875 19.03125 9.125 18.9375 C 5.484375 13.890625 4.390625 7.828125 4.390625 -0.390625 C 4.390625 -0.546875 4.3125 -0.546875 4.078125 -0.546875 Z M 3.484375 -0.546875 "/>
</g>
<g id="glyph-0-3">
<path d="M 6.359375 18.765625 C 6.359375 12.09375 5.171875 8.1875 4.828125 7.09375 C 4.09375 4.671875 2.875 2.109375 1.0625 -0.125 C 0.890625 -0.328125 0.84375 -0.375 0.8125 -0.40625 C 0.78125 -0.421875 0.78125 -0.421875 0.59375 -0.421875 C 0.4375 -0.421875 0.34375 -0.421875 0.34375 -0.3125 C 0.34375 -0.296875 0.34375 -0.265625 0.484375 -0.078125 C 4.28125 5.21875 5.140625 11.765625 5.140625 19.15625 C 5.140625 19.296875 5.21875 19.296875 5.453125 19.296875 L 6.046875 19.296875 C 6.28125 19.296875 6.34375 19.296875 6.359375 19.1875 Z M 6.359375 18.765625 "/>
</g>
<g id="glyph-0-4">
<path d="M 6.359375 -0.421875 C 6.34375 -0.546875 6.28125 -0.546875 6.046875 -0.546875 L 5.453125 -0.546875 C 5.21875 -0.546875 5.140625 -0.546875 5.140625 -0.390625 C 5.140625 0.734375 5.140625 3.328125 4.859375 6.046875 C 4.265625 11.6875 2.8125 15.578125 0.421875 18.9375 C 0.34375 19.03125 0.34375 19.046875 0.34375 19.078125 C 0.34375 19.1875 0.4375 19.1875 0.59375 19.1875 C 0.78125 19.1875 0.796875 19.1875 0.8125 19.15625 C 0.859375 19.125 2.25 17.53125 3.34375 15.34375 C 4.78125 12.46875 5.6875 9.15625 6.09375 5.1875 C 6.125 4.859375 6.359375 2.578125 6.359375 0 Z M 6.359375 -0.421875 "/>
</g>
<g id="glyph-1-0">
</g>
<g id="glyph-1-1">
<path d="M 2.265625 -2.109375 C 2.515625 -2.078125 3.40625 -1.890625 3.40625 -1.109375 C 3.40625 -0.5625 3.015625 -0.125 2.171875 -0.125 C 1.25 -0.125 0.859375 -0.734375 0.65625 -1.671875 C 0.625 -1.8125 0.609375 -1.859375 0.5 -1.859375 C 0.359375 -1.859375 0.359375 -1.78125 0.359375 -1.578125 L 0.359375 -0.140625 C 0.359375 0.046875 0.359375 0.125 0.484375 0.125 C 0.53125 0.125 0.546875 0.109375 0.75 -0.09375 C 0.78125 -0.125 0.78125 -0.140625 0.96875 -0.34375 C 1.453125 0.109375 1.9375 0.125 2.171875 0.125 C 3.421875 0.125 3.921875 -0.609375 3.921875 -1.390625 C 3.921875 -1.96875 3.59375 -2.296875 3.46875 -2.4375 C 3.109375 -2.78125 2.6875 -2.875 2.21875 -2.953125 C 1.609375 -3.078125 0.890625 -3.21875 0.890625 -3.84375 C 0.890625 -4.234375 1.171875 -4.671875 2.109375 -4.671875 C 3.296875 -4.671875 3.359375 -3.703125 3.375 -3.359375 C 3.390625 -3.265625 3.484375 -3.265625 3.515625 -3.265625 C 3.65625 -3.265625 3.65625 -3.3125 3.65625 -3.515625 L 3.65625 -4.625 C 3.65625 -4.8125 3.65625 -4.890625 3.53125 -4.890625 C 3.484375 -4.890625 3.453125 -4.890625 3.3125 -4.75 C 3.28125 -4.71875 3.171875 -4.609375 3.125 -4.578125 C 2.71875 -4.890625 2.265625 -4.890625 2.109375 -4.890625 C 0.78125 -4.890625 0.359375 -4.15625 0.359375 -3.546875 C 0.359375 -3.15625 0.53125 -2.859375 0.828125 -2.625 C 1.171875 -2.328125 1.484375 -2.265625 2.265625 -2.109375 Z M 2.265625 -2.109375 "/>
</g>
<g id="glyph-1-2">
<path d="M 1.9375 -4.828125 L 0.40625 -4.703125 L 0.40625 -4.359375 C 1.109375 -4.359375 1.203125 -4.296875 1.203125 -3.765625 L 1.203125 -0.828125 C 1.203125 -0.34375 1.09375 -0.34375 0.359375 -0.34375 L 0.359375 0 C 0.703125 -0.015625 1.296875 -0.03125 1.5625 -0.03125 C 1.9375 -0.03125 2.328125 -0.015625 2.6875 0 L 2.6875 -0.34375 C 1.96875 -0.34375 1.9375 -0.390625 1.9375 -0.8125 Z M 1.96875 -6.71875 C 1.96875 -7.0625 1.703125 -7.296875 1.390625 -7.296875 C 1.0625 -7.296875 0.8125 -7 0.8125 -6.71875 C 0.8125 -6.421875 1.0625 -6.140625 1.390625 -6.140625 C 1.703125 -6.140625 1.96875 -6.375 1.96875 -6.71875 Z M 1.96875 -6.71875 "/>
</g>
<g id="glyph-1-3">
<path d="M 1.203125 -3.75 L 1.203125 -0.828125 C 1.203125 -0.34375 1.078125 -0.34375 0.34375 -0.34375 L 0.34375 0 C 0.734375 -0.015625 1.28125 -0.03125 1.578125 -0.03125 C 1.859375 -0.03125 2.4375 -0.015625 2.796875 0 L 2.796875 -0.34375 C 2.078125 -0.34375 1.953125 -0.34375 1.953125 -0.828125 L 1.953125 -2.828125 C 1.953125 -3.96875 2.71875 -4.578125 3.421875 -4.578125 C 4.109375 -4.578125 4.234375 -3.984375 4.234375 -3.375 L 4.234375 -0.828125 C 4.234375 -0.34375 4.109375 -0.34375 3.375 -0.34375 L 3.375 0 C 3.765625 -0.015625 4.3125 -0.03125 4.609375 -0.03125 C 4.890625 -0.03125 5.46875 -0.015625 5.828125 0 L 5.828125 -0.34375 C 5.265625 -0.34375 5 -0.34375 4.984375 -0.671875 L 4.984375 -2.75 C 4.984375 -3.6875 4.984375 -4.03125 4.640625 -4.421875 C 4.5 -4.609375 4.140625 -4.828125 3.5 -4.828125 C 2.703125 -4.828125 2.1875 -4.359375 1.890625 -3.671875 L 1.890625 -4.828125 L 0.34375 -4.703125 L 0.34375 -4.359375 C 1.109375 -4.359375 1.203125 -4.28125 1.203125 -3.75 Z M 1.203125 -3.75 "/>
</g>
<g id="glyph-1-4">
<path d="M 1.28125 -2.375 C 1.28125 -4.15625 2.171875 -4.609375 2.75 -4.609375 C 2.84375 -4.609375 3.53125 -4.609375 3.921875 -4.203125 C 3.46875 -4.171875 3.40625 -3.84375 3.40625 -3.703125 C 3.40625 -3.421875 3.59375 -3.203125 3.90625 -3.203125 C 4.1875 -3.203125 4.40625 -3.390625 4.40625 -3.71875 C 4.40625 -4.453125 3.578125 -4.890625 2.734375 -4.890625 C 1.375 -4.890625 0.375 -3.703125 0.375 -2.359375 C 0.375 -0.953125 1.453125 0.125 2.71875 0.125 C 4.171875 0.125 4.53125 -1.1875 4.53125 -1.296875 C 4.53125 -1.40625 4.421875 -1.40625 4.390625 -1.40625 C 4.28125 -1.40625 4.265625 -1.359375 4.25 -1.296875 C 3.921875 -0.28125 3.21875 -0.15625 2.8125 -0.15625 C 2.234375 -0.15625 1.28125 -0.625 1.28125 -2.375 Z M 1.28125 -2.375 "/>
</g>
<g id="glyph-2-0">
</g>
<g id="glyph-2-1">
<path d="M 5.65625 -4.0625 C 5.796875 -4.0625 6.1875 -4.0625 6.1875 -4.4375 C 6.1875 -4.703125 5.953125 -4.703125 5.765625 -4.703125 L 3.265625 -4.703125 C 1.625 -4.703125 0.421875 -2.90625 0.421875 -1.609375 C 0.421875 -0.640625 1.0625 0.125 2.046875 0.125 C 3.34375 0.125 4.78125 -1.203125 4.78125 -2.875 C 4.78125 -3.0625 4.78125 -3.59375 4.453125 -4.0625 Z M 2.0625 -0.125 C 1.53125 -0.125 1.09375 -0.515625 1.09375 -1.296875 C 1.09375 -1.625 1.21875 -2.515625 1.609375 -3.15625 C 2.0625 -3.921875 2.71875 -4.0625 3.09375 -4.0625 C 4 -4.0625 4.09375 -3.34375 4.09375 -3.015625 C 4.09375 -2.5 3.875 -1.609375 3.5 -1.046875 C 3.078125 -0.40625 2.484375 -0.125 2.0625 -0.125 Z M 2.0625 -0.125 "/>
</g>
<g id="glyph-2-2">
<path d="M 2.09375 -0.578125 C 2.09375 -0.890625 1.828125 -1.15625 1.515625 -1.15625 C 1.203125 -1.15625 0.9375 -0.890625 0.9375 -0.578125 C 0.9375 -0.265625 1.203125 0 1.515625 0 C 1.828125 0 2.09375 -0.265625 2.09375 -0.578125 Z M 2.09375 -0.578125 "/>
</g>
<g id="glyph-3-0">
</g>
<g id="glyph-3-1">
<path d="M 6.21875 -2.421875 C 6.21875 -3.0625 5.9375 -3.515625 5.078125 -3.515625 C 4.34375 -3.515625 3.96875 -3.015625 3.84375 -2.78125 C 3.703125 -3.359375 3.25 -3.515625 2.734375 -3.515625 C 1.953125 -3.515625 1.59375 -2.96875 1.484375 -2.75 L 1.484375 -3.515625 L 0.328125 -3.421875 L 0.328125 -3.15625 C 0.875 -3.15625 0.9375 -3.109375 0.9375 -2.71875 L 0.9375 -0.625 C 0.9375 -0.265625 0.84375 -0.265625 0.328125 -0.265625 L 0.328125 0 C 0.671875 -0.03125 1.015625 -0.03125 1.234375 -0.03125 C 1.46875 -0.03125 1.796875 -0.03125 2.140625 0 L 2.140625 -0.265625 C 1.640625 -0.265625 1.53125 -0.265625 1.53125 -0.625 L 1.53125 -2.0625 C 1.53125 -2.90625 2.171875 -3.296875 2.671875 -3.296875 C 3.1875 -3.296875 3.28125 -2.890625 3.28125 -2.453125 L 3.28125 -0.625 C 3.28125 -0.265625 3.171875 -0.265625 2.671875 -0.265625 L 2.671875 0 C 3.015625 -0.03125 3.359375 -0.03125 3.578125 -0.03125 C 3.8125 -0.03125 4.140625 -0.03125 4.484375 0 L 4.484375 -0.265625 C 3.96875 -0.265625 3.875 -0.265625 3.875 -0.625 L 3.875 -2.0625 C 3.875 -2.90625 4.515625 -3.296875 5.015625 -3.296875 C 5.53125 -3.296875 5.625 -2.890625 5.625 -2.453125 L 5.625 -0.625 C 5.625 -0.265625 5.515625 -0.265625 5.015625 -0.265625 L 5.015625 0 C 5.359375 -0.03125 5.703125 -0.03125 5.921875 -0.03125 C 6.15625 -0.03125 6.484375 -0.03125 6.828125 0 L 6.828125 -0.265625 C 6.3125 -0.265625 6.21875 -0.265625 6.21875 -0.625 Z M 6.21875 -2.421875 "/>
</g>
<g id="glyph-3-2">
<path d="M 3.34375 -2.375 C 3.34375 -3.15625 2.59375 -3.546875 1.859375 -3.546875 C 1.203125 -3.546875 0.609375 -3.296875 0.609375 -2.765625 C 0.609375 -2.53125 0.78125 -2.390625 0.984375 -2.390625 C 1.21875 -2.390625 1.359375 -2.546875 1.359375 -2.765625 C 1.359375 -2.953125 1.25 -3.09375 1.0625 -3.125 C 1.359375 -3.328125 1.796875 -3.328125 1.84375 -3.328125 C 2.296875 -3.328125 2.734375 -3.015625 2.734375 -2.359375 L 2.734375 -2.125 C 2.28125 -2.09375 1.75 -2.078125 1.1875 -1.84375 C 0.484375 -1.53125 0.34375 -1.078125 0.34375 -0.8125 C 0.34375 -0.125 1.15625 0.078125 1.703125 0.078125 C 2.28125 0.078125 2.640625 -0.25 2.828125 -0.5625 C 2.859375 -0.265625 3.0625 0.046875 3.421875 0.046875 C 3.5 0.046875 4.171875 0.015625 4.171875 -0.71875 L 4.171875 -1.15625 L 3.921875 -1.15625 L 3.921875 -0.71875 C 3.921875 -0.390625 3.8125 -0.265625 3.640625 -0.265625 C 3.34375 -0.265625 3.34375 -0.625 3.34375 -0.71875 Z M 2.734375 -1.125 C 2.734375 -0.34375 2.09375 -0.140625 1.765625 -0.140625 C 1.359375 -0.140625 1 -0.421875 1 -0.8125 C 1 -1.328125 1.5 -1.875 2.734375 -1.90625 Z M 2.734375 -1.125 "/>
</g>
<g id="glyph-3-3">
<path d="M 2.453125 -1.859375 C 2.671875 -2.140625 2.90625 -2.421875 3.140625 -2.671875 C 3.40625 -2.953125 3.6875 -3.15625 4.1875 -3.171875 L 4.1875 -3.4375 C 3.875 -3.40625 3.859375 -3.40625 3.5 -3.40625 C 3.46875 -3.40625 3 -3.40625 2.75 -3.4375 L 2.75 -3.171875 C 2.90625 -3.15625 2.9375 -3.0625 2.9375 -2.953125 C 2.9375 -2.859375 2.890625 -2.75 2.796875 -2.640625 L 2.296875 -2.0625 L 1.671875 -2.8125 C 1.5625 -2.921875 1.5625 -2.96875 1.5625 -2.984375 C 1.5625 -3.046875 1.625 -3.15625 1.8125 -3.171875 L 1.8125 -3.4375 C 1.5 -3.40625 1.046875 -3.40625 0.96875 -3.40625 C 0.828125 -3.40625 0.421875 -3.40625 0.171875 -3.4375 L 0.171875 -3.171875 C 0.71875 -3.171875 0.71875 -3.15625 1.140625 -2.671875 L 1.953125 -1.6875 L 1.234375 -0.828125 C 1.03125 -0.609375 0.734375 -0.28125 0.140625 -0.265625 L 0.140625 0 C 0.4375 -0.03125 0.484375 -0.03125 0.828125 -0.03125 C 0.84375 -0.03125 1.328125 -0.03125 1.578125 0 L 1.578125 -0.265625 C 1.46875 -0.28125 1.390625 -0.328125 1.390625 -0.484375 C 1.390625 -0.625 1.484375 -0.734375 1.5 -0.765625 C 1.703125 -1.015625 1.921875 -1.25 2.125 -1.484375 L 2.78125 -0.703125 C 2.9375 -0.515625 2.9375 -0.5 2.9375 -0.453125 C 2.9375 -0.375 2.890625 -0.265625 2.6875 -0.265625 L 2.6875 0 C 3.03125 -0.03125 3.390625 -0.03125 3.546875 -0.03125 C 3.6875 -0.03125 4.09375 -0.03125 4.328125 0 L 4.328125 -0.265625 C 3.84375 -0.265625 3.765625 -0.296875 3.546875 -0.546875 Z M 2.453125 -1.859375 "/>
</g>
<g id="glyph-3-4">
<path d="M 1.484375 -0.125 C 1.484375 0.125 1.484375 0.765625 0.890625 1.34375 C 0.859375 1.359375 0.84375 1.375 0.84375 1.421875 C 0.84375 1.5 0.90625 1.546875 0.953125 1.546875 C 1.046875 1.546875 1.71875 0.921875 1.71875 -0.03125 C 1.71875 -0.46875 1.546875 -0.890625 1.171875 -0.890625 C 0.90625 -0.890625 0.734375 -0.671875 0.734375 -0.453125 C 0.734375 -0.203125 0.90625 0 1.171875 0 C 1.359375 0 1.46875 -0.09375 1.484375 -0.125 Z M 1.484375 -0.125 "/>
</g>
<g id="glyph-3-5">
<path d="M 2.5 -5.078125 C 2.5 -5.296875 2.484375 -5.296875 2.265625 -5.296875 C 1.9375 -4.984375 1.515625 -4.796875 0.765625 -4.796875 L 0.765625 -4.53125 C 0.984375 -4.53125 1.40625 -4.53125 1.875 -4.734375 L 1.875 -0.65625 C 1.875 -0.359375 1.84375 -0.265625 1.09375 -0.265625 L 0.8125 -0.265625 L 0.8125 0 C 1.140625 -0.03125 1.828125 -0.03125 2.1875 -0.03125 C 2.546875 -0.03125 3.234375 -0.03125 3.5625 0 L 3.5625 -0.265625 L 3.28125 -0.265625 C 2.53125 -0.265625 2.5 -0.359375 2.5 -0.65625 Z M 2.5 -5.078125 "/>
</g>
<g id="glyph-3-6">
<path d="M 2.25 -1.625 C 2.375 -1.75 2.703125 -2.015625 2.84375 -2.125 C 3.328125 -2.578125 3.796875 -3.015625 3.796875 -3.734375 C 3.796875 -4.6875 3 -5.296875 2.015625 -5.296875 C 1.046875 -5.296875 0.421875 -4.578125 0.421875 -3.859375 C 0.421875 -3.46875 0.734375 -3.421875 0.84375 -3.421875 C 1.015625 -3.421875 1.265625 -3.53125 1.265625 -3.84375 C 1.265625 -4.25 0.859375 -4.25 0.765625 -4.25 C 1 -4.84375 1.53125 -5.03125 1.921875 -5.03125 C 2.65625 -5.03125 3.046875 -4.40625 3.046875 -3.734375 C 3.046875 -2.90625 2.46875 -2.296875 1.515625 -1.34375 L 0.515625 -0.296875 C 0.421875 -0.21875 0.421875 -0.203125 0.421875 0 L 3.5625 0 L 3.796875 -1.421875 L 3.546875 -1.421875 C 3.53125 -1.265625 3.46875 -0.875 3.375 -0.71875 C 3.328125 -0.65625 2.71875 -0.65625 2.59375 -0.65625 L 1.171875 -0.65625 Z M 2.25 -1.625 "/>
</g>
</g>
</defs>
<g fill="rgb(0%, 0%, 0%)" fill-opacity="1">
<use xlink:href="#glyph-0-1" x="0.5" y="1.624"/>
</g>
<g fill="rgb(0%, 0%, 0%)" fill-opacity="1">
<use xlink:href="#glyph-0-2" x="0.5" y="21.261"/>
</g>
<g fill="rgb(0%, 0%, 0%)" fill-opacity="1">
<use xlink:href="#glyph-1-1" x="10.045" y="9.985"/>
<use xlink:href="#glyph-1-2" x="14.347549" y="9.985"/>
<use xlink:href="#glyph-1-3" x="17.378097" y="9.985"/>
<use xlink:href="#glyph-1-4" x="23.439193" y="9.985"/>
</g>
<g fill="rgb(0%, 0%, 0%)" fill-opacity="1">
<use xlink:href="#glyph-2-1" x="28.288" y="9.985"/>
</g>
<g fill="rgb(0%, 0%, 0%)" fill-opacity="1">
<use xlink:href="#glyph-3-1" x="34.522" y="11.621"/>
<use xlink:href="#glyph-3-2" x="41.578727" y="11.621"/>
<use xlink:href="#glyph-3-3" x="45.813241" y="11.621"/>
<use xlink:href="#glyph-3-4" x="50.282873" y="11.621"/>
<use xlink:href="#glyph-3-5" x="52.634849" y="11.621"/>
</g>
<g fill="rgb(0%, 0%, 0%)" fill-opacity="1">
<use xlink:href="#glyph-2-2" x="89.475" y="9.985"/>
</g>
<g fill="rgb(0%, 0%, 0%)" fill-opacity="1">
<use xlink:href="#glyph-2-2" x="170.41834" y="9.985"/>
</g>
<g fill="rgb(0%, 0%, 0%)" fill-opacity="1">
<use xlink:href="#glyph-2-2" x="32.191" y="23.534"/>
</g>
<g fill="rgb(0%, 0%, 0%)" fill-opacity="1">
<use xlink:href="#glyph-1-1" x="67.329" y="23.534"/>
<use xlink:href="#glyph-1-2" x="71.631549" y="23.534"/>
<use xlink:href="#glyph-1-3" x="74.662097" y="23.534"/>
<use xlink:href="#glyph-1-4" x="80.723193" y="23.534"/>
</g>
<g fill="rgb(0%, 0%, 0%)" fill-opacity="1">
<use xlink:href="#glyph-2-1" x="85.572" y="23.534"/>
</g>
<g fill="rgb(0%, 0%, 0%)" fill-opacity="1">
<use xlink:href="#glyph-3-1" x="91.805" y="25.17"/>
<use xlink:href="#glyph-3-2" x="98.861727" y="25.17"/>
<use xlink:href="#glyph-3-3" x="103.096241" y="25.17"/>
<use xlink:href="#glyph-3-4" x="107.565873" y="25.17"/>
<use xlink:href="#glyph-3-6" x="109.917849" y="25.17"/>
</g>
<g fill="rgb(0%, 0%, 0%)" fill-opacity="1">
<use xlink:href="#glyph-2-2" x="170.419" y="23.534"/>
</g>
<g fill="rgb(0%, 0%, 0%)" fill-opacity="1">
<use xlink:href="#glyph-2-2" x="32.191" y="37.083"/>
</g>
<g fill="rgb(0%, 0%, 0%)" fill-opacity="1">
<use xlink:href="#glyph-2-2" x="89.472502" y="37.083"/>
</g>
<g fill="rgb(0%, 0%, 0%)" fill-opacity="1">
<use xlink:href="#glyph-1-1" x="124.613" y="37.083"/>
<use xlink:href="#glyph-1-2" x="128.915549" y="37.083"/>
<use xlink:href="#glyph-1-3" x="131.946097" y="37.083"/>
<use xlink:href="#glyph-1-4" x="138.007193" y="37.083"/>
</g>
<g fill="rgb(0%, 0%, 0%)" fill-opacity="1">
<use xlink:href="#glyph-2-1" x="142.856" y="37.083"/>
</g>
<g fill="rgb(0%, 0%, 0%)" fill-opacity="1">
<use xlink:href="#glyph-3-1" x="149.089" y="38.72"/>
<use xlink:href="#glyph-3-2" x="156.145727" y="38.72"/>
<use xlink:href="#glyph-3-3" x="160.380241" y="38.72"/>
<use xlink:href="#glyph-3-4" x="164.849873" y="38.72"/>
<use xlink:href="#glyph-3-5" x="167.201849" y="38.72"/>
</g>
<g fill="rgb(0%, 0%, 0%)" fill-opacity="1">
<use xlink:href="#glyph-1-1" x="171.935" y="37.083"/>
<use xlink:href="#glyph-1-2" x="176.237549" y="37.083"/>
<use xlink:href="#glyph-1-3" x="179.268097" y="37.083"/>
<use xlink:href="#glyph-1-4" x="185.329193" y="37.083"/>
</g>
<g fill="rgb(0%, 0%, 0%)" fill-opacity="1">
<use xlink:href="#glyph-2-1" x="190.177" y="37.083"/>
</g>
<g fill="rgb(0%, 0%, 0%)" fill-opacity="1">
<use xlink:href="#glyph-3-1" x="196.411" y="38.72"/>
<use xlink:href="#glyph-3-2" x="203.467727" y="38.72"/>
<use xlink:href="#glyph-3-3" x="207.702241" y="38.72"/>
<use xlink:href="#glyph-3-4" x="212.171873" y="38.72"/>
<use xlink:href="#glyph-3-6" x="214.523849" y="38.72"/>
</g>
<g fill="rgb(0%, 0%, 0%)" fill-opacity="1">
<use xlink:href="#glyph-0-3" x="219.256" y="1.624"/>
</g>
<g fill="rgb(0%, 0%, 0%)" fill-opacity="1">
<use xlink:href="#glyph-0-4" x="219.256" y="21.261"/>
</g>
</svg>
