<?xml version="1.0" encoding="UTF-8"?>
<svg xmlns="http://www.w3.org/2000/svg" xmlns:xlink="http://www.w3.org/1999/xlink" width="13.008" height="23.439" viewBox="0 0 13.008 23.439">
<defs>
<g>
<g id="glyph-0-0">
</g>
<g id="glyph-0-1">
<path d="M 5.625 -7.453125 C 5.625 -7.453125 5.625 -7.5625 5.484375 -7.5625 C 5.328125 -7.5625 4.28125 -7.46875 4.09375 -7.453125 C 4.015625 -7.4375 3.953125 -7.390625 3.953125 -7.234375 C 3.953125 -7.109375 4.046875 -7.109375 4.203125 -7.109375 C 4.734375 -7.109375 4.75 -7.03125 4.75 -6.921875 L 4.71875 -6.703125 L 4.0625 -4.125 C 3.875 -4.53125 3.5625 -4.828125 3.0625 -4.828125 C 1.78125 -4.828125 0.4375 -3.21875 0.4375 -1.625 C 0.4375 -0.59375 1.03125 0.125 1.890625 0.125 C 2.109375 0.125 2.65625 0.078125 3.296875 -0.703125 C 3.390625 -0.234375 3.78125 0.125 4.296875 0.125 C 4.671875 0.125 4.921875 -0.125 5.109375 -0.484375 C 5.296875 -0.875 5.4375 -1.53125 5.4375 -1.5625 C 5.4375 -1.671875 5.328125 -1.671875 5.296875 -1.671875 C 5.1875 -1.671875 5.1875 -1.625 5.140625 -1.46875 C 4.96875 -0.765625 4.765625 -0.125 4.3125 -0.125 C 4.03125 -0.125 3.984375 -0.40625 3.984375 -0.625 C 3.984375 -0.890625 4.015625 -0.953125 4.0625 -1.140625 Z M 3.359375 -1.296875 C 3.296875 -1.09375 3.296875 -1.078125 3.140625 -0.890625 C 2.65625 -0.296875 2.21875 -0.125 1.90625 -0.125 C 1.359375 -0.125 1.203125 -0.71875 1.203125 -1.140625 C 1.203125 -1.6875 1.5625 -3.03125 1.8125 -3.53125 C 2.15625 -4.171875 2.640625 -4.578125 3.078125 -4.578125 C 3.78125 -4.578125 3.9375 -3.6875 3.9375 -3.625 C 3.9375 -3.5625 3.921875 -3.484375 3.90625 -3.4375 Z M 3.359375 -1.296875 "/>
</g>
<g id="glyph-0-2">
<path d="M 2.25 -4.359375 L 3.265625 -4.359375 C 3.484375 -4.359375 3.59375 -4.359375 3.59375 -4.578125 C 3.59375 -4.703125 3.484375 -4.703125 3.296875 -4.703125 L 2.328125 -4.703125 C 2.71875 -6.25 2.78125 -6.46875 2.78125 -6.53125 C 2.78125 -6.71875 2.65625 -6.828125 2.46875 -6.828125 C 2.4375 -6.828125 2.125 -6.8125 2.03125 -6.4375 L 1.609375 -4.703125 L 0.578125 -4.703125 C 0.359375 -4.703125 0.25 -4.703125 0.25 -4.5 C 0.25 -4.359375 0.34375 -4.359375 0.5625 -4.359375 L 1.515625 -4.359375 C 0.734375 -1.265625 0.6875 -1.078125 0.6875 -0.890625 C 0.6875 -0.296875 1.09375 0.125 1.6875 0.125 C 2.796875 0.125 3.421875 -1.46875 3.421875 -1.5625 C 3.421875 -1.671875 3.34375 -1.671875 3.296875 -1.671875 C 3.203125 -1.671875 3.1875 -1.640625 3.125 -1.515625 C 2.65625 -0.375 2.078125 -0.125 1.71875 -0.125 C 1.484375 -0.125 1.375 -0.265625 1.375 -0.625 C 1.375 -0.890625 1.390625 -0.953125 1.4375 -1.140625 Z M 2.25 -4.359375 "/>
</g>
</g>
<clipPath id="clip-0">
<path clip-rule="nonzero" d="M 2 15 L 11 15 L 11 23.4375 L 2 23.4375 Z M 2 15 "/>
</clipPath>
</defs>
<g fill="rgb(0%, 0%, 0%)" fill-opacity="1">
<use xlink:href="#glyph-0-1" x="3.665" y="8.076"/>
</g>
<path fill="none" stroke-width="0.436" stroke-linecap="butt" stroke-linejoin="miter" stroke="rgb(0%, 0%, 0%)" stroke-opacity="1" stroke-miterlimit="10" d="M -0.0006875 -0.00146875 L 9.6165 -0.00146875 " transform="matrix(1, 0, 0, -1, 1.696, 12.729)"/>
<g clip-path="url(#clip-0)">
<g fill="rgb(0%, 0%, 0%)" fill-opacity="1">
<use xlink:href="#glyph-0-1" x="1.696" y="22.939"/>
<use xlink:href="#glyph-0-2" x="7.374187" y="22.939"/>
</g>
</g>
</svg>
