<?xml version="1.0" encoding="UTF-8"?>
<svg xmlns="http://www.w3.org/2000/svg" xmlns:xlink="http://www.w3.org/1999/xlink" width="17.946" height="22.196" viewBox="0 0 17.946 22.196">
<defs>
<g>
<g id="glyph-0-0">
</g>
<g id="glyph-0-1">
<path d="M 5.65625 -4.0625 C 5.796875 -4.0625 6.1875 -4.0625 6.1875 -4.4375 C 6.1875 -4.703125 5.953125 -4.703125 5.765625 -4.703125 L 3.265625 -4.703125 C 1.625 -4.703125 0.421875 -2.90625 0.421875 -1.609375 C 0.421875 -0.640625 1.0625 0.125 2.046875 0.125 C 3.34375 0.125 4.78125 -1.203125 4.78125 -2.875 C 4.78125 -3.0625 4.78125 -3.59375 4.453125 -4.0625 Z M 2.0625 -0.125 C 1.53125 -0.125 1.09375 -0.515625 1.09375 -1.296875 C 1.09375 -1.625 1.21875 -2.515625 1.609375 -3.15625 C 2.0625 -3.921875 2.71875 -4.0625 3.09375 -4.0625 C 4 -4.0625 4.09375 -3.34375 4.09375 -3.015625 C 4.09375 -2.5 3.875 -1.609375 3.5 -1.046875 C 3.078125 -0.40625 2.484375 -0.125 2.0625 -0.125 Z M 2.0625 -0.125 "/>
</g>
<g id="glyph-0-2">
<path d="M 4.078125 -6.609375 C 4.171875 -7 4.203125 -7.109375 5.078125 -7.109375 C 5.328125 -7.109375 5.421875 -7.109375 5.421875 -7.3125 C 5.421875 -7.453125 5.296875 -7.453125 5.25 -7.453125 C 4.9375 -7.453125 4.140625 -7.421875 3.8125 -7.421875 C 3.484375 -7.421875 2.6875 -7.453125 2.359375 -7.453125 C 2.296875 -7.453125 2.15625 -7.453125 2.15625 -7.234375 C 2.15625 -7.109375 2.25 -7.109375 2.453125 -7.109375 C 2.90625 -7.109375 3.203125 -7.109375 3.203125 -6.90625 C 3.203125 -6.84375 3.203125 -6.828125 3.1875 -6.734375 L 1.71875 -0.84375 C 1.609375 -0.453125 1.578125 -0.34375 0.71875 -0.34375 C 0.46875 -0.34375 0.375 -0.34375 0.375 -0.125 C 0.375 0 0.5 0 0.53125 0 C 0.84375 0 1.640625 -0.03125 1.96875 -0.03125 C 2.296875 -0.03125 3.09375 0 3.421875 0 C 3.515625 0 3.640625 0 3.640625 -0.203125 C 3.640625 -0.34375 3.5625 -0.34375 3.3125 -0.34375 C 3.125 -0.34375 3.0625 -0.34375 2.84375 -0.359375 C 2.625 -0.375 2.578125 -0.421875 2.578125 -0.546875 C 2.578125 -0.625 2.59375 -0.71875 2.625 -0.796875 Z M 4.078125 -6.609375 "/>
</g>
<g id="glyph-1-0">
</g>
<g id="glyph-1-1">
<path d="M 3.09375 -4.828125 C 3.15625 -5.09375 3.171875 -5.171875 3.78125 -5.171875 C 3.953125 -5.171875 4.0625 -5.171875 4.0625 -5.328125 C 4.0625 -5.34375 4.046875 -5.4375 3.921875 -5.4375 C 3.796875 -5.4375 3.546875 -5.421875 3.421875 -5.421875 L 2.328125 -5.421875 C 2.21875 -5.421875 1.921875 -5.4375 1.8125 -5.4375 C 1.78125 -5.4375 1.65625 -5.4375 1.65625 -5.296875 C 1.65625 -5.171875 1.75 -5.171875 1.90625 -5.171875 C 2.421875 -5.171875 2.421875 -5.125 2.421875 -5.03125 C 2.421875 -5.015625 2.421875 -4.984375 2.375 -4.859375 L 1.328125 -0.625 C 1.25 -0.34375 1.234375 -0.265625 0.640625 -0.265625 C 0.453125 -0.265625 0.359375 -0.265625 0.359375 -0.109375 C 0.359375 -0.078125 0.390625 0 0.484375 0 C 0.59375 0 0.859375 -0.015625 0.984375 -0.03125 L 2.09375 -0.03125 C 2.203125 -0.015625 2.484375 0 2.59375 0 C 2.640625 0 2.75 0 2.75 -0.15625 C 2.75 -0.265625 2.65625 -0.265625 2.5 -0.265625 C 2.375 -0.265625 2.328125 -0.265625 2.1875 -0.28125 C 2.0625 -0.296875 1.984375 -0.296875 1.984375 -0.390625 C 1.984375 -0.4375 2 -0.4375 2.03125 -0.546875 Z M 3.09375 -4.828125 "/>
</g>
<g id="glyph-2-0">
</g>
<g id="glyph-2-1">
<path d="M 2.140625 -3.796875 C 2.140625 -3.984375 2.125 -3.984375 1.9375 -3.984375 C 1.546875 -3.59375 0.9375 -3.59375 0.71875 -3.59375 L 0.71875 -3.359375 C 0.875 -3.359375 1.28125 -3.359375 1.640625 -3.53125 L 1.640625 -0.515625 C 1.640625 -0.3125 1.640625 -0.234375 1.015625 -0.234375 L 0.765625 -0.234375 L 0.765625 0 C 1.09375 -0.03125 1.5625 -0.03125 1.890625 -0.03125 C 2.21875 -0.03125 2.6875 -0.03125 3.015625 0 L 3.015625 -0.234375 L 2.765625 -0.234375 C 2.140625 -0.234375 2.140625 -0.3125 2.140625 -0.515625 Z M 2.140625 -3.796875 "/>
</g>
<g id="glyph-3-0">
</g>
<g id="glyph-3-1">
<path d="M 2.5 -5.078125 C 2.5 -5.296875 2.484375 -5.296875 2.265625 -5.296875 C 1.9375 -4.984375 1.515625 -4.796875 0.765625 -4.796875 L 0.765625 -4.53125 C 0.984375 -4.53125 1.40625 -4.53125 1.875 -4.734375 L 1.875 -0.65625 C 1.875 -0.359375 1.84375 -0.265625 1.09375 -0.265625 L 0.8125 -0.265625 L 0.8125 0 C 1.140625 -0.03125 1.828125 -0.03125 2.1875 -0.03125 C 2.546875 -0.03125 3.234375 -0.03125 3.5625 0 L 3.5625 -0.265625 L 3.28125 -0.265625 C 2.53125 -0.265625 2.5 -0.359375 2.5 -0.65625 Z M 2.5 -5.078125 "/>
</g>
</g>
</defs>
<g fill="rgb(0%, 0%, 0%)" fill-opacity="1">
<use xlink:href="#glyph-0-1" x="1.696" y="5.196"/>
</g>
<g fill="rgb(0%, 0%, 0%)" fill-opacity="1">
<use xlink:href="#glyph-1-1" x="7.929" y="6.885"/>
</g>
<g fill="rgb(0%, 0%, 0%)" fill-opacity="1">
<use xlink:href="#glyph-2-1" x="11.601" y="7.992"/>
</g>
<path fill="none" stroke-width="0.436" stroke-linecap="butt" stroke-linejoin="miter" stroke="rgb(0%, 0%, 0%)" stroke-opacity="1" stroke-miterlimit="10" d="M -0.0006875 0.00134375 L 14.554 0.00134375 " transform="matrix(1, 0, 0, -1, 1.696, 9.849)"/>
<g fill="rgb(0%, 0%, 0%)" fill-opacity="1">
<use xlink:href="#glyph-0-2" x="4.209" y="20.06"/>
</g>
<g fill="rgb(0%, 0%, 0%)" fill-opacity="1">
<use xlink:href="#glyph-3-1" x="9.004" y="21.696"/>
</g>
</svg>
