<?xml version="1.0" encoding="UTF-8"?>
<svg xmlns="http://www.w3.org/2000/svg" xmlns:xlink="http://www.w3.org/1999/xlink" width="9.485" height="6.059" viewBox="0 0 9.485 6.059">
<defs>
<g>
<g id="glyph-0-0">
</g>
<g id="glyph-0-1">
<path d="M 7.875 -4.71875 C 7.875 -4.953125 7.796875 -5.046875 7.71875 -5.046875 C 7.671875 -5.046875 7.578125 -5 7.5625 -4.75 C 7.53125 -3.84375 6.765625 -3.34375 6.046875 -3.34375 C 5.40625 -3.34375 4.875 -3.71875 4.3125 -4.15625 C 3.734375 -4.609375 3.15625 -5.0625 2.421875 -5.0625 C 1.359375 -5.0625 0.59375 -4.09375 0.59375 -3.078125 C 0.59375 -2.75 0.734375 -2.734375 0.75 -2.734375 C 0.875 -2.734375 0.90625 -2.953125 0.90625 -2.984375 C 0.953125 -4.0625 1.828125 -4.453125 2.421875 -4.453125 C 3.078125 -4.453125 3.59375 -4.0625 4.171875 -3.625 C 4.75 -3.171875 5.328125 -2.71875 6.046875 -2.71875 C 7.125 -2.71875 7.875 -3.6875 7.875 -4.71875 Z M 1 -0.828125 C 0.8125 -0.828125 0.59375 -0.828125 0.59375 -0.609375 C 0.59375 -0.390625 0.796875 -0.390625 0.984375 -0.390625 L 7.5 -0.390625 C 7.671875 -0.390625 7.875 -0.390625 7.875 -0.609375 C 7.875 -0.828125 7.671875 -0.828125 7.484375 -0.828125 Z M 1 -0.828125 "/>
</g>
</g>
</defs>
<g fill="rgb(0%, 0%, 0%)" fill-opacity="1">
<use xlink:href="#glyph-0-1" x="0.5" y="5.559"/>
</g>
</svg>
