<?xml version="1.0" encoding="UTF-8"?>
<svg xmlns="http://www.w3.org/2000/svg" xmlns:xlink="http://www.w3.org/1999/xlink" width="53.563" height="25.681" viewBox="0 0 53.563 25.681">
<defs>
<g>
<g id="glyph-0-0">
</g>
<g id="glyph-0-1">
<path d="M 4.078125 -6.609375 C 4.171875 -7 4.203125 -7.109375 5.078125 -7.109375 C 5.328125 -7.109375 5.421875 -7.109375 5.421875 -7.3125 C 5.421875 -7.453125 5.296875 -7.453125 5.25 -7.453125 C 4.9375 -7.453125 4.140625 -7.421875 3.8125 -7.421875 C 3.484375 -7.421875 2.6875 -7.453125 2.359375 -7.453125 C 2.296875 -7.453125 2.15625 -7.453125 2.15625 -7.234375 C 2.15625 -7.109375 2.25 -7.109375 2.453125 -7.109375 C 2.90625 -7.109375 3.203125 -7.109375 3.203125 -6.90625 C 3.203125 -6.84375 3.203125 -6.828125 3.1875 -6.734375 L 1.71875 -0.84375 C 1.609375 -0.453125 1.578125 -0.34375 0.71875 -0.34375 C 0.46875 -0.34375 0.375 -0.34375 0.375 -0.125 C 0.375 0 0.5 0 0.53125 0 C 0.84375 0 1.640625 -0.03125 1.96875 -0.03125 C 2.296875 -0.03125 3.09375 0 3.421875 0 C 3.515625 0 3.640625 0 3.640625 -0.203125 C 3.640625 -0.34375 3.5625 -0.34375 3.3125 -0.34375 C 3.125 -0.34375 3.0625 -0.34375 2.84375 -0.359375 C 2.625 -0.375 2.578125 -0.421875 2.578125 -0.546875 C 2.578125 -0.625 2.59375 -0.71875 2.625 -0.796875 Z M 4.078125 -6.609375 "/>
</g>
<g id="glyph-0-2">
<path d="M 2.4375 -4.703125 C 2.4375 -4.71875 2.4375 -4.828125 2.296875 -4.828125 C 2.046875 -4.828125 1.25 -4.734375 0.96875 -4.71875 C 0.890625 -4.703125 0.765625 -4.6875 0.765625 -4.5 C 0.765625 -4.359375 0.859375 -4.359375 1.03125 -4.359375 C 1.546875 -4.359375 1.578125 -4.28125 1.578125 -4.171875 C 1.578125 -4.09375 1.4375 -3.59375 1.359375 -3.296875 L 0.703125 -0.625 C 0.65625 -0.453125 0.578125 -0.15625 0.578125 -0.125 C 0.578125 -0.015625 0.6875 0 0.75 0 L 0.90625 0 C 1.671875 -0.125 2.859375 -0.5625 3.984375 -1.609375 C 5.421875 -2.9375 5.71875 -4.421875 5.71875 -4.53125 C 5.71875 -4.71875 5.578125 -4.828125 5.40625 -4.828125 C 5.3125 -4.828125 5.0625 -4.78125 4.96875 -4.453125 C 4.28125 -1.984375 2.625 -0.765625 1.375 -0.359375 Z M 2.4375 -4.703125 "/>
</g>
<g id="glyph-1-0">
</g>
<g id="glyph-1-1">
<path d="M 2.5 -5.078125 C 2.5 -5.296875 2.484375 -5.296875 2.265625 -5.296875 C 1.9375 -4.984375 1.515625 -4.796875 0.765625 -4.796875 L 0.765625 -4.53125 C 0.984375 -4.53125 1.40625 -4.53125 1.875 -4.734375 L 1.875 -0.65625 C 1.875 -0.359375 1.84375 -0.265625 1.09375 -0.265625 L 0.8125 -0.265625 L 0.8125 0 C 1.140625 -0.03125 1.828125 -0.03125 2.1875 -0.03125 C 2.546875 -0.03125 3.234375 -0.03125 3.5625 0 L 3.5625 -0.265625 L 3.28125 -0.265625 C 2.53125 -0.265625 2.5 -0.359375 2.5 -0.65625 Z M 2.5 -5.078125 "/>
</g>
<g id="glyph-1-2">
<path d="M 5.640625 -5.40625 C 5.640625 -5.53125 5.640625 -5.609375 5.53125 -5.609375 C 5.46875 -5.609375 5.46875 -5.609375 5.390625 -5.5 L 4.984375 -4.90625 C 4.703125 -5.21875 4.171875 -5.609375 3.40625 -5.609375 C 1.8125 -5.609375 0.46875 -4.328125 0.46875 -2.71875 C 0.46875 -1.109375 1.796875 0.171875 3.421875 0.171875 C 4.75 0.171875 5.640625 -0.890625 5.640625 -1.859375 C 5.640625 -1.9375 5.640625 -2.015625 5.5 -2.015625 C 5.421875 -2.015625 5.390625 -1.96875 5.390625 -1.890625 C 5.328125 -0.671875 4.328125 -0.09375 3.484375 -0.09375 C 2.8125 -0.09375 1.296875 -0.515625 1.296875 -2.71875 C 1.296875 -4.875 2.734375 -5.34375 3.484375 -5.34375 C 4.234375 -5.34375 5.15625 -4.8125 5.375 -3.4375 C 5.375 -3.375 5.390625 -3.328125 5.5 -3.328125 C 5.640625 -3.328125 5.640625 -3.375 5.640625 -3.53125 Z M 5.640625 -5.40625 "/>
</g>
<g id="glyph-1-3">
<path d="M 1.90625 -2.484375 L 3.359375 -2.484375 C 4.328125 -2.484375 5.28125 -3.109375 5.28125 -3.953125 C 5.28125 -4.734375 4.4375 -5.4375 3.296875 -5.4375 L 0.359375 -5.4375 L 0.359375 -5.171875 L 0.546875 -5.171875 C 1.15625 -5.171875 1.171875 -5.09375 1.171875 -4.796875 L 1.171875 -0.640625 C 1.171875 -0.34375 1.15625 -0.265625 0.546875 -0.265625 L 0.359375 -0.265625 L 0.359375 0 C 1.046875 -0.03125 1.0625 -0.03125 1.53125 -0.03125 C 2.015625 -0.03125 2.03125 -0.03125 2.703125 0 L 2.703125 -0.265625 L 2.53125 -0.265625 C 1.921875 -0.265625 1.90625 -0.34375 1.90625 -0.640625 Z M 1.875 -2.71875 L 1.875 -4.859375 C 1.875 -5.125 1.890625 -5.171875 2.265625 -5.171875 L 3.09375 -5.171875 C 4.453125 -5.171875 4.453125 -4.3125 4.453125 -3.953125 C 4.453125 -3.609375 4.453125 -2.71875 3.09375 -2.71875 Z M 1.875 -2.71875 "/>
</g>
<g id="glyph-1-4">
<path d="M 2.03125 -5.265625 C 1.953125 -5.421875 1.953125 -5.4375 1.734375 -5.4375 L 0.390625 -5.4375 L 0.390625 -5.171875 L 0.5625 -5.171875 C 1.171875 -5.171875 1.1875 -5.09375 1.1875 -4.796875 L 1.1875 -0.859375 C 1.1875 -0.640625 1.1875 -0.265625 0.390625 -0.265625 L 0.390625 0 C 0.75 -0.03125 1.125 -0.03125 1.328125 -0.03125 C 1.53125 -0.03125 1.90625 -0.03125 2.265625 0 L 2.265625 -0.265625 C 1.46875 -0.265625 1.46875 -0.640625 1.46875 -0.859375 L 1.46875 -5.09375 L 3.484375 -0.1875 C 3.53125 -0.09375 3.5625 0 3.671875 0 C 3.78125 0 3.8125 -0.09375 3.859375 -0.1875 L 5.890625 -5.15625 L 5.890625 -0.640625 C 5.890625 -0.34375 5.875 -0.265625 5.265625 -0.265625 L 5.09375 -0.265625 L 5.09375 0 C 5.71875 -0.03125 5.734375 -0.03125 6.21875 -0.03125 C 6.703125 -0.03125 6.71875 -0.03125 7.359375 0 L 7.359375 -0.265625 L 7.1875 -0.265625 C 6.5625 -0.265625 6.546875 -0.34375 6.546875 -0.640625 L 6.546875 -4.796875 C 6.546875 -5.09375 6.5625 -5.171875 7.1875 -5.171875 L 7.359375 -5.171875 L 7.359375 -5.4375 L 6.015625 -5.4375 C 5.796875 -5.4375 5.78125 -5.421875 5.71875 -5.28125 L 3.875 -0.75 Z M 2.03125 -5.265625 "/>
</g>
<g id="glyph-1-5">
<path d="M 5.640625 -1.578125 C 5.640625 -1.890625 5.671875 -1.9375 6.234375 -1.9375 L 6.234375 -2.203125 C 5.828125 -2.171875 5.609375 -2.171875 5.140625 -2.171875 C 4.8125 -2.171875 4.15625 -2.171875 3.84375 -2.203125 L 3.84375 -1.9375 L 4.125 -1.9375 C 4.890625 -1.9375 4.90625 -1.84375 4.90625 -1.546875 L 4.90625 -1.03125 C 4.90625 -0.875 4.90625 -0.546875 4.484375 -0.3125 C 4.09375 -0.09375 3.640625 -0.09375 3.546875 -0.09375 C 2.734375 -0.09375 1.296875 -0.59375 1.296875 -2.71875 C 1.296875 -4.890625 2.75 -5.34375 3.484375 -5.34375 C 4.28125 -5.34375 5.171875 -4.765625 5.375 -3.453125 C 5.390625 -3.375 5.390625 -3.328125 5.5 -3.328125 C 5.640625 -3.328125 5.640625 -3.375 5.640625 -3.53125 L 5.640625 -5.40625 C 5.640625 -5.53125 5.640625 -5.609375 5.53125 -5.609375 C 5.484375 -5.609375 5.46875 -5.609375 5.40625 -5.5 L 5 -4.90625 C 4.65625 -5.28125 4.125 -5.609375 3.40625 -5.609375 C 1.8125 -5.609375 0.46875 -4.328125 0.46875 -2.71875 C 0.46875 -1.140625 1.78125 0.171875 3.4375 0.171875 C 4.046875 0.171875 4.734375 -0.015625 5.046875 -0.484375 C 5.203125 -0.265625 5.46875 0 5.546875 0 C 5.640625 0 5.640625 -0.09375 5.640625 -0.203125 Z M 5.640625 -1.578125 "/>
</g>
<g id="glyph-1-6">
<path d="M 3.890625 -2.546875 C 3.890625 -3.390625 3.8125 -3.90625 3.546875 -4.421875 C 3.203125 -5.125 2.546875 -5.296875 2.109375 -5.296875 C 1.109375 -5.296875 0.734375 -4.546875 0.625 -4.328125 C 0.34375 -3.75 0.328125 -2.953125 0.328125 -2.546875 C 0.328125 -2.015625 0.34375 -1.21875 0.734375 -0.578125 C 1.09375 0.015625 1.6875 0.171875 2.109375 0.171875 C 2.5 0.171875 3.171875 0.046875 3.578125 -0.734375 C 3.875 -1.3125 3.890625 -2.03125 3.890625 -2.546875 Z M 2.109375 -0.0625 C 1.84375 -0.0625 1.296875 -0.1875 1.125 -1.015625 C 1.03125 -1.46875 1.03125 -2.21875 1.03125 -2.640625 C 1.03125 -3.1875 1.03125 -3.75 1.125 -4.1875 C 1.296875 -5 1.90625 -5.078125 2.109375 -5.078125 C 2.375 -5.078125 2.9375 -4.9375 3.09375 -4.21875 C 3.1875 -3.78125 3.1875 -3.171875 3.1875 -2.640625 C 3.1875 -2.171875 3.1875 -1.453125 3.09375 -1 C 2.921875 -0.171875 2.375 -0.0625 2.109375 -0.0625 Z M 2.109375 -0.0625 "/>
</g>
<g id="glyph-2-0">
</g>
<g id="glyph-2-1">
<path d="M 3.609375 2.625 C 3.609375 2.578125 3.609375 2.5625 3.421875 2.375 C 2.0625 1 1.71875 -1.0625 1.71875 -2.71875 C 1.71875 -4.625 2.125 -6.515625 3.46875 -7.890625 C 3.609375 -8.015625 3.609375 -8.03125 3.609375 -8.078125 C 3.609375 -8.140625 3.5625 -8.171875 3.5 -8.171875 C 3.390625 -8.171875 2.40625 -7.4375 1.765625 -6.046875 C 1.203125 -4.859375 1.078125 -3.640625 1.078125 -2.71875 C 1.078125 -1.875 1.203125 -0.5625 1.796875 0.671875 C 2.453125 2.015625 3.390625 2.71875 3.5 2.71875 C 3.5625 2.71875 3.609375 2.6875 3.609375 2.625 Z M 3.609375 2.625 "/>
</g>
<g id="glyph-2-2">
<path d="M 3.15625 -2.71875 C 3.15625 -3.578125 3.03125 -4.890625 2.4375 -6.125 C 1.78125 -7.46875 0.84375 -8.171875 0.734375 -8.171875 C 0.671875 -8.171875 0.625 -8.140625 0.625 -8.078125 C 0.625 -8.03125 0.625 -8.015625 0.828125 -7.8125 C 1.890625 -6.734375 2.515625 -5 2.515625 -2.71875 C 2.515625 -0.859375 2.109375 1.0625 0.765625 2.4375 C 0.625 2.5625 0.625 2.578125 0.625 2.625 C 0.625 2.6875 0.671875 2.71875 0.734375 2.71875 C 0.84375 2.71875 1.828125 1.984375 2.46875 0.59375 C 3.015625 -0.59375 3.15625 -1.8125 3.15625 -2.71875 Z M 3.15625 -2.71875 "/>
</g>
</g>
<clipPath id="clip-0">
<path clip-rule="nonzero" d="M 27 19 L 31 19 L 31 25.679688 L 27 25.679688 Z M 27 19 "/>
</clipPath>
</defs>
<g fill="rgb(0%, 0%, 0%)" fill-opacity="1">
<use xlink:href="#glyph-0-1" x="1.696" y="8.681"/>
</g>
<g fill="rgb(0%, 0%, 0%)" fill-opacity="1">
<use xlink:href="#glyph-1-1" x="6.491" y="10.318"/>
</g>
<g fill="rgb(0%, 0%, 0%)" fill-opacity="1">
<use xlink:href="#glyph-2-1" x="11.223" y="8.681"/>
</g>
<g fill="rgb(0%, 0%, 0%)" fill-opacity="1">
<use xlink:href="#glyph-0-2" x="15.466" y="8.681"/>
</g>
<g fill="rgb(0%, 0%, 0%)" fill-opacity="1">
<use xlink:href="#glyph-1-2" x="20.855" y="10.37"/>
<use xlink:href="#glyph-1-3" x="26.971255" y="10.37"/>
<use xlink:href="#glyph-1-4" x="32.730449" y="10.37"/>
<use xlink:href="#glyph-1-5" x="40.484559" y="10.37"/>
</g>
<g fill="rgb(0%, 0%, 0%)" fill-opacity="1">
<use xlink:href="#glyph-2-2" x="47.625" y="8.681"/>
</g>
<path fill="none" stroke-width="0.436" stroke-linecap="butt" stroke-linejoin="miter" stroke="rgb(0%, 0%, 0%)" stroke-opacity="1" stroke-miterlimit="10" d="M -0.0006875 -0.0019375 L 50.171188 -0.0019375 " transform="matrix(1, 0, 0, -1, 1.696, 13.334)"/>
<g fill="rgb(0%, 0%, 0%)" fill-opacity="1">
<use xlink:href="#glyph-0-1" x="22.018" y="23.545"/>
</g>
<g clip-path="url(#clip-0)">
<g fill="rgb(0%, 0%, 0%)" fill-opacity="1">
<use xlink:href="#glyph-1-6" x="26.813" y="25.181"/>
</g>
</g>
</svg>
