<?xml version="1.0" encoding="UTF-8"?>
<svg xmlns="http://www.w3.org/2000/svg" xmlns:xlink="http://www.w3.org/1999/xlink" width="63.534" height="22.227" viewBox="0 0 63.534 22.227">
<defs>
<g>
<g id="glyph-0-0">
</g>
<g id="glyph-0-1">
<path d="M 0.953125 -0.640625 C 0.921875 -0.484375 0.859375 -0.234375 0.859375 -0.171875 C 0.859375 0.015625 1.015625 0.125 1.171875 0.125 C 1.3125 0.125 1.5 0.03125 1.578125 -0.1875 C 1.59375 -0.203125 1.71875 -0.71875 1.78125 -1 L 2.03125 -1.96875 C 2.09375 -2.21875 2.15625 -2.453125 2.21875 -2.703125 C 2.25 -2.890625 2.34375 -3.203125 2.359375 -3.25 C 2.515625 -3.59375 3.09375 -4.578125 4.140625 -4.578125 C 4.625 -4.578125 4.71875 -4.171875 4.71875 -3.8125 C 4.71875 -3.546875 4.640625 -3.234375 4.5625 -2.90625 L 4.25 -1.640625 L 4.03125 -0.8125 C 3.984375 -0.59375 3.890625 -0.234375 3.890625 -0.171875 C 3.890625 0.015625 4.046875 0.125 4.203125 0.125 C 4.546875 0.125 4.609375 -0.15625 4.703125 -0.5 C 4.859375 -1.109375 5.25 -2.703125 5.359375 -3.125 C 5.390625 -3.265625 5.96875 -4.578125 7.15625 -4.578125 C 7.625 -4.578125 7.75 -4.203125 7.75 -3.8125 C 7.75 -3.203125 7.28125 -1.953125 7.0625 -1.375 C 6.96875 -1.109375 6.921875 -1 6.921875 -0.78125 C 6.921875 -0.265625 7.3125 0.125 7.8125 0.125 C 8.84375 0.125 9.25 -1.46875 9.25 -1.5625 C 9.25 -1.671875 9.15625 -1.671875 9.125 -1.671875 C 9.015625 -1.671875 9.015625 -1.640625 8.953125 -1.46875 C 8.796875 -0.890625 8.4375 -0.125 7.84375 -0.125 C 7.65625 -0.125 7.578125 -0.234375 7.578125 -0.484375 C 7.578125 -0.75 7.671875 -1.015625 7.78125 -1.25 C 7.984375 -1.828125 8.4375 -3.03125 8.4375 -3.65625 C 8.4375 -4.359375 8 -4.828125 7.1875 -4.828125 C 6.375 -4.828125 5.8125 -4.34375 5.40625 -3.765625 C 5.40625 -3.90625 5.359375 -4.28125 5.0625 -4.53125 C 4.78125 -4.765625 4.4375 -4.828125 4.171875 -4.828125 C 3.1875 -4.828125 2.65625 -4.125 2.46875 -3.875 C 2.40625 -4.5 1.953125 -4.828125 1.46875 -4.828125 C 0.953125 -4.828125 0.75 -4.390625 0.65625 -4.203125 C 0.453125 -3.8125 0.3125 -3.171875 0.3125 -3.140625 C 0.3125 -3.03125 0.421875 -3.03125 0.453125 -3.03125 C 0.5625 -3.03125 0.5625 -3.046875 0.625 -3.28125 C 0.8125 -4.0625 1.03125 -4.578125 1.421875 -4.578125 C 1.609375 -4.578125 1.765625 -4.5 1.765625 -4.078125 C 1.765625 -3.84375 1.734375 -3.734375 1.59375 -3.15625 Z M 0.953125 -0.640625 "/>
</g>
<g id="glyph-1-0">
</g>
<g id="glyph-1-1">
<path d="M 1.328125 -0.625 C 1.265625 -0.328125 1.25 -0.265625 0.65625 -0.265625 C 0.5 -0.265625 0.40625 -0.265625 0.40625 -0.109375 C 0.40625 0 0.515625 0 0.640625 0 L 3.390625 0 C 5.0625 0 6.734375 -1.609375 6.734375 -3.390625 C 6.734375 -4.609375 5.921875 -5.4375 4.734375 -5.4375 L 1.953125 -5.4375 C 1.8125 -5.4375 1.703125 -5.4375 1.703125 -5.296875 C 1.703125 -5.171875 1.796875 -5.171875 1.9375 -5.171875 C 2.203125 -5.171875 2.4375 -5.171875 2.4375 -5.046875 C 2.4375 -5.015625 2.421875 -5.015625 2.40625 -4.90625 Z M 3.09375 -4.890625 C 3.15625 -5.15625 3.171875 -5.171875 3.5 -5.171875 L 4.46875 -5.171875 C 5.390625 -5.171875 6.03125 -4.640625 6.03125 -3.671875 C 6.03125 -3.40625 5.90625 -2.109375 5.21875 -1.21875 C 4.875 -0.765625 4.1875 -0.265625 3.25 -0.265625 L 2.0625 -0.265625 C 1.984375 -0.28125 1.953125 -0.28125 1.953125 -0.328125 C 1.953125 -0.390625 1.96875 -0.46875 1.984375 -0.515625 Z M 3.09375 -4.890625 "/>
</g>
<g id="glyph-1-2">
<path d="M 5.90625 -5.140625 C 5.96875 -5.203125 6.03125 -5.265625 6.03125 -5.359375 C 6.03125 -5.4375 5.953125 -5.4375 5.8125 -5.4375 L 2.265625 -5.4375 C 2.0625 -5.4375 2.046875 -5.4375 2 -5.28125 L 1.546875 -3.859375 C 1.546875 -3.828125 1.53125 -3.78125 1.53125 -3.75 C 1.53125 -3.734375 1.53125 -3.640625 1.65625 -3.640625 C 1.734375 -3.640625 1.75 -3.671875 1.796875 -3.828125 C 2.1875 -4.90625 2.8125 -5.171875 3.78125 -5.171875 L 5.15625 -5.171875 L 0.609375 -0.296875 C 0.546875 -0.234375 0.5 -0.1875 0.5 -0.09375 C 0.5 0 0.5625 0 0.703125 0 L 4.390625 0 C 4.59375 0 4.609375 -0.015625 4.65625 -0.15625 L 5.21875 -1.90625 C 5.25 -2.015625 5.25 -2.03125 5.25 -2.03125 C 5.25 -2.046875 5.234375 -2.140625 5.125 -2.140625 C 5.078125 -2.140625 5.046875 -2.125 5.046875 -2.109375 C 5.03125 -2.09375 5.015625 -2.078125 5 -2.0625 C 4.984375 -2.015625 4.984375 -2 4.921875 -1.828125 C 4.5625 -0.75 4.109375 -0.28125 2.84375 -0.28125 L 1.390625 -0.28125 Z M 5.90625 -5.140625 "/>
</g>
<g id="glyph-2-0">
</g>
<g id="glyph-2-1">
<path d="M 3.46875 -1.8125 L 5.8125 -1.8125 C 5.921875 -1.8125 6.109375 -1.8125 6.109375 -1.984375 C 6.109375 -2.171875 5.921875 -2.171875 5.8125 -2.171875 L 3.46875 -2.171875 L 3.46875 -4.53125 C 3.46875 -4.640625 3.46875 -4.8125 3.296875 -4.8125 C 3.109375 -4.8125 3.109375 -4.640625 3.109375 -4.53125 L 3.109375 -2.171875 L 0.75 -2.171875 C 0.640625 -2.171875 0.46875 -2.171875 0.46875 -1.984375 C 0.46875 -1.8125 0.640625 -1.8125 0.75 -1.8125 L 3.109375 -1.8125 L 3.109375 0.546875 C 3.109375 0.65625 3.109375 0.828125 3.296875 0.828125 C 3.46875 0.828125 3.46875 0.65625 3.46875 0.546875 Z M 3.46875 -1.8125 "/>
</g>
<g id="glyph-3-0">
</g>
<g id="glyph-3-1">
<path d="M 4.453125 -2.515625 L 7.5 -2.515625 C 7.65625 -2.515625 7.859375 -2.515625 7.859375 -2.71875 C 7.859375 -2.9375 7.65625 -2.9375 7.5 -2.9375 L 4.453125 -2.9375 L 4.453125 -6 C 4.453125 -6.15625 4.453125 -6.359375 4.25 -6.359375 C 4.03125 -6.359375 4.03125 -6.15625 4.03125 -6 L 4.03125 -2.9375 L 0.96875 -2.9375 C 0.8125 -2.9375 0.609375 -2.9375 0.609375 -2.71875 C 0.609375 -2.515625 0.8125 -2.515625 0.96875 -2.515625 L 4.03125 -2.515625 L 4.03125 0.546875 C 4.03125 0.703125 4.03125 0.90625 4.25 0.90625 C 4.453125 0.90625 4.453125 0.703125 4.453125 0.546875 Z M 4.453125 -2.515625 "/>
</g>
<g id="glyph-3-2">
<path d="M 1.390625 -0.84375 L 2.546875 -1.96875 C 4.25 -3.46875 4.890625 -4.0625 4.890625 -5.140625 C 4.890625 -6.390625 3.921875 -7.265625 2.578125 -7.265625 C 1.359375 -7.265625 0.546875 -6.265625 0.546875 -5.296875 C 0.546875 -4.671875 1.09375 -4.671875 1.125 -4.671875 C 1.3125 -4.671875 1.6875 -4.8125 1.6875 -5.25 C 1.6875 -5.546875 1.5 -5.828125 1.109375 -5.828125 C 1.03125 -5.828125 1 -5.828125 0.96875 -5.8125 C 1.21875 -6.515625 1.8125 -6.921875 2.4375 -6.921875 C 3.4375 -6.921875 3.90625 -6.046875 3.90625 -5.140625 C 3.90625 -4.28125 3.359375 -3.40625 2.765625 -2.734375 L 0.671875 -0.40625 C 0.546875 -0.28125 0.546875 -0.265625 0.546875 0 L 4.59375 0 L 4.890625 -1.890625 L 4.625 -1.890625 C 4.5625 -1.578125 4.5 -1.09375 4.390625 -0.921875 C 4.3125 -0.84375 3.59375 -0.84375 3.34375 -0.84375 Z M 1.390625 -0.84375 "/>
</g>
</g>
</defs>
<g fill="rgb(0%, 0%, 0%)" fill-opacity="1">
<use xlink:href="#glyph-0-1" x="1.696" y="6.864"/>
</g>
<g fill="rgb(0%, 0%, 0%)" fill-opacity="1">
<use xlink:href="#glyph-1-1" x="11.274" y="8.553"/>
</g>
<g fill="rgb(0%, 0%, 0%)" fill-opacity="1">
<use xlink:href="#glyph-2-1" x="18.456" y="8.553"/>
</g>
<g fill="rgb(0%, 0%, 0%)" fill-opacity="1">
<use xlink:href="#glyph-3-1" x="27.965" y="6.864"/>
</g>
<g fill="rgb(0%, 0%, 0%)" fill-opacity="1">
<use xlink:href="#glyph-0-1" x="38.874" y="6.864"/>
</g>
<g fill="rgb(0%, 0%, 0%)" fill-opacity="1">
<use xlink:href="#glyph-1-2" x="48.453" y="8.553"/>
</g>
<g fill="rgb(0%, 0%, 0%)" fill-opacity="1">
<use xlink:href="#glyph-2-1" x="54.754" y="8.553"/>
</g>
<path fill="none" stroke-width="0.436" stroke-linecap="butt" stroke-linejoin="miter" stroke="rgb(0%, 0%, 0%)" stroke-opacity="1" stroke-miterlimit="10" d="M -0.0006875 0.001375 L 60.143844 0.001375 " transform="matrix(1, 0, 0, -1, 1.696, 11.517)"/>
<g fill="rgb(0%, 0%, 0%)" fill-opacity="1">
<use xlink:href="#glyph-3-2" x="29.04" y="21.727"/>
</g>
</svg>
