<?xml version="1.0" encoding="UTF-8"?>
<svg xmlns="http://www.w3.org/2000/svg" xmlns:xlink="http://www.w3.org/1999/xlink" width="7.953" height="28.098" viewBox="0 0 7.953 28.098">
<defs>
<g>
<g id="glyph-0-0">
</g>
<g id="glyph-0-1">
<path d="M 2.421875 25.125 L 0.15625 25.125 L 0.15625 25.734375 L 3.015625 25.734375 L 3.015625 -0.4375 L 0.15625 -0.4375 L 0.15625 0.15625 L 2.421875 0.15625 Z M 2.421875 25.125 "/>
</g>
</g>
</defs>
<g fill="rgb(0%, 0%, 0%)" fill-opacity="1">
<use xlink:href="#glyph-0-1" x="1.696" y="1.394"/>
</g>
</svg>
