<?xml version="1.0" encoding="UTF-8"?>
<svg xmlns="http://www.w3.org/2000/svg" xmlns:xlink="http://www.w3.org/1999/xlink" width="47.289" height="14.549" viewBox="0 0 47.289 14.549">
<defs>
<g>
<g id="glyph-0-0">
</g>
<g id="glyph-0-1">
<path d="M 4.5 12.53125 C 4.5 12.484375 4.484375 12.46875 4.453125 12.4375 C 3.953125 11.90625 3.21875 11.015625 2.765625 9.234375 C 2.515625 8.25 2.40625 7.125 2.40625 6.109375 C 2.40625 3.234375 3.09375 1.234375 4.40625 -0.1875 C 4.5 -0.28125 4.5 -0.3125 4.5 -0.328125 C 4.5 -0.4375 4.421875 -0.4375 4.375 -0.4375 C 4.203125 -0.4375 3.625 0.21875 3.484375 0.375 C 2.359375 1.703125 1.65625 3.671875 1.65625 6.09375 C 1.65625 7.640625 1.9375 9.84375 3.359375 11.6875 C 3.46875 11.8125 4.171875 12.640625 4.375 12.640625 C 4.421875 12.640625 4.5 12.640625 4.5 12.53125 Z M 4.5 12.53125 "/>
</g>
<g id="glyph-0-2">
<path d="M 3.328125 6.109375 C 3.328125 4.5625 3.046875 2.359375 1.625 0.53125 C 1.515625 0.390625 0.8125 -0.4375 0.609375 -0.4375 C 0.5625 -0.4375 0.484375 -0.421875 0.484375 -0.328125 C 0.484375 -0.28125 0.5 -0.25 0.546875 -0.21875 C 1.0625 0.34375 1.78125 1.234375 2.21875 2.96875 C 2.46875 3.953125 2.578125 5.078125 2.578125 6.09375 C 2.578125 7.203125 2.46875 8.3125 2.1875 9.375 C 1.78125 10.90625 1.140625 11.78125 0.578125 12.390625 C 0.484375 12.484375 0.484375 12.515625 0.484375 12.53125 C 0.484375 12.625 0.5625 12.640625 0.609375 12.640625 C 0.78125 12.640625 1.375 11.96875 1.5 11.828125 C 2.625 10.5 3.328125 8.546875 3.328125 6.109375 Z M 3.328125 6.109375 "/>
</g>
<g id="glyph-1-0">
</g>
<g id="glyph-1-1">
<path d="M 3.203125 -6.984375 C 3.203125 -7.234375 3.203125 -7.265625 2.953125 -7.265625 C 2.28125 -6.5625 1.3125 -6.5625 0.96875 -6.5625 L 0.96875 -6.234375 C 1.1875 -6.234375 1.828125 -6.234375 2.40625 -6.515625 L 2.40625 -0.859375 C 2.40625 -0.46875 2.359375 -0.34375 1.390625 -0.34375 L 1.03125 -0.34375 L 1.03125 0 C 1.421875 -0.03125 2.359375 -0.03125 2.796875 -0.03125 C 3.234375 -0.03125 4.1875 -0.03125 4.5625 0 L 4.5625 -0.34375 L 4.21875 -0.34375 C 3.234375 -0.34375 3.203125 -0.453125 3.203125 -0.859375 Z M 3.203125 -6.984375 "/>
</g>
<g id="glyph-1-2">
<path d="M 5.015625 -3.484375 C 5.015625 -4.359375 4.96875 -5.234375 4.578125 -6.046875 C 4.078125 -7.09375 3.1875 -7.265625 2.71875 -7.265625 C 2.078125 -7.265625 1.28125 -6.984375 0.828125 -5.96875 C 0.484375 -5.21875 0.421875 -4.359375 0.421875 -3.484375 C 0.421875 -2.671875 0.46875 -1.6875 0.921875 -0.859375 C 1.390625 0.015625 2.1875 0.234375 2.71875 0.234375 C 3.296875 0.234375 4.140625 0.015625 4.609375 -1.03125 C 4.96875 -1.78125 5.015625 -2.625 5.015625 -3.484375 Z M 2.71875 0 C 2.296875 0 1.640625 -0.265625 1.453125 -1.3125 C 1.328125 -1.96875 1.328125 -2.984375 1.328125 -3.625 C 1.328125 -4.3125 1.328125 -5.03125 1.421875 -5.625 C 1.625 -6.921875 2.4375 -7.03125 2.71875 -7.03125 C 3.078125 -7.03125 3.796875 -6.828125 4 -5.75 C 4.109375 -5.140625 4.109375 -4.3125 4.109375 -3.625 C 4.109375 -2.796875 4.109375 -2.0625 3.984375 -1.359375 C 3.828125 -0.328125 3.203125 0 2.71875 0 Z M 2.71875 0 "/>
</g>
</g>
</defs>
<g fill="rgb(0%, 0%, 0%)" fill-opacity="1">
<use xlink:href="#glyph-0-1" x="0.5" y="1.165"/>
</g>
<g fill="rgb(0%, 0%, 0%)" fill-opacity="1">
<use xlink:href="#glyph-1-1" x="5.5" y="9.984"/>
</g>
<g fill="rgb(0%, 0%, 0%)" fill-opacity="1">
<use xlink:href="#glyph-1-2" x="20.914558" y="9.984"/>
</g>
<g fill="rgb(0%, 0%, 0%)" fill-opacity="1">
<use xlink:href="#glyph-1-2" x="36.329117" y="9.984"/>
</g>
<g fill="rgb(0%, 0%, 0%)" fill-opacity="1">
<use xlink:href="#glyph-0-2" x="41.789" y="1.165"/>
</g>
</svg>
