<?xml version="1.0" encoding="UTF-8"?>
<svg xmlns="http://www.w3.org/2000/svg" xmlns:xlink="http://www.w3.org/1999/xlink" width="54.799" height="26.55" viewBox="0 0 54.799 26.55">
<defs>
<g>
<g id="glyph-0-0">
</g>
<g id="glyph-0-1">
<path d="M 2.265625 -2.71875 C 2.40625 -3.03125 2.40625 -3.046875 2.515625 -3.34375 C 2.59375 -3.5625 2.65625 -3.71875 2.65625 -3.921875 C 2.65625 -4.421875 2.296875 -4.828125 1.75 -4.828125 C 0.734375 -4.828125 0.3125 -3.234375 0.3125 -3.140625 C 0.3125 -3.03125 0.421875 -3.03125 0.453125 -3.03125 C 0.5625 -3.03125 0.5625 -3.046875 0.625 -3.234375 C 0.921875 -4.25 1.359375 -4.578125 1.71875 -4.578125 C 1.8125 -4.578125 2 -4.578125 2 -4.234375 C 2 -4 1.921875 -3.78125 1.875 -3.671875 C 1.78125 -3.375 1.296875 -2.109375 1.125 -1.640625 C 1.015625 -1.359375 0.875 -1 0.875 -0.78125 C 0.875 -0.265625 1.25 0.125 1.765625 0.125 C 2.796875 0.125 3.203125 -1.46875 3.203125 -1.5625 C 3.203125 -1.671875 3.09375 -1.671875 3.0625 -1.671875 C 2.953125 -1.671875 2.953125 -1.640625 2.90625 -1.46875 C 2.703125 -0.78125 2.34375 -0.125 1.78125 -0.125 C 1.609375 -0.125 1.53125 -0.234375 1.53125 -0.484375 C 1.53125 -0.75 1.59375 -0.90625 1.84375 -1.578125 Z M 2.265625 -2.71875 "/>
</g>
<g id="glyph-0-2">
<path d="M 0.484375 1.328125 C 0.40625 1.703125 0.375 1.78125 -0.09375 1.78125 C -0.234375 1.78125 -0.34375 1.78125 -0.34375 1.984375 C -0.34375 2.078125 -0.296875 2.109375 -0.203125 2.109375 C 0.09375 2.109375 0.40625 2.078125 0.703125 2.078125 C 1.0625 2.078125 1.4375 2.109375 1.78125 2.109375 C 1.84375 2.109375 1.984375 2.109375 1.984375 1.890625 C 1.984375 1.78125 1.875 1.78125 1.71875 1.78125 C 1.171875 1.78125 1.171875 1.703125 1.171875 1.609375 C 1.171875 1.46875 1.640625 -0.3125 1.71875 -0.578125 C 1.859375 -0.265625 2.15625 0.125 2.71875 0.125 C 3.984375 0.125 5.34375 -1.46875 5.34375 -3.078125 C 5.34375 -4.09375 4.71875 -4.828125 3.890625 -4.828125 C 3.34375 -4.828125 2.828125 -4.421875 2.46875 -4 C 2.359375 -4.59375 1.890625 -4.828125 1.484375 -4.828125 C 0.984375 -4.828125 0.78125 -4.390625 0.671875 -4.203125 C 0.484375 -3.828125 0.34375 -3.171875 0.34375 -3.140625 C 0.34375 -3.03125 0.453125 -3.03125 0.46875 -3.03125 C 0.578125 -3.03125 0.59375 -3.046875 0.65625 -3.28125 C 0.84375 -4.0625 1.0625 -4.578125 1.453125 -4.578125 C 1.640625 -4.578125 1.78125 -4.5 1.78125 -4.078125 C 1.78125 -3.828125 1.75 -3.703125 1.71875 -3.515625 Z M 2.40625 -3.40625 C 2.484375 -3.703125 2.78125 -4 2.984375 -4.171875 C 3.359375 -4.5 3.671875 -4.578125 3.859375 -4.578125 C 4.296875 -4.578125 4.5625 -4.203125 4.5625 -3.5625 C 4.5625 -2.90625 4.203125 -1.65625 4 -1.25 C 3.625 -0.484375 3.109375 -0.125 2.703125 -0.125 C 1.984375 -0.125 1.84375 -1.03125 1.84375 -1.09375 C 1.84375 -1.109375 1.84375 -1.140625 1.875 -1.265625 Z M 2.40625 -3.40625 "/>
</g>
<g id="glyph-0-3">
<path d="M 5.625 -7.453125 C 5.625 -7.453125 5.625 -7.5625 5.484375 -7.5625 C 5.328125 -7.5625 4.28125 -7.46875 4.09375 -7.453125 C 4.015625 -7.4375 3.953125 -7.390625 3.953125 -7.234375 C 3.953125 -7.109375 4.046875 -7.109375 4.203125 -7.109375 C 4.734375 -7.109375 4.75 -7.03125 4.75 -6.921875 L 4.71875 -6.703125 L 4.0625 -4.125 C 3.875 -4.53125 3.5625 -4.828125 3.0625 -4.828125 C 1.78125 -4.828125 0.4375 -3.21875 0.4375 -1.625 C 0.4375 -0.59375 1.03125 0.125 1.890625 0.125 C 2.109375 0.125 2.65625 0.078125 3.296875 -0.703125 C 3.390625 -0.234375 3.78125 0.125 4.296875 0.125 C 4.671875 0.125 4.921875 -0.125 5.109375 -0.484375 C 5.296875 -0.875 5.4375 -1.53125 5.4375 -1.5625 C 5.4375 -1.671875 5.328125 -1.671875 5.296875 -1.671875 C 5.1875 -1.671875 5.1875 -1.625 5.140625 -1.46875 C 4.96875 -0.765625 4.765625 -0.125 4.3125 -0.125 C 4.03125 -0.125 3.984375 -0.40625 3.984375 -0.625 C 3.984375 -0.890625 4.015625 -0.953125 4.0625 -1.140625 Z M 3.359375 -1.296875 C 3.296875 -1.09375 3.296875 -1.078125 3.140625 -0.890625 C 2.65625 -0.296875 2.21875 -0.125 1.90625 -0.125 C 1.359375 -0.125 1.203125 -0.71875 1.203125 -1.140625 C 1.203125 -1.6875 1.5625 -3.03125 1.8125 -3.53125 C 2.15625 -4.171875 2.640625 -4.578125 3.078125 -4.578125 C 3.78125 -4.578125 3.9375 -3.6875 3.9375 -3.625 C 3.9375 -3.5625 3.921875 -3.484375 3.90625 -3.4375 Z M 3.359375 -1.296875 "/>
</g>
<g id="glyph-0-4">
<path d="M 1.453125 -0.90625 C 2.046875 -1.53125 2.359375 -1.8125 2.75 -2.15625 C 2.75 -2.15625 3.421875 -2.734375 3.8125 -3.125 C 4.859375 -4.140625 5.09375 -4.671875 5.09375 -4.71875 C 5.09375 -4.828125 5 -4.828125 4.96875 -4.828125 C 4.890625 -4.828125 4.859375 -4.796875 4.8125 -4.703125 C 4.484375 -4.171875 4.25 -4 3.984375 -4 C 3.734375 -4 3.59375 -4.171875 3.4375 -4.359375 C 3.234375 -4.609375 3.046875 -4.828125 2.6875 -4.828125 C 1.859375 -4.828125 1.359375 -3.8125 1.359375 -3.578125 C 1.359375 -3.515625 1.390625 -3.453125 1.5 -3.453125 C 1.59375 -3.453125 1.609375 -3.515625 1.640625 -3.578125 C 1.84375 -4.078125 2.46875 -4.09375 2.5625 -4.09375 C 2.796875 -4.09375 3 -4.015625 3.25 -3.921875 C 3.6875 -3.765625 3.8125 -3.765625 4.09375 -3.765625 C 3.703125 -3.296875 2.78125 -2.515625 2.578125 -2.328125 L 1.59375 -1.421875 C 0.84375 -0.6875 0.46875 -0.0625 0.46875 0.015625 C 0.46875 0.125 0.578125 0.125 0.59375 0.125 C 0.6875 0.125 0.703125 0.09375 0.78125 -0.015625 C 1.03125 -0.40625 1.359375 -0.703125 1.703125 -0.703125 C 1.953125 -0.703125 2.0625 -0.59375 2.328125 -0.28125 C 2.515625 -0.046875 2.71875 0.125 3.03125 0.125 C 4.109375 0.125 4.75 -1.265625 4.75 -1.5625 C 4.75 -1.609375 4.703125 -1.671875 4.609375 -1.671875 C 4.515625 -1.671875 4.5 -1.609375 4.453125 -1.53125 C 4.203125 -0.8125 3.515625 -0.609375 3.15625 -0.609375 C 2.9375 -0.609375 2.734375 -0.671875 2.515625 -0.75 C 2.140625 -0.890625 1.96875 -0.9375 1.75 -0.9375 C 1.71875 -0.9375 1.546875 -0.9375 1.453125 -0.90625 Z M 1.453125 -0.90625 "/>
</g>
<g id="glyph-1-0">
</g>
<g id="glyph-1-1">
<path d="M 1.15625 -0.828125 C 1.15625 -0.34375 1.03125 -0.34375 0.3125 -0.34375 L 0.3125 0 C 0.671875 -0.015625 1.171875 -0.03125 1.5 -0.03125 C 1.828125 -0.03125 2.25 -0.015625 2.6875 0 L 2.6875 -0.34375 C 1.96875 -0.34375 1.84375 -0.34375 1.84375 -0.828125 L 1.84375 -1.953125 L 2.546875 -2.546875 C 3.375 -1.390625 3.84375 -0.78125 3.84375 -0.59375 C 3.84375 -0.375 3.65625 -0.34375 3.453125 -0.34375 L 3.453125 0 C 3.75 -0.015625 4.390625 -0.03125 4.625 -0.03125 C 4.9375 -0.03125 5.25 -0.015625 5.578125 0 L 5.578125 -0.34375 C 5.171875 -0.34375 4.921875 -0.34375 4.515625 -0.921875 L 3.125 -2.875 C 3.125 -2.890625 3.0625 -2.953125 3.0625 -2.984375 C 3.0625 -3.03125 3.84375 -3.6875 3.953125 -3.78125 C 4.640625 -4.328125 5.09375 -4.359375 5.328125 -4.359375 L 5.328125 -4.703125 C 5 -4.671875 4.859375 -4.671875 4.5625 -4.671875 C 4.171875 -4.671875 3.484375 -4.6875 3.34375 -4.703125 L 3.34375 -4.359375 C 3.546875 -4.359375 3.65625 -4.234375 3.65625 -4.09375 C 3.65625 -3.875 3.5 -3.734375 3.40625 -3.671875 L 1.875 -2.328125 L 1.875 -7.5625 L 0.3125 -7.453125 L 0.3125 -7.109375 C 1.0625 -7.109375 1.15625 -7.03125 1.15625 -6.5 Z M 1.15625 -0.828125 "/>
</g>
<g id="glyph-2-0">
</g>
<g id="glyph-2-1">
<path d="M 3.296875 -1.8125 C 3.46875 -1.8125 3.515625 -1.8125 3.515625 -2 C 3.515625 -2.703125 3.125 -3.546875 2 -3.546875 C 1.015625 -3.546875 0.234375 -2.734375 0.234375 -1.75 C 0.234375 -0.71875 1.09375 0.078125 2.109375 0.078125 C 3.109375 0.078125 3.515625 -0.765625 3.515625 -0.953125 C 3.515625 -0.984375 3.484375 -1.0625 3.390625 -1.0625 C 3.296875 -1.0625 3.28125 -1.015625 3.265625 -0.96875 C 2.984375 -0.1875 2.296875 -0.171875 2.15625 -0.171875 C 1.796875 -0.171875 1.421875 -0.328125 1.1875 -0.703125 C 0.953125 -1.0625 0.953125 -1.578125 0.953125 -1.8125 Z M 0.953125 -2.03125 C 1.03125 -3.140625 1.703125 -3.328125 2 -3.328125 C 2.9375 -3.328125 2.96875 -2.203125 2.96875 -2.03125 Z M 0.953125 -2.03125 "/>
</g>
<g id="glyph-2-2">
<path d="M 2.453125 -1.859375 C 2.671875 -2.140625 2.90625 -2.421875 3.140625 -2.671875 C 3.40625 -2.953125 3.6875 -3.15625 4.1875 -3.171875 L 4.1875 -3.4375 C 3.875 -3.40625 3.859375 -3.40625 3.5 -3.40625 C 3.46875 -3.40625 3 -3.40625 2.75 -3.4375 L 2.75 -3.171875 C 2.90625 -3.15625 2.9375 -3.0625 2.9375 -2.953125 C 2.9375 -2.859375 2.890625 -2.75 2.796875 -2.640625 L 2.296875 -2.0625 L 1.671875 -2.8125 C 1.5625 -2.921875 1.5625 -2.96875 1.5625 -2.984375 C 1.5625 -3.046875 1.625 -3.15625 1.8125 -3.171875 L 1.8125 -3.4375 C 1.5 -3.40625 1.046875 -3.40625 0.96875 -3.40625 C 0.828125 -3.40625 0.421875 -3.40625 0.171875 -3.4375 L 0.171875 -3.171875 C 0.71875 -3.171875 0.71875 -3.15625 1.140625 -2.671875 L 1.953125 -1.6875 L 1.234375 -0.828125 C 1.03125 -0.609375 0.734375 -0.28125 0.140625 -0.265625 L 0.140625 0 C 0.4375 -0.03125 0.484375 -0.03125 0.828125 -0.03125 C 0.84375 -0.03125 1.328125 -0.03125 1.578125 0 L 1.578125 -0.265625 C 1.46875 -0.28125 1.390625 -0.328125 1.390625 -0.484375 C 1.390625 -0.625 1.484375 -0.734375 1.5 -0.765625 C 1.703125 -1.015625 1.921875 -1.25 2.125 -1.484375 L 2.78125 -0.703125 C 2.9375 -0.515625 2.9375 -0.5 2.9375 -0.453125 C 2.9375 -0.375 2.890625 -0.265625 2.6875 -0.265625 L 2.6875 0 C 3.03125 -0.03125 3.390625 -0.03125 3.546875 -0.03125 C 3.6875 -0.03125 4.09375 -0.03125 4.328125 0 L 4.328125 -0.265625 C 3.84375 -0.265625 3.765625 -0.296875 3.546875 -0.546875 Z M 2.453125 -1.859375 "/>
</g>
<g id="glyph-2-3">
<path d="M 3.375 -5.515625 C 3.328125 -5.625 3.3125 -5.6875 3.171875 -5.6875 C 3.03125 -5.6875 3 -5.625 2.96875 -5.515625 L 1.1875 -0.828125 C 1.109375 -0.609375 0.9375 -0.265625 0.28125 -0.265625 L 0.28125 0 C 0.546875 -0.03125 0.96875 -0.03125 1.109375 -0.03125 C 1.359375 -0.03125 1.609375 -0.03125 1.984375 0 L 1.984375 -0.265625 C 1.640625 -0.265625 1.4375 -0.4375 1.4375 -0.65625 C 1.4375 -0.71875 1.4375 -0.734375 1.46875 -0.828125 L 1.84375 -1.828125 L 4.015625 -1.828125 L 4.46875 -0.640625 C 4.5 -0.546875 4.5 -0.515625 4.5 -0.5 C 4.5 -0.265625 4.09375 -0.265625 3.859375 -0.265625 L 3.859375 0 C 4.546875 -0.03125 4.5625 -0.03125 5 -0.03125 C 5.4375 -0.03125 5.59375 -0.03125 6.046875 0 L 6.046875 -0.265625 L 5.90625 -0.265625 C 5.40625 -0.265625 5.328125 -0.328125 5.234375 -0.59375 Z M 2.9375 -4.6875 L 3.90625 -2.09375 L 1.9375 -2.09375 Z M 2.9375 -4.6875 "/>
</g>
<g id="glyph-2-4">
<path d="M 0.375 -5.4375 L 0.375 -5.171875 L 0.5625 -5.171875 C 1.171875 -5.171875 1.1875 -5.09375 1.1875 -4.796875 L 1.1875 -0.640625 C 1.1875 -0.34375 1.171875 -0.265625 0.5625 -0.265625 L 0.375 -0.265625 L 0.375 0 L 3.640625 0 C 4.734375 0 5.515625 -0.703125 5.515625 -1.453125 C 5.515625 -2.109375 4.90625 -2.734375 3.90625 -2.84375 C 4.765625 -3.03125 5.28125 -3.546875 5.28125 -4.09375 C 5.28125 -4.8125 4.484375 -5.4375 3.40625 -5.4375 Z M 1.859375 -2.9375 L 1.859375 -4.859375 C 1.859375 -5.125 1.875 -5.171875 2.25 -5.171875 L 3.359375 -5.171875 C 4.140625 -5.171875 4.5 -4.5625 4.5 -4.09375 C 4.5 -3.546875 4.03125 -2.9375 3.109375 -2.9375 Z M 2.25 -0.265625 C 1.875 -0.265625 1.859375 -0.3125 1.859375 -0.59375 L 1.859375 -2.71875 L 3.484375 -2.71875 C 4.25 -2.71875 4.703125 -2.09375 4.703125 -1.46875 C 4.703125 -0.828125 4.171875 -0.265625 3.359375 -0.265625 Z M 2.25 -0.265625 "/>
</g>
<g id="glyph-3-0">
</g>
<g id="glyph-3-1">
<path d="M 4.25 9.328125 L 2.328125 5.078125 C 2.25 4.90625 2.1875 4.90625 2.15625 4.90625 C 2.15625 4.90625 2.09375 4.90625 1.96875 5 L 0.9375 5.78125 C 0.796875 5.890625 0.796875 5.921875 0.796875 5.953125 C 0.796875 6.015625 0.828125 6.078125 0.90625 6.078125 C 0.96875 6.078125 1.15625 5.921875 1.28125 5.828125 C 1.34375 5.78125 1.5 5.65625 1.625 5.578125 L 3.78125 10.296875 C 3.84375 10.46875 3.90625 10.46875 4 10.46875 C 4.171875 10.46875 4.203125 10.40625 4.28125 10.25 L 9.234375 0 C 9.296875 -0.15625 9.296875 -0.203125 9.296875 -0.21875 C 9.296875 -0.328125 9.21875 -0.4375 9.078125 -0.4375 C 9 -0.4375 8.921875 -0.375 8.828125 -0.203125 Z M 4.25 9.328125 "/>
</g>
<g id="glyph-4-0">
</g>
<g id="glyph-4-1">
<path d="M 3.46875 -2.515625 L 5.796875 -2.515625 C 5.921875 -2.515625 6.109375 -2.515625 6.109375 -2.6875 C 6.109375 -2.875 5.921875 -2.875 5.796875 -2.875 L 3.46875 -2.875 L 3.46875 -5.1875 C 3.46875 -5.3125 3.46875 -5.515625 3.296875 -5.515625 C 3.109375 -5.515625 3.109375 -5.34375 3.109375 -5.21875 L 3.109375 -2.875 L 0.765625 -2.875 C 0.640625 -2.875 0.46875 -2.875 0.46875 -2.6875 C 0.46875 -2.515625 0.640625 -2.515625 0.765625 -2.515625 L 3.109375 -2.515625 L 3.109375 -0.234375 L 0.765625 -0.234375 C 0.640625 -0.234375 0.46875 -0.234375 0.46875 -0.0625 C 0.46875 0.125 0.640625 0.125 0.765625 0.125 L 5.796875 0.125 C 5.921875 0.125 6.109375 0.125 6.109375 -0.0625 C 6.109375 -0.234375 5.921875 -0.234375 5.796875 -0.234375 L 3.46875 -0.234375 Z M 3.46875 -2.515625 "/>
</g>
</g>
</defs>
<g fill="rgb(0%, 0%, 0%)" fill-opacity="1">
<use xlink:href="#glyph-0-1" x="1.696" y="8.17"/>
</g>
<g fill="rgb(0%, 0%, 0%)" fill-opacity="1">
<use xlink:href="#glyph-1-1" x="5.213" y="8.17"/>
</g>
<g fill="rgb(0%, 0%, 0%)" fill-opacity="1">
<use xlink:href="#glyph-2-1" x="10.971" y="9.806"/>
<use xlink:href="#glyph-2-2" x="14.734481" y="9.806"/>
</g>
<g fill="rgb(0%, 0%, 0%)" fill-opacity="1">
<use xlink:href="#glyph-3-1" x="19.702" y="1.373"/>
</g>
<path fill="none" stroke-width="0.436" stroke-linecap="butt" stroke-linejoin="miter" stroke="rgb(0%, 0%, 0%)" stroke-opacity="1" stroke-miterlimit="10" d="M -0.00003125 -0.00125 L 24.312469 -0.00125 " transform="matrix(1, 0, 0, -1, 28.793, 1.155)"/>
<g fill="rgb(0%, 0%, 0%)" fill-opacity="1">
<use xlink:href="#glyph-0-2" x="28.793" y="8.17"/>
</g>
<g fill="rgb(0%, 0%, 0%)" fill-opacity="1">
<use xlink:href="#glyph-2-3" x="34.282" y="9.859"/>
</g>
<g fill="rgb(0%, 0%, 0%)" fill-opacity="1">
<use xlink:href="#glyph-0-2" x="41.123" y="8.17"/>
</g>
<g fill="rgb(0%, 0%, 0%)" fill-opacity="1">
<use xlink:href="#glyph-2-4" x="46.611" y="9.859"/>
</g>
<path fill="none" stroke-width="0.436" stroke-linecap="butt" stroke-linejoin="miter" stroke="rgb(0%, 0%, 0%)" stroke-opacity="1" stroke-miterlimit="10" d="M -0.0006875 0.00190625 L 51.409469 0.00190625 " transform="matrix(1, 0, 0, -1, 1.696, 13.373)"/>
<g fill="rgb(0%, 0%, 0%)" fill-opacity="1">
<use xlink:href="#glyph-0-3" x="14.939" y="23.583"/>
</g>
<g fill="rgb(0%, 0%, 0%)" fill-opacity="1">
<use xlink:href="#glyph-4-1" x="20.617" y="25.22"/>
</g>
<g fill="rgb(0%, 0%, 0%)" fill-opacity="1">
<use xlink:href="#glyph-0-4" x="27.702" y="23.583"/>
</g>
<g fill="rgb(0%, 0%, 0%)" fill-opacity="1">
<use xlink:href="#glyph-4-1" x="32.775" y="25.22"/>
</g>
</svg>
