<?xml version="1.0" encoding="UTF-8"?>
<svg xmlns="http://www.w3.org/2000/svg" xmlns:xlink="http://www.w3.org/1999/xlink" width="96.981" height="29.527" viewBox="0 0 96.981 29.527">
<defs>
<g>
<g id="glyph-0-0">
</g>
<g id="glyph-0-1">
<path d="M 2.265625 -2.109375 C 2.515625 -2.078125 3.40625 -1.890625 3.40625 -1.109375 C 3.40625 -0.5625 3.015625 -0.125 2.171875 -0.125 C 1.25 -0.125 0.859375 -0.734375 0.65625 -1.671875 C 0.625 -1.8125 0.609375 -1.859375 0.5 -1.859375 C 0.359375 -1.859375 0.359375 -1.78125 0.359375 -1.578125 L 0.359375 -0.140625 C 0.359375 0.046875 0.359375 0.125 0.484375 0.125 C 0.53125 0.125 0.546875 0.109375 0.75 -0.09375 C 0.78125 -0.125 0.78125 -0.140625 0.96875 -0.34375 C 1.453125 0.109375 1.9375 0.125 2.171875 0.125 C 3.421875 0.125 3.921875 -0.609375 3.921875 -1.390625 C 3.921875 -1.96875 3.59375 -2.296875 3.46875 -2.4375 C 3.109375 -2.78125 2.6875 -2.875 2.21875 -2.953125 C 1.609375 -3.078125 0.890625 -3.21875 0.890625 -3.84375 C 0.890625 -4.234375 1.171875 -4.671875 2.109375 -4.671875 C 3.296875 -4.671875 3.359375 -3.703125 3.375 -3.359375 C 3.390625 -3.265625 3.484375 -3.265625 3.515625 -3.265625 C 3.65625 -3.265625 3.65625 -3.3125 3.65625 -3.515625 L 3.65625 -4.625 C 3.65625 -4.8125 3.65625 -4.890625 3.53125 -4.890625 C 3.484375 -4.890625 3.453125 -4.890625 3.3125 -4.75 C 3.28125 -4.71875 3.171875 -4.609375 3.125 -4.578125 C 2.71875 -4.890625 2.265625 -4.890625 2.109375 -4.890625 C 0.78125 -4.890625 0.359375 -4.15625 0.359375 -3.546875 C 0.359375 -3.15625 0.53125 -2.859375 0.828125 -2.625 C 1.171875 -2.328125 1.484375 -2.265625 2.265625 -2.109375 Z M 2.265625 -2.109375 "/>
</g>
<g id="glyph-0-2">
<path d="M 1.9375 -4.828125 L 0.40625 -4.703125 L 0.40625 -4.359375 C 1.109375 -4.359375 1.203125 -4.296875 1.203125 -3.765625 L 1.203125 -0.828125 C 1.203125 -0.34375 1.09375 -0.34375 0.359375 -0.34375 L 0.359375 0 C 0.703125 -0.015625 1.296875 -0.03125 1.5625 -0.03125 C 1.9375 -0.03125 2.328125 -0.015625 2.6875 0 L 2.6875 -0.34375 C 1.96875 -0.34375 1.9375 -0.390625 1.9375 -0.8125 Z M 1.96875 -6.71875 C 1.96875 -7.0625 1.703125 -7.296875 1.390625 -7.296875 C 1.0625 -7.296875 0.8125 -7 0.8125 -6.71875 C 0.8125 -6.421875 1.0625 -6.140625 1.390625 -6.140625 C 1.703125 -6.140625 1.96875 -6.375 1.96875 -6.71875 Z M 1.96875 -6.71875 "/>
</g>
<g id="glyph-0-3">
<path d="M 1.203125 -3.75 L 1.203125 -0.828125 C 1.203125 -0.34375 1.078125 -0.34375 0.34375 -0.34375 L 0.34375 0 C 0.734375 -0.015625 1.28125 -0.03125 1.578125 -0.03125 C 1.859375 -0.03125 2.4375 -0.015625 2.796875 0 L 2.796875 -0.34375 C 2.078125 -0.34375 1.953125 -0.34375 1.953125 -0.828125 L 1.953125 -2.828125 C 1.953125 -3.96875 2.71875 -4.578125 3.421875 -4.578125 C 4.109375 -4.578125 4.234375 -3.984375 4.234375 -3.375 L 4.234375 -0.828125 C 4.234375 -0.34375 4.109375 -0.34375 3.375 -0.34375 L 3.375 0 C 3.765625 -0.015625 4.3125 -0.03125 4.609375 -0.03125 C 4.890625 -0.03125 5.46875 -0.015625 5.828125 0 L 5.828125 -0.34375 C 5.265625 -0.34375 5 -0.34375 4.984375 -0.671875 L 4.984375 -2.75 C 4.984375 -3.6875 4.984375 -4.03125 4.640625 -4.421875 C 4.5 -4.609375 4.140625 -4.828125 3.5 -4.828125 C 2.703125 -4.828125 2.1875 -4.359375 1.890625 -3.671875 L 1.890625 -4.828125 L 0.34375 -4.703125 L 0.34375 -4.359375 C 1.109375 -4.359375 1.203125 -4.28125 1.203125 -3.75 Z M 1.203125 -3.75 "/>
</g>
<g id="glyph-0-4">
<path d="M 4.828125 -7.609375 C 4.75 -7.75 4.71875 -7.8125 4.53125 -7.8125 C 4.359375 -7.8125 4.328125 -7.75 4.25 -7.609375 L 0.5625 -0.21875 C 0.515625 -0.125 0.515625 -0.09375 0.515625 -0.09375 C 0.515625 0 0.578125 0 0.75 0 L 8.328125 0 C 8.5 0 8.5625 0 8.5625 -0.09375 C 8.5625 -0.09375 8.5625 -0.125 8.5 -0.21875 Z M 4.1875 -6.71875 L 7.125 -0.828125 L 1.25 -0.828125 Z M 4.1875 -6.71875 "/>
</g>
<g id="glyph-0-5">
<path d="M 1.15625 -0.828125 C 1.15625 -0.34375 1.03125 -0.34375 0.3125 -0.34375 L 0.3125 0 C 0.671875 -0.015625 1.171875 -0.03125 1.5 -0.03125 C 1.828125 -0.03125 2.25 -0.015625 2.6875 0 L 2.6875 -0.34375 C 1.96875 -0.34375 1.84375 -0.34375 1.84375 -0.828125 L 1.84375 -1.953125 L 2.546875 -2.546875 C 3.375 -1.390625 3.84375 -0.78125 3.84375 -0.59375 C 3.84375 -0.375 3.65625 -0.34375 3.453125 -0.34375 L 3.453125 0 C 3.75 -0.015625 4.390625 -0.03125 4.625 -0.03125 C 4.9375 -0.03125 5.25 -0.015625 5.578125 0 L 5.578125 -0.34375 C 5.171875 -0.34375 4.921875 -0.34375 4.515625 -0.921875 L 3.125 -2.875 C 3.125 -2.890625 3.0625 -2.953125 3.0625 -2.984375 C 3.0625 -3.03125 3.84375 -3.6875 3.953125 -3.78125 C 4.640625 -4.328125 5.09375 -4.359375 5.328125 -4.359375 L 5.328125 -4.703125 C 5 -4.671875 4.859375 -4.671875 4.5625 -4.671875 C 4.171875 -4.671875 3.484375 -4.6875 3.34375 -4.703125 L 3.34375 -4.359375 C 3.546875 -4.359375 3.65625 -4.234375 3.65625 -4.09375 C 3.65625 -3.875 3.5 -3.734375 3.40625 -3.671875 L 1.875 -2.328125 L 1.875 -7.5625 L 0.3125 -7.453125 L 0.3125 -7.109375 C 1.0625 -7.109375 1.15625 -7.03125 1.15625 -6.5 Z M 1.15625 -0.828125 "/>
</g>
<g id="glyph-0-6">
<path d="M 4.453125 -2.515625 L 7.5 -2.515625 C 7.65625 -2.515625 7.859375 -2.515625 7.859375 -2.71875 C 7.859375 -2.9375 7.65625 -2.9375 7.5 -2.9375 L 4.453125 -2.9375 L 4.453125 -6 C 4.453125 -6.15625 4.453125 -6.359375 4.25 -6.359375 C 4.03125 -6.359375 4.03125 -6.15625 4.03125 -6 L 4.03125 -2.9375 L 0.96875 -2.9375 C 0.8125 -2.9375 0.609375 -2.9375 0.609375 -2.71875 C 0.609375 -2.515625 0.8125 -2.515625 0.96875 -2.515625 L 4.03125 -2.515625 L 4.03125 0.546875 C 4.03125 0.703125 4.03125 0.90625 4.25 0.90625 C 4.453125 0.90625 4.453125 0.703125 4.453125 0.546875 Z M 4.453125 -2.515625 "/>
</g>
<g id="glyph-1-0">
</g>
<g id="glyph-1-1">
<path d="M 2.25 -1.625 C 2.375 -1.75 2.703125 -2.015625 2.84375 -2.125 C 3.328125 -2.578125 3.796875 -3.015625 3.796875 -3.734375 C 3.796875 -4.6875 3 -5.296875 2.015625 -5.296875 C 1.046875 -5.296875 0.421875 -4.578125 0.421875 -3.859375 C 0.421875 -3.46875 0.734375 -3.421875 0.84375 -3.421875 C 1.015625 -3.421875 1.265625 -3.53125 1.265625 -3.84375 C 1.265625 -4.25 0.859375 -4.25 0.765625 -4.25 C 1 -4.84375 1.53125 -5.03125 1.921875 -5.03125 C 2.65625 -5.03125 3.046875 -4.40625 3.046875 -3.734375 C 3.046875 -2.90625 2.46875 -2.296875 1.515625 -1.34375 L 0.515625 -0.296875 C 0.421875 -0.21875 0.421875 -0.203125 0.421875 0 L 3.5625 0 L 3.796875 -1.421875 L 3.546875 -1.421875 C 3.53125 -1.265625 3.46875 -0.875 3.375 -0.71875 C 3.328125 -0.65625 2.71875 -0.65625 2.59375 -0.65625 L 1.171875 -0.65625 Z M 2.25 -1.625 "/>
</g>
<g id="glyph-1-2">
<path d="M 3.375 -5.515625 C 3.328125 -5.625 3.3125 -5.6875 3.171875 -5.6875 C 3.03125 -5.6875 3 -5.625 2.96875 -5.515625 L 1.1875 -0.828125 C 1.109375 -0.609375 0.9375 -0.265625 0.28125 -0.265625 L 0.28125 0 C 0.546875 -0.03125 0.96875 -0.03125 1.109375 -0.03125 C 1.359375 -0.03125 1.609375 -0.03125 1.984375 0 L 1.984375 -0.265625 C 1.640625 -0.265625 1.4375 -0.4375 1.4375 -0.65625 C 1.4375 -0.71875 1.4375 -0.734375 1.46875 -0.828125 L 1.84375 -1.828125 L 4.015625 -1.828125 L 4.46875 -0.640625 C 4.5 -0.546875 4.5 -0.515625 4.5 -0.5 C 4.5 -0.265625 4.09375 -0.265625 3.859375 -0.265625 L 3.859375 0 C 4.546875 -0.03125 4.5625 -0.03125 5 -0.03125 C 5.4375 -0.03125 5.59375 -0.03125 6.046875 0 L 6.046875 -0.265625 L 5.90625 -0.265625 C 5.40625 -0.265625 5.328125 -0.328125 5.234375 -0.59375 Z M 2.9375 -4.6875 L 3.90625 -2.09375 L 1.9375 -2.09375 Z M 2.9375 -4.6875 "/>
</g>
<g id="glyph-1-3">
<path d="M 0.375 -5.4375 L 0.375 -5.171875 L 0.5625 -5.171875 C 1.171875 -5.171875 1.1875 -5.09375 1.1875 -4.796875 L 1.1875 -0.640625 C 1.1875 -0.34375 1.171875 -0.265625 0.5625 -0.265625 L 0.375 -0.265625 L 0.375 0 L 3.640625 0 C 4.734375 0 5.515625 -0.703125 5.515625 -1.453125 C 5.515625 -2.109375 4.90625 -2.734375 3.90625 -2.84375 C 4.765625 -3.03125 5.28125 -3.546875 5.28125 -4.09375 C 5.28125 -4.8125 4.484375 -5.4375 3.40625 -5.4375 Z M 1.859375 -2.9375 L 1.859375 -4.859375 C 1.859375 -5.125 1.875 -5.171875 2.25 -5.171875 L 3.359375 -5.171875 C 4.140625 -5.171875 4.5 -4.5625 4.5 -4.09375 C 4.5 -3.546875 4.03125 -2.9375 3.109375 -2.9375 Z M 2.25 -0.265625 C 1.875 -0.265625 1.859375 -0.3125 1.859375 -0.59375 L 1.859375 -2.71875 L 3.484375 -2.71875 C 4.25 -2.71875 4.703125 -2.09375 4.703125 -1.46875 C 4.703125 -0.828125 4.171875 -0.265625 3.359375 -0.265625 Z M 2.25 -0.265625 "/>
</g>
<g id="glyph-1-4">
<path d="M 3.296875 -1.8125 C 3.46875 -1.8125 3.515625 -1.8125 3.515625 -2 C 3.515625 -2.703125 3.125 -3.546875 2 -3.546875 C 1.015625 -3.546875 0.234375 -2.734375 0.234375 -1.75 C 0.234375 -0.71875 1.09375 0.078125 2.109375 0.078125 C 3.109375 0.078125 3.515625 -0.765625 3.515625 -0.953125 C 3.515625 -0.984375 3.484375 -1.0625 3.390625 -1.0625 C 3.296875 -1.0625 3.28125 -1.015625 3.265625 -0.96875 C 2.984375 -0.1875 2.296875 -0.171875 2.15625 -0.171875 C 1.796875 -0.171875 1.421875 -0.328125 1.1875 -0.703125 C 0.953125 -1.0625 0.953125 -1.578125 0.953125 -1.8125 Z M 0.953125 -2.03125 C 1.03125 -3.140625 1.703125 -3.328125 2 -3.328125 C 2.9375 -3.328125 2.96875 -2.203125 2.96875 -2.03125 Z M 0.953125 -2.03125 "/>
</g>
<g id="glyph-1-5">
<path d="M 2.453125 -1.859375 C 2.671875 -2.140625 2.90625 -2.421875 3.140625 -2.671875 C 3.40625 -2.953125 3.6875 -3.15625 4.1875 -3.171875 L 4.1875 -3.4375 C 3.875 -3.40625 3.859375 -3.40625 3.5 -3.40625 C 3.46875 -3.40625 3 -3.40625 2.75 -3.4375 L 2.75 -3.171875 C 2.90625 -3.15625 2.9375 -3.0625 2.9375 -2.953125 C 2.9375 -2.859375 2.890625 -2.75 2.796875 -2.640625 L 2.296875 -2.0625 L 1.671875 -2.8125 C 1.5625 -2.921875 1.5625 -2.96875 1.5625 -2.984375 C 1.5625 -3.046875 1.625 -3.15625 1.8125 -3.171875 L 1.8125 -3.4375 C 1.5 -3.40625 1.046875 -3.40625 0.96875 -3.40625 C 0.828125 -3.40625 0.421875 -3.40625 0.171875 -3.4375 L 0.171875 -3.171875 C 0.71875 -3.171875 0.71875 -3.15625 1.140625 -2.671875 L 1.953125 -1.6875 L 1.234375 -0.828125 C 1.03125 -0.609375 0.734375 -0.28125 0.140625 -0.265625 L 0.140625 0 C 0.4375 -0.03125 0.484375 -0.03125 0.828125 -0.03125 C 0.84375 -0.03125 1.328125 -0.03125 1.578125 0 L 1.578125 -0.265625 C 1.46875 -0.28125 1.390625 -0.328125 1.390625 -0.484375 C 1.390625 -0.625 1.484375 -0.734375 1.5 -0.765625 C 1.703125 -1.015625 1.921875 -1.25 2.125 -1.484375 L 2.78125 -0.703125 C 2.9375 -0.515625 2.9375 -0.5 2.9375 -0.453125 C 2.9375 -0.375 2.890625 -0.265625 2.6875 -0.265625 L 2.6875 0 C 3.03125 -0.03125 3.390625 -0.03125 3.546875 -0.03125 C 3.6875 -0.03125 4.09375 -0.03125 4.328125 0 L 4.328125 -0.265625 C 3.84375 -0.265625 3.765625 -0.296875 3.546875 -0.546875 Z M 2.453125 -1.859375 "/>
</g>
<g id="glyph-1-6">
<path d="M 3.8125 -3.171875 L 4.765625 -3.171875 L 4.765625 -3.4375 L 3.78125 -3.4375 L 3.78125 -4.328125 C 3.78125 -5.046875 4.1875 -5.390625 4.53125 -5.390625 C 4.5625 -5.390625 4.65625 -5.390625 4.765625 -5.34375 C 4.625 -5.28125 4.578125 -5.140625 4.578125 -5.03125 C 4.578125 -4.828125 4.734375 -4.671875 4.9375 -4.671875 C 5.15625 -4.671875 5.296875 -4.828125 5.296875 -5.03125 C 5.296875 -5.375 4.96875 -5.609375 4.546875 -5.609375 C 4.25 -5.609375 3.90625 -5.5 3.640625 -5.28125 C 3.375 -5.59375 2.90625 -5.609375 2.6875 -5.609375 C 1.890625 -5.609375 0.890625 -5.21875 0.890625 -4.3125 L 0.890625 -3.4375 L 0.234375 -3.4375 L 0.234375 -3.171875 L 0.890625 -3.171875 L 0.890625 -0.625 C 0.890625 -0.265625 0.78125 -0.265625 0.28125 -0.265625 L 0.28125 0 C 0.59375 -0.03125 1.03125 -0.03125 1.171875 -0.03125 C 1.328125 -0.03125 1.765625 -0.03125 2.078125 0 L 2.078125 -0.265625 C 1.5625 -0.265625 1.46875 -0.265625 1.46875 -0.625 L 1.46875 -3.171875 L 3.234375 -3.171875 L 3.234375 -0.625 C 3.234375 -0.265625 3.125 -0.265625 2.625 -0.265625 L 2.625 0 C 2.9375 -0.03125 3.375 -0.03125 3.5625 -0.03125 C 4.03125 -0.03125 4.046875 -0.03125 4.5625 0 L 4.5625 -0.265625 L 4.40625 -0.265625 C 3.828125 -0.265625 3.8125 -0.34375 3.8125 -0.640625 Z M 1.4375 -3.4375 L 1.4375 -4.296875 C 1.4375 -5.078125 2.140625 -5.390625 2.671875 -5.390625 C 2.75 -5.390625 3.046875 -5.390625 3.28125 -5.265625 C 3.078125 -5.171875 3.046875 -5 3.046875 -4.921875 C 3.046875 -4.859375 3.0625 -4.6875 3.25 -4.609375 C 3.234375 -4.515625 3.234375 -4.359375 3.234375 -4.328125 L 3.234375 -3.4375 Z M 1.4375 -3.4375 "/>
</g>
<g id="glyph-2-0">
</g>
<g id="glyph-2-1">
<path d="M 4.96875 -5.453125 C 4.96875 -6.171875 4.765625 -7.6875 3.65625 -7.6875 C 2.140625 -7.6875 0.453125 -4.609375 0.453125 -2.109375 C 0.453125 -1.09375 0.78125 0.125 1.765625 0.125 C 3.296875 0.125 4.96875 -3.015625 4.96875 -5.453125 Z M 1.609375 -3.953125 C 1.796875 -4.65625 2.015625 -5.53125 2.453125 -6.296875 C 2.75 -6.84375 3.15625 -7.453125 3.640625 -7.453125 C 4.171875 -7.453125 4.25 -6.75 4.25 -6.125 C 4.25 -5.59375 4.15625 -5.03125 3.890625 -3.953125 Z M 3.796875 -3.609375 C 3.671875 -3.109375 3.453125 -2.1875 3.03125 -1.390625 C 2.65625 -0.65625 2.234375 -0.125 1.765625 -0.125 C 1.40625 -0.125 1.171875 -0.4375 1.171875 -1.453125 C 1.171875 -1.90625 1.25 -2.546875 1.53125 -3.609375 Z M 3.796875 -3.609375 "/>
</g>
<g id="glyph-2-2">
<path d="M 0.484375 1.328125 C 0.40625 1.703125 0.375 1.78125 -0.09375 1.78125 C -0.234375 1.78125 -0.34375 1.78125 -0.34375 1.984375 C -0.34375 2.078125 -0.296875 2.109375 -0.203125 2.109375 C 0.09375 2.109375 0.40625 2.078125 0.703125 2.078125 C 1.0625 2.078125 1.4375 2.109375 1.78125 2.109375 C 1.84375 2.109375 1.984375 2.109375 1.984375 1.890625 C 1.984375 1.78125 1.875 1.78125 1.71875 1.78125 C 1.171875 1.78125 1.171875 1.703125 1.171875 1.609375 C 1.171875 1.46875 1.640625 -0.3125 1.71875 -0.578125 C 1.859375 -0.265625 2.15625 0.125 2.71875 0.125 C 3.984375 0.125 5.34375 -1.46875 5.34375 -3.078125 C 5.34375 -4.09375 4.71875 -4.828125 3.890625 -4.828125 C 3.34375 -4.828125 2.828125 -4.421875 2.46875 -4 C 2.359375 -4.59375 1.890625 -4.828125 1.484375 -4.828125 C 0.984375 -4.828125 0.78125 -4.390625 0.671875 -4.203125 C 0.484375 -3.828125 0.34375 -3.171875 0.34375 -3.140625 C 0.34375 -3.03125 0.453125 -3.03125 0.46875 -3.03125 C 0.578125 -3.03125 0.59375 -3.046875 0.65625 -3.28125 C 0.84375 -4.0625 1.0625 -4.578125 1.453125 -4.578125 C 1.640625 -4.578125 1.78125 -4.5 1.78125 -4.078125 C 1.78125 -3.828125 1.75 -3.703125 1.71875 -3.515625 Z M 2.40625 -3.40625 C 2.484375 -3.703125 2.78125 -4 2.984375 -4.171875 C 3.359375 -4.5 3.671875 -4.578125 3.859375 -4.578125 C 4.296875 -4.578125 4.5625 -4.203125 4.5625 -3.5625 C 4.5625 -2.90625 4.203125 -1.65625 4 -1.25 C 3.625 -0.484375 3.109375 -0.125 2.703125 -0.125 C 1.984375 -0.125 1.84375 -1.03125 1.84375 -1.09375 C 1.84375 -1.109375 1.84375 -1.140625 1.875 -1.265625 Z M 2.40625 -3.40625 "/>
</g>
<g id="glyph-2-3">
<path d="M 6.59375 -4.0625 C 6.59375 -4.546875 6.40625 -4.828125 6.15625 -4.828125 C 5.875 -4.828125 5.578125 -4.5625 5.578125 -4.3125 C 5.578125 -4.203125 5.640625 -4.078125 5.75 -3.984375 C 5.9375 -3.8125 6.125 -3.515625 6.125 -3.0625 C 6.125 -2.625 5.921875 -2 5.578125 -1.5 C 5.25 -1.03125 4.859375 -0.671875 4.34375 -0.671875 C 3.71875 -0.671875 3.375 -1.0625 3.28125 -1.640625 C 3.40625 -1.9375 3.65625 -2.625 3.65625 -2.9375 C 3.65625 -3.0625 3.59375 -3.171875 3.453125 -3.171875 C 3.375 -3.171875 3.25 -3.15625 3.15625 -2.984375 C 3.046875 -2.765625 2.90625 -2.0625 2.90625 -1.671875 C 2.546875 -1.15625 2.109375 -0.671875 1.421875 -0.671875 C 0.703125 -0.671875 0.484375 -1.3125 0.484375 -1.921875 C 0.484375 -3.28125 1.59375 -4.421875 1.59375 -4.5625 C 1.59375 -4.6875 1.5 -4.78125 1.390625 -4.78125 C 1.25 -4.78125 1.171875 -4.640625 1.09375 -4.53125 C 0.546875 -3.734375 0.125 -2.4375 0.125 -1.4375 C 0.125 -0.6875 0.375 0.125 1.28125 0.125 C 2.046875 0.125 2.5625 -0.421875 2.953125 -1.03125 C 3.046875 -0.390625 3.484375 0.125 4.15625 0.125 C 5 0.125 5.53125 -0.546875 5.921875 -1.359375 C 6.1875 -1.890625 6.59375 -3.375 6.59375 -4.0625 Z M 6.59375 -4.0625 "/>
</g>
<g id="glyph-2-4">
<path d="M 4.78125 -7.765625 C 4.84375 -7.90625 4.84375 -7.953125 4.84375 -7.96875 C 4.84375 -8.078125 4.75 -8.171875 4.625 -8.171875 C 4.546875 -8.171875 4.46875 -8.140625 4.4375 -8.078125 L 0.65625 2.3125 C 0.59375 2.453125 0.59375 2.5 0.59375 2.515625 C 0.59375 2.625 0.703125 2.71875 0.8125 2.71875 C 0.953125 2.71875 1 2.65625 1.0625 2.46875 Z M 4.78125 -7.765625 "/>
</g>
</g>
<clipPath id="clip-0">
<path clip-rule="nonzero" d="M 8 23 L 24 23 L 24 29.527344 L 8 29.527344 Z M 8 23 "/>
</clipPath>
<clipPath id="clip-1">
<path clip-rule="nonzero" d="M 31 23 L 46 23 L 46 29.527344 L 31 29.527344 Z M 31 23 "/>
</clipPath>
<clipPath id="clip-2">
<path clip-rule="nonzero" d="M 58 23 L 68 23 L 68 29.527344 L 58 29.527344 Z M 58 23 "/>
</clipPath>
</defs>
<g fill="rgb(0%, 0%, 0%)" fill-opacity="1">
<use xlink:href="#glyph-0-1" x="5.904" y="9.767"/>
<use xlink:href="#glyph-0-2" x="10.206549" y="9.767"/>
<use xlink:href="#glyph-0-3" x="13.237097" y="9.767"/>
</g>
<g fill="rgb(0%, 0%, 0%)" fill-opacity="1">
<use xlink:href="#glyph-1-1" x="19.298" y="5.636"/>
</g>
<g fill="rgb(0%, 0%, 0%)" fill-opacity="1">
<use xlink:href="#glyph-2-1" x="25.848" y="9.767"/>
</g>
<g fill="rgb(0%, 0%, 0%)" fill-opacity="1">
<use xlink:href="#glyph-2-2" x="31.274186" y="9.767"/>
</g>
<g fill="rgb(0%, 0%, 0%)" fill-opacity="1">
<use xlink:href="#glyph-1-2" x="36.761" y="11.456"/>
</g>
<g fill="rgb(0%, 0%, 0%)" fill-opacity="1">
<use xlink:href="#glyph-2-2" x="43.602" y="9.767"/>
</g>
<g fill="rgb(0%, 0%, 0%)" fill-opacity="1">
<use xlink:href="#glyph-1-3" x="49.091" y="11.456"/>
</g>
<g fill="rgb(0%, 0%, 0%)" fill-opacity="1">
<use xlink:href="#glyph-0-4" x="55.583" y="9.767"/>
</g>
<g fill="rgb(0%, 0%, 0%)" fill-opacity="1">
<use xlink:href="#glyph-2-3" x="64.674" y="9.767"/>
</g>
<g fill="rgb(0%, 0%, 0%)" fill-opacity="1">
<use xlink:href="#glyph-1-1" x="71.856" y="5.808"/>
</g>
<g fill="rgb(0%, 0%, 0%)" fill-opacity="1">
<use xlink:href="#glyph-0-5" x="76.588" y="9.767"/>
</g>
<g fill="rgb(0%, 0%, 0%)" fill-opacity="1">
<use xlink:href="#glyph-1-4" x="82.346" y="11.403"/>
<use xlink:href="#glyph-1-5" x="86.109481" y="11.403"/>
</g>
<path fill="none" stroke-width="0.436" stroke-linecap="butt" stroke-linejoin="miter" stroke="rgb(0%, 0%, 0%)" stroke-opacity="1" stroke-miterlimit="10" d="M -0.0006875 -0.001875 L 93.589156 -0.001875 " transform="matrix(1, 0, 0, -1, 1.696, 14.42)"/>
<g fill="rgb(0%, 0%, 0%)" fill-opacity="1">
<use xlink:href="#glyph-2-3" x="1.696" y="25.504"/>
</g>
<g fill="rgb(0%, 0%, 0%)" fill-opacity="1">
<use xlink:href="#glyph-1-1" x="8.877" y="21.747"/>
</g>
<g clip-path="url(#clip-0)">
<g fill="rgb(0%, 0%, 0%)" fill-opacity="1">
<use xlink:href="#glyph-1-2" x="8.486" y="29.027"/>
<use xlink:href="#glyph-1-4" x="14.828606" y="29.027"/>
<use xlink:href="#glyph-1-6" x="18.592087" y="29.027"/>
</g>
</g>
<g fill="rgb(0%, 0%, 0%)" fill-opacity="1">
<use xlink:href="#glyph-2-3" x="24.031" y="25.504"/>
</g>
<g fill="rgb(0%, 0%, 0%)" fill-opacity="1">
<use xlink:href="#glyph-1-1" x="31.212" y="21.747"/>
</g>
<g clip-path="url(#clip-1)">
<g fill="rgb(0%, 0%, 0%)" fill-opacity="1">
<use xlink:href="#glyph-1-3" x="30.821" y="29.027"/>
<use xlink:href="#glyph-1-4" x="36.815312" y="29.027"/>
<use xlink:href="#glyph-1-6" x="40.578793" y="29.027"/>
</g>
</g>
<g fill="rgb(0%, 0%, 0%)" fill-opacity="1">
<use xlink:href="#glyph-2-4" x="46.017" y="25.504"/>
<use xlink:href="#glyph-2-3" x="51.47155" y="25.504"/>
</g>
<g fill="rgb(0%, 0%, 0%)" fill-opacity="1">
<use xlink:href="#glyph-1-1" x="58.653" y="21.747"/>
</g>
<g clip-path="url(#clip-2)">
<g fill="rgb(0%, 0%, 0%)" fill-opacity="1">
<use xlink:href="#glyph-1-4" x="58.262" y="29.027"/>
<use xlink:href="#glyph-1-6" x="62.025481" y="29.027"/>
</g>
</g>
<g fill="rgb(0%, 0%, 0%)" fill-opacity="1">
<use xlink:href="#glyph-0-6" x="69.888" y="25.504"/>
</g>
<g fill="rgb(0%, 0%, 0%)" fill-opacity="1">
<use xlink:href="#glyph-0-5" x="80.794918" y="25.504"/>
</g>
<g fill="rgb(0%, 0%, 0%)" fill-opacity="1">
<use xlink:href="#glyph-1-1" x="86.555" y="21.083"/>
</g>
<g fill="rgb(0%, 0%, 0%)" fill-opacity="1">
<use xlink:href="#glyph-1-4" x="86.555" y="28.201"/>
<use xlink:href="#glyph-1-5" x="90.318481" y="28.201"/>
</g>
</svg>
