<?xml version="1.0" encoding="UTF-8"?>
<svg xmlns="http://www.w3.org/2000/svg" xmlns:xlink="http://www.w3.org/1999/xlink" width="9.468" height="41.648" viewBox="0 0 9.468 41.648">
<defs>
<g>
<g id="glyph-0-0">
</g>
<g id="glyph-0-1">
<path d="M 2.953125 19.1875 L 3.703125 19.1875 L 3.703125 -0.421875 L 0.078125 -0.421875 L 0.078125 0.328125 L 2.953125 0.328125 Z M 2.953125 19.1875 "/>
</g>
<g id="glyph-0-2">
<path d="M 2.953125 18.4375 L 0.078125 18.4375 L 0.078125 19.1875 L 3.703125 19.1875 L 3.703125 -0.4375 L 2.953125 -0.4375 Z M 2.953125 18.4375 "/>
</g>
</g>
</defs>
<g fill="rgb(0%, 0%, 0%)" fill-opacity="1">
<use xlink:href="#glyph-0-1" x="1.696" y="1.624"/>
</g>
<g fill="rgb(0%, 0%, 0%)" fill-opacity="1">
<use xlink:href="#glyph-0-2" x="1.696" y="21.261"/>
</g>
</svg>
