<?xml version="1.0" encoding="UTF-8"?>
<svg xmlns="http://www.w3.org/2000/svg" xmlns:xlink="http://www.w3.org/1999/xlink" width="11.281" height="22.893" viewBox="0 0 11.281 22.893">
<defs>
<g>
<g id="glyph-0-0">
</g>
<g id="glyph-0-1">
<path d="M 3.203125 -6.984375 C 3.203125 -7.234375 3.203125 -7.265625 2.953125 -7.265625 C 2.28125 -6.5625 1.3125 -6.5625 0.96875 -6.5625 L 0.96875 -6.234375 C 1.1875 -6.234375 1.828125 -6.234375 2.40625 -6.515625 L 2.40625 -0.859375 C 2.40625 -0.46875 2.359375 -0.34375 1.390625 -0.34375 L 1.03125 -0.34375 L 1.03125 0 C 1.421875 -0.03125 2.359375 -0.03125 2.796875 -0.03125 C 3.234375 -0.03125 4.1875 -0.03125 4.5625 0 L 4.5625 -0.34375 L 4.21875 -0.34375 C 3.234375 -0.34375 3.203125 -0.453125 3.203125 -0.859375 Z M 3.203125 -6.984375 "/>
</g>
<g id="glyph-1-0">
</g>
<g id="glyph-1-1">
<path d="M 4.65625 -6.625 C 4.734375 -6.921875 4.78125 -6.984375 4.90625 -7.03125 C 5 -7.046875 5.359375 -7.046875 5.59375 -7.046875 C 6.703125 -7.046875 7.1875 -7 7.1875 -6.15625 C 7.1875 -5.984375 7.140625 -5.5625 7.09375 -5.28125 C 7.09375 -5.234375 7.0625 -5.109375 7.0625 -5.078125 C 7.0625 -5 7.09375 -4.921875 7.203125 -4.921875 C 7.3125 -4.921875 7.34375 -5.015625 7.359375 -5.1875 L 7.65625 -7.078125 C 7.671875 -7.125 7.671875 -7.234375 7.671875 -7.265625 C 7.671875 -7.390625 7.5625 -7.390625 7.390625 -7.390625 L 1.328125 -7.390625 C 1.0625 -7.390625 1.0625 -7.375 0.984375 -7.171875 L 0.328125 -5.25 C 0.3125 -5.21875 0.265625 -5.078125 0.265625 -5.046875 C 0.265625 -4.984375 0.3125 -4.921875 0.390625 -4.921875 C 0.5 -4.921875 0.515625 -4.984375 0.578125 -5.15625 C 1.171875 -6.84375 1.453125 -7.046875 3.0625 -7.046875 L 3.484375 -7.046875 C 3.796875 -7.046875 3.796875 -7 3.796875 -6.921875 C 3.796875 -6.84375 3.765625 -6.71875 3.75 -6.6875 L 2.296875 -0.859375 C 2.1875 -0.453125 2.15625 -0.34375 1 -0.34375 C 0.59375 -0.34375 0.53125 -0.34375 0.53125 -0.125 C 0.53125 0 0.65625 0 0.71875 0 C 1.015625 0 1.3125 -0.015625 1.609375 -0.015625 C 1.921875 -0.015625 2.234375 -0.03125 2.546875 -0.03125 C 2.84375 -0.03125 3.15625 -0.015625 3.453125 -0.015625 C 3.765625 -0.015625 4.09375 0 4.390625 0 C 4.5 0 4.640625 0 4.640625 -0.21875 C 4.640625 -0.34375 4.546875 -0.34375 4.265625 -0.34375 C 3.984375 -0.34375 3.84375 -0.34375 3.5625 -0.359375 C 3.25 -0.390625 3.15625 -0.421875 3.15625 -0.59375 C 3.15625 -0.609375 3.15625 -0.671875 3.203125 -0.828125 Z M 4.65625 -6.625 "/>
</g>
</g>
<clipPath id="clip-0">
<path clip-rule="nonzero" d="M 1 15 L 10 15 L 10 22.894531 L 1 22.894531 Z M 1 15 "/>
</clipPath>
</defs>
<g fill="rgb(0%, 0%, 0%)" fill-opacity="1">
<use xlink:href="#glyph-0-1" x="2.913" y="7.53"/>
</g>
<path fill="none" stroke-width="0.436" stroke-linecap="butt" stroke-linejoin="miter" stroke="rgb(0%, 0%, 0%)" stroke-opacity="1" stroke-miterlimit="10" d="M -0.0006875 -0.00059375 L 7.889938 -0.00059375 " transform="matrix(1, 0, 0, -1, 1.696, 12.183)"/>
<g clip-path="url(#clip-0)">
<g fill="rgb(0%, 0%, 0%)" fill-opacity="1">
<use xlink:href="#glyph-1-1" x="1.696" y="22.393"/>
</g>
</g>
</svg>
