<?xml version="1.0" encoding="UTF-8"?>
<svg xmlns="http://www.w3.org/2000/svg" xmlns:xlink="http://www.w3.org/1999/xlink" width="10.039" height="8.543" viewBox="0 0 10.039 8.543">
<defs>
<g>
<g id="glyph-0-0">
</g>
<g id="glyph-0-1">
<path d="M 3.703125 -5.546875 C 3.109375 -5.375 2.5 -4.890625 2.5 -4.234375 C 2.5 -3.671875 2.984375 -3.375 3.546875 -3.375 C 4.390625 -3.375 5.28125 -3.71875 6.046875 -3.71875 C 6.921875 -3.71875 7.390625 -3.03125 7.390625 -2.25 C 7.390625 -1.75 7.21875 -1.1875 6.875 -0.84375 C 6.375 -0.34375 5.65625 -0.28125 4.96875 -0.28125 C 2.796875 -0.28125 1.515625 -2.140625 1.515625 -4.125 C 1.515625 -5.390625 2.375 -6.84375 3.671875 -6.84375 C 4.640625 -6.84375 5.765625 -5.65625 6.625 -5.578125 C 7.390625 -5.875 8.03125 -6.28125 8.25 -7.140625 L 8.03125 -7.265625 C 7.90625 -6.859375 7.6875 -6.453125 7.140625 -6.453125 C 6.546875 -6.453125 5.6875 -6.953125 4.640625 -7.515625 C 3.625 -7.3125 2.515625 -6.890625 1.78125 -6.15625 C 1.03125 -5.40625 0.609375 -4.421875 0.609375 -3.375 C 0.609375 -2.3125 1.03125 -1.265625 1.78125 -0.53125 C 2.375 0.078125 3.234375 0.296875 4.0625 0.296875 C 6.015625 0.296875 8.1875 -0.734375 8.1875 -3.015625 C 8.1875 -3.921875 7.5 -4.46875 6.6875 -4.46875 C 5.90625 -4.46875 4.65625 -4 4.015625 -4 C 3.609375 -4 3.3125 -4.21875 3.3125 -4.640625 C 3.3125 -4.96875 3.484375 -5.296875 3.84375 -5.40625 Z M 3.703125 -5.546875 "/>
</g>
</g>
<clipPath id="clip-0">
<path clip-rule="nonzero" d="M 1 0 L 9 0 L 9 8.542969 L 1 8.542969 Z M 1 0 "/>
</clipPath>
</defs>
<g clip-path="url(#clip-0)">
<g fill="rgb(0%, 0%, 0%)" fill-opacity="1">
<use xlink:href="#glyph-0-1" x="0.5" y="8.043"/>
</g>
</g>
</svg>
