<?xml version="1.0" encoding="UTF-8"?>
<svg xmlns="http://www.w3.org/2000/svg" xmlns:xlink="http://www.w3.org/1999/xlink" width="178.832" height="28.098" viewBox="0 0 178.832 28.098">
<defs>
<g>
<g id="glyph-0-0">
</g>
<g id="glyph-0-1">
<path d="M 7.640625 25.625 C 7.640625 25.578125 7.609375 25.546875 7.59375 25.515625 C 7.1875 25.109375 6.453125 24.390625 5.71875 23.203125 C 3.96875 20.390625 3.171875 16.84375 3.171875 12.65625 C 3.171875 9.71875 3.5625 5.9375 5.359375 2.6875 C 6.234375 1.140625 7.125 0.234375 7.609375 -0.234375 C 7.640625 -0.265625 7.640625 -0.296875 7.640625 -0.328125 C 7.640625 -0.4375 7.5625 -0.4375 7.40625 -0.4375 C 7.25 -0.4375 7.234375 -0.4375 7.0625 -0.265625 C 3.40625 3.046875 2.265625 8.046875 2.265625 12.640625 C 2.265625 16.921875 3.25 21.25 6.015625 24.5 C 6.234375 24.75 6.65625 25.203125 7.09375 25.59375 C 7.234375 25.734375 7.25 25.734375 7.40625 25.734375 C 7.5625 25.734375 7.640625 25.734375 7.640625 25.625 Z M 7.640625 25.625 "/>
</g>
<g id="glyph-0-2">
<path d="M 5.75 12.65625 C 5.75 8.359375 4.765625 4.046875 2 0.78125 C 1.78125 0.53125 1.359375 0.09375 0.921875 -0.3125 C 0.78125 -0.4375 0.765625 -0.4375 0.609375 -0.4375 C 0.484375 -0.4375 0.375 -0.4375 0.375 -0.328125 C 0.375 -0.28125 0.421875 -0.234375 0.453125 -0.21875 C 0.828125 0.171875 1.5625 0.90625 2.296875 2.078125 C 4.046875 4.890625 4.84375 8.4375 4.84375 12.640625 C 4.84375 15.578125 4.453125 19.359375 2.65625 22.609375 C 1.78125 24.15625 0.890625 25.0625 0.421875 25.515625 C 0.40625 25.546875 0.375 25.59375 0.375 25.625 C 0.375 25.734375 0.484375 25.734375 0.609375 25.734375 C 0.765625 25.734375 0.78125 25.734375 0.953125 25.5625 C 4.609375 22.234375 5.75 17.25 5.75 12.65625 Z M 5.75 12.65625 "/>
</g>
<g id="glyph-1-0">
</g>
<g id="glyph-1-1">
<path d="M 7.1875 -2.515625 C 7.375 -2.515625 7.5625 -2.515625 7.5625 -2.71875 C 7.5625 -2.9375 7.375 -2.9375 7.1875 -2.9375 L 1.28125 -2.9375 C 1.09375 -2.9375 0.90625 -2.9375 0.90625 -2.71875 C 0.90625 -2.515625 1.09375 -2.515625 1.28125 -2.515625 Z M 7.1875 -2.515625 "/>
</g>
<g id="glyph-1-2">
<path d="M 4.453125 -3.40625 L 7.5 -3.40625 C 7.671875 -3.40625 7.875 -3.40625 7.875 -3.625 C 7.875 -3.84375 7.671875 -3.84375 7.5 -3.84375 L 4.453125 -3.84375 L 4.453125 -6.859375 C 4.453125 -7.03125 4.453125 -7.265625 4.25 -7.265625 C 4.03125 -7.265625 4.03125 -7.0625 4.03125 -6.890625 L 4.03125 -3.84375 L 0.984375 -3.84375 C 0.796875 -3.84375 0.59375 -3.84375 0.59375 -3.625 C 0.59375 -3.40625 0.796875 -3.40625 0.984375 -3.40625 L 4.03125 -3.40625 L 4.03125 -0.4375 L 0.984375 -0.4375 C 0.796875 -0.4375 0.59375 -0.4375 0.59375 -0.21875 C 0.59375 0 0.796875 0 0.984375 0 L 7.5 0 C 7.671875 0 7.875 0 7.875 -0.21875 C 7.875 -0.4375 7.671875 -0.4375 7.5 -0.4375 L 4.453125 -0.4375 Z M 4.453125 -3.40625 "/>
</g>
<g id="glyph-2-0">
</g>
<g id="glyph-2-1">
<path d="M 1.15625 -0.828125 C 1.15625 -0.34375 1.03125 -0.34375 0.3125 -0.34375 L 0.3125 0 C 0.671875 -0.015625 1.171875 -0.03125 1.5 -0.03125 C 1.828125 -0.03125 2.25 -0.015625 2.6875 0 L 2.6875 -0.34375 C 1.96875 -0.34375 1.84375 -0.34375 1.84375 -0.828125 L 1.84375 -1.953125 L 2.546875 -2.546875 C 3.375 -1.390625 3.84375 -0.78125 3.84375 -0.59375 C 3.84375 -0.375 3.65625 -0.34375 3.453125 -0.34375 L 3.453125 0 C 3.75 -0.015625 4.390625 -0.03125 4.625 -0.03125 C 4.9375 -0.03125 5.25 -0.015625 5.578125 0 L 5.578125 -0.34375 C 5.171875 -0.34375 4.921875 -0.34375 4.515625 -0.921875 L 3.125 -2.875 C 3.125 -2.890625 3.0625 -2.953125 3.0625 -2.984375 C 3.0625 -3.03125 3.84375 -3.6875 3.953125 -3.78125 C 4.640625 -4.328125 5.09375 -4.359375 5.328125 -4.359375 L 5.328125 -4.703125 C 5 -4.671875 4.859375 -4.671875 4.5625 -4.671875 C 4.171875 -4.671875 3.484375 -4.6875 3.34375 -4.703125 L 3.34375 -4.359375 C 3.546875 -4.359375 3.65625 -4.234375 3.65625 -4.09375 C 3.65625 -3.875 3.5 -3.734375 3.40625 -3.671875 L 1.875 -2.328125 L 1.875 -7.5625 L 0.3125 -7.453125 L 0.3125 -7.109375 C 1.0625 -7.109375 1.15625 -7.03125 1.15625 -6.5 Z M 1.15625 -0.828125 "/>
</g>
<g id="glyph-2-2">
<path d="M 2.4375 -3.84375 L 2.4375 -6.671875 C 2.4375 -6.921875 2.4375 -7.0625 2.6875 -7.09375 C 2.796875 -7.109375 3.109375 -7.109375 3.328125 -7.109375 C 4.3125 -7.109375 5.53125 -7.0625 5.53125 -5.484375 C 5.53125 -4.734375 5.265625 -3.84375 3.65625 -3.84375 Z M 4.75 -3.703125 C 5.796875 -3.96875 6.65625 -4.640625 6.65625 -5.484375 C 6.65625 -6.53125 5.40625 -7.453125 3.8125 -7.453125 L 0.375 -7.453125 L 0.375 -7.109375 L 0.640625 -7.109375 C 1.484375 -7.109375 1.5 -6.984375 1.5 -6.59375 L 1.5 -0.84375 C 1.5 -0.453125 1.484375 -0.34375 0.640625 -0.34375 L 0.375 -0.34375 L 0.375 0 C 0.78125 -0.03125 1.546875 -0.03125 1.96875 -0.03125 C 2.40625 -0.03125 3.171875 -0.03125 3.5625 0 L 3.5625 -0.34375 L 3.296875 -0.34375 C 2.46875 -0.34375 2.4375 -0.453125 2.4375 -0.84375 L 2.4375 -3.609375 L 3.703125 -3.609375 C 3.875 -3.609375 4.328125 -3.609375 4.71875 -3.234375 C 5.125 -2.84375 5.125 -2.515625 5.125 -1.78125 C 5.125 -1.0625 5.125 -0.625 5.578125 -0.21875 C 6.015625 0.171875 6.625 0.234375 6.953125 0.234375 C 7.796875 0.234375 7.984375 -0.65625 7.984375 -0.953125 C 7.984375 -1.03125 7.984375 -1.140625 7.84375 -1.140625 C 7.71875 -1.140625 7.71875 -1.046875 7.703125 -0.96875 C 7.640625 -0.203125 7.265625 0 6.984375 0 C 6.453125 0 6.375 -0.5625 6.21875 -1.578125 L 6.078125 -2.4375 C 5.875 -3.140625 5.34375 -3.5 4.75 -3.703125 Z M 4.75 -3.703125 "/>
</g>
<g id="glyph-2-3">
<path d="M 4.828125 -7.609375 C 4.75 -7.75 4.71875 -7.8125 4.53125 -7.8125 C 4.359375 -7.8125 4.328125 -7.75 4.25 -7.609375 L 0.5625 -0.21875 C 0.515625 -0.125 0.515625 -0.09375 0.515625 -0.09375 C 0.515625 0 0.578125 0 0.75 0 L 8.328125 0 C 8.5 0 8.5625 0 8.5625 -0.09375 C 8.5625 -0.09375 8.5625 -0.125 8.5 -0.21875 Z M 4.1875 -6.71875 L 7.125 -0.828125 L 1.25 -0.828125 Z M 4.1875 -6.71875 "/>
</g>
<g id="glyph-3-0">
</g>
<g id="glyph-3-1">
<path d="M 3.375 -5.515625 C 3.328125 -5.625 3.3125 -5.6875 3.171875 -5.6875 C 3.03125 -5.6875 3 -5.625 2.96875 -5.515625 L 1.1875 -0.828125 C 1.109375 -0.609375 0.9375 -0.265625 0.28125 -0.265625 L 0.28125 0 C 0.546875 -0.03125 0.96875 -0.03125 1.109375 -0.03125 C 1.359375 -0.03125 1.609375 -0.03125 1.984375 0 L 1.984375 -0.265625 C 1.640625 -0.265625 1.4375 -0.4375 1.4375 -0.65625 C 1.4375 -0.71875 1.4375 -0.734375 1.46875 -0.828125 L 1.84375 -1.828125 L 4.015625 -1.828125 L 4.46875 -0.640625 C 4.5 -0.546875 4.5 -0.515625 4.5 -0.5 C 4.5 -0.265625 4.09375 -0.265625 3.859375 -0.265625 L 3.859375 0 C 4.546875 -0.03125 4.5625 -0.03125 5 -0.03125 C 5.4375 -0.03125 5.59375 -0.03125 6.046875 0 L 6.046875 -0.265625 L 5.90625 -0.265625 C 5.40625 -0.265625 5.328125 -0.328125 5.234375 -0.59375 Z M 2.9375 -4.6875 L 3.90625 -2.09375 L 1.9375 -2.09375 Z M 2.9375 -4.6875 "/>
</g>
<g id="glyph-3-2">
<path d="M 0.375 -5.4375 L 0.375 -5.171875 L 0.5625 -5.171875 C 1.171875 -5.171875 1.1875 -5.09375 1.1875 -4.796875 L 1.1875 -0.640625 C 1.1875 -0.34375 1.171875 -0.265625 0.5625 -0.265625 L 0.375 -0.265625 L 0.375 0 L 3.640625 0 C 4.734375 0 5.515625 -0.703125 5.515625 -1.453125 C 5.515625 -2.109375 4.90625 -2.734375 3.90625 -2.84375 C 4.765625 -3.03125 5.28125 -3.546875 5.28125 -4.09375 C 5.28125 -4.8125 4.484375 -5.4375 3.40625 -5.4375 Z M 1.859375 -2.9375 L 1.859375 -4.859375 C 1.859375 -5.125 1.875 -5.171875 2.25 -5.171875 L 3.359375 -5.171875 C 4.140625 -5.171875 4.5 -4.5625 4.5 -4.09375 C 4.5 -3.546875 4.03125 -2.9375 3.109375 -2.9375 Z M 2.25 -0.265625 C 1.875 -0.265625 1.859375 -0.3125 1.859375 -0.59375 L 1.859375 -2.71875 L 3.484375 -2.71875 C 4.25 -2.71875 4.703125 -2.09375 4.703125 -1.46875 C 4.703125 -0.828125 4.171875 -0.265625 3.359375 -0.265625 Z M 2.25 -0.265625 "/>
</g>
<g id="glyph-3-3">
<path d="M 3.890625 -2.546875 C 3.890625 -3.390625 3.8125 -3.90625 3.546875 -4.421875 C 3.203125 -5.125 2.546875 -5.296875 2.109375 -5.296875 C 1.109375 -5.296875 0.734375 -4.546875 0.625 -4.328125 C 0.34375 -3.75 0.328125 -2.953125 0.328125 -2.546875 C 0.328125 -2.015625 0.34375 -1.21875 0.734375 -0.578125 C 1.09375 0.015625 1.6875 0.171875 2.109375 0.171875 C 2.5 0.171875 3.171875 0.046875 3.578125 -0.734375 C 3.875 -1.3125 3.890625 -2.03125 3.890625 -2.546875 Z M 2.109375 -0.0625 C 1.84375 -0.0625 1.296875 -0.1875 1.125 -1.015625 C 1.03125 -1.46875 1.03125 -2.21875 1.03125 -2.640625 C 1.03125 -3.1875 1.03125 -3.75 1.125 -4.1875 C 1.296875 -5 1.90625 -5.078125 2.109375 -5.078125 C 2.375 -5.078125 2.9375 -4.9375 3.09375 -4.21875 C 3.1875 -3.78125 3.1875 -3.171875 3.1875 -2.640625 C 3.1875 -2.171875 3.1875 -1.453125 3.09375 -1 C 2.921875 -0.171875 2.375 -0.0625 2.109375 -0.0625 Z M 2.109375 -0.0625 "/>
</g>
<g id="glyph-3-4">
<path d="M 2.25 -1.625 C 2.375 -1.75 2.703125 -2.015625 2.84375 -2.125 C 3.328125 -2.578125 3.796875 -3.015625 3.796875 -3.734375 C 3.796875 -4.6875 3 -5.296875 2.015625 -5.296875 C 1.046875 -5.296875 0.421875 -4.578125 0.421875 -3.859375 C 0.421875 -3.46875 0.734375 -3.421875 0.84375 -3.421875 C 1.015625 -3.421875 1.265625 -3.53125 1.265625 -3.84375 C 1.265625 -4.25 0.859375 -4.25 0.765625 -4.25 C 1 -4.84375 1.53125 -5.03125 1.921875 -5.03125 C 2.65625 -5.03125 3.046875 -4.40625 3.046875 -3.734375 C 3.046875 -2.90625 2.46875 -2.296875 1.515625 -1.34375 L 0.515625 -0.296875 C 0.421875 -0.21875 0.421875 -0.203125 0.421875 0 L 3.5625 0 L 3.796875 -1.421875 L 3.546875 -1.421875 C 3.53125 -1.265625 3.46875 -0.875 3.375 -0.71875 C 3.328125 -0.65625 2.71875 -0.65625 2.59375 -0.65625 L 1.171875 -0.65625 Z M 2.25 -1.625 "/>
</g>
<g id="glyph-4-0">
</g>
<g id="glyph-4-1">
<path d="M 2.265625 -2.71875 C 2.40625 -3.03125 2.40625 -3.046875 2.515625 -3.34375 C 2.59375 -3.5625 2.65625 -3.71875 2.65625 -3.921875 C 2.65625 -4.421875 2.296875 -4.828125 1.75 -4.828125 C 0.734375 -4.828125 0.3125 -3.234375 0.3125 -3.140625 C 0.3125 -3.03125 0.421875 -3.03125 0.453125 -3.03125 C 0.5625 -3.03125 0.5625 -3.046875 0.625 -3.234375 C 0.921875 -4.25 1.359375 -4.578125 1.71875 -4.578125 C 1.8125 -4.578125 2 -4.578125 2 -4.234375 C 2 -4 1.921875 -3.78125 1.875 -3.671875 C 1.78125 -3.375 1.296875 -2.109375 1.125 -1.640625 C 1.015625 -1.359375 0.875 -1 0.875 -0.78125 C 0.875 -0.265625 1.25 0.125 1.765625 0.125 C 2.796875 0.125 3.203125 -1.46875 3.203125 -1.5625 C 3.203125 -1.671875 3.09375 -1.671875 3.0625 -1.671875 C 2.953125 -1.671875 2.953125 -1.640625 2.90625 -1.46875 C 2.703125 -0.78125 2.34375 -0.125 1.78125 -0.125 C 1.609375 -0.125 1.53125 -0.234375 1.53125 -0.484375 C 1.53125 -0.75 1.59375 -0.90625 1.84375 -1.578125 Z M 2.265625 -2.71875 "/>
</g>
<g id="glyph-4-2">
<path d="M 6.59375 -4.0625 C 6.59375 -4.546875 6.40625 -4.828125 6.15625 -4.828125 C 5.875 -4.828125 5.578125 -4.5625 5.578125 -4.3125 C 5.578125 -4.203125 5.640625 -4.078125 5.75 -3.984375 C 5.9375 -3.8125 6.125 -3.515625 6.125 -3.0625 C 6.125 -2.625 5.921875 -2 5.578125 -1.5 C 5.25 -1.03125 4.859375 -0.671875 4.34375 -0.671875 C 3.71875 -0.671875 3.375 -1.0625 3.28125 -1.640625 C 3.40625 -1.9375 3.65625 -2.625 3.65625 -2.9375 C 3.65625 -3.0625 3.59375 -3.171875 3.453125 -3.171875 C 3.375 -3.171875 3.25 -3.15625 3.15625 -2.984375 C 3.046875 -2.765625 2.90625 -2.0625 2.90625 -1.671875 C 2.546875 -1.15625 2.109375 -0.671875 1.421875 -0.671875 C 0.703125 -0.671875 0.484375 -1.3125 0.484375 -1.921875 C 0.484375 -3.28125 1.59375 -4.421875 1.59375 -4.5625 C 1.59375 -4.6875 1.5 -4.78125 1.390625 -4.78125 C 1.25 -4.78125 1.171875 -4.640625 1.09375 -4.53125 C 0.546875 -3.734375 0.125 -2.4375 0.125 -1.4375 C 0.125 -0.6875 0.375 0.125 1.28125 0.125 C 2.046875 0.125 2.5625 -0.421875 2.953125 -1.03125 C 3.046875 -0.390625 3.484375 0.125 4.15625 0.125 C 5 0.125 5.53125 -0.546875 5.921875 -1.359375 C 6.1875 -1.890625 6.59375 -3.375 6.59375 -4.0625 Z M 6.59375 -4.0625 "/>
</g>
</g>
</defs>
<g fill="rgb(0%, 0%, 0%)" fill-opacity="1">
<use xlink:href="#glyph-0-1" x="0.5" y="1.394"/>
</g>
<g fill="rgb(0%, 0%, 0%)" fill-opacity="1">
<use xlink:href="#glyph-1-1" x="8.53" y="9.984"/>
</g>
<g fill="rgb(0%, 0%, 0%)" fill-opacity="1">
<use xlink:href="#glyph-2-1" x="17.015" y="9.984"/>
</g>
<g fill="rgb(0%, 0%, 0%)" fill-opacity="1">
<use xlink:href="#glyph-3-1" x="22.773" y="11.673"/>
<use xlink:href="#glyph-3-2" x="29.115606" y="11.673"/>
</g>
<g fill="rgb(0%, 0%, 0%)" fill-opacity="1">
<use xlink:href="#glyph-1-1" x="38.032" y="9.984"/>
</g>
<g fill="rgb(0%, 0%, 0%)" fill-opacity="1">
<use xlink:href="#glyph-2-2" x="48.941" y="9.984"/>
</g>
<g fill="rgb(0%, 0%, 0%)" fill-opacity="1">
<use xlink:href="#glyph-3-3" x="56.972" y="6.025"/>
</g>
<g fill="rgb(0%, 0%, 0%)" fill-opacity="1">
<use xlink:href="#glyph-3-4" x="56.972" y="13.217"/>
<use xlink:href="#glyph-3-1" x="61.206514" y="13.217"/>
</g>
<g fill="rgb(0%, 0%, 0%)" fill-opacity="1">
<use xlink:href="#glyph-2-1" x="114.859" y="9.984"/>
</g>
<g fill="rgb(0%, 0%, 0%)" fill-opacity="1">
<use xlink:href="#glyph-3-2" x="120.617" y="11.673"/>
<use xlink:href="#glyph-3-1" x="126.611312" y="11.673"/>
</g>
<g fill="rgb(0%, 0%, 0%)" fill-opacity="1">
<use xlink:href="#glyph-2-1" x="28.992" y="23.533"/>
</g>
<g fill="rgb(0%, 0%, 0%)" fill-opacity="1">
<use xlink:href="#glyph-3-1" x="34.75" y="25.222"/>
<use xlink:href="#glyph-3-2" x="41.092606" y="25.222"/>
</g>
<g fill="rgb(0%, 0%, 0%)" fill-opacity="1">
<use xlink:href="#glyph-1-1" x="78.01" y="23.533"/>
</g>
<g fill="rgb(0%, 0%, 0%)" fill-opacity="1">
<use xlink:href="#glyph-2-1" x="86.495" y="23.533"/>
</g>
<g fill="rgb(0%, 0%, 0%)" fill-opacity="1">
<use xlink:href="#glyph-3-2" x="92.252" y="25.222"/>
<use xlink:href="#glyph-3-1" x="98.246312" y="25.222"/>
</g>
<g fill="rgb(0%, 0%, 0%)" fill-opacity="1">
<use xlink:href="#glyph-1-2" x="107.512" y="23.533"/>
</g>
<g fill="rgb(0%, 0%, 0%)" fill-opacity="1">
<use xlink:href="#glyph-4-1" x="118.421" y="23.533"/>
</g>
<g fill="rgb(0%, 0%, 0%)" fill-opacity="1">
<use xlink:href="#glyph-2-3" x="121.939" y="23.533"/>
</g>
<g fill="rgb(0%, 0%, 0%)" fill-opacity="1">
<use xlink:href="#glyph-4-2" x="131.029" y="23.533"/>
</g>
<g fill="rgb(0%, 0%, 0%)" fill-opacity="1">
<use xlink:href="#glyph-1-1" x="140.635" y="23.533"/>
</g>
<g fill="rgb(0%, 0%, 0%)" fill-opacity="1">
<use xlink:href="#glyph-2-2" x="151.544" y="23.533"/>
</g>
<g fill="rgb(0%, 0%, 0%)" fill-opacity="1">
<use xlink:href="#glyph-3-3" x="159.575" y="19.574"/>
</g>
<g fill="rgb(0%, 0%, 0%)" fill-opacity="1">
<use xlink:href="#glyph-3-4" x="159.575" y="26.766"/>
<use xlink:href="#glyph-3-2" x="163.809514" y="26.766"/>
</g>
<g fill="rgb(0%, 0%, 0%)" fill-opacity="1">
<use xlink:href="#glyph-0-2" x="170.301" y="1.394"/>
</g>
</svg>
