<?xml version="1.0" encoding="UTF-8"?>
<svg xmlns="http://www.w3.org/2000/svg" xmlns:xlink="http://www.w3.org/1999/xlink" width="77.27" height="26.772" viewBox="0 0 77.27 26.772">
<defs>
<g>
<g id="glyph-0-0">
</g>
<g id="glyph-0-1">
<path d="M 2.265625 -2.109375 C 2.515625 -2.078125 3.40625 -1.890625 3.40625 -1.109375 C 3.40625 -0.5625 3.015625 -0.125 2.171875 -0.125 C 1.25 -0.125 0.859375 -0.734375 0.65625 -1.671875 C 0.625 -1.8125 0.609375 -1.859375 0.5 -1.859375 C 0.359375 -1.859375 0.359375 -1.78125 0.359375 -1.578125 L 0.359375 -0.140625 C 0.359375 0.046875 0.359375 0.125 0.484375 0.125 C 0.53125 0.125 0.546875 0.109375 0.75 -0.09375 C 0.78125 -0.125 0.78125 -0.140625 0.96875 -0.34375 C 1.453125 0.109375 1.9375 0.125 2.171875 0.125 C 3.421875 0.125 3.921875 -0.609375 3.921875 -1.390625 C 3.921875 -1.96875 3.59375 -2.296875 3.46875 -2.4375 C 3.109375 -2.78125 2.6875 -2.875 2.21875 -2.953125 C 1.609375 -3.078125 0.890625 -3.21875 0.890625 -3.84375 C 0.890625 -4.234375 1.171875 -4.671875 2.109375 -4.671875 C 3.296875 -4.671875 3.359375 -3.703125 3.375 -3.359375 C 3.390625 -3.265625 3.484375 -3.265625 3.515625 -3.265625 C 3.65625 -3.265625 3.65625 -3.3125 3.65625 -3.515625 L 3.65625 -4.625 C 3.65625 -4.8125 3.65625 -4.890625 3.53125 -4.890625 C 3.484375 -4.890625 3.453125 -4.890625 3.3125 -4.75 C 3.28125 -4.71875 3.171875 -4.609375 3.125 -4.578125 C 2.71875 -4.890625 2.265625 -4.890625 2.109375 -4.890625 C 0.78125 -4.890625 0.359375 -4.15625 0.359375 -3.546875 C 0.359375 -3.15625 0.53125 -2.859375 0.828125 -2.625 C 1.171875 -2.328125 1.484375 -2.265625 2.265625 -2.109375 Z M 2.265625 -2.109375 "/>
</g>
<g id="glyph-0-2">
<path d="M 1.9375 -4.828125 L 0.40625 -4.703125 L 0.40625 -4.359375 C 1.109375 -4.359375 1.203125 -4.296875 1.203125 -3.765625 L 1.203125 -0.828125 C 1.203125 -0.34375 1.09375 -0.34375 0.359375 -0.34375 L 0.359375 0 C 0.703125 -0.015625 1.296875 -0.03125 1.5625 -0.03125 C 1.9375 -0.03125 2.328125 -0.015625 2.6875 0 L 2.6875 -0.34375 C 1.96875 -0.34375 1.9375 -0.390625 1.9375 -0.8125 Z M 1.96875 -6.71875 C 1.96875 -7.0625 1.703125 -7.296875 1.390625 -7.296875 C 1.0625 -7.296875 0.8125 -7 0.8125 -6.71875 C 0.8125 -6.421875 1.0625 -6.140625 1.390625 -6.140625 C 1.703125 -6.140625 1.96875 -6.375 1.96875 -6.71875 Z M 1.96875 -6.71875 "/>
</g>
<g id="glyph-0-3">
<path d="M 1.203125 -3.75 L 1.203125 -0.828125 C 1.203125 -0.34375 1.078125 -0.34375 0.34375 -0.34375 L 0.34375 0 C 0.734375 -0.015625 1.28125 -0.03125 1.578125 -0.03125 C 1.859375 -0.03125 2.4375 -0.015625 2.796875 0 L 2.796875 -0.34375 C 2.078125 -0.34375 1.953125 -0.34375 1.953125 -0.828125 L 1.953125 -2.828125 C 1.953125 -3.96875 2.71875 -4.578125 3.421875 -4.578125 C 4.109375 -4.578125 4.234375 -3.984375 4.234375 -3.375 L 4.234375 -0.828125 C 4.234375 -0.34375 4.109375 -0.34375 3.375 -0.34375 L 3.375 0 C 3.765625 -0.015625 4.3125 -0.03125 4.609375 -0.03125 C 4.890625 -0.03125 5.46875 -0.015625 5.828125 0 L 5.828125 -0.34375 C 5.265625 -0.34375 5 -0.34375 4.984375 -0.671875 L 4.984375 -2.75 C 4.984375 -3.6875 4.984375 -4.03125 4.640625 -4.421875 C 4.5 -4.609375 4.140625 -4.828125 3.5 -4.828125 C 2.703125 -4.828125 2.1875 -4.359375 1.890625 -3.671875 L 1.890625 -4.828125 L 0.34375 -4.703125 L 0.34375 -4.359375 C 1.109375 -4.359375 1.203125 -4.28125 1.203125 -3.75 Z M 1.203125 -3.75 "/>
</g>
<g id="glyph-0-4">
<path d="M 3.609375 2.625 C 3.609375 2.578125 3.609375 2.5625 3.421875 2.375 C 2.0625 1 1.71875 -1.0625 1.71875 -2.71875 C 1.71875 -4.625 2.125 -6.515625 3.46875 -7.890625 C 3.609375 -8.015625 3.609375 -8.03125 3.609375 -8.078125 C 3.609375 -8.140625 3.5625 -8.171875 3.5 -8.171875 C 3.390625 -8.171875 2.40625 -7.4375 1.765625 -6.046875 C 1.203125 -4.859375 1.078125 -3.640625 1.078125 -2.71875 C 1.078125 -1.875 1.203125 -0.5625 1.796875 0.671875 C 2.453125 2.015625 3.390625 2.71875 3.5 2.71875 C 3.5625 2.71875 3.609375 2.6875 3.609375 2.625 Z M 3.609375 2.625 "/>
</g>
<g id="glyph-0-5">
<path d="M 3.15625 -2.71875 C 3.15625 -3.578125 3.03125 -4.890625 2.4375 -6.125 C 1.78125 -7.46875 0.84375 -8.171875 0.734375 -8.171875 C 0.671875 -8.171875 0.625 -8.140625 0.625 -8.078125 C 0.625 -8.03125 0.625 -8.015625 0.828125 -7.8125 C 1.890625 -6.734375 2.515625 -5 2.515625 -2.71875 C 2.515625 -0.859375 2.109375 1.0625 0.765625 2.4375 C 0.625 2.5625 0.625 2.578125 0.625 2.625 C 0.625 2.6875 0.671875 2.71875 0.734375 2.71875 C 0.84375 2.71875 1.828125 1.984375 2.46875 0.59375 C 3.015625 -0.59375 3.15625 -1.8125 3.15625 -2.71875 Z M 3.15625 -2.71875 "/>
</g>
<g id="glyph-0-6">
<path d="M 4.453125 -2.515625 L 7.5 -2.515625 C 7.65625 -2.515625 7.859375 -2.515625 7.859375 -2.71875 C 7.859375 -2.9375 7.65625 -2.9375 7.5 -2.9375 L 4.453125 -2.9375 L 4.453125 -6 C 4.453125 -6.15625 4.453125 -6.359375 4.25 -6.359375 C 4.03125 -6.359375 4.03125 -6.15625 4.03125 -6 L 4.03125 -2.9375 L 0.96875 -2.9375 C 0.8125 -2.9375 0.609375 -2.9375 0.609375 -2.71875 C 0.609375 -2.515625 0.8125 -2.515625 0.96875 -2.515625 L 4.03125 -2.515625 L 4.03125 0.546875 C 4.03125 0.703125 4.03125 0.90625 4.25 0.90625 C 4.453125 0.90625 4.453125 0.703125 4.453125 0.546875 Z M 4.453125 -2.515625 "/>
</g>
<g id="glyph-1-0">
</g>
<g id="glyph-1-1">
<path d="M 1.453125 -0.90625 C 2.046875 -1.53125 2.359375 -1.8125 2.75 -2.15625 C 2.75 -2.15625 3.421875 -2.734375 3.8125 -3.125 C 4.859375 -4.140625 5.09375 -4.671875 5.09375 -4.71875 C 5.09375 -4.828125 5 -4.828125 4.96875 -4.828125 C 4.890625 -4.828125 4.859375 -4.796875 4.8125 -4.703125 C 4.484375 -4.171875 4.25 -4 3.984375 -4 C 3.734375 -4 3.59375 -4.171875 3.4375 -4.359375 C 3.234375 -4.609375 3.046875 -4.828125 2.6875 -4.828125 C 1.859375 -4.828125 1.359375 -3.8125 1.359375 -3.578125 C 1.359375 -3.515625 1.390625 -3.453125 1.5 -3.453125 C 1.59375 -3.453125 1.609375 -3.515625 1.640625 -3.578125 C 1.84375 -4.078125 2.46875 -4.09375 2.5625 -4.09375 C 2.796875 -4.09375 3 -4.015625 3.25 -3.921875 C 3.6875 -3.765625 3.8125 -3.765625 4.09375 -3.765625 C 3.703125 -3.296875 2.78125 -2.515625 2.578125 -2.328125 L 1.59375 -1.421875 C 0.84375 -0.6875 0.46875 -0.0625 0.46875 0.015625 C 0.46875 0.125 0.578125 0.125 0.59375 0.125 C 0.6875 0.125 0.703125 0.09375 0.78125 -0.015625 C 1.03125 -0.40625 1.359375 -0.703125 1.703125 -0.703125 C 1.953125 -0.703125 2.0625 -0.59375 2.328125 -0.28125 C 2.515625 -0.046875 2.71875 0.125 3.03125 0.125 C 4.109375 0.125 4.75 -1.265625 4.75 -1.5625 C 4.75 -1.609375 4.703125 -1.671875 4.609375 -1.671875 C 4.515625 -1.671875 4.5 -1.609375 4.453125 -1.53125 C 4.203125 -0.8125 3.515625 -0.609375 3.15625 -0.609375 C 2.9375 -0.609375 2.734375 -0.671875 2.515625 -0.75 C 2.140625 -0.890625 1.96875 -0.9375 1.75 -0.9375 C 1.71875 -0.9375 1.546875 -0.9375 1.453125 -0.90625 Z M 1.453125 -0.90625 "/>
</g>
<g id="glyph-1-2">
<path d="M 2.875 -4.765625 C 1.515625 -4.4375 0.453125 -3.015625 0.453125 -1.703125 C 0.453125 -0.65625 1.15625 0.125 2.1875 0.125 C 3.453125 0.125 4.359375 -1.578125 4.359375 -3.09375 C 4.359375 -4.078125 3.921875 -4.625 3.5625 -5.109375 C 3.15625 -5.609375 2.515625 -6.421875 2.515625 -6.90625 C 2.515625 -7.140625 2.734375 -7.40625 3.125 -7.40625 C 3.453125 -7.40625 3.671875 -7.265625 3.890625 -7.109375 C 4.109375 -6.984375 4.328125 -6.84375 4.5 -6.84375 C 4.765625 -6.84375 4.921875 -7.09375 4.921875 -7.28125 C 4.921875 -7.515625 4.75 -7.546875 4.359375 -7.640625 C 3.796875 -7.75 3.640625 -7.75 3.46875 -7.75 C 2.625 -7.75 2.21875 -7.28125 2.21875 -6.625 C 2.21875 -6.046875 2.546875 -5.4375 2.875 -4.765625 Z M 3.015625 -4.53125 C 3.28125 -4.03125 3.609375 -3.4375 3.609375 -2.65625 C 3.609375 -1.9375 3.203125 -0.109375 2.1875 -0.109375 C 1.578125 -0.109375 1.140625 -0.5625 1.140625 -1.390625 C 1.140625 -2.078125 1.53125 -4.140625 3.015625 -4.53125 Z M 3.015625 -4.53125 "/>
</g>
<g id="glyph-1-3">
<path d="M 5.625 -7.453125 C 5.625 -7.453125 5.625 -7.5625 5.484375 -7.5625 C 5.328125 -7.5625 4.28125 -7.46875 4.09375 -7.453125 C 4.015625 -7.4375 3.953125 -7.390625 3.953125 -7.234375 C 3.953125 -7.109375 4.046875 -7.109375 4.203125 -7.109375 C 4.734375 -7.109375 4.75 -7.03125 4.75 -6.921875 L 4.71875 -6.703125 L 4.0625 -4.125 C 3.875 -4.53125 3.5625 -4.828125 3.0625 -4.828125 C 1.78125 -4.828125 0.4375 -3.21875 0.4375 -1.625 C 0.4375 -0.59375 1.03125 0.125 1.890625 0.125 C 2.109375 0.125 2.65625 0.078125 3.296875 -0.703125 C 3.390625 -0.234375 3.78125 0.125 4.296875 0.125 C 4.671875 0.125 4.921875 -0.125 5.109375 -0.484375 C 5.296875 -0.875 5.4375 -1.53125 5.4375 -1.5625 C 5.4375 -1.671875 5.328125 -1.671875 5.296875 -1.671875 C 5.1875 -1.671875 5.1875 -1.625 5.140625 -1.46875 C 4.96875 -0.765625 4.765625 -0.125 4.3125 -0.125 C 4.03125 -0.125 3.984375 -0.40625 3.984375 -0.625 C 3.984375 -0.890625 4.015625 -0.953125 4.0625 -1.140625 Z M 3.359375 -1.296875 C 3.296875 -1.09375 3.296875 -1.078125 3.140625 -0.890625 C 2.65625 -0.296875 2.21875 -0.125 1.90625 -0.125 C 1.359375 -0.125 1.203125 -0.71875 1.203125 -1.140625 C 1.203125 -1.6875 1.5625 -3.03125 1.8125 -3.53125 C 2.15625 -4.171875 2.640625 -4.578125 3.078125 -4.578125 C 3.78125 -4.578125 3.9375 -3.6875 3.9375 -3.625 C 3.9375 -3.5625 3.921875 -3.484375 3.90625 -3.4375 Z M 3.359375 -1.296875 "/>
</g>
<g id="glyph-2-0">
</g>
<g id="glyph-2-1">
<path d="M 3.46875 -2.515625 L 5.796875 -2.515625 C 5.921875 -2.515625 6.109375 -2.515625 6.109375 -2.6875 C 6.109375 -2.875 5.921875 -2.875 5.796875 -2.875 L 3.46875 -2.875 L 3.46875 -5.1875 C 3.46875 -5.3125 3.46875 -5.515625 3.296875 -5.515625 C 3.109375 -5.515625 3.109375 -5.34375 3.109375 -5.21875 L 3.109375 -2.875 L 0.765625 -2.875 C 0.640625 -2.875 0.46875 -2.875 0.46875 -2.6875 C 0.46875 -2.515625 0.640625 -2.515625 0.765625 -2.515625 L 3.109375 -2.515625 L 3.109375 -0.234375 L 0.765625 -0.234375 C 0.640625 -0.234375 0.46875 -0.234375 0.46875 -0.0625 C 0.46875 0.125 0.640625 0.125 0.765625 0.125 L 5.796875 0.125 C 5.921875 0.125 6.109375 0.125 6.109375 -0.0625 C 6.109375 -0.234375 5.921875 -0.234375 5.796875 -0.234375 L 3.46875 -0.234375 Z M 3.46875 -2.515625 "/>
</g>
</g>
<clipPath id="clip-0">
<path clip-rule="nonzero" d="M 2 15 L 23 15 L 23 26.773438 L 2 26.773438 Z M 2 15 "/>
</clipPath>
<clipPath id="clip-1">
<path clip-rule="nonzero" d="M 62 15 L 65 15 L 65 26.773438 L 62 26.773438 Z M 62 15 "/>
</clipPath>
<clipPath id="clip-2">
<path clip-rule="nonzero" d="M 71 15 L 75 15 L 75 26.773438 L 71 26.773438 Z M 71 15 "/>
</clipPath>
</defs>
<g fill="rgb(0%, 0%, 0%)" fill-opacity="1">
<use xlink:href="#glyph-0-1" x="18.986" y="8.682"/>
<use xlink:href="#glyph-0-2" x="23.288549" y="8.682"/>
<use xlink:href="#glyph-0-3" x="26.319097" y="8.682"/>
<use xlink:href="#glyph-0-4" x="32.380193" y="8.682"/>
</g>
<g fill="rgb(0%, 0%, 0%)" fill-opacity="1">
<use xlink:href="#glyph-1-1" x="36.622" y="8.682"/>
</g>
<g fill="rgb(0%, 0%, 0%)" fill-opacity="1">
<use xlink:href="#glyph-2-1" x="41.696" y="10.318"/>
</g>
<g fill="rgb(0%, 0%, 0%)" fill-opacity="1">
<use xlink:href="#glyph-1-2" x="48.78" y="8.682"/>
</g>
<g fill="rgb(0%, 0%, 0%)" fill-opacity="1">
<use xlink:href="#glyph-0-5" x="54.042" y="8.682"/>
</g>
<path fill="none" stroke-width="0.436" stroke-linecap="butt" stroke-linejoin="miter" stroke="rgb(0%, 0%, 0%)" stroke-opacity="1" stroke-miterlimit="10" d="M -0.0006875 -0.0019375 L 73.878219 -0.0019375 " transform="matrix(1, 0, 0, -1, 1.696, 13.334)"/>
<g clip-path="url(#clip-0)">
<g fill="rgb(0%, 0%, 0%)" fill-opacity="1">
<use xlink:href="#glyph-0-1" x="1.696" y="23.545"/>
<use xlink:href="#glyph-0-2" x="5.998549" y="23.545"/>
<use xlink:href="#glyph-0-3" x="9.029097" y="23.545"/>
<use xlink:href="#glyph-0-4" x="15.090193" y="23.545"/>
<use xlink:href="#glyph-0-4" x="19.332742" y="23.545"/>
</g>
</g>
<g fill="rgb(0%, 0%, 0%)" fill-opacity="1">
<use xlink:href="#glyph-1-3" x="23.574" y="23.545"/>
</g>
<g fill="rgb(0%, 0%, 0%)" fill-opacity="1">
<use xlink:href="#glyph-2-1" x="29.252" y="25.181"/>
</g>
<g fill="rgb(0%, 0%, 0%)" fill-opacity="1">
<use xlink:href="#glyph-0-6" x="38.761" y="23.545"/>
</g>
<g fill="rgb(0%, 0%, 0%)" fill-opacity="1">
<use xlink:href="#glyph-1-1" x="49.67" y="23.545"/>
</g>
<g fill="rgb(0%, 0%, 0%)" fill-opacity="1">
<use xlink:href="#glyph-2-1" x="54.744" y="25.181"/>
</g>
<g clip-path="url(#clip-1)">
<g fill="rgb(0%, 0%, 0%)" fill-opacity="1">
<use xlink:href="#glyph-0-5" x="61.828" y="23.545"/>
</g>
</g>
<g fill="rgb(0%, 0%, 0%)" fill-opacity="1">
<use xlink:href="#glyph-1-2" x="66.071" y="23.545"/>
</g>
<g clip-path="url(#clip-2)">
<g fill="rgb(0%, 0%, 0%)" fill-opacity="1">
<use xlink:href="#glyph-0-5" x="71.332" y="23.545"/>
</g>
</g>
</svg>
