<?xml version="1.0" encoding="UTF-8"?>
<svg xmlns="http://www.w3.org/2000/svg" xmlns:xlink="http://www.w3.org/1999/xlink" width="32.421" height="41.648" viewBox="0 0 32.421 41.648">
<defs>
<g>
<g id="glyph-0-0">
</g>
<g id="glyph-0-1">
<path d="M 4.078125 19.296875 C 4.3125 19.296875 4.390625 19.296875 4.390625 19.15625 C 4.40625 11.5 5.296875 5.15625 9.109375 -0.171875 C 9.1875 -0.265625 9.1875 -0.296875 9.1875 -0.3125 C 9.1875 -0.421875 9.109375 -0.421875 8.9375 -0.421875 C 8.75 -0.421875 8.734375 -0.421875 8.71875 -0.40625 C 8.671875 -0.375 7.28125 1.21875 6.1875 3.40625 C 4.75 6.296875 3.84375 9.59375 3.4375 13.5625 C 3.40625 13.90625 3.171875 16.171875 3.171875 18.765625 L 3.171875 19.1875 C 3.1875 19.296875 3.25 19.296875 3.484375 19.296875 Z M 4.078125 19.296875 "/>
</g>
<g id="glyph-0-2">
<path d="M 3.484375 -0.546875 C 3.25 -0.546875 3.1875 -0.546875 3.171875 -0.421875 L 3.171875 0 C 3.171875 6.65625 4.359375 10.5625 4.703125 11.671875 C 5.4375 14.09375 6.65625 16.640625 8.46875 18.890625 C 8.640625 19.078125 8.6875 19.140625 8.71875 19.15625 C 8.75 19.171875 8.75 19.1875 8.9375 19.1875 C 9.109375 19.1875 9.1875 19.1875 9.1875 19.078125 C 9.1875 19.046875 9.1875 19.03125 9.125 18.9375 C 5.484375 13.890625 4.390625 7.828125 4.390625 -0.390625 C 4.390625 -0.546875 4.3125 -0.546875 4.078125 -0.546875 Z M 3.484375 -0.546875 "/>
</g>
<g id="glyph-0-3">
<path d="M 6.359375 18.765625 C 6.359375 12.09375 5.171875 8.1875 4.828125 7.09375 C 4.09375 4.671875 2.875 2.109375 1.0625 -0.125 C 0.890625 -0.328125 0.84375 -0.375 0.8125 -0.40625 C 0.78125 -0.421875 0.78125 -0.421875 0.59375 -0.421875 C 0.4375 -0.421875 0.34375 -0.421875 0.34375 -0.3125 C 0.34375 -0.296875 0.34375 -0.265625 0.484375 -0.078125 C 4.28125 5.21875 5.140625 11.765625 5.140625 19.15625 C 5.140625 19.296875 5.21875 19.296875 5.453125 19.296875 L 6.046875 19.296875 C 6.28125 19.296875 6.34375 19.296875 6.359375 19.1875 Z M 6.359375 18.765625 "/>
</g>
<g id="glyph-0-4">
<path d="M 6.359375 -0.421875 C 6.34375 -0.546875 6.28125 -0.546875 6.046875 -0.546875 L 5.453125 -0.546875 C 5.21875 -0.546875 5.140625 -0.546875 5.140625 -0.390625 C 5.140625 0.734375 5.140625 3.328125 4.859375 6.046875 C 4.265625 11.6875 2.8125 15.578125 0.421875 18.9375 C 0.34375 19.03125 0.34375 19.046875 0.34375 19.078125 C 0.34375 19.1875 0.4375 19.1875 0.59375 19.1875 C 0.78125 19.1875 0.796875 19.1875 0.8125 19.15625 C 0.859375 19.125 2.25 17.53125 3.34375 15.34375 C 4.78125 12.46875 5.6875 9.15625 6.09375 5.1875 C 6.125 4.859375 6.359375 2.578125 6.359375 0 Z M 6.359375 -0.421875 "/>
</g>
<g id="glyph-1-0">
</g>
<g id="glyph-1-1">
<path d="M 0.484375 1.328125 C 0.40625 1.703125 0.375 1.78125 -0.09375 1.78125 C -0.234375 1.78125 -0.34375 1.78125 -0.34375 1.984375 C -0.34375 2.078125 -0.296875 2.109375 -0.203125 2.109375 C 0.09375 2.109375 0.40625 2.078125 0.703125 2.078125 C 1.0625 2.078125 1.4375 2.109375 1.78125 2.109375 C 1.84375 2.109375 1.984375 2.109375 1.984375 1.890625 C 1.984375 1.78125 1.875 1.78125 1.71875 1.78125 C 1.171875 1.78125 1.171875 1.703125 1.171875 1.609375 C 1.171875 1.46875 1.640625 -0.3125 1.71875 -0.578125 C 1.859375 -0.265625 2.15625 0.125 2.71875 0.125 C 3.984375 0.125 5.34375 -1.46875 5.34375 -3.078125 C 5.34375 -4.09375 4.71875 -4.828125 3.890625 -4.828125 C 3.34375 -4.828125 2.828125 -4.421875 2.46875 -4 C 2.359375 -4.59375 1.890625 -4.828125 1.484375 -4.828125 C 0.984375 -4.828125 0.78125 -4.390625 0.671875 -4.203125 C 0.484375 -3.828125 0.34375 -3.171875 0.34375 -3.140625 C 0.34375 -3.03125 0.453125 -3.03125 0.46875 -3.03125 C 0.578125 -3.03125 0.59375 -3.046875 0.65625 -3.28125 C 0.84375 -4.0625 1.0625 -4.578125 1.453125 -4.578125 C 1.640625 -4.578125 1.78125 -4.5 1.78125 -4.078125 C 1.78125 -3.828125 1.75 -3.703125 1.71875 -3.515625 Z M 2.40625 -3.40625 C 2.484375 -3.703125 2.78125 -4 2.984375 -4.171875 C 3.359375 -4.5 3.671875 -4.578125 3.859375 -4.578125 C 4.296875 -4.578125 4.5625 -4.203125 4.5625 -3.5625 C 4.5625 -2.90625 4.203125 -1.65625 4 -1.25 C 3.625 -0.484375 3.109375 -0.125 2.703125 -0.125 C 1.984375 -0.125 1.84375 -1.03125 1.84375 -1.09375 C 1.84375 -1.109375 1.84375 -1.140625 1.875 -1.265625 Z M 2.40625 -3.40625 "/>
</g>
<g id="glyph-2-0">
</g>
<g id="glyph-2-1">
<path d="M 3.375 -5.515625 C 3.328125 -5.625 3.3125 -5.6875 3.171875 -5.6875 C 3.03125 -5.6875 3 -5.625 2.96875 -5.515625 L 1.1875 -0.828125 C 1.109375 -0.609375 0.9375 -0.265625 0.28125 -0.265625 L 0.28125 0 C 0.546875 -0.03125 0.96875 -0.03125 1.109375 -0.03125 C 1.359375 -0.03125 1.609375 -0.03125 1.984375 0 L 1.984375 -0.265625 C 1.640625 -0.265625 1.4375 -0.4375 1.4375 -0.65625 C 1.4375 -0.71875 1.4375 -0.734375 1.46875 -0.828125 L 1.84375 -1.828125 L 4.015625 -1.828125 L 4.46875 -0.640625 C 4.5 -0.546875 4.5 -0.515625 4.5 -0.5 C 4.5 -0.265625 4.09375 -0.265625 3.859375 -0.265625 L 3.859375 0 C 4.546875 -0.03125 4.5625 -0.03125 5 -0.03125 C 5.4375 -0.03125 5.59375 -0.03125 6.046875 0 L 6.046875 -0.265625 L 5.90625 -0.265625 C 5.40625 -0.265625 5.328125 -0.328125 5.234375 -0.59375 Z M 2.9375 -4.6875 L 3.90625 -2.09375 L 1.9375 -2.09375 Z M 2.9375 -4.6875 "/>
</g>
<g id="glyph-2-2">
<path d="M 0.375 -5.4375 L 0.375 -5.171875 L 0.5625 -5.171875 C 1.171875 -5.171875 1.1875 -5.09375 1.1875 -4.796875 L 1.1875 -0.640625 C 1.1875 -0.34375 1.171875 -0.265625 0.5625 -0.265625 L 0.375 -0.265625 L 0.375 0 L 3.640625 0 C 4.734375 0 5.515625 -0.703125 5.515625 -1.453125 C 5.515625 -2.109375 4.90625 -2.734375 3.90625 -2.84375 C 4.765625 -3.03125 5.28125 -3.546875 5.28125 -4.09375 C 5.28125 -4.8125 4.484375 -5.4375 3.40625 -5.4375 Z M 1.859375 -2.9375 L 1.859375 -4.859375 C 1.859375 -5.125 1.875 -5.171875 2.25 -5.171875 L 3.359375 -5.171875 C 4.140625 -5.171875 4.5 -4.5625 4.5 -4.09375 C 4.5 -3.546875 4.03125 -2.9375 3.109375 -2.9375 Z M 2.25 -0.265625 C 1.875 -0.265625 1.859375 -0.3125 1.859375 -0.59375 L 1.859375 -2.71875 L 3.484375 -2.71875 C 4.25 -2.71875 4.703125 -2.09375 4.703125 -1.46875 C 4.703125 -0.828125 4.171875 -0.265625 3.359375 -0.265625 Z M 2.25 -0.265625 "/>
</g>
<g id="glyph-2-3">
<path d="M 5.640625 -5.40625 C 5.640625 -5.53125 5.640625 -5.609375 5.53125 -5.609375 C 5.46875 -5.609375 5.46875 -5.609375 5.390625 -5.5 L 4.984375 -4.90625 C 4.703125 -5.21875 4.171875 -5.609375 3.40625 -5.609375 C 1.8125 -5.609375 0.46875 -4.328125 0.46875 -2.71875 C 0.46875 -1.109375 1.796875 0.171875 3.421875 0.171875 C 4.75 0.171875 5.640625 -0.890625 5.640625 -1.859375 C 5.640625 -1.9375 5.640625 -2.015625 5.5 -2.015625 C 5.421875 -2.015625 5.390625 -1.96875 5.390625 -1.890625 C 5.328125 -0.671875 4.328125 -0.09375 3.484375 -0.09375 C 2.8125 -0.09375 1.296875 -0.515625 1.296875 -2.71875 C 1.296875 -4.875 2.734375 -5.34375 3.484375 -5.34375 C 4.234375 -5.34375 5.15625 -4.8125 5.375 -3.4375 C 5.375 -3.375 5.390625 -3.328125 5.5 -3.328125 C 5.640625 -3.328125 5.640625 -3.375 5.640625 -3.53125 Z M 5.640625 -5.40625 "/>
</g>
</g>
</defs>
<g fill="rgb(0%, 0%, 0%)" fill-opacity="1">
<use xlink:href="#glyph-0-1" x="0.5" y="1.624"/>
</g>
<g fill="rgb(0%, 0%, 0%)" fill-opacity="1">
<use xlink:href="#glyph-0-2" x="0.5" y="21.261"/>
</g>
<g fill="rgb(0%, 0%, 0%)" fill-opacity="1">
<use xlink:href="#glyph-1-1" x="10.045" y="9.985"/>
</g>
<g fill="rgb(0%, 0%, 0%)" fill-opacity="1">
<use xlink:href="#glyph-2-1" x="15.534" y="11.674"/>
</g>
<g fill="rgb(0%, 0%, 0%)" fill-opacity="1">
<use xlink:href="#glyph-1-1" x="10.22" y="23.534"/>
</g>
<g fill="rgb(0%, 0%, 0%)" fill-opacity="1">
<use xlink:href="#glyph-2-2" x="15.708" y="25.223"/>
</g>
<g fill="rgb(0%, 0%, 0%)" fill-opacity="1">
<use xlink:href="#glyph-1-1" x="10.159" y="37.083"/>
</g>
<g fill="rgb(0%, 0%, 0%)" fill-opacity="1">
<use xlink:href="#glyph-2-3" x="15.648" y="38.772"/>
</g>
<g fill="rgb(0%, 0%, 0%)" fill-opacity="1">
<use xlink:href="#glyph-0-3" x="22.375" y="1.624"/>
</g>
<g fill="rgb(0%, 0%, 0%)" fill-opacity="1">
<use xlink:href="#glyph-0-4" x="22.375" y="21.261"/>
</g>
</svg>
