<?xml version="1.0" encoding="UTF-8"?>
<svg xmlns="http://www.w3.org/2000/svg" xmlns:xlink="http://www.w3.org/1999/xlink" width="38.684" height="96.61" viewBox="0 0 38.684 96.61">
<defs>
<g>
<g id="glyph-0-0">
</g>
<g id="glyph-0-1">
<path d="M 4.078125 19.296875 C 4.3125 19.296875 4.390625 19.296875 4.390625 19.15625 C 4.40625 11.5 5.296875 5.15625 9.109375 -0.171875 C 9.1875 -0.265625 9.1875 -0.296875 9.1875 -0.3125 C 9.1875 -0.421875 9.109375 -0.421875 8.9375 -0.421875 C 8.75 -0.421875 8.734375 -0.421875 8.71875 -0.40625 C 8.671875 -0.375 7.28125 1.21875 6.1875 3.40625 C 4.75 6.296875 3.84375 9.59375 3.4375 13.5625 C 3.40625 13.90625 3.171875 16.171875 3.171875 18.765625 L 3.171875 19.1875 C 3.1875 19.296875 3.25 19.296875 3.484375 19.296875 Z M 4.078125 19.296875 "/>
</g>
<g id="glyph-0-2">
<path d="M 4.390625 0.1875 C 4.390625 -0.09375 4.375 -0.109375 4.078125 -0.109375 L 3.484375 -0.109375 C 3.1875 -0.109375 3.171875 -0.09375 3.171875 0.1875 L 3.171875 6.359375 C 3.171875 6.640625 3.1875 6.65625 3.484375 6.65625 L 4.078125 6.65625 C 4.375 6.65625 4.390625 6.640625 4.390625 6.359375 Z M 4.390625 0.1875 "/>
</g>
<g id="glyph-0-3">
<path d="M 3.484375 -0.546875 C 3.25 -0.546875 3.1875 -0.546875 3.171875 -0.421875 L 3.171875 0 C 3.171875 6.65625 4.359375 10.5625 4.703125 11.671875 C 5.4375 14.09375 6.65625 16.640625 8.46875 18.890625 C 8.640625 19.078125 8.6875 19.140625 8.71875 19.15625 C 8.75 19.171875 8.75 19.1875 8.9375 19.1875 C 9.109375 19.1875 9.1875 19.1875 9.1875 19.078125 C 9.1875 19.046875 9.1875 19.03125 9.125 18.9375 C 5.484375 13.890625 4.390625 7.828125 4.390625 -0.390625 C 4.390625 -0.546875 4.3125 -0.546875 4.078125 -0.546875 Z M 3.484375 -0.546875 "/>
</g>
<g id="glyph-0-4">
<path d="M 6.359375 18.765625 C 6.359375 12.09375 5.171875 8.1875 4.828125 7.09375 C 4.09375 4.671875 2.875 2.109375 1.0625 -0.125 C 0.890625 -0.328125 0.84375 -0.375 0.8125 -0.40625 C 0.78125 -0.421875 0.78125 -0.421875 0.59375 -0.421875 C 0.4375 -0.421875 0.34375 -0.421875 0.34375 -0.3125 C 0.34375 -0.296875 0.34375 -0.265625 0.484375 -0.078125 C 4.28125 5.21875 5.140625 11.765625 5.140625 19.15625 C 5.140625 19.296875 5.21875 19.296875 5.453125 19.296875 L 6.046875 19.296875 C 6.28125 19.296875 6.34375 19.296875 6.359375 19.1875 Z M 6.359375 18.765625 "/>
</g>
<g id="glyph-0-5">
<path d="M 6.359375 0.1875 C 6.359375 -0.09375 6.34375 -0.109375 6.046875 -0.109375 L 5.453125 -0.109375 C 5.15625 -0.109375 5.140625 -0.09375 5.140625 0.1875 L 5.140625 6.359375 C 5.140625 6.640625 5.15625 6.65625 5.453125 6.65625 L 6.046875 6.65625 C 6.34375 6.65625 6.359375 6.640625 6.359375 6.359375 Z M 6.359375 0.1875 "/>
</g>
<g id="glyph-0-6">
<path d="M 6.359375 -0.421875 C 6.34375 -0.546875 6.28125 -0.546875 6.046875 -0.546875 L 5.453125 -0.546875 C 5.21875 -0.546875 5.140625 -0.546875 5.140625 -0.390625 C 5.140625 0.734375 5.140625 3.328125 4.859375 6.046875 C 4.265625 11.6875 2.8125 15.578125 0.421875 18.9375 C 0.34375 19.03125 0.34375 19.046875 0.34375 19.078125 C 0.34375 19.1875 0.4375 19.1875 0.59375 19.1875 C 0.78125 19.1875 0.796875 19.1875 0.8125 19.15625 C 0.859375 19.125 2.25 17.53125 3.34375 15.34375 C 4.78125 12.46875 5.6875 9.15625 6.09375 5.1875 C 6.125 4.859375 6.359375 2.578125 6.359375 0 Z M 6.359375 -0.421875 "/>
</g>
<g id="glyph-1-0">
</g>
<g id="glyph-1-1">
<path d="M 1.15625 -0.828125 C 1.15625 -0.34375 1.03125 -0.34375 0.3125 -0.34375 L 0.3125 0 C 0.671875 -0.015625 1.171875 -0.03125 1.5 -0.03125 C 1.828125 -0.03125 2.25 -0.015625 2.6875 0 L 2.6875 -0.34375 C 1.96875 -0.34375 1.84375 -0.34375 1.84375 -0.828125 L 1.84375 -1.953125 L 2.546875 -2.546875 C 3.375 -1.390625 3.84375 -0.78125 3.84375 -0.59375 C 3.84375 -0.375 3.65625 -0.34375 3.453125 -0.34375 L 3.453125 0 C 3.75 -0.015625 4.390625 -0.03125 4.625 -0.03125 C 4.9375 -0.03125 5.25 -0.015625 5.578125 0 L 5.578125 -0.34375 C 5.171875 -0.34375 4.921875 -0.34375 4.515625 -0.921875 L 3.125 -2.875 C 3.125 -2.890625 3.0625 -2.953125 3.0625 -2.984375 C 3.0625 -3.03125 3.84375 -3.6875 3.953125 -3.78125 C 4.640625 -4.328125 5.09375 -4.359375 5.328125 -4.359375 L 5.328125 -4.703125 C 5 -4.671875 4.859375 -4.671875 4.5625 -4.671875 C 4.171875 -4.671875 3.484375 -4.6875 3.34375 -4.703125 L 3.34375 -4.359375 C 3.546875 -4.359375 3.65625 -4.234375 3.65625 -4.09375 C 3.65625 -3.875 3.5 -3.734375 3.40625 -3.671875 L 1.875 -2.328125 L 1.875 -7.5625 L 0.3125 -7.453125 L 0.3125 -7.109375 C 1.0625 -7.109375 1.15625 -7.03125 1.15625 -6.5 Z M 1.15625 -0.828125 "/>
</g>
<g id="glyph-2-0">
</g>
<g id="glyph-2-1">
<path d="M 3.296875 -1.8125 C 3.46875 -1.8125 3.515625 -1.8125 3.515625 -2 C 3.515625 -2.703125 3.125 -3.546875 2 -3.546875 C 1.015625 -3.546875 0.234375 -2.734375 0.234375 -1.75 C 0.234375 -0.71875 1.09375 0.078125 2.109375 0.078125 C 3.109375 0.078125 3.515625 -0.765625 3.515625 -0.953125 C 3.515625 -0.984375 3.484375 -1.0625 3.390625 -1.0625 C 3.296875 -1.0625 3.28125 -1.015625 3.265625 -0.96875 C 2.984375 -0.1875 2.296875 -0.171875 2.15625 -0.171875 C 1.796875 -0.171875 1.421875 -0.328125 1.1875 -0.703125 C 0.953125 -1.0625 0.953125 -1.578125 0.953125 -1.8125 Z M 0.953125 -2.03125 C 1.03125 -3.140625 1.703125 -3.328125 2 -3.328125 C 2.9375 -3.328125 2.96875 -2.203125 2.96875 -2.03125 Z M 0.953125 -2.03125 "/>
</g>
<g id="glyph-2-2">
<path d="M 2.453125 -1.859375 C 2.671875 -2.140625 2.90625 -2.421875 3.140625 -2.671875 C 3.40625 -2.953125 3.6875 -3.15625 4.1875 -3.171875 L 4.1875 -3.4375 C 3.875 -3.40625 3.859375 -3.40625 3.5 -3.40625 C 3.46875 -3.40625 3 -3.40625 2.75 -3.4375 L 2.75 -3.171875 C 2.90625 -3.15625 2.9375 -3.0625 2.9375 -2.953125 C 2.9375 -2.859375 2.890625 -2.75 2.796875 -2.640625 L 2.296875 -2.0625 L 1.671875 -2.8125 C 1.5625 -2.921875 1.5625 -2.96875 1.5625 -2.984375 C 1.5625 -3.046875 1.625 -3.15625 1.8125 -3.171875 L 1.8125 -3.4375 C 1.5 -3.40625 1.046875 -3.40625 0.96875 -3.40625 C 0.828125 -3.40625 0.421875 -3.40625 0.171875 -3.4375 L 0.171875 -3.171875 C 0.71875 -3.171875 0.71875 -3.15625 1.140625 -2.671875 L 1.953125 -1.6875 L 1.234375 -0.828125 C 1.03125 -0.609375 0.734375 -0.28125 0.140625 -0.265625 L 0.140625 0 C 0.4375 -0.03125 0.484375 -0.03125 0.828125 -0.03125 C 0.84375 -0.03125 1.328125 -0.03125 1.578125 0 L 1.578125 -0.265625 C 1.46875 -0.28125 1.390625 -0.328125 1.390625 -0.484375 C 1.390625 -0.625 1.484375 -0.734375 1.5 -0.765625 C 1.703125 -1.015625 1.921875 -1.25 2.125 -1.484375 L 2.78125 -0.703125 C 2.9375 -0.515625 2.9375 -0.5 2.9375 -0.453125 C 2.9375 -0.375 2.890625 -0.265625 2.6875 -0.265625 L 2.6875 0 C 3.03125 -0.03125 3.390625 -0.03125 3.546875 -0.03125 C 3.6875 -0.03125 4.09375 -0.03125 4.328125 0 L 4.328125 -0.265625 C 3.84375 -0.265625 3.765625 -0.296875 3.546875 -0.546875 Z M 2.453125 -1.859375 "/>
</g>
<g id="glyph-2-3">
<path d="M 3.375 -5.515625 C 3.328125 -5.625 3.3125 -5.6875 3.171875 -5.6875 C 3.03125 -5.6875 3 -5.625 2.96875 -5.515625 L 1.1875 -0.828125 C 1.109375 -0.609375 0.9375 -0.265625 0.28125 -0.265625 L 0.28125 0 C 0.546875 -0.03125 0.96875 -0.03125 1.109375 -0.03125 C 1.359375 -0.03125 1.609375 -0.03125 1.984375 0 L 1.984375 -0.265625 C 1.640625 -0.265625 1.4375 -0.4375 1.4375 -0.65625 C 1.4375 -0.71875 1.4375 -0.734375 1.46875 -0.828125 L 1.84375 -1.828125 L 4.015625 -1.828125 L 4.46875 -0.640625 C 4.5 -0.546875 4.5 -0.515625 4.5 -0.5 C 4.5 -0.265625 4.09375 -0.265625 3.859375 -0.265625 L 3.859375 0 C 4.546875 -0.03125 4.5625 -0.03125 5 -0.03125 C 5.4375 -0.03125 5.59375 -0.03125 6.046875 0 L 6.046875 -0.265625 L 5.90625 -0.265625 C 5.40625 -0.265625 5.328125 -0.328125 5.234375 -0.59375 Z M 2.9375 -4.6875 L 3.90625 -2.09375 L 1.9375 -2.09375 Z M 2.9375 -4.6875 "/>
</g>
<g id="glyph-2-4">
<path d="M 0.375 -5.4375 L 0.375 -5.171875 L 0.5625 -5.171875 C 1.171875 -5.171875 1.1875 -5.09375 1.1875 -4.796875 L 1.1875 -0.640625 C 1.1875 -0.34375 1.171875 -0.265625 0.5625 -0.265625 L 0.375 -0.265625 L 0.375 0 L 3.640625 0 C 4.734375 0 5.515625 -0.703125 5.515625 -1.453125 C 5.515625 -2.109375 4.90625 -2.734375 3.90625 -2.84375 C 4.765625 -3.03125 5.28125 -3.546875 5.28125 -4.09375 C 5.28125 -4.8125 4.484375 -5.4375 3.40625 -5.4375 Z M 1.859375 -2.9375 L 1.859375 -4.859375 C 1.859375 -5.125 1.875 -5.171875 2.25 -5.171875 L 3.359375 -5.171875 C 4.140625 -5.171875 4.5 -4.5625 4.5 -4.09375 C 4.5 -3.546875 4.03125 -2.9375 3.109375 -2.9375 Z M 2.25 -0.265625 C 1.875 -0.265625 1.859375 -0.3125 1.859375 -0.59375 L 1.859375 -2.71875 L 3.484375 -2.71875 C 4.25 -2.71875 4.703125 -2.09375 4.703125 -1.46875 C 4.703125 -0.828125 4.171875 -0.265625 3.359375 -0.265625 Z M 2.25 -0.265625 "/>
</g>
<g id="glyph-2-5">
<path d="M 5.640625 -5.40625 C 5.640625 -5.53125 5.640625 -5.609375 5.53125 -5.609375 C 5.46875 -5.609375 5.46875 -5.609375 5.390625 -5.5 L 4.984375 -4.90625 C 4.703125 -5.21875 4.171875 -5.609375 3.40625 -5.609375 C 1.8125 -5.609375 0.46875 -4.328125 0.46875 -2.71875 C 0.46875 -1.109375 1.796875 0.171875 3.421875 0.171875 C 4.75 0.171875 5.640625 -0.890625 5.640625 -1.859375 C 5.640625 -1.9375 5.640625 -2.015625 5.5 -2.015625 C 5.421875 -2.015625 5.390625 -1.96875 5.390625 -1.890625 C 5.328125 -0.671875 4.328125 -0.09375 3.484375 -0.09375 C 2.8125 -0.09375 1.296875 -0.515625 1.296875 -2.71875 C 1.296875 -4.875 2.734375 -5.34375 3.484375 -5.34375 C 4.234375 -5.34375 5.15625 -4.8125 5.375 -3.4375 C 5.375 -3.375 5.390625 -3.328125 5.5 -3.328125 C 5.640625 -3.328125 5.640625 -3.375 5.640625 -3.53125 Z M 5.640625 -5.40625 "/>
</g>
<g id="glyph-3-0">
</g>
<g id="glyph-3-1">
<path d="M 3.203125 -4.0625 L 5.03125 -4.0625 C 5.1875 -4.0625 5.578125 -4.0625 5.578125 -4.4375 C 5.578125 -4.703125 5.34375 -4.703125 5.140625 -4.703125 L 2.078125 -4.703125 C 1.859375 -4.703125 1.4375 -4.703125 0.953125 -4.1875 C 0.59375 -3.796875 0.296875 -3.265625 0.296875 -3.203125 C 0.296875 -3.203125 0.296875 -3.09375 0.421875 -3.09375 C 0.515625 -3.09375 0.53125 -3.140625 0.59375 -3.234375 C 1.140625 -4.0625 1.75 -4.0625 1.984375 -4.0625 L 2.890625 -4.0625 L 1.828125 -0.5625 C 1.78125 -0.4375 1.71875 -0.203125 1.71875 -0.15625 C 1.71875 -0.046875 1.78125 0.125 2.03125 0.125 C 2.390625 0.125 2.4375 -0.171875 2.46875 -0.34375 Z M 3.203125 -4.0625 "/>
</g>
</g>
</defs>
<g fill="rgb(0%, 0%, 0%)" fill-opacity="1">
<use xlink:href="#glyph-0-1" x="0.5" y="2.923"/>
</g>
<g fill="rgb(0%, 0%, 0%)" fill-opacity="1">
<use xlink:href="#glyph-0-2" x="0.5" y="22.123"/>
</g>
<g fill="rgb(0%, 0%, 0%)" fill-opacity="1">
<use xlink:href="#glyph-0-2" x="0.5" y="28.669"/>
</g>
<g fill="rgb(0%, 0%, 0%)" fill-opacity="1">
<use xlink:href="#glyph-0-2" x="0.5" y="35.214"/>
</g>
<g fill="rgb(0%, 0%, 0%)" fill-opacity="1">
<use xlink:href="#glyph-0-2" x="0.5" y="41.76"/>
</g>
<g fill="rgb(0%, 0%, 0%)" fill-opacity="1">
<use xlink:href="#glyph-0-2" x="0.5" y="48.305"/>
</g>
<g fill="rgb(0%, 0%, 0%)" fill-opacity="1">
<use xlink:href="#glyph-0-2" x="0.5" y="54.851"/>
</g>
<g fill="rgb(0%, 0%, 0%)" fill-opacity="1">
<use xlink:href="#glyph-0-2" x="0.5" y="61.396"/>
</g>
<g fill="rgb(0%, 0%, 0%)" fill-opacity="1">
<use xlink:href="#glyph-0-2" x="0.5" y="67.942"/>
</g>
<g fill="rgb(0%, 0%, 0%)" fill-opacity="1">
<use xlink:href="#glyph-0-3" x="0.5" y="74.924"/>
</g>
<g fill="rgb(0%, 0%, 0%)" fill-opacity="1">
<use xlink:href="#glyph-1-1" x="12.098" y="9.985"/>
</g>
<g fill="rgb(0%, 0%, 0%)" fill-opacity="1">
<use xlink:href="#glyph-2-1" x="17.855" y="11.621"/>
<use xlink:href="#glyph-2-2" x="21.618481" y="11.621"/>
</g>
<g fill="rgb(0%, 0%, 0%)" fill-opacity="1">
<use xlink:href="#glyph-1-1" x="10.045" y="23.917"/>
</g>
<g fill="rgb(0%, 0%, 0%)" fill-opacity="1">
<use xlink:href="#glyph-2-3" x="15.803" y="19.496"/>
<use xlink:href="#glyph-2-4" x="22.145606" y="19.496"/>
</g>
<g fill="rgb(0%, 0%, 0%)" fill-opacity="1">
<use xlink:href="#glyph-2-1" x="15.803" y="26.614"/>
<use xlink:href="#glyph-2-2" x="19.566481" y="26.614"/>
</g>
<g fill="rgb(0%, 0%, 0%)" fill-opacity="1">
<use xlink:href="#glyph-1-1" x="10.159" y="37.849"/>
</g>
<g fill="rgb(0%, 0%, 0%)" fill-opacity="1">
<use xlink:href="#glyph-2-4" x="15.917" y="33.428"/>
<use xlink:href="#glyph-2-5" x="21.911312" y="33.428"/>
</g>
<g fill="rgb(0%, 0%, 0%)" fill-opacity="1">
<use xlink:href="#glyph-2-1" x="15.917" y="40.545"/>
<use xlink:href="#glyph-2-2" x="19.680481" y="40.545"/>
</g>
<g fill="rgb(0%, 0%, 0%)" fill-opacity="1">
<use xlink:href="#glyph-1-1" x="13.217" y="51.398"/>
</g>
<g fill="rgb(0%, 0%, 0%)" fill-opacity="1">
<use xlink:href="#glyph-2-4" x="18.975" y="53.086"/>
</g>
<g fill="rgb(0%, 0%, 0%)" fill-opacity="1">
<use xlink:href="#glyph-1-1" x="13.156" y="64.947"/>
</g>
<g fill="rgb(0%, 0%, 0%)" fill-opacity="1">
<use xlink:href="#glyph-2-5" x="18.914" y="66.636"/>
</g>
<g fill="rgb(0%, 0%, 0%)" fill-opacity="1">
<use xlink:href="#glyph-1-1" x="10.045" y="78.496"/>
</g>
<g fill="rgb(0%, 0%, 0%)" fill-opacity="1">
<use xlink:href="#glyph-2-3" x="15.803" y="80.185"/>
<use xlink:href="#glyph-2-4" x="22.145606" y="80.185"/>
</g>
<g fill="rgb(0%, 0%, 0%)" fill-opacity="1">
<use xlink:href="#glyph-3-1" x="12.592" y="92.045"/>
</g>
<g fill="rgb(0%, 0%, 0%)" fill-opacity="1">
<use xlink:href="#glyph-2-1" x="17.361" y="93.682"/>
<use xlink:href="#glyph-2-2" x="21.124481" y="93.682"/>
</g>
<g fill="rgb(0%, 0%, 0%)" fill-opacity="1">
<use xlink:href="#glyph-0-4" x="28.638" y="2.923"/>
</g>
<g fill="rgb(0%, 0%, 0%)" fill-opacity="1">
<use xlink:href="#glyph-0-5" x="28.638" y="22.123"/>
</g>
<g fill="rgb(0%, 0%, 0%)" fill-opacity="1">
<use xlink:href="#glyph-0-5" x="28.638" y="28.669"/>
</g>
<g fill="rgb(0%, 0%, 0%)" fill-opacity="1">
<use xlink:href="#glyph-0-5" x="28.638" y="35.214"/>
</g>
<g fill="rgb(0%, 0%, 0%)" fill-opacity="1">
<use xlink:href="#glyph-0-5" x="28.638" y="41.76"/>
</g>
<g fill="rgb(0%, 0%, 0%)" fill-opacity="1">
<use xlink:href="#glyph-0-5" x="28.638" y="48.305"/>
</g>
<g fill="rgb(0%, 0%, 0%)" fill-opacity="1">
<use xlink:href="#glyph-0-5" x="28.638" y="54.851"/>
</g>
<g fill="rgb(0%, 0%, 0%)" fill-opacity="1">
<use xlink:href="#glyph-0-5" x="28.638" y="61.396"/>
</g>
<g fill="rgb(0%, 0%, 0%)" fill-opacity="1">
<use xlink:href="#glyph-0-5" x="28.638" y="67.942"/>
</g>
<g fill="rgb(0%, 0%, 0%)" fill-opacity="1">
<use xlink:href="#glyph-0-6" x="28.638" y="74.924"/>
</g>
</svg>
