<?xml version="1.0" encoding="UTF-8"?>
<svg xmlns="http://www.w3.org/2000/svg" xmlns:xlink="http://www.w3.org/1999/xlink" width="164.3" height="136.492" viewBox="0 0 164.3 136.492">
<defs>
<g>
<g id="glyph-0-0">
</g>
<g id="glyph-0-1">
<path d="M 4.078125 19.296875 C 4.3125 19.296875 4.390625 19.296875 4.390625 19.15625 C 4.40625 11.5 5.296875 5.15625 9.109375 -0.171875 C 9.1875 -0.265625 9.1875 -0.296875 9.1875 -0.3125 C 9.1875 -0.421875 9.109375 -0.421875 8.9375 -0.421875 C 8.75 -0.421875 8.734375 -0.421875 8.71875 -0.40625 C 8.671875 -0.375 7.28125 1.21875 6.1875 3.40625 C 4.75 6.296875 3.84375 9.59375 3.4375 13.5625 C 3.40625 13.90625 3.171875 16.171875 3.171875 18.765625 L 3.171875 19.1875 C 3.1875 19.296875 3.25 19.296875 3.484375 19.296875 Z M 4.078125 19.296875 "/>
</g>
<g id="glyph-0-2">
<path d="M 4.390625 0.1875 C 4.390625 -0.09375 4.375 -0.109375 4.078125 -0.109375 L 3.484375 -0.109375 C 3.1875 -0.109375 3.171875 -0.09375 3.171875 0.1875 L 3.171875 6.359375 C 3.171875 6.640625 3.1875 6.65625 3.484375 6.65625 L 4.078125 6.65625 C 4.375 6.65625 4.390625 6.640625 4.390625 6.359375 Z M 4.390625 0.1875 "/>
</g>
<g id="glyph-0-3">
<path d="M 3.484375 -0.546875 C 3.25 -0.546875 3.1875 -0.546875 3.171875 -0.421875 L 3.171875 0 C 3.171875 6.65625 4.359375 10.5625 4.703125 11.671875 C 5.4375 14.09375 6.65625 16.640625 8.46875 18.890625 C 8.640625 19.078125 8.6875 19.140625 8.71875 19.15625 C 8.75 19.171875 8.75 19.1875 8.9375 19.1875 C 9.109375 19.1875 9.1875 19.1875 9.1875 19.078125 C 9.1875 19.046875 9.1875 19.03125 9.125 18.9375 C 5.484375 13.890625 4.390625 7.828125 4.390625 -0.390625 C 4.390625 -0.546875 4.3125 -0.546875 4.078125 -0.546875 Z M 3.484375 -0.546875 "/>
</g>
<g id="glyph-0-4">
<path d="M 6.359375 18.765625 C 6.359375 12.09375 5.171875 8.1875 4.828125 7.09375 C 4.09375 4.671875 2.875 2.109375 1.0625 -0.125 C 0.890625 -0.328125 0.84375 -0.375 0.8125 -0.40625 C 0.78125 -0.421875 0.78125 -0.421875 0.59375 -0.421875 C 0.4375 -0.421875 0.34375 -0.421875 0.34375 -0.3125 C 0.34375 -0.296875 0.34375 -0.265625 0.484375 -0.078125 C 4.28125 5.21875 5.140625 11.765625 5.140625 19.15625 C 5.140625 19.296875 5.21875 19.296875 5.453125 19.296875 L 6.046875 19.296875 C 6.28125 19.296875 6.34375 19.296875 6.359375 19.1875 Z M 6.359375 18.765625 "/>
</g>
<g id="glyph-0-5">
<path d="M 6.359375 0.1875 C 6.359375 -0.09375 6.34375 -0.109375 6.046875 -0.109375 L 5.453125 -0.109375 C 5.15625 -0.109375 5.140625 -0.09375 5.140625 0.1875 L 5.140625 6.359375 C 5.140625 6.640625 5.15625 6.65625 5.453125 6.65625 L 6.046875 6.65625 C 6.34375 6.65625 6.359375 6.640625 6.359375 6.359375 Z M 6.359375 0.1875 "/>
</g>
<g id="glyph-0-6">
<path d="M 6.359375 -0.421875 C 6.34375 -0.546875 6.28125 -0.546875 6.046875 -0.546875 L 5.453125 -0.546875 C 5.21875 -0.546875 5.140625 -0.546875 5.140625 -0.390625 C 5.140625 0.734375 5.140625 3.328125 4.859375 6.046875 C 4.265625 11.6875 2.8125 15.578125 0.421875 18.9375 C 0.34375 19.03125 0.34375 19.046875 0.34375 19.078125 C 0.34375 19.1875 0.4375 19.1875 0.59375 19.1875 C 0.78125 19.1875 0.796875 19.1875 0.8125 19.15625 C 0.859375 19.125 2.25 17.53125 3.34375 15.34375 C 4.78125 12.46875 5.6875 9.15625 6.09375 5.1875 C 6.125 4.859375 6.359375 2.578125 6.359375 0 Z M 6.359375 -0.421875 "/>
</g>
<g id="glyph-1-0">
</g>
<g id="glyph-1-1">
<path d="M 3.203125 -6.984375 C 3.203125 -7.234375 3.203125 -7.265625 2.953125 -7.265625 C 2.28125 -6.5625 1.3125 -6.5625 0.96875 -6.5625 L 0.96875 -6.234375 C 1.1875 -6.234375 1.828125 -6.234375 2.40625 -6.515625 L 2.40625 -0.859375 C 2.40625 -0.46875 2.359375 -0.34375 1.390625 -0.34375 L 1.03125 -0.34375 L 1.03125 0 C 1.421875 -0.03125 2.359375 -0.03125 2.796875 -0.03125 C 3.234375 -0.03125 4.1875 -0.03125 4.5625 0 L 4.5625 -0.34375 L 4.21875 -0.34375 C 3.234375 -0.34375 3.203125 -0.453125 3.203125 -0.859375 Z M 3.203125 -6.984375 "/>
</g>
<g id="glyph-1-2">
<path d="M 5.015625 -3.484375 C 5.015625 -4.359375 4.96875 -5.234375 4.578125 -6.046875 C 4.078125 -7.09375 3.1875 -7.265625 2.71875 -7.265625 C 2.078125 -7.265625 1.28125 -6.984375 0.828125 -5.96875 C 0.484375 -5.21875 0.421875 -4.359375 0.421875 -3.484375 C 0.421875 -2.671875 0.46875 -1.6875 0.921875 -0.859375 C 1.390625 0.015625 2.1875 0.234375 2.71875 0.234375 C 3.296875 0.234375 4.140625 0.015625 4.609375 -1.03125 C 4.96875 -1.78125 5.015625 -2.625 5.015625 -3.484375 Z M 2.71875 0 C 2.296875 0 1.640625 -0.265625 1.453125 -1.3125 C 1.328125 -1.96875 1.328125 -2.984375 1.328125 -3.625 C 1.328125 -4.3125 1.328125 -5.03125 1.421875 -5.625 C 1.625 -6.921875 2.4375 -7.03125 2.71875 -7.03125 C 3.078125 -7.03125 3.796875 -6.828125 4 -5.75 C 4.109375 -5.140625 4.109375 -4.3125 4.109375 -3.625 C 4.109375 -2.796875 4.109375 -2.0625 3.984375 -1.359375 C 3.828125 -0.328125 3.203125 0 2.71875 0 Z M 2.71875 0 "/>
</g>
</g>
</defs>
<g fill="rgb(0%, 0%, 0%)" fill-opacity="1">
<use xlink:href="#glyph-0-1" x="0.5" y="3.227"/>
</g>
<g fill="rgb(0%, 0%, 0%)" fill-opacity="1">
<use xlink:href="#glyph-0-2" x="0.5" y="22.428"/>
</g>
<g fill="rgb(0%, 0%, 0%)" fill-opacity="1">
<use xlink:href="#glyph-0-2" x="0.5" y="28.973"/>
</g>
<g fill="rgb(0%, 0%, 0%)" fill-opacity="1">
<use xlink:href="#glyph-0-2" x="0.5" y="35.519"/>
</g>
<g fill="rgb(0%, 0%, 0%)" fill-opacity="1">
<use xlink:href="#glyph-0-2" x="0.5" y="42.064"/>
</g>
<g fill="rgb(0%, 0%, 0%)" fill-opacity="1">
<use xlink:href="#glyph-0-2" x="0.5" y="48.61"/>
</g>
<g fill="rgb(0%, 0%, 0%)" fill-opacity="1">
<use xlink:href="#glyph-0-2" x="0.5" y="55.155"/>
</g>
<g fill="rgb(0%, 0%, 0%)" fill-opacity="1">
<use xlink:href="#glyph-0-2" x="0.5" y="61.701"/>
</g>
<g fill="rgb(0%, 0%, 0%)" fill-opacity="1">
<use xlink:href="#glyph-0-2" x="0.5" y="68.246"/>
</g>
<g fill="rgb(0%, 0%, 0%)" fill-opacity="1">
<use xlink:href="#glyph-0-2" x="0.5" y="74.792"/>
</g>
<g fill="rgb(0%, 0%, 0%)" fill-opacity="1">
<use xlink:href="#glyph-0-2" x="0.5" y="81.337"/>
</g>
<g fill="rgb(0%, 0%, 0%)" fill-opacity="1">
<use xlink:href="#glyph-0-2" x="0.5" y="87.883"/>
</g>
<g fill="rgb(0%, 0%, 0%)" fill-opacity="1">
<use xlink:href="#glyph-0-2" x="0.5" y="94.428"/>
</g>
<g fill="rgb(0%, 0%, 0%)" fill-opacity="1">
<use xlink:href="#glyph-0-2" x="0.5" y="100.974"/>
</g>
<g fill="rgb(0%, 0%, 0%)" fill-opacity="1">
<use xlink:href="#glyph-0-2" x="0.5" y="107.519"/>
</g>
<g fill="rgb(0%, 0%, 0%)" fill-opacity="1">
<use xlink:href="#glyph-0-3" x="0.5" y="114.501"/>
</g>
<g fill="rgb(0%, 0%, 0%)" fill-opacity="1">
<use xlink:href="#glyph-1-1" x="10.045" y="9.985"/>
</g>
<g fill="rgb(0%, 0%, 0%)" fill-opacity="1">
<use xlink:href="#glyph-1-2" x="25.459558" y="9.985"/>
</g>
<g fill="rgb(0%, 0%, 0%)" fill-opacity="1">
<use xlink:href="#glyph-1-2" x="40.885026" y="9.985"/>
</g>
<g fill="rgb(0%, 0%, 0%)" fill-opacity="1">
<use xlink:href="#glyph-1-2" x="56.299584" y="9.985"/>
</g>
<g fill="rgb(0%, 0%, 0%)" fill-opacity="1">
<use xlink:href="#glyph-1-2" x="71.714142" y="9.985"/>
</g>
<g fill="rgb(0%, 0%, 0%)" fill-opacity="1">
<use xlink:href="#glyph-1-2" x="87.128701" y="9.985"/>
</g>
<g fill="rgb(0%, 0%, 0%)" fill-opacity="1">
<use xlink:href="#glyph-1-2" x="102.543259" y="9.985"/>
</g>
<g fill="rgb(0%, 0%, 0%)" fill-opacity="1">
<use xlink:href="#glyph-1-2" x="117.968726" y="9.985"/>
</g>
<g fill="rgb(0%, 0%, 0%)" fill-opacity="1">
<use xlink:href="#glyph-1-2" x="133.383285" y="9.985"/>
</g>
<g fill="rgb(0%, 0%, 0%)" fill-opacity="1">
<use xlink:href="#glyph-1-2" x="148.797843" y="9.985"/>
</g>
<g fill="rgb(0%, 0%, 0%)" fill-opacity="1">
<use xlink:href="#glyph-1-2" x="10.045" y="23.534"/>
</g>
<g fill="rgb(0%, 0%, 0%)" fill-opacity="1">
<use xlink:href="#glyph-1-1" x="25.459558" y="23.534"/>
</g>
<g fill="rgb(0%, 0%, 0%)" fill-opacity="1">
<use xlink:href="#glyph-1-2" x="40.885026" y="23.534"/>
</g>
<g fill="rgb(0%, 0%, 0%)" fill-opacity="1">
<use xlink:href="#glyph-1-2" x="56.299584" y="23.534"/>
</g>
<g fill="rgb(0%, 0%, 0%)" fill-opacity="1">
<use xlink:href="#glyph-1-2" x="71.714142" y="23.534"/>
</g>
<g fill="rgb(0%, 0%, 0%)" fill-opacity="1">
<use xlink:href="#glyph-1-2" x="87.128701" y="23.534"/>
</g>
<g fill="rgb(0%, 0%, 0%)" fill-opacity="1">
<use xlink:href="#glyph-1-2" x="102.543259" y="23.534"/>
</g>
<g fill="rgb(0%, 0%, 0%)" fill-opacity="1">
<use xlink:href="#glyph-1-2" x="117.968726" y="23.534"/>
</g>
<g fill="rgb(0%, 0%, 0%)" fill-opacity="1">
<use xlink:href="#glyph-1-2" x="133.383285" y="23.534"/>
</g>
<g fill="rgb(0%, 0%, 0%)" fill-opacity="1">
<use xlink:href="#glyph-1-2" x="148.797843" y="23.534"/>
</g>
<g fill="rgb(0%, 0%, 0%)" fill-opacity="1">
<use xlink:href="#glyph-1-2" x="10.045" y="37.083"/>
</g>
<g fill="rgb(0%, 0%, 0%)" fill-opacity="1">
<use xlink:href="#glyph-1-2" x="25.459558" y="37.083"/>
</g>
<g fill="rgb(0%, 0%, 0%)" fill-opacity="1">
<use xlink:href="#glyph-1-1" x="40.885026" y="37.083"/>
</g>
<g fill="rgb(0%, 0%, 0%)" fill-opacity="1">
<use xlink:href="#glyph-1-2" x="56.299584" y="37.083"/>
</g>
<g fill="rgb(0%, 0%, 0%)" fill-opacity="1">
<use xlink:href="#glyph-1-2" x="71.714142" y="37.083"/>
</g>
<g fill="rgb(0%, 0%, 0%)" fill-opacity="1">
<use xlink:href="#glyph-1-2" x="87.128701" y="37.083"/>
</g>
<g fill="rgb(0%, 0%, 0%)" fill-opacity="1">
<use xlink:href="#glyph-1-2" x="102.543259" y="37.083"/>
</g>
<g fill="rgb(0%, 0%, 0%)" fill-opacity="1">
<use xlink:href="#glyph-1-2" x="117.968726" y="37.083"/>
</g>
<g fill="rgb(0%, 0%, 0%)" fill-opacity="1">
<use xlink:href="#glyph-1-2" x="133.383285" y="37.083"/>
</g>
<g fill="rgb(0%, 0%, 0%)" fill-opacity="1">
<use xlink:href="#glyph-1-2" x="148.797843" y="37.083"/>
</g>
<g fill="rgb(0%, 0%, 0%)" fill-opacity="1">
<use xlink:href="#glyph-1-2" x="10.045" y="50.632"/>
</g>
<g fill="rgb(0%, 0%, 0%)" fill-opacity="1">
<use xlink:href="#glyph-1-2" x="25.459558" y="50.632"/>
</g>
<g fill="rgb(0%, 0%, 0%)" fill-opacity="1">
<use xlink:href="#glyph-1-2" x="40.885026" y="50.632"/>
</g>
<g fill="rgb(0%, 0%, 0%)" fill-opacity="1">
<use xlink:href="#glyph-1-1" x="56.299584" y="50.632"/>
</g>
<g fill="rgb(0%, 0%, 0%)" fill-opacity="1">
<use xlink:href="#glyph-1-2" x="71.714142" y="50.632"/>
</g>
<g fill="rgb(0%, 0%, 0%)" fill-opacity="1">
<use xlink:href="#glyph-1-2" x="87.128701" y="50.632"/>
</g>
<g fill="rgb(0%, 0%, 0%)" fill-opacity="1">
<use xlink:href="#glyph-1-2" x="102.543259" y="50.632"/>
</g>
<g fill="rgb(0%, 0%, 0%)" fill-opacity="1">
<use xlink:href="#glyph-1-2" x="117.968726" y="50.632"/>
</g>
<g fill="rgb(0%, 0%, 0%)" fill-opacity="1">
<use xlink:href="#glyph-1-2" x="133.383285" y="50.632"/>
</g>
<g fill="rgb(0%, 0%, 0%)" fill-opacity="1">
<use xlink:href="#glyph-1-2" x="148.797843" y="50.632"/>
</g>
<g fill="rgb(0%, 0%, 0%)" fill-opacity="1">
<use xlink:href="#glyph-1-2" x="10.045" y="64.181"/>
</g>
<g fill="rgb(0%, 0%, 0%)" fill-opacity="1">
<use xlink:href="#glyph-1-2" x="25.459558" y="64.181"/>
</g>
<g fill="rgb(0%, 0%, 0%)" fill-opacity="1">
<use xlink:href="#glyph-1-2" x="40.885026" y="64.181"/>
</g>
<g fill="rgb(0%, 0%, 0%)" fill-opacity="1">
<use xlink:href="#glyph-1-2" x="56.299584" y="64.181"/>
</g>
<g fill="rgb(0%, 0%, 0%)" fill-opacity="1">
<use xlink:href="#glyph-1-1" x="71.714142" y="64.181"/>
</g>
<g fill="rgb(0%, 0%, 0%)" fill-opacity="1">
<use xlink:href="#glyph-1-2" x="87.128701" y="64.181"/>
</g>
<g fill="rgb(0%, 0%, 0%)" fill-opacity="1">
<use xlink:href="#glyph-1-2" x="102.543259" y="64.181"/>
</g>
<g fill="rgb(0%, 0%, 0%)" fill-opacity="1">
<use xlink:href="#glyph-1-2" x="117.968726" y="64.181"/>
</g>
<g fill="rgb(0%, 0%, 0%)" fill-opacity="1">
<use xlink:href="#glyph-1-2" x="133.383285" y="64.181"/>
</g>
<g fill="rgb(0%, 0%, 0%)" fill-opacity="1">
<use xlink:href="#glyph-1-2" x="148.797843" y="64.181"/>
</g>
<g fill="rgb(0%, 0%, 0%)" fill-opacity="1">
<use xlink:href="#glyph-1-2" x="10.045" y="77.73"/>
</g>
<g fill="rgb(0%, 0%, 0%)" fill-opacity="1">
<use xlink:href="#glyph-1-2" x="25.459558" y="77.73"/>
</g>
<g fill="rgb(0%, 0%, 0%)" fill-opacity="1">
<use xlink:href="#glyph-1-2" x="40.885026" y="77.73"/>
</g>
<g fill="rgb(0%, 0%, 0%)" fill-opacity="1">
<use xlink:href="#glyph-1-2" x="56.299584" y="77.73"/>
</g>
<g fill="rgb(0%, 0%, 0%)" fill-opacity="1">
<use xlink:href="#glyph-1-2" x="71.714142" y="77.73"/>
</g>
<g fill="rgb(0%, 0%, 0%)" fill-opacity="1">
<use xlink:href="#glyph-1-1" x="87.128701" y="77.73"/>
</g>
<g fill="rgb(0%, 0%, 0%)" fill-opacity="1">
<use xlink:href="#glyph-1-2" x="102.543259" y="77.73"/>
</g>
<g fill="rgb(0%, 0%, 0%)" fill-opacity="1">
<use xlink:href="#glyph-1-2" x="117.968726" y="77.73"/>
</g>
<g fill="rgb(0%, 0%, 0%)" fill-opacity="1">
<use xlink:href="#glyph-1-2" x="133.383285" y="77.73"/>
</g>
<g fill="rgb(0%, 0%, 0%)" fill-opacity="1">
<use xlink:href="#glyph-1-2" x="148.797843" y="77.73"/>
</g>
<g fill="rgb(0%, 0%, 0%)" fill-opacity="1">
<use xlink:href="#glyph-1-2" x="10.045" y="91.28"/>
</g>
<g fill="rgb(0%, 0%, 0%)" fill-opacity="1">
<use xlink:href="#glyph-1-2" x="25.459558" y="91.28"/>
</g>
<g fill="rgb(0%, 0%, 0%)" fill-opacity="1">
<use xlink:href="#glyph-1-2" x="40.885026" y="91.28"/>
</g>
<g fill="rgb(0%, 0%, 0%)" fill-opacity="1">
<use xlink:href="#glyph-1-2" x="56.299584" y="91.28"/>
</g>
<g fill="rgb(0%, 0%, 0%)" fill-opacity="1">
<use xlink:href="#glyph-1-2" x="71.714142" y="91.28"/>
</g>
<g fill="rgb(0%, 0%, 0%)" fill-opacity="1">
<use xlink:href="#glyph-1-2" x="87.128701" y="91.28"/>
</g>
<g fill="rgb(0%, 0%, 0%)" fill-opacity="1">
<use xlink:href="#glyph-1-1" x="102.543259" y="91.28"/>
</g>
<g fill="rgb(0%, 0%, 0%)" fill-opacity="1">
<use xlink:href="#glyph-1-2" x="117.968726" y="91.28"/>
</g>
<g fill="rgb(0%, 0%, 0%)" fill-opacity="1">
<use xlink:href="#glyph-1-2" x="133.383285" y="91.28"/>
</g>
<g fill="rgb(0%, 0%, 0%)" fill-opacity="1">
<use xlink:href="#glyph-1-2" x="148.797843" y="91.28"/>
</g>
<g fill="rgb(0%, 0%, 0%)" fill-opacity="1">
<use xlink:href="#glyph-1-2" x="10.045" y="104.829"/>
</g>
<g fill="rgb(0%, 0%, 0%)" fill-opacity="1">
<use xlink:href="#glyph-1-2" x="25.459558" y="104.829"/>
</g>
<g fill="rgb(0%, 0%, 0%)" fill-opacity="1">
<use xlink:href="#glyph-1-2" x="40.885026" y="104.829"/>
</g>
<g fill="rgb(0%, 0%, 0%)" fill-opacity="1">
<use xlink:href="#glyph-1-2" x="56.299584" y="104.829"/>
</g>
<g fill="rgb(0%, 0%, 0%)" fill-opacity="1">
<use xlink:href="#glyph-1-2" x="71.714142" y="104.829"/>
</g>
<g fill="rgb(0%, 0%, 0%)" fill-opacity="1">
<use xlink:href="#glyph-1-2" x="87.128701" y="104.829"/>
</g>
<g fill="rgb(0%, 0%, 0%)" fill-opacity="1">
<use xlink:href="#glyph-1-2" x="102.543259" y="104.829"/>
</g>
<g fill="rgb(0%, 0%, 0%)" fill-opacity="1">
<use xlink:href="#glyph-1-1" x="117.968726" y="104.829"/>
</g>
<g fill="rgb(0%, 0%, 0%)" fill-opacity="1">
<use xlink:href="#glyph-1-2" x="133.383285" y="104.829"/>
</g>
<g fill="rgb(0%, 0%, 0%)" fill-opacity="1">
<use xlink:href="#glyph-1-2" x="148.797843" y="104.829"/>
</g>
<g fill="rgb(0%, 0%, 0%)" fill-opacity="1">
<use xlink:href="#glyph-1-2" x="10.045" y="118.378"/>
</g>
<g fill="rgb(0%, 0%, 0%)" fill-opacity="1">
<use xlink:href="#glyph-1-2" x="25.459558" y="118.378"/>
</g>
<g fill="rgb(0%, 0%, 0%)" fill-opacity="1">
<use xlink:href="#glyph-1-2" x="40.885026" y="118.378"/>
</g>
<g fill="rgb(0%, 0%, 0%)" fill-opacity="1">
<use xlink:href="#glyph-1-2" x="56.299584" y="118.378"/>
</g>
<g fill="rgb(0%, 0%, 0%)" fill-opacity="1">
<use xlink:href="#glyph-1-2" x="71.714142" y="118.378"/>
</g>
<g fill="rgb(0%, 0%, 0%)" fill-opacity="1">
<use xlink:href="#glyph-1-2" x="87.128701" y="118.378"/>
</g>
<g fill="rgb(0%, 0%, 0%)" fill-opacity="1">
<use xlink:href="#glyph-1-2" x="102.543259" y="118.378"/>
</g>
<g fill="rgb(0%, 0%, 0%)" fill-opacity="1">
<use xlink:href="#glyph-1-2" x="117.968726" y="118.378"/>
</g>
<g fill="rgb(0%, 0%, 0%)" fill-opacity="1">
<use xlink:href="#glyph-1-1" x="133.383285" y="118.378"/>
</g>
<g fill="rgb(0%, 0%, 0%)" fill-opacity="1">
<use xlink:href="#glyph-1-2" x="148.797843" y="118.378"/>
</g>
<g fill="rgb(0%, 0%, 0%)" fill-opacity="1">
<use xlink:href="#glyph-1-2" x="10.045" y="131.927"/>
</g>
<g fill="rgb(0%, 0%, 0%)" fill-opacity="1">
<use xlink:href="#glyph-1-2" x="25.459558" y="131.927"/>
</g>
<g fill="rgb(0%, 0%, 0%)" fill-opacity="1">
<use xlink:href="#glyph-1-2" x="40.885026" y="131.927"/>
</g>
<g fill="rgb(0%, 0%, 0%)" fill-opacity="1">
<use xlink:href="#glyph-1-2" x="56.299584" y="131.927"/>
</g>
<g fill="rgb(0%, 0%, 0%)" fill-opacity="1">
<use xlink:href="#glyph-1-2" x="71.714142" y="131.927"/>
</g>
<g fill="rgb(0%, 0%, 0%)" fill-opacity="1">
<use xlink:href="#glyph-1-2" x="87.128701" y="131.927"/>
</g>
<g fill="rgb(0%, 0%, 0%)" fill-opacity="1">
<use xlink:href="#glyph-1-2" x="102.543259" y="131.927"/>
</g>
<g fill="rgb(0%, 0%, 0%)" fill-opacity="1">
<use xlink:href="#glyph-1-2" x="117.968726" y="131.927"/>
</g>
<g fill="rgb(0%, 0%, 0%)" fill-opacity="1">
<use xlink:href="#glyph-1-2" x="133.383285" y="131.927"/>
</g>
<g fill="rgb(0%, 0%, 0%)" fill-opacity="1">
<use xlink:href="#glyph-1-1" x="148.797843" y="131.927"/>
</g>
<g fill="rgb(0%, 0%, 0%)" fill-opacity="1">
<use xlink:href="#glyph-0-4" x="154.255" y="3.227"/>
</g>
<g fill="rgb(0%, 0%, 0%)" fill-opacity="1">
<use xlink:href="#glyph-0-5" x="154.255" y="22.427"/>
</g>
<g fill="rgb(0%, 0%, 0%)" fill-opacity="1">
<use xlink:href="#glyph-0-5" x="154.255" y="28.973"/>
</g>
<g fill="rgb(0%, 0%, 0%)" fill-opacity="1">
<use xlink:href="#glyph-0-5" x="154.255" y="35.519"/>
</g>
<g fill="rgb(0%, 0%, 0%)" fill-opacity="1">
<use xlink:href="#glyph-0-5" x="154.255" y="42.064"/>
</g>
<g fill="rgb(0%, 0%, 0%)" fill-opacity="1">
<use xlink:href="#glyph-0-5" x="154.255" y="48.61"/>
</g>
<g fill="rgb(0%, 0%, 0%)" fill-opacity="1">
<use xlink:href="#glyph-0-5" x="154.255" y="55.155"/>
</g>
<g fill="rgb(0%, 0%, 0%)" fill-opacity="1">
<use xlink:href="#glyph-0-5" x="154.255" y="61.701"/>
</g>
<g fill="rgb(0%, 0%, 0%)" fill-opacity="1">
<use xlink:href="#glyph-0-5" x="154.255" y="68.246"/>
</g>
<g fill="rgb(0%, 0%, 0%)" fill-opacity="1">
<use xlink:href="#glyph-0-5" x="154.255" y="74.792"/>
</g>
<g fill="rgb(0%, 0%, 0%)" fill-opacity="1">
<use xlink:href="#glyph-0-5" x="154.255" y="81.337"/>
</g>
<g fill="rgb(0%, 0%, 0%)" fill-opacity="1">
<use xlink:href="#glyph-0-5" x="154.255" y="87.883"/>
</g>
<g fill="rgb(0%, 0%, 0%)" fill-opacity="1">
<use xlink:href="#glyph-0-5" x="154.255" y="94.428"/>
</g>
<g fill="rgb(0%, 0%, 0%)" fill-opacity="1">
<use xlink:href="#glyph-0-5" x="154.255" y="100.974"/>
</g>
<g fill="rgb(0%, 0%, 0%)" fill-opacity="1">
<use xlink:href="#glyph-0-5" x="154.255" y="107.519"/>
</g>
<g fill="rgb(0%, 0%, 0%)" fill-opacity="1">
<use xlink:href="#glyph-0-6" x="154.255" y="114.501"/>
</g>
</svg>
