<?xml version="1.0" encoding="UTF-8"?>
<svg xmlns="http://www.w3.org/2000/svg" xmlns:xlink="http://www.w3.org/1999/xlink" width="9.645" height="25.015" viewBox="0 0 9.645 25.015">
<defs>
<g>
<g id="glyph-0-0">
</g>
<g id="glyph-0-1">
<path d="M 3.203125 -6.984375 C 3.203125 -7.234375 3.203125 -7.265625 2.953125 -7.265625 C 2.28125 -6.5625 1.3125 -6.5625 0.96875 -6.5625 L 0.96875 -6.234375 C 1.1875 -6.234375 1.828125 -6.234375 2.40625 -6.515625 L 2.40625 -0.859375 C 2.40625 -0.46875 2.359375 -0.34375 1.390625 -0.34375 L 1.03125 -0.34375 L 1.03125 0 C 1.421875 -0.03125 2.359375 -0.03125 2.796875 -0.03125 C 3.234375 -0.03125 4.1875 -0.03125 4.5625 0 L 4.5625 -0.34375 L 4.21875 -0.34375 C 3.234375 -0.34375 3.203125 -0.453125 3.203125 -0.859375 Z M 3.203125 -6.984375 "/>
</g>
<g id="glyph-1-0">
</g>
<g id="glyph-1-1">
<path d="M 0.453125 -2.765625 C 0.875 -4.03125 2.0625 -4.03125 2.1875 -4.03125 C 3.828125 -4.03125 3.953125 -2.125 3.953125 -1.265625 C 3.953125 -0.59375 3.890625 -0.421875 3.8125 -0.203125 C 3.578125 0.59375 3.25 1.859375 3.25 2.15625 C 3.25 2.265625 3.296875 2.34375 3.390625 2.34375 C 3.53125 2.34375 3.625 2.109375 3.734375 1.6875 C 3.984375 0.78125 4.09375 0.15625 4.140625 -0.1875 C 4.171875 -0.328125 4.1875 -0.46875 4.234375 -0.609375 C 4.578125 -1.6875 5.28125 -3.3125 5.71875 -4.171875 C 5.796875 -4.3125 5.921875 -4.546875 5.921875 -4.59375 C 5.921875 -4.703125 5.8125 -4.703125 5.796875 -4.703125 C 5.765625 -4.703125 5.6875 -4.703125 5.65625 -4.625 C 5.09375 -3.59375 4.65625 -2.5 4.21875 -1.390625 C 4.203125 -1.734375 4.203125 -2.5625 3.78125 -3.625 C 3.515625 -4.28125 3.078125 -4.828125 2.328125 -4.828125 C 0.953125 -4.828125 0.203125 -3.15625 0.203125 -2.828125 C 0.203125 -2.71875 0.296875 -2.71875 0.40625 -2.71875 Z M 0.453125 -2.765625 "/>
</g>
</g>
</defs>
<g fill="rgb(0%, 0%, 0%)" fill-opacity="1">
<use xlink:href="#glyph-0-1" x="2.095" y="7.531"/>
</g>
<path fill="none" stroke-width="0.436" stroke-linecap="butt" stroke-linejoin="miter" stroke="rgb(0%, 0%, 0%)" stroke-opacity="1" stroke-miterlimit="10" d="M -0.0006875 -0.00059375 L 6.253219 -0.00059375 " transform="matrix(1, 0, 0, -1, 1.696, 12.183)"/>
<g fill="rgb(0%, 0%, 0%)" fill-opacity="1">
<use xlink:href="#glyph-1-1" x="1.696" y="22.394"/>
</g>
</svg>
