<?xml version="1.0" encoding="UTF-8"?>
<svg xmlns="http://www.w3.org/2000/svg" xmlns:xlink="http://www.w3.org/1999/xlink" width="7.587" height="6.646" viewBox="0 0 7.587 6.646">
<defs>
<g>
<g id="glyph-0-0">
</g>
<g id="glyph-0-1">
<path d="M 3.46875 -1.109375 L 5.796875 -1.109375 C 5.921875 -1.109375 6.109375 -1.109375 6.109375 -1.296875 C 6.109375 -1.46875 5.921875 -1.46875 5.796875 -1.46875 L 3.46875 -1.46875 L 3.46875 -3.75 L 5.796875 -3.75 C 5.921875 -3.75 6.109375 -3.75 6.109375 -3.921875 C 6.109375 -4.109375 5.921875 -4.109375 5.796875 -4.109375 L 0.765625 -4.109375 C 0.640625 -4.109375 0.46875 -4.109375 0.46875 -3.921875 C 0.46875 -3.75 0.640625 -3.75 0.765625 -3.75 L 3.109375 -3.75 L 3.109375 -1.46875 L 0.765625 -1.46875 C 0.640625 -1.46875 0.46875 -1.46875 0.46875 -1.296875 C 0.46875 -1.109375 0.640625 -1.109375 0.765625 -1.109375 L 3.109375 -1.109375 L 3.109375 1.234375 C 3.109375 1.359375 3.109375 1.53125 3.296875 1.53125 C 3.46875 1.53125 3.46875 1.328125 3.46875 1.203125 Z M 3.46875 -1.109375 "/>
</g>
</g>
<clipPath id="clip-0">
<path clip-rule="nonzero" d="M 0 1 L 7 1 L 7 6.644531 L 0 6.644531 Z M 0 1 "/>
</clipPath>
</defs>
<g clip-path="url(#clip-0)">
<g fill="rgb(0%, 0%, 0%)" fill-opacity="1">
<use xlink:href="#glyph-0-1" x="0.5" y="5.316"/>
</g>
</g>
</svg>
