<?xml version="1.0" encoding="UTF-8"?>
<svg xmlns="http://www.w3.org/2000/svg" xmlns:xlink="http://www.w3.org/1999/xlink" width="86.783" height="28.426" viewBox="0 0 86.783 28.426">
<defs>
<g>
<g id="glyph-0-0">
</g>
<g id="glyph-0-1">
<path d="M 3.609375 2.625 C 3.609375 2.578125 3.609375 2.5625 3.421875 2.375 C 2.0625 1 1.71875 -1.0625 1.71875 -2.71875 C 1.71875 -4.625 2.125 -6.515625 3.46875 -7.890625 C 3.609375 -8.015625 3.609375 -8.03125 3.609375 -8.078125 C 3.609375 -8.140625 3.5625 -8.171875 3.5 -8.171875 C 3.390625 -8.171875 2.40625 -7.4375 1.765625 -6.046875 C 1.203125 -4.859375 1.078125 -3.640625 1.078125 -2.71875 C 1.078125 -1.875 1.203125 -0.5625 1.796875 0.671875 C 2.453125 2.015625 3.390625 2.71875 3.5 2.71875 C 3.5625 2.71875 3.609375 2.6875 3.609375 2.625 Z M 3.609375 2.625 "/>
</g>
<g id="glyph-0-2">
<path d="M 2.4375 -3.84375 L 2.4375 -6.671875 C 2.4375 -6.921875 2.4375 -7.0625 2.6875 -7.09375 C 2.796875 -7.109375 3.109375 -7.109375 3.328125 -7.109375 C 4.3125 -7.109375 5.53125 -7.0625 5.53125 -5.484375 C 5.53125 -4.734375 5.265625 -3.84375 3.65625 -3.84375 Z M 4.75 -3.703125 C 5.796875 -3.96875 6.65625 -4.640625 6.65625 -5.484375 C 6.65625 -6.53125 5.40625 -7.453125 3.8125 -7.453125 L 0.375 -7.453125 L 0.375 -7.109375 L 0.640625 -7.109375 C 1.484375 -7.109375 1.5 -6.984375 1.5 -6.59375 L 1.5 -0.84375 C 1.5 -0.453125 1.484375 -0.34375 0.640625 -0.34375 L 0.375 -0.34375 L 0.375 0 C 0.78125 -0.03125 1.546875 -0.03125 1.96875 -0.03125 C 2.40625 -0.03125 3.171875 -0.03125 3.5625 0 L 3.5625 -0.34375 L 3.296875 -0.34375 C 2.46875 -0.34375 2.4375 -0.453125 2.4375 -0.84375 L 2.4375 -3.609375 L 3.703125 -3.609375 C 3.875 -3.609375 4.328125 -3.609375 4.71875 -3.234375 C 5.125 -2.84375 5.125 -2.515625 5.125 -1.78125 C 5.125 -1.0625 5.125 -0.625 5.578125 -0.21875 C 6.015625 0.171875 6.625 0.234375 6.953125 0.234375 C 7.796875 0.234375 7.984375 -0.65625 7.984375 -0.953125 C 7.984375 -1.03125 7.984375 -1.140625 7.84375 -1.140625 C 7.71875 -1.140625 7.71875 -1.046875 7.703125 -0.96875 C 7.640625 -0.203125 7.265625 0 6.984375 0 C 6.453125 0 6.375 -0.5625 6.21875 -1.578125 L 6.078125 -2.4375 C 5.875 -3.140625 5.34375 -3.5 4.75 -3.703125 Z M 4.75 -3.703125 "/>
</g>
<g id="glyph-0-3">
<path d="M 3.15625 -2.71875 C 3.15625 -3.578125 3.03125 -4.890625 2.4375 -6.125 C 1.78125 -7.46875 0.84375 -8.171875 0.734375 -8.171875 C 0.671875 -8.171875 0.625 -8.140625 0.625 -8.078125 C 0.625 -8.03125 0.625 -8.015625 0.828125 -7.8125 C 1.890625 -6.734375 2.515625 -5 2.515625 -2.71875 C 2.515625 -0.859375 2.109375 1.0625 0.765625 2.4375 C 0.625 2.5625 0.625 2.578125 0.625 2.625 C 0.625 2.6875 0.671875 2.71875 0.734375 2.71875 C 0.84375 2.71875 1.828125 1.984375 2.46875 0.59375 C 3.015625 -0.59375 3.15625 -1.8125 3.15625 -2.71875 Z M 3.15625 -2.71875 "/>
</g>
<g id="glyph-1-0">
</g>
<g id="glyph-1-1">
<path d="M 2.25 -1.625 C 2.375 -1.75 2.703125 -2.015625 2.84375 -2.125 C 3.328125 -2.578125 3.796875 -3.015625 3.796875 -3.734375 C 3.796875 -4.6875 3 -5.296875 2.015625 -5.296875 C 1.046875 -5.296875 0.421875 -4.578125 0.421875 -3.859375 C 0.421875 -3.46875 0.734375 -3.421875 0.84375 -3.421875 C 1.015625 -3.421875 1.265625 -3.53125 1.265625 -3.84375 C 1.265625 -4.25 0.859375 -4.25 0.765625 -4.25 C 1 -4.84375 1.53125 -5.03125 1.921875 -5.03125 C 2.65625 -5.03125 3.046875 -4.40625 3.046875 -3.734375 C 3.046875 -2.90625 2.46875 -2.296875 1.515625 -1.34375 L 0.515625 -0.296875 C 0.421875 -0.21875 0.421875 -0.203125 0.421875 0 L 3.5625 0 L 3.796875 -1.421875 L 3.546875 -1.421875 C 3.53125 -1.265625 3.46875 -0.875 3.375 -0.71875 C 3.328125 -0.65625 2.71875 -0.65625 2.59375 -0.65625 L 1.171875 -0.65625 Z M 2.25 -1.625 "/>
</g>
<g id="glyph-1-2">
<path d="M 3.296875 -1.8125 C 3.46875 -1.8125 3.515625 -1.8125 3.515625 -2 C 3.515625 -2.703125 3.125 -3.546875 2 -3.546875 C 1.015625 -3.546875 0.234375 -2.734375 0.234375 -1.75 C 0.234375 -0.71875 1.09375 0.078125 2.109375 0.078125 C 3.109375 0.078125 3.515625 -0.765625 3.515625 -0.953125 C 3.515625 -0.984375 3.484375 -1.0625 3.390625 -1.0625 C 3.296875 -1.0625 3.28125 -1.015625 3.265625 -0.96875 C 2.984375 -0.1875 2.296875 -0.171875 2.15625 -0.171875 C 1.796875 -0.171875 1.421875 -0.328125 1.1875 -0.703125 C 0.953125 -1.0625 0.953125 -1.578125 0.953125 -1.8125 Z M 0.953125 -2.03125 C 1.03125 -3.140625 1.703125 -3.328125 2 -3.328125 C 2.9375 -3.328125 2.96875 -2.203125 2.96875 -2.03125 Z M 0.953125 -2.03125 "/>
</g>
<g id="glyph-1-3">
<path d="M 3.8125 -3.171875 L 4.765625 -3.171875 L 4.765625 -3.4375 L 3.78125 -3.4375 L 3.78125 -4.328125 C 3.78125 -5.046875 4.1875 -5.390625 4.53125 -5.390625 C 4.5625 -5.390625 4.65625 -5.390625 4.765625 -5.34375 C 4.625 -5.28125 4.578125 -5.140625 4.578125 -5.03125 C 4.578125 -4.828125 4.734375 -4.671875 4.9375 -4.671875 C 5.15625 -4.671875 5.296875 -4.828125 5.296875 -5.03125 C 5.296875 -5.375 4.96875 -5.609375 4.546875 -5.609375 C 4.25 -5.609375 3.90625 -5.5 3.640625 -5.28125 C 3.375 -5.59375 2.90625 -5.609375 2.6875 -5.609375 C 1.890625 -5.609375 0.890625 -5.21875 0.890625 -4.3125 L 0.890625 -3.4375 L 0.234375 -3.4375 L 0.234375 -3.171875 L 0.890625 -3.171875 L 0.890625 -0.625 C 0.890625 -0.265625 0.78125 -0.265625 0.28125 -0.265625 L 0.28125 0 C 0.59375 -0.03125 1.03125 -0.03125 1.171875 -0.03125 C 1.328125 -0.03125 1.765625 -0.03125 2.078125 0 L 2.078125 -0.265625 C 1.5625 -0.265625 1.46875 -0.265625 1.46875 -0.625 L 1.46875 -3.171875 L 3.234375 -3.171875 L 3.234375 -0.625 C 3.234375 -0.265625 3.125 -0.265625 2.625 -0.265625 L 2.625 0 C 2.9375 -0.03125 3.375 -0.03125 3.5625 -0.03125 C 4.03125 -0.03125 4.046875 -0.03125 4.5625 0 L 4.5625 -0.265625 L 4.40625 -0.265625 C 3.828125 -0.265625 3.8125 -0.34375 3.8125 -0.640625 Z M 1.4375 -3.4375 L 1.4375 -4.296875 C 1.4375 -5.078125 2.140625 -5.390625 2.671875 -5.390625 C 2.75 -5.390625 3.046875 -5.390625 3.28125 -5.265625 C 3.078125 -5.171875 3.046875 -5 3.046875 -4.921875 C 3.046875 -4.859375 3.0625 -4.6875 3.25 -4.609375 C 3.234375 -4.515625 3.234375 -4.359375 3.234375 -4.328125 L 3.234375 -3.4375 Z M 1.4375 -3.4375 "/>
</g>
<g id="glyph-2-0">
</g>
<g id="glyph-2-1">
<path d="M 7.1875 -2.515625 C 7.375 -2.515625 7.5625 -2.515625 7.5625 -2.71875 C 7.5625 -2.9375 7.375 -2.9375 7.1875 -2.9375 L 1.28125 -2.9375 C 1.09375 -2.9375 0.90625 -2.9375 0.90625 -2.71875 C 0.90625 -2.515625 1.09375 -2.515625 1.28125 -2.515625 Z M 7.1875 -2.515625 "/>
</g>
<g id="glyph-3-0">
</g>
<g id="glyph-3-1">
<path d="M 4.96875 -5.453125 C 4.96875 -6.171875 4.765625 -7.6875 3.65625 -7.6875 C 2.140625 -7.6875 0.453125 -4.609375 0.453125 -2.109375 C 0.453125 -1.09375 0.78125 0.125 1.765625 0.125 C 3.296875 0.125 4.96875 -3.015625 4.96875 -5.453125 Z M 1.609375 -3.953125 C 1.796875 -4.65625 2.015625 -5.53125 2.453125 -6.296875 C 2.75 -6.84375 3.15625 -7.453125 3.640625 -7.453125 C 4.171875 -7.453125 4.25 -6.75 4.25 -6.125 C 4.25 -5.59375 4.15625 -5.03125 3.890625 -3.953125 Z M 3.796875 -3.609375 C 3.671875 -3.109375 3.453125 -2.1875 3.03125 -1.390625 C 2.65625 -0.65625 2.234375 -0.125 1.765625 -0.125 C 1.40625 -0.125 1.171875 -0.4375 1.171875 -1.453125 C 1.171875 -1.90625 1.25 -2.546875 1.53125 -3.609375 Z M 3.796875 -3.609375 "/>
</g>
<g id="glyph-3-2">
<path d="M 5.65625 -4.0625 C 5.796875 -4.0625 6.1875 -4.0625 6.1875 -4.4375 C 6.1875 -4.703125 5.953125 -4.703125 5.765625 -4.703125 L 3.265625 -4.703125 C 1.625 -4.703125 0.421875 -2.90625 0.421875 -1.609375 C 0.421875 -0.640625 1.0625 0.125 2.046875 0.125 C 3.34375 0.125 4.78125 -1.203125 4.78125 -2.875 C 4.78125 -3.0625 4.78125 -3.59375 4.453125 -4.0625 Z M 2.0625 -0.125 C 1.53125 -0.125 1.09375 -0.515625 1.09375 -1.296875 C 1.09375 -1.625 1.21875 -2.515625 1.609375 -3.15625 C 2.0625 -3.921875 2.71875 -4.0625 3.09375 -4.0625 C 4 -4.0625 4.09375 -3.34375 4.09375 -3.015625 C 4.09375 -2.5 3.875 -1.609375 3.5 -1.046875 C 3.078125 -0.40625 2.484375 -0.125 2.0625 -0.125 Z M 2.0625 -0.125 "/>
</g>
<g id="glyph-4-0">
</g>
<g id="glyph-4-1">
<path d="M 2.375 -4.96875 C 2.375 -5.140625 2.25 -5.28125 2.0625 -5.28125 C 1.859375 -5.28125 1.625 -5.078125 1.625 -4.84375 C 1.625 -4.671875 1.75 -4.546875 1.9375 -4.546875 C 2.140625 -4.546875 2.375 -4.734375 2.375 -4.96875 Z M 1.21875 -2.046875 L 0.78125 -0.953125 C 0.734375 -0.828125 0.703125 -0.734375 0.703125 -0.59375 C 0.703125 -0.203125 1 0.078125 1.421875 0.078125 C 2.203125 0.078125 2.53125 -1.03125 2.53125 -1.140625 C 2.53125 -1.21875 2.46875 -1.25 2.40625 -1.25 C 2.3125 -1.25 2.296875 -1.1875 2.265625 -1.109375 C 2.09375 -0.46875 1.765625 -0.140625 1.4375 -0.140625 C 1.34375 -0.140625 1.25 -0.1875 1.25 -0.390625 C 1.25 -0.59375 1.3125 -0.734375 1.40625 -0.984375 C 1.484375 -1.1875 1.5625 -1.40625 1.65625 -1.625 L 1.90625 -2.265625 C 1.96875 -2.453125 2.078125 -2.703125 2.078125 -2.84375 C 2.078125 -3.234375 1.75 -3.515625 1.34375 -3.515625 C 0.578125 -3.515625 0.234375 -2.40625 0.234375 -2.296875 C 0.234375 -2.21875 0.296875 -2.1875 0.359375 -2.1875 C 0.46875 -2.1875 0.46875 -2.234375 0.5 -2.3125 C 0.71875 -3.078125 1.078125 -3.296875 1.328125 -3.296875 C 1.4375 -3.296875 1.515625 -3.25 1.515625 -3.03125 C 1.515625 -2.953125 1.5 -2.84375 1.421875 -2.59375 Z M 1.21875 -2.046875 "/>
</g>
</g>
<clipPath id="clip-0">
<path clip-rule="nonzero" d="M 44 22 L 47 22 L 47 28.425781 L 44 28.425781 Z M 44 22 "/>
</clipPath>
</defs>
<g fill="rgb(0%, 0%, 0%)" fill-opacity="1">
<use xlink:href="#glyph-0-1" x="1.696" y="9.595"/>
<use xlink:href="#glyph-0-2" x="5.938549" y="9.595"/>
</g>
<g fill="rgb(0%, 0%, 0%)" fill-opacity="1">
<use xlink:href="#glyph-1-1" x="13.968" y="11.373"/>
<use xlink:href="#glyph-1-2" x="18.202514" y="11.373"/>
<use xlink:href="#glyph-1-3" x="21.965995" y="11.373"/>
</g>
<g fill="rgb(0%, 0%, 0%)" fill-opacity="1">
<use xlink:href="#glyph-2-1" x="29.828" y="9.595"/>
</g>
<g fill="rgb(0%, 0%, 0%)" fill-opacity="1">
<use xlink:href="#glyph-0-2" x="40.737" y="9.595"/>
</g>
<g fill="rgb(0%, 0%, 0%)" fill-opacity="1">
<use xlink:href="#glyph-1-1" x="48.768" y="11.373"/>
<use xlink:href="#glyph-1-2" x="53.002514" y="11.373"/>
<use xlink:href="#glyph-1-3" x="56.765995" y="11.373"/>
</g>
<g fill="rgb(0%, 0%, 0%)" fill-opacity="1">
<use xlink:href="#glyph-0-1" x="62.204" y="9.595"/>
</g>
<g fill="rgb(0%, 0%, 0%)" fill-opacity="1">
<use xlink:href="#glyph-3-1" x="66.446" y="9.595"/>
</g>
<g fill="rgb(0%, 0%, 0%)" fill-opacity="1">
<use xlink:href="#glyph-0-3" x="71.87" y="9.595"/>
<use xlink:href="#glyph-0-3" x="76.112549" y="9.595"/>
</g>
<g fill="rgb(0%, 0%, 0%)" fill-opacity="1">
<use xlink:href="#glyph-1-1" x="80.355" y="5.636"/>
</g>
<path fill="none" stroke-width="0.436" stroke-linecap="butt" stroke-linejoin="miter" stroke="rgb(0%, 0%, 0%)" stroke-opacity="1" stroke-miterlimit="10" d="M -0.0006875 0.00190625 L 83.393844 0.00190625 " transform="matrix(1, 0, 0, -1, 1.696, 14.248)"/>
<g fill="rgb(0%, 0%, 0%)" fill-opacity="1">
<use xlink:href="#glyph-3-2" x="37.713" y="24.669"/>
</g>
<g fill="rgb(0%, 0%, 0%)" fill-opacity="1">
<use xlink:href="#glyph-1-1" x="44.338" y="20.912"/>
</g>
<g clip-path="url(#clip-0)">
<g fill="rgb(0%, 0%, 0%)" fill-opacity="1">
<use xlink:href="#glyph-4-1" x="43.946" y="27.926"/>
</g>
</g>
</svg>
