<?xml version="1.0" encoding="UTF-8"?>
<svg xmlns="http://www.w3.org/2000/svg" xmlns:xlink="http://www.w3.org/1999/xlink" width="10.377" height="27.96" viewBox="0 0 10.377 27.96">
<defs>
<g>
<g id="glyph-0-0">
</g>
<g id="glyph-0-1">
<path d="M 6.484375 25.4375 C 6.53125 25.546875 6.609375 25.734375 6.8125 25.734375 C 6.96875 25.734375 7.109375 25.59375 7.109375 25.421875 C 7.109375 25.40625 7.109375 25.375 7.03125 25.203125 L 1.984375 12.65625 L 7.046875 0.09375 C 7.109375 -0.0625 7.109375 -0.125 7.109375 -0.125 C 7.109375 -0.3125 6.96875 -0.4375 6.8125 -0.4375 C 6.609375 -0.4375 6.53125 -0.25 6.484375 -0.140625 L 1.421875 12.421875 C 1.359375 12.578125 1.359375 12.625 1.359375 12.640625 C 1.359375 12.671875 1.359375 12.6875 1.4375 12.875 Z M 6.484375 25.4375 "/>
</g>
</g>
<clipPath id="clip-0">
<path clip-rule="nonzero" d="M 1 1 L 8 1 L 8 27.960938 L 1 27.960938 Z M 1 1 "/>
</clipPath>
</defs>
<g clip-path="url(#clip-0)">
<g fill="rgb(0%, 0%, 0%)" fill-opacity="1">
<use xlink:href="#glyph-0-1" x="0.5" y="1.714"/>
</g>
</g>
</svg>
