<?xml version="1.0" encoding="UTF-8"?>
<svg xmlns="http://www.w3.org/2000/svg" xmlns:xlink="http://www.w3.org/1999/xlink" width="15.985" height="22.681" viewBox="0 0 15.985 22.681">
<defs>
<g>
<g id="glyph-0-0">
</g>
<g id="glyph-0-1">
<path d="M 0.453125 -2.765625 C 0.875 -4.03125 2.0625 -4.03125 2.1875 -4.03125 C 3.828125 -4.03125 3.953125 -2.125 3.953125 -1.265625 C 3.953125 -0.59375 3.890625 -0.421875 3.8125 -0.203125 C 3.578125 0.59375 3.25 1.859375 3.25 2.15625 C 3.25 2.265625 3.296875 2.34375 3.390625 2.34375 C 3.53125 2.34375 3.625 2.109375 3.734375 1.6875 C 3.984375 0.78125 4.09375 0.15625 4.140625 -0.1875 C 4.171875 -0.328125 4.1875 -0.46875 4.234375 -0.609375 C 4.578125 -1.6875 5.28125 -3.3125 5.71875 -4.171875 C 5.796875 -4.3125 5.921875 -4.546875 5.921875 -4.59375 C 5.921875 -4.703125 5.8125 -4.703125 5.796875 -4.703125 C 5.765625 -4.703125 5.6875 -4.703125 5.65625 -4.625 C 5.09375 -3.59375 4.65625 -2.5 4.21875 -1.390625 C 4.203125 -1.734375 4.203125 -2.5625 3.78125 -3.625 C 3.515625 -4.28125 3.078125 -4.828125 2.328125 -4.828125 C 0.953125 -4.828125 0.203125 -3.15625 0.203125 -2.828125 C 0.203125 -2.71875 0.296875 -2.71875 0.40625 -2.71875 Z M 0.453125 -2.765625 "/>
</g>
<g id="glyph-1-0">
</g>
<g id="glyph-1-1">
<path d="M 5.3125 -3.609375 C 5.359375 -3.796875 5.375 -3.84375 5.84375 -3.84375 C 5.953125 -3.84375 6.03125 -3.84375 6.03125 -3.984375 C 6.03125 -4.046875 6 -4.09375 5.9375 -4.09375 C 5.8125 -4.09375 5.671875 -4.0625 5.53125 -4.0625 C 5.40625 -4.0625 5.265625 -4.0625 5.140625 -4.0625 C 5 -4.0625 4.859375 -4.0625 4.71875 -4.0625 C 4.59375 -4.0625 4.4375 -4.09375 4.3125 -4.09375 C 4.265625 -4.09375 4.171875 -4.09375 4.171875 -3.9375 C 4.171875 -3.84375 4.265625 -3.84375 4.375 -3.84375 C 4.46875 -3.84375 4.625 -3.84375 4.75 -3.8125 C 4.75 -3.75 4.75 -3.703125 4.734375 -3.609375 L 4.375 -2.25 L 2.265625 -2.25 L 2.609375 -3.609375 C 2.65625 -3.796875 2.65625 -3.84375 3.140625 -3.84375 C 3.25 -3.84375 3.328125 -3.84375 3.328125 -3.984375 C 3.328125 -4.046875 3.296875 -4.09375 3.234375 -4.09375 C 3.109375 -4.09375 2.96875 -4.0625 2.828125 -4.0625 C 2.703125 -4.0625 2.5625 -4.0625 2.421875 -4.0625 C 2.296875 -4.0625 2.15625 -4.0625 2.015625 -4.0625 C 1.890625 -4.0625 1.734375 -4.09375 1.609375 -4.09375 C 1.5625 -4.09375 1.46875 -4.09375 1.46875 -3.9375 C 1.46875 -3.84375 1.5625 -3.84375 1.65625 -3.84375 C 1.765625 -3.84375 1.921875 -3.84375 2.046875 -3.8125 C 2.046875 -3.75 2.046875 -3.703125 2.015625 -3.609375 L 1.234375 -0.5 C 1.1875 -0.28125 1.171875 -0.234375 0.71875 -0.234375 C 0.59375 -0.234375 0.578125 -0.234375 0.5625 -0.21875 C 0.53125 -0.203125 0.5 -0.125 0.5 -0.078125 C 0.515625 -0.0625 0.515625 0 0.609375 0 C 0.734375 0 0.875 -0.015625 1.015625 -0.015625 C 1.15625 -0.015625 1.28125 -0.03125 1.40625 -0.03125 C 1.546875 -0.03125 1.6875 -0.015625 1.828125 -0.015625 C 1.953125 -0.015625 2.109375 0 2.234375 0 C 2.28125 0 2.3125 0 2.34375 -0.046875 C 2.359375 -0.0625 2.375 -0.125 2.375 -0.15625 C 2.359375 -0.234375 2.296875 -0.234375 2.171875 -0.234375 C 2.09375 -0.234375 2 -0.25 1.9375 -0.25 C 1.828125 -0.265625 1.796875 -0.265625 1.796875 -0.328125 C 1.796875 -0.359375 1.796875 -0.375 1.8125 -0.4375 L 2.203125 -2 L 4.328125 -2 L 3.921875 -0.390625 C 3.875 -0.28125 3.859375 -0.25 3.390625 -0.234375 C 3.296875 -0.234375 3.28125 -0.234375 3.25 -0.21875 C 3.234375 -0.1875 3.203125 -0.109375 3.203125 -0.078125 C 3.21875 -0.0625 3.21875 0 3.3125 0 C 3.4375 0 3.578125 -0.015625 3.71875 -0.015625 C 3.859375 -0.015625 3.984375 -0.03125 4.125 -0.03125 C 4.25 -0.03125 4.390625 -0.015625 4.53125 -0.015625 C 4.65625 -0.015625 4.8125 0 4.9375 0 C 4.984375 0 5.015625 0 5.046875 -0.046875 C 5.0625 -0.0625 5.078125 -0.125 5.078125 -0.15625 C 5.0625 -0.234375 5.015625 -0.234375 4.875 -0.234375 C 4.796875 -0.234375 4.703125 -0.25 4.640625 -0.25 C 4.53125 -0.265625 4.5 -0.265625 4.5 -0.328125 C 4.5 -0.359375 4.5 -0.375 4.515625 -0.4375 Z M 5.3125 -3.609375 "/>
</g>
<g id="glyph-1-2">
<path d="M 3.578125 -2.203125 C 3.578125 -2.203125 3.546875 -2.265625 3.546875 -2.28125 C 3.546875 -2.28125 3.546875 -2.28125 3.671875 -2.40625 L 4.640625 -3.34375 C 4.796875 -3.484375 5 -3.625 5.0625 -3.65625 C 5.296875 -3.796875 5.5 -3.84375 5.703125 -3.84375 C 5.796875 -3.859375 5.875 -3.859375 5.875 -4 C 5.875 -4.03125 5.828125 -4.09375 5.78125 -4.09375 C 5.59375 -4.09375 5.375 -4.0625 5.1875 -4.0625 L 4.828125 -4.0625 C 4.71875 -4.0625 4.59375 -4.09375 4.46875 -4.09375 C 4.4375 -4.09375 4.34375 -4.09375 4.34375 -3.9375 C 4.34375 -3.859375 4.421875 -3.84375 4.453125 -3.84375 C 4.53125 -3.84375 4.640625 -3.8125 4.640625 -3.703125 C 4.640625 -3.625 4.578125 -3.578125 4.40625 -3.390625 L 3.90625 -2.9375 C 3.875 -2.890625 3.5 -2.53125 3.421875 -2.484375 L 2.796875 -3.640625 C 2.78125 -3.65625 2.765625 -3.703125 2.765625 -3.71875 C 2.765625 -3.75 2.890625 -3.84375 3.0625 -3.84375 C 3.125 -3.84375 3.203125 -3.859375 3.203125 -4 C 3.203125 -4.015625 3.203125 -4.09375 3.09375 -4.09375 C 2.96875 -4.09375 2.828125 -4.0625 2.703125 -4.0625 C 2.703125 -4.0625 2.296875 -4.0625 2.296875 -4.0625 C 2.171875 -4.0625 2.0625 -4.0625 1.9375 -4.0625 C 1.8125 -4.0625 1.6875 -4.09375 1.578125 -4.09375 C 1.515625 -4.09375 1.4375 -4.0625 1.4375 -3.9375 C 1.4375 -3.84375 1.515625 -3.84375 1.640625 -3.84375 C 1.984375 -3.84375 2.015625 -3.78125 2.078125 -3.6875 L 2.96875 -2.046875 C 2.84375 -1.9375 2.546875 -1.65625 2.34375 -1.453125 C 1.34375 -0.484375 1.125 -0.265625 0.546875 -0.234375 C 0.46875 -0.234375 0.390625 -0.234375 0.390625 -0.09375 C 0.390625 -0.046875 0.421875 0 0.484375 0 C 0.65625 0 0.875 -0.03125 1.0625 -0.03125 C 1.234375 -0.03125 1.625 0 1.78125 0 C 1.8125 0 1.921875 0 1.921875 -0.15625 C 1.921875 -0.234375 1.84375 -0.234375 1.8125 -0.234375 C 1.71875 -0.25 1.609375 -0.28125 1.609375 -0.375 C 1.609375 -0.40625 1.625 -0.4375 1.6875 -0.515625 C 1.6875 -0.53125 1.703125 -0.5625 1.71875 -0.5625 L 3.078125 -1.84375 L 3.84375 -0.453125 C 3.875 -0.40625 3.890625 -0.390625 3.890625 -0.375 C 3.890625 -0.328125 3.765625 -0.25 3.578125 -0.234375 C 3.53125 -0.234375 3.4375 -0.234375 3.4375 -0.09375 C 3.4375 -0.078125 3.453125 0 3.546875 0 C 3.671875 0 3.8125 -0.015625 3.9375 -0.015625 C 3.9375 -0.015625 4.34375 -0.03125 4.34375 -0.03125 C 4.46875 -0.03125 4.578125 -0.015625 4.703125 -0.015625 C 4.828125 -0.015625 4.953125 0 5.0625 0 C 5.140625 0 5.203125 -0.03125 5.203125 -0.15625 C 5.203125 -0.234375 5.109375 -0.234375 5.03125 -0.234375 C 4.65625 -0.234375 4.625 -0.296875 4.5625 -0.40625 Z M 3.578125 -2.203125 "/>
</g>
</g>
<clipPath id="clip-0">
<path clip-rule="nonzero" d="M 1 15 L 8 15 L 8 22.679688 L 1 22.679688 Z M 1 15 "/>
</clipPath>
</defs>
<g fill="rgb(0%, 0%, 0%)" fill-opacity="1">
<use xlink:href="#glyph-0-1" x="1.707" y="5.197"/>
</g>
<g fill="rgb(0%, 0%, 0%)" fill-opacity="1">
<use xlink:href="#glyph-1-1" x="7.355" y="6.833"/>
</g>
<path fill="none" stroke-width="0.436" stroke-linecap="butt" stroke-linejoin="miter" stroke="rgb(0%, 0%, 0%)" stroke-opacity="1" stroke-miterlimit="10" d="M -0.0006875 0.00134375 L 12.593063 0.00134375 " transform="matrix(1, 0, 0, -1, 1.696, 9.849)"/>
<g clip-path="url(#clip-0)">
<g fill="rgb(0%, 0%, 0%)" fill-opacity="1">
<use xlink:href="#glyph-0-1" x="1.696" y="20.06"/>
</g>
</g>
<g fill="rgb(0%, 0%, 0%)" fill-opacity="1">
<use xlink:href="#glyph-1-2" x="7.343" y="21.696"/>
</g>
</svg>
