<?xml version="1.0" encoding="UTF-8"?>
<svg xmlns="http://www.w3.org/2000/svg" xmlns:xlink="http://www.w3.org/1999/xlink" width="9.53" height="10.636" viewBox="0 0 9.53 10.636">
<defs>
<g>
<g id="glyph-0-0">
</g>
<g id="glyph-0-1">
<path d="M 3.296875 -3.546875 L 4.359375 -3.546875 C 5.1875 -3.546875 5.265625 -3.375 5.265625 -3.046875 C 5.265625 -2.984375 5.265625 -2.84375 5.1875 -2.515625 C 5.171875 -2.46875 5.15625 -2.421875 5.15625 -2.40625 C 5.15625 -2.3125 5.21875 -2.265625 5.296875 -2.265625 C 5.40625 -2.265625 5.40625 -2.296875 5.453125 -2.5 L 6.046875 -4.859375 C 6.078125 -4.984375 6.078125 -5 6.078125 -5.03125 C 6.078125 -5.0625 6.0625 -5.15625 5.953125 -5.15625 C 5.84375 -5.15625 5.828125 -5.109375 5.796875 -4.921875 C 5.5625 -4.078125 5.3125 -3.875 4.390625 -3.875 L 3.390625 -3.875 L 4.09375 -6.65625 C 4.1875 -7.03125 4.203125 -7.078125 4.671875 -7.078125 L 6.125 -7.078125 C 7.453125 -7.078125 7.703125 -6.71875 7.703125 -5.875 C 7.703125 -5.625 7.703125 -5.578125 7.671875 -5.296875 C 7.65625 -5.140625 7.65625 -5.125 7.65625 -5.09375 C 7.65625 -5.03125 7.6875 -4.96875 7.78125 -4.96875 C 7.90625 -4.96875 7.921875 -5.03125 7.9375 -5.234375 L 8.15625 -7.125 C 8.1875 -7.421875 8.140625 -7.421875 7.859375 -7.421875 L 2.515625 -7.421875 C 2.296875 -7.421875 2.1875 -7.421875 2.1875 -7.203125 C 2.1875 -7.078125 2.296875 -7.078125 2.5 -7.078125 C 2.90625 -7.078125 3.203125 -7.078125 3.203125 -6.875 C 3.203125 -6.84375 3.203125 -6.8125 3.15625 -6.625 L 1.71875 -0.84375 C 1.609375 -0.421875 1.578125 -0.34375 0.71875 -0.34375 C 0.53125 -0.34375 0.421875 -0.34375 0.421875 -0.125 C 0.421875 0 0.546875 0 0.578125 0 C 0.890625 0 1.703125 -0.03125 2.015625 -0.03125 C 2.375 -0.03125 3.28125 0 3.640625 0 C 3.734375 0 3.875 0 3.875 -0.203125 C 3.875 -0.296875 3.8125 -0.3125 3.8125 -0.328125 C 3.78125 -0.34375 3.75 -0.34375 3.5 -0.34375 C 3.265625 -0.34375 3.203125 -0.34375 2.9375 -0.359375 C 2.625 -0.390625 2.578125 -0.4375 2.578125 -0.578125 C 2.578125 -0.59375 2.578125 -0.671875 2.625 -0.828125 Z M 3.296875 -3.546875 "/>
</g>
</g>
<clipPath id="clip-0">
<path clip-rule="nonzero" d="M 0 0 L 9.53125 0 L 9.53125 2 L 0 2 Z M 0 0 "/>
</clipPath>
<clipPath id="clip-1">
<path clip-rule="nonzero" d="M 0 2 L 9 2 L 9 10.636719 L 0 10.636719 Z M 0 2 "/>
</clipPath>
</defs>
<g clip-path="url(#clip-0)">
<path fill="none" stroke-width="0.436" stroke-linecap="butt" stroke-linejoin="miter" stroke="rgb(0%, 0%, 0%)" stroke-opacity="1" stroke-miterlimit="10" d="M 0 0.00165625 L 8.53125 0.00165625 " transform="matrix(1, 0, 0, -1, 0.5, 1.154)"/>
</g>
<g clip-path="url(#clip-1)">
<g fill="rgb(0%, 0%, 0%)" fill-opacity="1">
<use xlink:href="#glyph-0-1" x="0.5" y="10.136"/>
</g>
</g>
</svg>
