<?xml version="1.0" encoding="UTF-8"?>
<svg xmlns="http://www.w3.org/2000/svg" xmlns:xlink="http://www.w3.org/1999/xlink" width="31.467" height="26.106" viewBox="0 0 31.467 26.106">
<defs>
<g>
<g id="glyph-0-0">
</g>
<g id="glyph-0-1">
<path d="M 0.453125 -2.765625 C 0.875 -4.03125 2.0625 -4.03125 2.1875 -4.03125 C 3.828125 -4.03125 3.953125 -2.125 3.953125 -1.265625 C 3.953125 -0.59375 3.890625 -0.421875 3.8125 -0.203125 C 3.578125 0.59375 3.25 1.859375 3.25 2.15625 C 3.25 2.265625 3.296875 2.34375 3.390625 2.34375 C 3.53125 2.34375 3.625 2.109375 3.734375 1.6875 C 3.984375 0.78125 4.09375 0.15625 4.140625 -0.1875 C 4.171875 -0.328125 4.1875 -0.46875 4.234375 -0.609375 C 4.578125 -1.6875 5.28125 -3.3125 5.71875 -4.171875 C 5.796875 -4.3125 5.921875 -4.546875 5.921875 -4.59375 C 5.921875 -4.703125 5.8125 -4.703125 5.796875 -4.703125 C 5.765625 -4.703125 5.6875 -4.703125 5.65625 -4.625 C 5.09375 -3.59375 4.65625 -2.5 4.21875 -1.390625 C 4.203125 -1.734375 4.203125 -2.5625 3.78125 -3.625 C 3.515625 -4.28125 3.078125 -4.828125 2.328125 -4.828125 C 0.953125 -4.828125 0.203125 -3.15625 0.203125 -2.828125 C 0.203125 -2.71875 0.296875 -2.71875 0.40625 -2.71875 Z M 0.453125 -2.765625 "/>
</g>
<g id="glyph-0-2">
<path d="M 0.953125 -0.640625 C 0.921875 -0.484375 0.859375 -0.234375 0.859375 -0.171875 C 0.859375 0.015625 1.015625 0.125 1.171875 0.125 C 1.3125 0.125 1.5 0.03125 1.578125 -0.1875 C 1.609375 -0.234375 1.96875 -1.71875 2.015625 -1.90625 C 2.109375 -2.265625 2.296875 -3.03125 2.359375 -3.328125 C 2.40625 -3.46875 2.71875 -3.984375 2.984375 -4.21875 C 3.0625 -4.296875 3.375 -4.578125 3.84375 -4.578125 C 4.140625 -4.578125 4.296875 -4.453125 4.3125 -4.453125 C 3.984375 -4.390625 3.734375 -4.140625 3.734375 -3.84375 C 3.734375 -3.671875 3.859375 -3.46875 4.15625 -3.46875 C 4.453125 -3.46875 4.75 -3.71875 4.75 -4.109375 C 4.75 -4.5 4.40625 -4.828125 3.84375 -4.828125 C 3.140625 -4.828125 2.65625 -4.28125 2.453125 -3.984375 C 2.359375 -4.46875 1.96875 -4.828125 1.46875 -4.828125 C 0.953125 -4.828125 0.75 -4.390625 0.65625 -4.203125 C 0.453125 -3.828125 0.3125 -3.171875 0.3125 -3.140625 C 0.3125 -3.03125 0.421875 -3.03125 0.453125 -3.03125 C 0.5625 -3.03125 0.5625 -3.046875 0.625 -3.28125 C 0.8125 -4.0625 1.03125 -4.578125 1.421875 -4.578125 C 1.609375 -4.578125 1.765625 -4.5 1.765625 -4.078125 C 1.765625 -3.84375 1.734375 -3.734375 1.59375 -3.15625 Z M 0.953125 -0.640625 "/>
</g>
<g id="glyph-1-0">
</g>
<g id="glyph-1-1">
<path d="M 3.09375 -4.828125 C 3.15625 -5.09375 3.171875 -5.171875 3.78125 -5.171875 C 3.953125 -5.171875 4.0625 -5.171875 4.0625 -5.328125 C 4.0625 -5.34375 4.046875 -5.4375 3.921875 -5.4375 C 3.796875 -5.4375 3.546875 -5.421875 3.421875 -5.421875 L 2.328125 -5.421875 C 2.21875 -5.421875 1.921875 -5.4375 1.8125 -5.4375 C 1.78125 -5.4375 1.65625 -5.4375 1.65625 -5.296875 C 1.65625 -5.171875 1.75 -5.171875 1.90625 -5.171875 C 2.421875 -5.171875 2.421875 -5.125 2.421875 -5.03125 C 2.421875 -5.015625 2.421875 -4.984375 2.375 -4.859375 L 1.328125 -0.625 C 1.25 -0.34375 1.234375 -0.265625 0.640625 -0.265625 C 0.453125 -0.265625 0.359375 -0.265625 0.359375 -0.109375 C 0.359375 -0.078125 0.390625 0 0.484375 0 C 0.59375 0 0.859375 -0.015625 0.984375 -0.03125 L 2.09375 -0.03125 C 2.203125 -0.015625 2.484375 0 2.59375 0 C 2.640625 0 2.75 0 2.75 -0.15625 C 2.75 -0.265625 2.65625 -0.265625 2.5 -0.265625 C 2.375 -0.265625 2.328125 -0.265625 2.1875 -0.28125 C 2.0625 -0.296875 1.984375 -0.296875 1.984375 -0.390625 C 1.984375 -0.4375 2 -0.4375 2.03125 -0.546875 Z M 3.09375 -4.828125 "/>
</g>
<g id="glyph-1-2">
<path d="M 5.34375 -5.390625 C 5.359375 -5.421875 5.375 -5.46875 5.375 -5.515625 C 5.375 -5.5625 5.328125 -5.609375 5.265625 -5.609375 C 5.21875 -5.609375 5.203125 -5.59375 5.109375 -5.5 C 5.015625 -5.390625 4.8125 -5.140625 4.71875 -5.046875 C 4.421875 -5.5 3.90625 -5.609375 3.5 -5.609375 C 2.40625 -5.609375 1.453125 -4.671875 1.453125 -3.765625 C 1.453125 -3.3125 1.703125 -3.03125 1.734375 -2.984375 C 2 -2.703125 2.234375 -2.640625 2.8125 -2.5 C 3.078125 -2.4375 3.09375 -2.4375 3.328125 -2.375 C 3.5625 -2.3125 4.078125 -2.1875 4.078125 -1.53125 C 4.078125 -0.84375 3.390625 -0.09375 2.546875 -0.09375 C 2.03125 -0.09375 1.078125 -0.25 1.078125 -1.25 C 1.078125 -1.265625 1.078125 -1.4375 1.125 -1.625 L 1.140625 -1.703125 C 1.140625 -1.796875 1.046875 -1.8125 1.015625 -1.8125 C 0.921875 -1.8125 0.90625 -1.78125 0.875 -1.59375 L 0.546875 -0.296875 C 0.515625 -0.171875 0.453125 0.046875 0.453125 0.0625 C 0.453125 0.125 0.5 0.171875 0.5625 0.171875 C 0.609375 0.171875 0.625 0.15625 0.703125 0.0625 L 1.09375 -0.390625 C 1.28125 -0.15625 1.734375 0.171875 2.53125 0.171875 C 3.6875 0.171875 4.640625 -0.875 4.640625 -1.828125 C 4.640625 -2.203125 4.515625 -2.484375 4.296875 -2.703125 C 4.0625 -2.96875 3.796875 -3.03125 3.421875 -3.125 C 3.203125 -3.1875 2.890625 -3.265625 2.703125 -3.3125 C 2.46875 -3.359375 2.015625 -3.515625 2.015625 -4.078125 C 2.015625 -4.703125 2.6875 -5.375 3.5 -5.375 C 4.21875 -5.375 4.703125 -5 4.703125 -4.140625 C 4.703125 -3.9375 4.671875 -3.78125 4.671875 -3.75 C 4.671875 -3.65625 4.75 -3.640625 4.8125 -3.640625 C 4.90625 -3.640625 4.90625 -3.671875 4.9375 -3.796875 Z M 5.34375 -5.390625 "/>
</g>
<g id="glyph-2-0">
</g>
<g id="glyph-2-1">
<path d="M 2.78125 -6 L 4.890625 -6 C 5.078125 -6 5.203125 -6 5.203125 -6.125 C 5.203125 -6.265625 5.078125 -6.265625 4.859375 -6.265625 L 2.84375 -6.265625 C 2.921875 -6.546875 2.921875 -6.5625 2.984375 -6.84375 C 3.046875 -7.03125 3.140625 -7.421875 3.140625 -7.4375 C 3.140625 -7.53125 3.078125 -7.5625 2.984375 -7.5625 C 2.78125 -7.5625 1.921875 -7.484375 1.65625 -7.453125 C 1.578125 -7.453125 1.453125 -7.4375 1.453125 -7.234375 C 1.453125 -7.109375 1.5625 -7.109375 1.71875 -7.109375 C 2.234375 -7.109375 2.25 -7.03125 2.25 -6.921875 C 2.25 -6.84375 2.15625 -6.484375 2.109375 -6.265625 L 1.5 -6.265625 C 1.28125 -6.265625 1.15625 -6.265625 1.15625 -6.125 C 1.15625 -6 1.25 -6 1.46875 -6 L 2.046875 -6 L 0.640625 -0.4375 C 0.59375 -0.265625 0.59375 -0.25 0.59375 -0.1875 C 0.59375 0.046875 0.78125 0.125 0.921875 0.125 C 1.125 0.125 1.28125 -0.03125 1.3125 -0.171875 C 1.34375 -0.234375 1.46875 -0.71875 1.53125 -1 L 1.78125 -1.96875 C 1.8125 -2.125 1.921875 -2.546875 1.953125 -2.703125 C 2 -2.875 2.078125 -3.21875 2.09375 -3.25 C 2.1875 -3.4375 2.765625 -4.578125 3.859375 -4.578125 C 4.34375 -4.578125 4.453125 -4.1875 4.453125 -3.828125 C 4.453125 -3.15625 3.953125 -1.828125 3.75 -1.3125 C 3.6875 -1.140625 3.625 -1 3.625 -0.78125 C 3.625 -0.21875 4.03125 0.125 4.53125 0.125 C 5.578125 0.125 5.953125 -1.5 5.953125 -1.5625 C 5.953125 -1.671875 5.859375 -1.671875 5.828125 -1.671875 C 5.71875 -1.671875 5.71875 -1.640625 5.65625 -1.46875 C 5.34375 -0.359375 4.859375 -0.125 4.5625 -0.125 C 4.359375 -0.125 4.28125 -0.25 4.28125 -0.484375 C 4.28125 -0.75 4.40625 -1.0625 4.46875 -1.25 C 4.65625 -1.71875 5.140625 -3.03125 5.140625 -3.640625 C 5.140625 -4.4375 4.640625 -4.828125 3.890625 -4.828125 C 3.5625 -4.828125 2.90625 -4.75 2.28125 -3.984375 Z M 2.78125 -6 "/>
</g>
<g id="glyph-3-0">
</g>
<g id="glyph-3-1">
<path d="M 3.578125 -7.765625 C 3.625 -7.890625 3.625 -7.90625 3.625 -7.96875 C 3.625 -8.078125 3.53125 -8.171875 3.40625 -8.171875 C 3.3125 -8.171875 3.234375 -8.125 3.15625 -7.921875 L 1.25 -2.921875 C 1.234375 -2.859375 1.203125 -2.796875 1.203125 -2.71875 C 1.203125 -2.6875 1.203125 -2.671875 1.25 -2.546875 L 3.15625 2.46875 C 3.203125 2.578125 3.265625 2.71875 3.40625 2.71875 C 3.53125 2.71875 3.625 2.625 3.625 2.515625 C 3.625 2.46875 3.625 2.453125 3.578125 2.328125 L 1.640625 -2.71875 Z M 3.578125 -7.765625 "/>
</g>
<g id="glyph-3-2">
<path d="M 2.984375 -2.546875 C 3.03125 -2.671875 3.03125 -2.6875 3.03125 -2.71875 C 3.03125 -2.765625 3.03125 -2.78125 2.984375 -2.90625 L 1.0625 -7.921875 C 1 -8.109375 0.9375 -8.171875 0.8125 -8.171875 C 0.703125 -8.171875 0.59375 -8.078125 0.59375 -7.96875 C 0.59375 -7.921875 0.59375 -7.90625 0.65625 -7.78125 L 2.578125 -2.71875 L 0.65625 2.3125 C 0.59375 2.4375 0.59375 2.453125 0.59375 2.515625 C 0.59375 2.625 0.703125 2.71875 0.8125 2.71875 C 0.953125 2.71875 1 2.625 1.046875 2.515625 Z M 2.984375 -2.546875 "/>
</g>
<g id="glyph-4-0">
</g>
<g id="glyph-4-1">
<path d="M 2.015625 -2.65625 C 2.640625 -2.65625 3.046875 -2.203125 3.046875 -1.359375 C 3.046875 -0.359375 2.484375 -0.078125 2.0625 -0.078125 C 1.625 -0.078125 1.015625 -0.234375 0.734375 -0.65625 C 1.03125 -0.65625 1.234375 -0.84375 1.234375 -1.09375 C 1.234375 -1.359375 1.046875 -1.53125 0.78125 -1.53125 C 0.578125 -1.53125 0.34375 -1.40625 0.34375 -1.078125 C 0.34375 -0.328125 1.15625 0.171875 2.078125 0.171875 C 3.125 0.171875 3.875 -0.5625 3.875 -1.359375 C 3.875 -2.03125 3.34375 -2.625 2.53125 -2.8125 C 3.15625 -3.03125 3.640625 -3.5625 3.640625 -4.203125 C 3.640625 -4.84375 2.921875 -5.296875 2.09375 -5.296875 C 1.234375 -5.296875 0.59375 -4.84375 0.59375 -4.234375 C 0.59375 -3.9375 0.78125 -3.8125 1 -3.8125 C 1.25 -3.8125 1.40625 -3.984375 1.40625 -4.21875 C 1.40625 -4.515625 1.140625 -4.625 0.96875 -4.625 C 1.3125 -5.0625 1.921875 -5.09375 2.0625 -5.09375 C 2.265625 -5.09375 2.875 -5.03125 2.875 -4.203125 C 2.875 -3.65625 2.640625 -3.3125 2.53125 -3.1875 C 2.296875 -2.9375 2.109375 -2.921875 1.625 -2.890625 C 1.46875 -2.890625 1.40625 -2.875 1.40625 -2.765625 C 1.40625 -2.65625 1.484375 -2.65625 1.625 -2.65625 Z M 2.015625 -2.65625 "/>
</g>
</g>
</defs>
<g fill="rgb(0%, 0%, 0%)" fill-opacity="1">
<use xlink:href="#glyph-0-1" x="1.696" y="8.016"/>
</g>
<g fill="rgb(0%, 0%, 0%)" fill-opacity="1">
<use xlink:href="#glyph-1-1" x="7.343" y="9.704"/>
</g>
<g fill="rgb(0%, 0%, 0%)" fill-opacity="1">
<use xlink:href="#glyph-0-1" x="12.135" y="8.016"/>
</g>
<g fill="rgb(0%, 0%, 0%)" fill-opacity="1">
<use xlink:href="#glyph-1-2" x="17.783" y="9.704"/>
</g>
<g fill="rgb(0%, 0%, 0%)" fill-opacity="1">
<use xlink:href="#glyph-2-1" x="23.877" y="8.016"/>
</g>
<path fill="none" stroke-width="0.436" stroke-linecap="butt" stroke-linejoin="miter" stroke="rgb(0%, 0%, 0%)" stroke-opacity="1" stroke-miterlimit="10" d="M -0.0006875 0.00003125 L 28.077437 0.00003125 " transform="matrix(1, 0, 0, -1, 1.696, 12.668)"/>
<g fill="rgb(0%, 0%, 0%)" fill-opacity="1">
<use xlink:href="#glyph-3-1" x="6.512" y="22.879"/>
</g>
<g fill="rgb(0%, 0%, 0%)" fill-opacity="1">
<use xlink:href="#glyph-0-2" x="10.755" y="22.879"/>
</g>
<g fill="rgb(0%, 0%, 0%)" fill-opacity="1">
<use xlink:href="#glyph-3-2" x="15.98" y="22.879"/>
</g>
<g fill="rgb(0%, 0%, 0%)" fill-opacity="1">
<use xlink:href="#glyph-4-1" x="20.222" y="19.727"/>
</g>
</svg>
