<?xml version="1.0" encoding="UTF-8"?>
<svg xmlns="http://www.w3.org/2000/svg" xmlns:xlink="http://www.w3.org/1999/xlink" width="131.196" height="41.648" viewBox="0 0 131.196 41.648">
<defs>
<g>
<g id="glyph-0-0">
</g>
<g id="glyph-0-1">
<path d="M 3.5625 19.1875 L 4.3125 19.1875 L 4.3125 0.328125 L 7.1875 0.328125 L 7.1875 -0.421875 L 3.5625 -0.421875 Z M 3.5625 19.1875 "/>
</g>
<g id="glyph-0-2">
<path d="M 3.5625 19.1875 L 7.1875 19.1875 L 7.1875 18.4375 L 4.3125 18.4375 L 4.3125 -0.4375 L 3.5625 -0.4375 Z M 3.5625 19.1875 "/>
</g>
<g id="glyph-0-3">
<path d="M 2.953125 19.1875 L 3.703125 19.1875 L 3.703125 -0.421875 L 0.078125 -0.421875 L 0.078125 0.328125 L 2.953125 0.328125 Z M 2.953125 19.1875 "/>
</g>
<g id="glyph-0-4">
<path d="M 2.953125 18.4375 L 0.078125 18.4375 L 0.078125 19.1875 L 3.703125 19.1875 L 3.703125 -0.4375 L 2.953125 -0.4375 Z M 2.953125 18.4375 "/>
</g>
<g id="glyph-1-0">
</g>
<g id="glyph-1-1">
<path d="M 7.03125 -7.578125 C 7.03125 -7.609375 7.015625 -7.6875 6.921875 -7.6875 C 6.859375 -7.6875 6.84375 -7.671875 6.71875 -7.53125 L 6.1875 -6.90625 C 5.90625 -7.421875 5.34375 -7.6875 4.640625 -7.6875 C 3.25 -7.6875 1.9375 -6.4375 1.9375 -5.109375 C 1.9375 -4.234375 2.515625 -3.734375 3.078125 -3.5625 L 4.25 -3.265625 C 4.640625 -3.15625 5.25 -3 5.25 -2.109375 C 5.25 -1.125 4.359375 -0.09375 3.28125 -0.09375 C 2.578125 -0.09375 1.375 -0.34375 1.375 -1.6875 C 1.375 -1.953125 1.421875 -2.21875 1.4375 -2.28125 C 1.453125 -2.328125 1.46875 -2.328125 1.46875 -2.359375 C 1.46875 -2.46875 1.390625 -2.46875 1.328125 -2.46875 C 1.28125 -2.46875 1.25 -2.46875 1.21875 -2.4375 C 1.171875 -2.390625 0.5625 0.09375 0.5625 0.125 C 0.5625 0.203125 0.625 0.234375 0.6875 0.234375 C 0.734375 0.234375 0.75 0.234375 0.890625 0.078125 L 1.421875 -0.546875 C 1.890625 0.09375 2.625 0.234375 3.265625 0.234375 C 4.75 0.234375 6.03125 -1.203125 6.03125 -2.5625 C 6.03125 -3.3125 5.65625 -3.6875 5.5 -3.84375 C 5.25 -4.09375 5.078125 -4.140625 4.109375 -4.390625 C 3.875 -4.453125 3.484375 -4.5625 3.375 -4.578125 C 3.09375 -4.671875 2.71875 -5 2.71875 -5.578125 C 2.71875 -6.453125 3.59375 -7.390625 4.625 -7.390625 C 5.53125 -7.390625 6.1875 -6.921875 6.1875 -5.6875 C 6.1875 -5.34375 6.15625 -5.140625 6.15625 -5.078125 C 6.15625 -5.078125 6.15625 -4.96875 6.28125 -4.96875 C 6.390625 -4.96875 6.40625 -5 6.453125 -5.1875 Z M 7.03125 -7.578125 "/>
</g>
<g id="glyph-1-2">
<path d="M 2.25 -4.359375 L 3.265625 -4.359375 C 3.484375 -4.359375 3.59375 -4.359375 3.59375 -4.578125 C 3.59375 -4.703125 3.484375 -4.703125 3.296875 -4.703125 L 2.328125 -4.703125 C 2.71875 -6.25 2.78125 -6.46875 2.78125 -6.53125 C 2.78125 -6.71875 2.65625 -6.828125 2.46875 -6.828125 C 2.4375 -6.828125 2.125 -6.8125 2.03125 -6.4375 L 1.609375 -4.703125 L 0.578125 -4.703125 C 0.359375 -4.703125 0.25 -4.703125 0.25 -4.5 C 0.25 -4.359375 0.34375 -4.359375 0.5625 -4.359375 L 1.515625 -4.359375 C 0.734375 -1.265625 0.6875 -1.078125 0.6875 -0.890625 C 0.6875 -0.296875 1.09375 0.125 1.6875 0.125 C 2.796875 0.125 3.421875 -1.46875 3.421875 -1.5625 C 3.421875 -1.671875 3.34375 -1.671875 3.296875 -1.671875 C 3.203125 -1.671875 3.1875 -1.640625 3.125 -1.515625 C 2.65625 -0.375 2.078125 -0.125 1.71875 -0.125 C 1.484375 -0.125 1.375 -0.265625 1.375 -0.625 C 1.375 -0.890625 1.390625 -0.953125 1.4375 -1.140625 Z M 2.25 -4.359375 "/>
</g>
<g id="glyph-2-0">
</g>
<g id="glyph-2-1">
<path d="M 3.40625 -3.0625 L 4.578125 -4.65625 C 4.953125 -5.171875 5.5625 -5.171875 5.75 -5.171875 L 5.75 -5.4375 C 5.46875 -5.421875 5.046875 -5.421875 4.859375 -5.421875 C 4.4375 -5.421875 4.359375 -5.421875 3.875 -5.4375 L 3.875 -5.171875 C 4.21875 -5.15625 4.3125 -4.953125 4.3125 -4.84375 C 4.3125 -4.75 4.28125 -4.6875 4.234375 -4.625 L 3.25 -3.28125 L 2.125 -4.828125 C 2.09375 -4.859375 2.0625 -4.90625 2.0625 -4.9375 C 2.0625 -5.03125 2.21875 -5.171875 2.53125 -5.171875 L 2.53125 -5.4375 C 1.875 -5.421875 1.859375 -5.421875 1.390625 -5.421875 C 0.90625 -5.421875 0.8125 -5.421875 0.34375 -5.4375 L 0.34375 -5.171875 L 0.484375 -5.171875 C 0.953125 -5.171875 1.078125 -5.109375 1.234375 -4.90625 L 2.828125 -2.703125 L 1.390625 -0.765625 C 1.015625 -0.265625 0.390625 -0.265625 0.21875 -0.265625 L 0.21875 0 C 0.5 -0.03125 0.953125 -0.03125 1.125 -0.03125 C 1.515625 -0.03125 1.625 -0.03125 2.109375 0 L 2.109375 -0.265625 C 1.734375 -0.28125 1.671875 -0.53125 1.671875 -0.609375 C 1.671875 -0.625 1.671875 -0.703125 1.765625 -0.84375 L 2.984375 -2.484375 L 4.3125 -0.625 C 4.390625 -0.546875 4.390625 -0.53125 4.390625 -0.5 C 4.390625 -0.390625 4.234375 -0.265625 3.921875 -0.265625 L 3.921875 0 C 4.609375 -0.03125 4.625 -0.03125 5.0625 -0.03125 C 5.453125 -0.03125 5.6875 -0.03125 6.109375 0 L 6.109375 -0.265625 L 5.96875 -0.265625 C 5.484375 -0.265625 5.375 -0.328125 5.21875 -0.546875 Z M 3.40625 -3.0625 "/>
</g>
<g id="glyph-2-2">
<path d="M 5.171875 -4.640625 C 5.296875 -4.828125 5.53125 -5.171875 6.21875 -5.171875 L 6.21875 -5.4375 C 5.96875 -5.421875 5.5625 -5.421875 5.421875 -5.421875 C 5.171875 -5.421875 4.9375 -5.421875 4.546875 -5.4375 L 4.546875 -5.171875 C 4.828125 -5.171875 4.953125 -5.03125 4.953125 -4.890625 C 4.953125 -4.78125 4.890625 -4.703125 4.84375 -4.625 L 3.4375 -2.515625 L 1.875 -4.84375 C 1.84375 -4.890625 1.8125 -4.9375 1.8125 -5 C 1.8125 -5.171875 2.15625 -5.171875 2.328125 -5.171875 L 2.328125 -5.4375 C 1.640625 -5.421875 1.625 -5.421875 1.171875 -5.421875 C 0.734375 -5.421875 0.546875 -5.421875 0.125 -5.4375 L 0.125 -5.171875 L 0.25 -5.171875 C 0.671875 -5.171875 0.84375 -5.125 1 -4.890625 L 2.8125 -2.171875 L 2.8125 -0.640625 C 2.8125 -0.34375 2.796875 -0.265625 2.1875 -0.265625 L 2.015625 -0.265625 L 2.015625 0 C 2.6875 -0.03125 2.703125 -0.03125 3.15625 -0.03125 C 3.671875 -0.03125 3.6875 -0.03125 4.3125 0 L 4.3125 -0.265625 L 4.140625 -0.265625 C 3.515625 -0.265625 3.515625 -0.359375 3.515625 -0.625 L 3.515625 -2.1875 Z M 5.171875 -4.640625 "/>
</g>
<g id="glyph-2-3">
<path d="M 4.625 -5.125 C 4.6875 -5.234375 4.6875 -5.265625 4.6875 -5.296875 C 4.6875 -5.4375 4.609375 -5.4375 4.46875 -5.4375 L 0.6875 -5.4375 L 0.59375 -3.640625 L 0.84375 -3.640625 C 0.90625 -4.8125 1.453125 -5.171875 2.5 -5.171875 L 3.828125 -5.171875 L 0.53125 -0.328125 C 0.46875 -0.234375 0.46875 -0.1875 0.46875 -0.15625 C 0.46875 0 0.546875 0 0.6875 0 L 4.59375 0 L 4.734375 -2.140625 L 4.5 -2.140625 C 4.4375 -1.03125 4.25 -0.28125 2.75 -0.28125 L 1.34375 -0.28125 Z M 4.625 -5.125 "/>
</g>
<g id="glyph-3-0">
</g>
<g id="glyph-3-1">
<path d="M 3.609375 2.625 C 3.609375 2.578125 3.609375 2.5625 3.421875 2.375 C 2.0625 1 1.71875 -1.0625 1.71875 -2.71875 C 1.71875 -4.625 2.125 -6.515625 3.46875 -7.890625 C 3.609375 -8.015625 3.609375 -8.03125 3.609375 -8.078125 C 3.609375 -8.140625 3.5625 -8.171875 3.5 -8.171875 C 3.390625 -8.171875 2.40625 -7.4375 1.765625 -6.046875 C 1.203125 -4.859375 1.078125 -3.640625 1.078125 -2.71875 C 1.078125 -1.875 1.203125 -0.5625 1.796875 0.671875 C 2.453125 2.015625 3.390625 2.71875 3.5 2.71875 C 3.5625 2.71875 3.609375 2.6875 3.609375 2.625 Z M 3.609375 2.625 "/>
</g>
<g id="glyph-3-2">
<path d="M 3.15625 -2.71875 C 3.15625 -3.578125 3.03125 -4.890625 2.4375 -6.125 C 1.78125 -7.46875 0.84375 -8.171875 0.734375 -8.171875 C 0.671875 -8.171875 0.625 -8.140625 0.625 -8.078125 C 0.625 -8.03125 0.625 -8.015625 0.828125 -7.8125 C 1.890625 -6.734375 2.515625 -5 2.515625 -2.71875 C 2.515625 -0.859375 2.109375 1.0625 0.765625 2.4375 C 0.625 2.5625 0.625 2.578125 0.625 2.625 C 0.625 2.6875 0.671875 2.71875 0.734375 2.71875 C 0.84375 2.71875 1.828125 1.984375 2.46875 0.59375 C 3.015625 -0.59375 3.15625 -1.8125 3.15625 -2.71875 Z M 3.15625 -2.71875 "/>
</g>
</g>
</defs>
<g fill="rgb(0%, 0%, 0%)" fill-opacity="1">
<use xlink:href="#glyph-0-1" x="0.5" y="1.624"/>
</g>
<g fill="rgb(0%, 0%, 0%)" fill-opacity="1">
<use xlink:href="#glyph-0-2" x="0.5" y="21.261"/>
</g>
<g fill="rgb(0%, 0%, 0%)" fill-opacity="1">
<use xlink:href="#glyph-1-1" x="7.773" y="9.985"/>
</g>
<g fill="rgb(0%, 0%, 0%)" fill-opacity="1">
<use xlink:href="#glyph-2-1" x="14.462" y="11.674"/>
<use xlink:href="#glyph-2-1" x="20.804606" y="11.674"/>
</g>
<g fill="rgb(0%, 0%, 0%)" fill-opacity="1">
<use xlink:href="#glyph-3-1" x="27.646" y="9.985"/>
</g>
<g fill="rgb(0%, 0%, 0%)" fill-opacity="1">
<use xlink:href="#glyph-1-2" x="31.889" y="9.985"/>
</g>
<g fill="rgb(0%, 0%, 0%)" fill-opacity="1">
<use xlink:href="#glyph-3-2" x="35.828" y="9.985"/>
</g>
<g fill="rgb(0%, 0%, 0%)" fill-opacity="1">
<use xlink:href="#glyph-1-1" x="50.033" y="9.985"/>
</g>
<g fill="rgb(0%, 0%, 0%)" fill-opacity="1">
<use xlink:href="#glyph-2-1" x="56.723" y="11.674"/>
<use xlink:href="#glyph-2-2" x="63.065606" y="11.674"/>
</g>
<g fill="rgb(0%, 0%, 0%)" fill-opacity="1">
<use xlink:href="#glyph-3-1" x="69.907" y="9.985"/>
</g>
<g fill="rgb(0%, 0%, 0%)" fill-opacity="1">
<use xlink:href="#glyph-1-2" x="74.149" y="9.985"/>
</g>
<g fill="rgb(0%, 0%, 0%)" fill-opacity="1">
<use xlink:href="#glyph-3-2" x="78.088" y="9.985"/>
</g>
<g fill="rgb(0%, 0%, 0%)" fill-opacity="1">
<use xlink:href="#glyph-1-1" x="92.294" y="9.985"/>
</g>
<g fill="rgb(0%, 0%, 0%)" fill-opacity="1">
<use xlink:href="#glyph-2-1" x="98.983" y="11.674"/>
<use xlink:href="#glyph-2-3" x="105.325606" y="11.674"/>
</g>
<g fill="rgb(0%, 0%, 0%)" fill-opacity="1">
<use xlink:href="#glyph-3-1" x="110.999" y="9.985"/>
</g>
<g fill="rgb(0%, 0%, 0%)" fill-opacity="1">
<use xlink:href="#glyph-1-2" x="115.242" y="9.985"/>
</g>
<g fill="rgb(0%, 0%, 0%)" fill-opacity="1">
<use xlink:href="#glyph-3-2" x="119.181" y="9.985"/>
</g>
<g fill="rgb(0%, 0%, 0%)" fill-opacity="1">
<use xlink:href="#glyph-1-1" x="7.773" y="23.534"/>
</g>
<g fill="rgb(0%, 0%, 0%)" fill-opacity="1">
<use xlink:href="#glyph-2-2" x="14.462" y="25.223"/>
<use xlink:href="#glyph-2-1" x="20.804606" y="25.223"/>
</g>
<g fill="rgb(0%, 0%, 0%)" fill-opacity="1">
<use xlink:href="#glyph-3-1" x="27.646" y="23.534"/>
</g>
<g fill="rgb(0%, 0%, 0%)" fill-opacity="1">
<use xlink:href="#glyph-1-2" x="31.889" y="23.534"/>
</g>
<g fill="rgb(0%, 0%, 0%)" fill-opacity="1">
<use xlink:href="#glyph-3-2" x="35.828" y="23.534"/>
</g>
<g fill="rgb(0%, 0%, 0%)" fill-opacity="1">
<use xlink:href="#glyph-1-1" x="50.033" y="23.534"/>
</g>
<g fill="rgb(0%, 0%, 0%)" fill-opacity="1">
<use xlink:href="#glyph-2-2" x="56.723" y="25.223"/>
<use xlink:href="#glyph-2-2" x="63.065606" y="25.223"/>
</g>
<g fill="rgb(0%, 0%, 0%)" fill-opacity="1">
<use xlink:href="#glyph-3-1" x="69.907" y="23.534"/>
</g>
<g fill="rgb(0%, 0%, 0%)" fill-opacity="1">
<use xlink:href="#glyph-1-2" x="74.149" y="23.534"/>
</g>
<g fill="rgb(0%, 0%, 0%)" fill-opacity="1">
<use xlink:href="#glyph-3-2" x="78.088" y="23.534"/>
</g>
<g fill="rgb(0%, 0%, 0%)" fill-opacity="1">
<use xlink:href="#glyph-1-1" x="92.294" y="23.534"/>
</g>
<g fill="rgb(0%, 0%, 0%)" fill-opacity="1">
<use xlink:href="#glyph-2-2" x="98.983" y="25.223"/>
<use xlink:href="#glyph-2-3" x="105.325606" y="25.223"/>
</g>
<g fill="rgb(0%, 0%, 0%)" fill-opacity="1">
<use xlink:href="#glyph-3-1" x="110.999" y="23.534"/>
</g>
<g fill="rgb(0%, 0%, 0%)" fill-opacity="1">
<use xlink:href="#glyph-1-2" x="115.242" y="23.534"/>
</g>
<g fill="rgb(0%, 0%, 0%)" fill-opacity="1">
<use xlink:href="#glyph-3-2" x="119.181" y="23.534"/>
</g>
<g fill="rgb(0%, 0%, 0%)" fill-opacity="1">
<use xlink:href="#glyph-1-1" x="8.357" y="37.083"/>
</g>
<g fill="rgb(0%, 0%, 0%)" fill-opacity="1">
<use xlink:href="#glyph-2-3" x="15.046" y="38.772"/>
<use xlink:href="#glyph-2-1" x="20.220986" y="38.772"/>
</g>
<g fill="rgb(0%, 0%, 0%)" fill-opacity="1">
<use xlink:href="#glyph-3-1" x="27.062" y="37.083"/>
</g>
<g fill="rgb(0%, 0%, 0%)" fill-opacity="1">
<use xlink:href="#glyph-1-2" x="31.305" y="37.083"/>
</g>
<g fill="rgb(0%, 0%, 0%)" fill-opacity="1">
<use xlink:href="#glyph-3-2" x="35.244" y="37.083"/>
</g>
<g fill="rgb(0%, 0%, 0%)" fill-opacity="1">
<use xlink:href="#glyph-1-1" x="50.617" y="37.083"/>
</g>
<g fill="rgb(0%, 0%, 0%)" fill-opacity="1">
<use xlink:href="#glyph-2-3" x="57.306" y="38.772"/>
<use xlink:href="#glyph-2-2" x="62.480986" y="38.772"/>
</g>
<g fill="rgb(0%, 0%, 0%)" fill-opacity="1">
<use xlink:href="#glyph-3-1" x="69.323" y="37.083"/>
</g>
<g fill="rgb(0%, 0%, 0%)" fill-opacity="1">
<use xlink:href="#glyph-1-2" x="73.565" y="37.083"/>
</g>
<g fill="rgb(0%, 0%, 0%)" fill-opacity="1">
<use xlink:href="#glyph-3-2" x="77.504" y="37.083"/>
</g>
<g fill="rgb(0%, 0%, 0%)" fill-opacity="1">
<use xlink:href="#glyph-1-1" x="92.877" y="37.083"/>
</g>
<g fill="rgb(0%, 0%, 0%)" fill-opacity="1">
<use xlink:href="#glyph-2-3" x="99.567" y="38.772"/>
<use xlink:href="#glyph-2-3" x="104.741986" y="38.772"/>
</g>
<g fill="rgb(0%, 0%, 0%)" fill-opacity="1">
<use xlink:href="#glyph-3-1" x="110.415" y="37.083"/>
</g>
<g fill="rgb(0%, 0%, 0%)" fill-opacity="1">
<use xlink:href="#glyph-1-2" x="114.658" y="37.083"/>
</g>
<g fill="rgb(0%, 0%, 0%)" fill-opacity="1">
<use xlink:href="#glyph-3-2" x="118.597" y="37.083"/>
</g>
<g fill="rgb(0%, 0%, 0%)" fill-opacity="1">
<use xlink:href="#glyph-0-3" x="123.423" y="1.624"/>
</g>
<g fill="rgb(0%, 0%, 0%)" fill-opacity="1">
<use xlink:href="#glyph-0-4" x="123.423" y="21.261"/>
</g>
</svg>
