<?xml version="1.0" encoding="UTF-8"?>
<svg xmlns="http://www.w3.org/2000/svg" xmlns:xlink="http://www.w3.org/1999/xlink" width="15.455" height="20.56" viewBox="0 0 15.455 20.56">
<defs>
<g>
<g id="glyph-0-0">
</g>
<g id="glyph-0-1">
<path d="M 2.515625 -3.828125 C 2.578125 -4.0625 2.6875 -4.46875 2.6875 -4.53125 C 2.6875 -4.71875 2.546875 -4.828125 2.359375 -4.828125 C 2.328125 -4.828125 2.03125 -4.8125 1.9375 -4.421875 L 0.359375 1.890625 C 0.328125 2.015625 0.328125 2.046875 0.328125 2.0625 C 0.328125 2.21875 0.453125 2.359375 0.625 2.359375 C 0.859375 2.359375 1 2.15625 1.015625 2.125 C 1.0625 2.03125 1.203125 1.46875 1.609375 -0.21875 C 1.96875 0.078125 2.453125 0.125 2.671875 0.125 C 3.4375 0.125 3.859375 -0.375 4.125 -0.671875 C 4.21875 -0.1875 4.625 0.125 5.109375 0.125 C 5.484375 0.125 5.734375 -0.125 5.90625 -0.484375 C 6.09375 -0.875 6.234375 -1.53125 6.234375 -1.5625 C 6.234375 -1.671875 6.140625 -1.671875 6.109375 -1.671875 C 6 -1.671875 5.984375 -1.625 5.953125 -1.46875 C 5.765625 -0.765625 5.578125 -0.125 5.125 -0.125 C 4.828125 -0.125 4.796875 -0.40625 4.796875 -0.625 C 4.796875 -0.859375 4.921875 -1.375 5.015625 -1.75 L 5.328125 -2.9375 C 5.359375 -3.09375 5.46875 -3.515625 5.5 -3.671875 C 5.5625 -3.921875 5.671875 -4.34375 5.671875 -4.40625 C 5.671875 -4.609375 5.515625 -4.703125 5.359375 -4.703125 C 5.296875 -4.703125 5.015625 -4.6875 4.921875 -4.3125 L 4.421875 -2.28125 C 4.28125 -1.734375 4.171875 -1.28125 4.140625 -1.171875 C 4.125 -1.109375 3.59375 -0.125 2.71875 -0.125 C 2.171875 -0.125 1.90625 -0.484375 1.90625 -1.0625 C 1.90625 -1.390625 1.984375 -1.6875 2.0625 -2 Z M 2.515625 -3.828125 "/>
</g>
<g id="glyph-0-2">
<path d="M 2.890625 -4.0625 L 4.125 -4.0625 C 3.765625 -2.453125 3.671875 -1.984375 3.671875 -1.25 C 3.671875 -1.09375 3.671875 -0.796875 3.75 -0.421875 C 3.859375 0.046875 3.984375 0.125 4.140625 0.125 C 4.359375 0.125 4.59375 -0.078125 4.59375 -0.296875 C 4.59375 -0.359375 4.59375 -0.375 4.53125 -0.53125 C 4.203125 -1.3125 4.203125 -2.03125 4.203125 -2.328125 C 4.203125 -2.90625 4.28125 -3.5 4.40625 -4.0625 L 5.65625 -4.0625 C 5.796875 -4.0625 6.1875 -4.0625 6.1875 -4.4375 C 6.1875 -4.703125 5.953125 -4.703125 5.75 -4.703125 L 2.09375 -4.703125 C 1.859375 -4.703125 1.4375 -4.703125 0.953125 -4.1875 C 0.578125 -3.765625 0.296875 -3.265625 0.296875 -3.203125 C 0.296875 -3.203125 0.296875 -3.09375 0.421875 -3.09375 C 0.515625 -3.09375 0.53125 -3.140625 0.59375 -3.234375 C 1.140625 -4.0625 1.765625 -4.0625 1.984375 -4.0625 L 2.609375 -4.0625 C 2.25 -2.75 1.671875 -1.421875 1.203125 -0.4375 C 1.125 -0.265625 1.125 -0.25 1.125 -0.171875 C 1.125 0.03125 1.296875 0.125 1.4375 0.125 C 1.765625 0.125 1.859375 -0.1875 1.984375 -0.59375 C 2.140625 -1.09375 2.140625 -1.109375 2.28125 -1.65625 Z M 2.890625 -4.0625 "/>
</g>
<g id="glyph-1-0">
</g>
<g id="glyph-1-1">
<path d="M 3.890625 -2.546875 C 3.890625 -3.390625 3.8125 -3.90625 3.546875 -4.421875 C 3.203125 -5.125 2.546875 -5.296875 2.109375 -5.296875 C 1.109375 -5.296875 0.734375 -4.546875 0.625 -4.328125 C 0.34375 -3.75 0.328125 -2.953125 0.328125 -2.546875 C 0.328125 -2.015625 0.34375 -1.21875 0.734375 -0.578125 C 1.09375 0.015625 1.6875 0.171875 2.109375 0.171875 C 2.5 0.171875 3.171875 0.046875 3.578125 -0.734375 C 3.875 -1.3125 3.890625 -2.03125 3.890625 -2.546875 Z M 2.109375 -0.0625 C 1.84375 -0.0625 1.296875 -0.1875 1.125 -1.015625 C 1.03125 -1.46875 1.03125 -2.21875 1.03125 -2.640625 C 1.03125 -3.1875 1.03125 -3.75 1.125 -4.1875 C 1.296875 -5 1.90625 -5.078125 2.109375 -5.078125 C 2.375 -5.078125 2.9375 -4.9375 3.09375 -4.21875 C 3.1875 -3.78125 3.1875 -3.171875 3.1875 -2.640625 C 3.1875 -2.171875 3.1875 -1.453125 3.09375 -1 C 2.921875 -0.171875 2.375 -0.0625 2.109375 -0.0625 Z M 2.109375 -0.0625 "/>
</g>
<g id="glyph-2-0">
</g>
<g id="glyph-2-1">
<path d="M 3.203125 -1.796875 L 3.203125 -0.84375 C 3.203125 -0.453125 3.1875 -0.34375 2.375 -0.34375 L 2.15625 -0.34375 L 2.15625 0 C 2.59375 -0.03125 3.15625 -0.03125 3.625 -0.03125 C 4.078125 -0.03125 4.65625 -0.03125 5.109375 0 L 5.109375 -0.34375 L 4.875 -0.34375 C 4.0625 -0.34375 4.046875 -0.453125 4.046875 -0.84375 L 4.046875 -1.796875 L 5.140625 -1.796875 L 5.140625 -2.140625 L 4.046875 -2.140625 L 4.046875 -7.09375 C 4.046875 -7.3125 4.046875 -7.390625 3.875 -7.390625 C 3.78125 -7.390625 3.734375 -7.390625 3.65625 -7.25 L 0.3125 -2.140625 L 0.3125 -1.796875 Z M 3.265625 -2.140625 L 0.609375 -2.140625 L 3.265625 -6.203125 Z M 3.265625 -2.140625 "/>
</g>
</g>
<clipPath id="clip-0">
<path clip-rule="nonzero" d="M 2 12 L 7 12 L 7 20.558594 L 2 20.558594 Z M 2 12 "/>
</clipPath>
<clipPath id="clip-1">
<path clip-rule="nonzero" d="M 7 15 L 14 15 L 14 20.558594 L 7 20.558594 Z M 7 15 "/>
</clipPath>
</defs>
<g fill="rgb(0%, 0%, 0%)" fill-opacity="1">
<use xlink:href="#glyph-0-1" x="2.075" y="5.197"/>
</g>
<g fill="rgb(0%, 0%, 0%)" fill-opacity="1">
<use xlink:href="#glyph-1-1" x="8.648" y="6.833"/>
</g>
<path fill="none" stroke-width="0.436" stroke-linecap="butt" stroke-linejoin="miter" stroke="rgb(0%, 0%, 0%)" stroke-opacity="1" stroke-miterlimit="10" d="M -0.0006875 -0.0015625 L 12.065719 -0.0015625 " transform="matrix(1, 0, 0, -1, 1.696, 9.85)"/>
<g clip-path="url(#clip-0)">
<g fill="rgb(0%, 0%, 0%)" fill-opacity="1">
<use xlink:href="#glyph-2-1" x="1.696" y="20.06"/>
</g>
</g>
<g clip-path="url(#clip-1)">
<g fill="rgb(0%, 0%, 0%)" fill-opacity="1">
<use xlink:href="#glyph-0-2" x="7.15" y="20.06"/>
</g>
</g>
</svg>
