<?xml version="1.0" encoding="UTF-8"?>
<svg xmlns="http://www.w3.org/2000/svg" xmlns:xlink="http://www.w3.org/1999/xlink" width="9.182" height="10.636" viewBox="0 0 9.182 10.636">
<defs>
<g>
<g id="glyph-0-0">
</g>
<g id="glyph-0-1">
<path d="M 1.953125 -1.25 C 1.515625 -0.53125 1.09375 -0.375 0.609375 -0.34375 C 0.484375 -0.328125 0.375 -0.328125 0.375 -0.125 C 0.375 -0.046875 0.4375 0 0.53125 0 C 0.8125 0 1.15625 -0.03125 1.46875 -0.03125 C 1.828125 -0.03125 2.203125 0 2.546875 0 C 2.625 0 2.765625 0 2.765625 -0.203125 C 2.765625 -0.328125 2.65625 -0.34375 2.578125 -0.34375 C 2.328125 -0.359375 2.078125 -0.453125 2.078125 -0.71875 C 2.078125 -0.84375 2.140625 -0.96875 2.21875 -1.125 L 3.046875 -2.515625 L 5.796875 -2.515625 C 5.8125 -2.296875 5.96875 -0.8125 5.96875 -0.703125 C 5.96875 -0.375 5.40625 -0.34375 5.1875 -0.34375 C 5.03125 -0.34375 4.921875 -0.34375 4.921875 -0.125 C 4.921875 0 5.046875 0 5.078125 0 C 5.515625 0 5.984375 -0.03125 6.4375 -0.03125 C 6.703125 -0.03125 7.390625 0 7.671875 0 C 7.734375 0 7.859375 0 7.859375 -0.21875 C 7.859375 -0.34375 7.75 -0.34375 7.609375 -0.34375 C 6.9375 -0.34375 6.9375 -0.421875 6.90625 -0.734375 L 6.234375 -7.546875 C 6.21875 -7.765625 6.21875 -7.8125 6.03125 -7.8125 C 5.859375 -7.8125 5.8125 -7.734375 5.75 -7.625 Z M 3.265625 -2.859375 L 5.40625 -6.453125 L 5.765625 -2.859375 Z M 3.265625 -2.859375 "/>
</g>
</g>
<clipPath id="clip-0">
<path clip-rule="nonzero" d="M 0 2 L 9 2 L 9 10.636719 L 0 10.636719 Z M 0 2 "/>
</clipPath>
</defs>
<path fill="none" stroke-width="0.436" stroke-linecap="butt" stroke-linejoin="miter" stroke="rgb(0%, 0%, 0%)" stroke-opacity="1" stroke-miterlimit="10" d="M 0 0.00165625 L 8.183594 0.00165625 " transform="matrix(1, 0, 0, -1, 0.5, 1.154)"/>
<g clip-path="url(#clip-0)">
<g fill="rgb(0%, 0%, 0%)" fill-opacity="1">
<use xlink:href="#glyph-0-1" x="0.5" y="10.136"/>
</g>
</g>
</svg>
