<?xml version="1.0" encoding="UTF-8"?>
<svg xmlns="http://www.w3.org/2000/svg" xmlns:xlink="http://www.w3.org/1999/xlink" width="15.455" height="22.893" viewBox="0 0 15.455 22.893">
<defs>
<g>
<g id="glyph-0-0">
</g>
<g id="glyph-0-1">
<path d="M 3.15625 -3.84375 C 4.0625 -4.140625 4.6875 -4.890625 4.6875 -5.765625 C 4.6875 -6.65625 3.734375 -7.265625 2.6875 -7.265625 C 1.578125 -7.265625 0.75 -6.609375 0.75 -5.78125 C 0.75 -5.421875 1 -5.21875 1.3125 -5.21875 C 1.640625 -5.21875 1.859375 -5.453125 1.859375 -5.765625 C 1.859375 -6.3125 1.359375 -6.3125 1.1875 -6.3125 C 1.53125 -6.84375 2.25 -6.984375 2.640625 -6.984375 C 3.09375 -6.984375 3.6875 -6.75 3.6875 -5.765625 C 3.6875 -5.640625 3.671875 -5 3.375 -4.53125 C 3.046875 -4 2.6875 -3.96875 2.40625 -3.953125 C 2.328125 -3.953125 2.0625 -3.921875 1.984375 -3.921875 C 1.890625 -3.921875 1.828125 -3.90625 1.828125 -3.796875 C 1.828125 -3.671875 1.890625 -3.671875 2.078125 -3.671875 L 2.5625 -3.671875 C 3.453125 -3.671875 3.859375 -2.9375 3.859375 -1.859375 C 3.859375 -0.375 3.109375 -0.0625 2.625 -0.0625 C 2.15625 -0.0625 1.34375 -0.25 0.953125 -0.890625 C 1.34375 -0.84375 1.671875 -1.078125 1.671875 -1.5 C 1.671875 -1.890625 1.390625 -2.109375 1.0625 -2.109375 C 0.8125 -2.109375 0.453125 -1.953125 0.453125 -1.46875 C 0.453125 -0.484375 1.46875 0.234375 2.65625 0.234375 C 3.984375 0.234375 4.984375 -0.75 4.984375 -1.859375 C 4.984375 -2.765625 4.296875 -3.609375 3.15625 -3.84375 Z M 3.15625 -3.84375 "/>
</g>
<g id="glyph-0-2">
<path d="M 1.390625 -0.84375 L 2.546875 -1.96875 C 4.25 -3.46875 4.890625 -4.0625 4.890625 -5.140625 C 4.890625 -6.390625 3.921875 -7.265625 2.578125 -7.265625 C 1.359375 -7.265625 0.546875 -6.265625 0.546875 -5.296875 C 0.546875 -4.671875 1.09375 -4.671875 1.125 -4.671875 C 1.3125 -4.671875 1.6875 -4.8125 1.6875 -5.25 C 1.6875 -5.546875 1.5 -5.828125 1.109375 -5.828125 C 1.03125 -5.828125 1 -5.828125 0.96875 -5.8125 C 1.21875 -6.515625 1.8125 -6.921875 2.4375 -6.921875 C 3.4375 -6.921875 3.90625 -6.046875 3.90625 -5.140625 C 3.90625 -4.28125 3.359375 -3.40625 2.765625 -2.734375 L 0.671875 -0.40625 C 0.546875 -0.28125 0.546875 -0.265625 0.546875 0 L 4.59375 0 L 4.890625 -1.890625 L 4.625 -1.890625 C 4.5625 -1.578125 4.5 -1.09375 4.390625 -0.921875 C 4.3125 -0.84375 3.59375 -0.84375 3.34375 -0.84375 Z M 1.390625 -0.84375 "/>
</g>
<g id="glyph-1-0">
</g>
<g id="glyph-1-1">
<path d="M 2.890625 -4.0625 L 4.125 -4.0625 C 3.765625 -2.453125 3.671875 -1.984375 3.671875 -1.25 C 3.671875 -1.09375 3.671875 -0.796875 3.75 -0.421875 C 3.859375 0.046875 3.984375 0.125 4.140625 0.125 C 4.359375 0.125 4.59375 -0.078125 4.59375 -0.296875 C 4.59375 -0.359375 4.59375 -0.375 4.53125 -0.53125 C 4.203125 -1.3125 4.203125 -2.03125 4.203125 -2.328125 C 4.203125 -2.90625 4.28125 -3.5 4.40625 -4.0625 L 5.65625 -4.0625 C 5.796875 -4.0625 6.1875 -4.0625 6.1875 -4.4375 C 6.1875 -4.703125 5.953125 -4.703125 5.75 -4.703125 L 2.09375 -4.703125 C 1.859375 -4.703125 1.4375 -4.703125 0.953125 -4.1875 C 0.578125 -3.765625 0.296875 -3.265625 0.296875 -3.203125 C 0.296875 -3.203125 0.296875 -3.09375 0.421875 -3.09375 C 0.515625 -3.09375 0.53125 -3.140625 0.59375 -3.234375 C 1.140625 -4.0625 1.765625 -4.0625 1.984375 -4.0625 L 2.609375 -4.0625 C 2.25 -2.75 1.671875 -1.421875 1.203125 -0.4375 C 1.125 -0.265625 1.125 -0.25 1.125 -0.171875 C 1.125 0.03125 1.296875 0.125 1.4375 0.125 C 1.765625 0.125 1.859375 -0.1875 1.984375 -0.59375 C 2.140625 -1.09375 2.140625 -1.109375 2.28125 -1.65625 Z M 2.890625 -4.0625 "/>
</g>
</g>
<clipPath id="clip-0">
<path clip-rule="nonzero" d="M 2 15 L 7 15 L 7 22.894531 L 2 22.894531 Z M 2 15 "/>
</clipPath>
<clipPath id="clip-1">
<path clip-rule="nonzero" d="M 7 17 L 14 17 L 14 22.894531 L 7 22.894531 Z M 7 17 "/>
</clipPath>
</defs>
<g fill="rgb(0%, 0%, 0%)" fill-opacity="1">
<use xlink:href="#glyph-0-1" x="5" y="7.53"/>
</g>
<path fill="none" stroke-width="0.436" stroke-linecap="butt" stroke-linejoin="miter" stroke="rgb(0%, 0%, 0%)" stroke-opacity="1" stroke-miterlimit="10" d="M -0.0006875 -0.00059375 L 12.065719 -0.00059375 " transform="matrix(1, 0, 0, -1, 1.696, 12.183)"/>
<g clip-path="url(#clip-0)">
<g fill="rgb(0%, 0%, 0%)" fill-opacity="1">
<use xlink:href="#glyph-0-2" x="1.696" y="22.393"/>
</g>
</g>
<g clip-path="url(#clip-1)">
<g fill="rgb(0%, 0%, 0%)" fill-opacity="1">
<use xlink:href="#glyph-1-1" x="7.15" y="22.393"/>
</g>
</g>
</svg>
