<?xml version="1.0" encoding="UTF-8"?>
<svg xmlns="http://www.w3.org/2000/svg" xmlns:xlink="http://www.w3.org/1999/xlink" width="7.65" height="11.909" viewBox="0 0 7.65 11.909">
<defs>
<g>
<g id="glyph-0-0">
</g>
<g id="glyph-0-1">
<path d="M 3.09375 -6.734375 C 3.09375 -7.171875 3.375 -7.859375 4.5625 -7.9375 C 4.609375 -7.953125 4.65625 -8 4.65625 -8.0625 C 4.65625 -8.171875 4.5625 -8.171875 4.453125 -8.171875 C 3.359375 -8.171875 2.359375 -7.625 2.359375 -6.8125 L 2.359375 -4.328125 C 2.359375 -3.90625 2.359375 -3.5625 1.921875 -3.203125 C 1.53125 -2.875 1.125 -2.859375 0.890625 -2.84375 C 0.828125 -2.828125 0.78125 -2.796875 0.78125 -2.71875 C 0.78125 -2.625 0.84375 -2.625 0.953125 -2.609375 C 1.671875 -2.5625 2.203125 -2.171875 2.328125 -1.640625 C 2.359375 -1.515625 2.359375 -1.5 2.359375 -1.09375 L 2.359375 1.0625 C 2.359375 1.515625 2.359375 1.859375 2.875 2.28125 C 3.296875 2.609375 4.03125 2.71875 4.453125 2.71875 C 4.5625 2.71875 4.65625 2.71875 4.65625 2.609375 C 4.65625 2.5 4.59375 2.5 4.484375 2.484375 C 3.796875 2.4375 3.265625 2.09375 3.125 1.53125 C 3.09375 1.4375 3.09375 1.421875 3.09375 1.03125 L 3.09375 -1.265625 C 3.09375 -1.765625 3 -1.953125 2.65625 -2.296875 C 2.421875 -2.53125 2.109375 -2.640625 1.796875 -2.71875 C 2.6875 -2.984375 3.09375 -3.484375 3.09375 -4.109375 Z M 3.09375 -6.734375 "/>
</g>
</g>
<clipPath id="clip-0">
<path clip-rule="nonzero" d="M 1 0 L 6 0 L 6 11.910156 L 1 11.910156 Z M 1 0 "/>
</clipPath>
</defs>
<g clip-path="url(#clip-0)">
<g fill="rgb(0%, 0%, 0%)" fill-opacity="1">
<use xlink:href="#glyph-0-1" x="0.5" y="8.682"/>
</g>
</g>
</svg>
