<?xml version="1.0" encoding="UTF-8"?>
<svg xmlns="http://www.w3.org/2000/svg" xmlns:xlink="http://www.w3.org/1999/xlink" width="29.44" height="27.488" viewBox="0 0 29.44 27.488">
<defs>
<g>
<g id="glyph-0-0">
</g>
<g id="glyph-0-1">
<path d="M 1.140625 23.75 C 1.484375 23.71875 1.671875 23.484375 1.671875 23.203125 C 1.671875 22.84375 1.390625 22.671875 1.140625 22.671875 C 0.890625 22.671875 0.609375 22.84375 0.609375 23.21875 C 0.609375 23.78125 1.15625 24.234375 1.828125 24.234375 C 3.484375 24.234375 4.09375 21.6875 4.875 18.515625 C 5.71875 15.078125 6.421875 11.59375 7.015625 8.09375 C 7.421875 5.765625 7.8125 3.59375 8.1875 2.1875 C 8.328125 1.640625 8.6875 0.234375 9.125 0.234375 C 9.453125 0.234375 9.734375 0.453125 9.765625 0.484375 C 9.40625 0.515625 9.234375 0.75 9.234375 1.03125 C 9.234375 1.390625 9.5 1.5625 9.75 1.5625 C 10.015625 1.5625 10.28125 1.390625 10.28125 1.015625 C 10.28125 0.421875 9.703125 0 9.09375 0 C 8.265625 0 7.65625 1.1875 7.0625 3.40625 C 7.03125 3.53125 5.546875 9.015625 4.34375 16.140625 C 4.0625 17.8125 3.734375 19.625 3.375 21.140625 C 3.1875 21.9375 2.6875 24 1.796875 24 C 1.40625 24 1.140625 23.75 1.140625 23.75 Z M 1.140625 23.75 "/>
</g>
<g id="glyph-1-0">
</g>
<g id="glyph-1-1">
<path d="M 1.765625 -3.171875 L 2.546875 -3.171875 C 2.6875 -3.171875 2.78125 -3.171875 2.78125 -3.328125 C 2.78125 -3.4375 2.6875 -3.4375 2.546875 -3.4375 L 1.828125 -3.4375 L 2.109375 -4.5625 C 2.140625 -4.6875 2.140625 -4.71875 2.140625 -4.734375 C 2.140625 -4.90625 2.015625 -4.984375 1.875 -4.984375 C 1.609375 -4.984375 1.546875 -4.765625 1.46875 -4.40625 L 1.21875 -3.4375 L 0.453125 -3.4375 C 0.296875 -3.4375 0.203125 -3.4375 0.203125 -3.28125 C 0.203125 -3.171875 0.296875 -3.171875 0.4375 -3.171875 L 1.15625 -3.171875 L 0.671875 -1.265625 C 0.625 -1.0625 0.5625 -0.78125 0.5625 -0.671875 C 0.5625 -0.1875 0.953125 0.078125 1.375 0.078125 C 2.21875 0.078125 2.703125 -1.046875 2.703125 -1.140625 C 2.703125 -1.234375 2.640625 -1.25 2.59375 -1.25 C 2.5 -1.25 2.5 -1.21875 2.4375 -1.09375 C 2.28125 -0.703125 1.875 -0.140625 1.390625 -0.140625 C 1.234375 -0.140625 1.125 -0.25 1.125 -0.515625 C 1.125 -0.671875 1.15625 -0.75 1.171875 -0.859375 Z M 1.765625 -3.171875 "/>
</g>
<g id="glyph-2-0">
</g>
<g id="glyph-2-1">
<path d="M 5.21875 -1.8125 C 5.21875 -2.421875 4.859375 -2.640625 4.265625 -2.640625 C 3.703125 -2.640625 3.375 -2.328125 3.25 -2.09375 C 3.109375 -2.640625 2.5 -2.640625 2.328125 -2.640625 C 1.796875 -2.640625 1.453125 -2.34375 1.3125 -2.09375 L 1.296875 -2.09375 L 1.296875 -2.640625 L 0.375 -2.578125 L 0.375 -2.34375 C 0.796875 -2.34375 0.84375 -2.296875 0.84375 -2 L 0.84375 -0.484375 C 0.84375 -0.234375 0.796875 -0.234375 0.375 -0.234375 L 0.375 0 C 0.421875 0 0.828125 -0.03125 1.09375 -0.03125 C 1.359375 -0.03125 1.765625 0 1.8125 0 L 1.8125 -0.234375 C 1.40625 -0.234375 1.34375 -0.234375 1.34375 -0.484375 L 1.34375 -1.546875 C 1.34375 -2.203125 1.921875 -2.453125 2.28125 -2.453125 C 2.6875 -2.453125 2.78125 -2.1875 2.78125 -1.8125 L 2.78125 -0.484375 C 2.78125 -0.234375 2.71875 -0.234375 2.3125 -0.234375 L 2.3125 0 C 2.359375 0 2.765625 -0.03125 3.03125 -0.03125 C 3.296875 -0.03125 3.6875 0 3.75 0 L 3.75 -0.234375 C 3.34375 -0.234375 3.28125 -0.234375 3.28125 -0.484375 L 3.28125 -1.546875 C 3.28125 -2.203125 3.84375 -2.453125 4.21875 -2.453125 C 4.625 -2.453125 4.71875 -2.1875 4.71875 -1.8125 L 4.71875 -0.484375 C 4.71875 -0.234375 4.65625 -0.234375 4.25 -0.234375 L 4.25 0 C 4.28125 0 4.6875 -0.03125 4.96875 -0.03125 C 5.234375 -0.03125 5.625 0 5.6875 0 L 5.6875 -0.234375 C 5.265625 -0.234375 5.21875 -0.234375 5.21875 -0.484375 Z M 5.21875 -1.8125 "/>
</g>
<g id="glyph-2-2">
<path d="M 2.84375 -1.78125 C 2.84375 -2.34375 2.28125 -2.671875 1.609375 -2.671875 C 1.3125 -2.671875 0.609375 -2.640625 0.609375 -2.140625 C 0.609375 -1.96875 0.71875 -1.84375 0.90625 -1.84375 C 1.078125 -1.84375 1.1875 -1.96875 1.1875 -2.125 C 1.1875 -2.234375 1.140625 -2.34375 1.03125 -2.390625 C 1.234375 -2.484375 1.53125 -2.484375 1.59375 -2.484375 C 2.015625 -2.484375 2.34375 -2.21875 2.34375 -1.765625 L 2.34375 -1.609375 C 2.078125 -1.609375 1.59375 -1.59375 1.15625 -1.4375 C 0.765625 -1.296875 0.390625 -1.03125 0.390625 -0.625 C 0.390625 -0.09375 1.015625 0.0625 1.484375 0.0625 C 1.984375 0.0625 2.28125 -0.1875 2.421875 -0.421875 C 2.453125 -0.109375 2.65625 0.03125 2.859375 0.03125 C 2.890625 0.03125 3.53125 0.03125 3.53125 -0.53125 L 3.53125 -0.875 L 3.3125 -0.875 L 3.3125 -0.546875 C 3.3125 -0.484375 3.3125 -0.21875 3.078125 -0.21875 C 2.84375 -0.21875 2.84375 -0.484375 2.84375 -0.546875 Z M 2.34375 -0.84375 C 2.34375 -0.234375 1.734375 -0.125 1.53125 -0.125 C 1.21875 -0.125 0.90625 -0.328125 0.90625 -0.625 C 0.90625 -0.96875 1.234375 -1.40625 2.34375 -1.4375 Z M 2.34375 -0.84375 "/>
</g>
<g id="glyph-2-3">
<path d="M 2.125 -1.40625 L 2.71875 -2.015625 C 3.03125 -2.328125 3.359375 -2.34375 3.515625 -2.34375 L 3.515625 -2.578125 C 3.4375 -2.578125 3.171875 -2.5625 2.984375 -2.5625 C 2.765625 -2.5625 2.40625 -2.578125 2.375 -2.578125 L 2.375 -2.34375 C 2.4375 -2.328125 2.484375 -2.28125 2.484375 -2.21875 C 2.484375 -2.109375 2.4375 -2.0625 2.265625 -1.859375 L 1.96875 -1.5625 L 1.453125 -2.125 C 1.40625 -2.171875 1.390625 -2.1875 1.390625 -2.21875 C 1.390625 -2.3125 1.484375 -2.34375 1.5625 -2.34375 L 1.5625 -2.578125 C 1.40625 -2.5625 1 -2.5625 0.859375 -2.5625 C 0.734375 -2.5625 0.375 -2.5625 0.25 -2.578125 L 0.25 -2.34375 C 0.59375 -2.34375 0.703125 -2.328125 0.84375 -2.171875 L 1.640625 -1.328125 C 1.671875 -1.28125 1.6875 -1.28125 1.6875 -1.265625 C 1.6875 -1.25 1.140625 -0.6875 1.078125 -0.625 C 0.921875 -0.46875 0.703125 -0.234375 0.203125 -0.234375 L 0.203125 0 C 0.28125 0 0.546875 -0.03125 0.734375 -0.03125 C 0.828125 -0.03125 1.234375 -0.015625 1.359375 0 L 1.359375 -0.234375 C 1.28125 -0.234375 1.25 -0.28125 1.25 -0.359375 C 1.25 -0.46875 1.3125 -0.546875 1.34375 -0.578125 C 1.5 -0.765625 1.671875 -0.9375 1.84375 -1.09375 L 2.375 -0.53125 C 2.484375 -0.390625 2.484375 -0.390625 2.484375 -0.359375 C 2.484375 -0.296875 2.4375 -0.234375 2.328125 -0.234375 L 2.328125 0 C 2.53125 -0.015625 2.984375 -0.03125 3.03125 -0.03125 C 3.25 -0.03125 3.5625 0 3.640625 0 L 3.640625 -0.234375 C 3.34375 -0.234375 3.1875 -0.234375 3.03125 -0.40625 Z M 2.125 -1.40625 "/>
</g>
<g id="glyph-3-0">
</g>
<g id="glyph-3-1">
<path d="M 3.890625 -2.546875 C 3.890625 -3.390625 3.8125 -3.90625 3.546875 -4.421875 C 3.203125 -5.125 2.546875 -5.296875 2.109375 -5.296875 C 1.109375 -5.296875 0.734375 -4.546875 0.625 -4.328125 C 0.34375 -3.75 0.328125 -2.953125 0.328125 -2.546875 C 0.328125 -2.015625 0.34375 -1.21875 0.734375 -0.578125 C 1.09375 0.015625 1.6875 0.171875 2.109375 0.171875 C 2.5 0.171875 3.171875 0.046875 3.578125 -0.734375 C 3.875 -1.3125 3.890625 -2.03125 3.890625 -2.546875 Z M 2.109375 -0.0625 C 1.84375 -0.0625 1.296875 -0.1875 1.125 -1.015625 C 1.03125 -1.46875 1.03125 -2.21875 1.03125 -2.640625 C 1.03125 -3.1875 1.03125 -3.75 1.125 -4.1875 C 1.296875 -5 1.90625 -5.078125 2.109375 -5.078125 C 2.375 -5.078125 2.9375 -4.9375 3.09375 -4.21875 C 3.1875 -3.78125 3.1875 -3.171875 3.1875 -2.640625 C 3.1875 -2.171875 3.1875 -1.453125 3.09375 -1 C 2.921875 -0.171875 2.375 -0.0625 2.109375 -0.0625 Z M 2.109375 -0.0625 "/>
</g>
</g>
<clipPath id="clip-0">
<path clip-rule="nonzero" d="M 6 21 L 11 21 L 11 27.488281 L 6 27.488281 Z M 6 21 "/>
</clipPath>
</defs>
<g fill="rgb(0%, 0%, 0%)" fill-opacity="1">
<use xlink:href="#glyph-0-1" x="0.5" y="2.247"/>
</g>
<g fill="rgb(0%, 0%, 0%)" fill-opacity="1">
<use xlink:href="#glyph-1-1" x="11.409" y="5.402"/>
</g>
<g fill="rgb(0%, 0%, 0%)" fill-opacity="1">
<use xlink:href="#glyph-2-1" x="14.467" y="6.398"/>
<use xlink:href="#glyph-2-2" x="20.4446" y="6.398"/>
<use xlink:href="#glyph-2-3" x="24.097511" y="6.398"/>
</g>
<g clip-path="url(#clip-0)">
<g fill="rgb(0%, 0%, 0%)" fill-opacity="1">
<use xlink:href="#glyph-3-1" x="6.561" y="26.988"/>
</g>
</g>
</svg>
