<?xml version="1.0" encoding="UTF-8"?>
<svg xmlns="http://www.w3.org/2000/svg" xmlns:xlink="http://www.w3.org/1999/xlink" width="38.612" height="11.234" viewBox="0 0 38.612 11.234">
<defs>
<g>
<g id="glyph-0-0">
</g>
<g id="glyph-0-1">
<path d="M 2.046875 -2.515625 C 2.359375 -2.515625 3.15625 -2.546875 3.703125 -2.765625 C 4.46875 -3.09375 4.53125 -3.734375 4.53125 -3.890625 C 4.53125 -4.375 4.109375 -4.828125 3.359375 -4.828125 C 2.15625 -4.828125 0.5 -3.765625 0.5 -1.859375 C 0.5 -0.734375 1.140625 0.125 2.21875 0.125 C 3.78125 0.125 4.6875 -1.03125 4.6875 -1.171875 C 4.6875 -1.234375 4.625 -1.3125 4.5625 -1.3125 C 4.5 -1.3125 4.484375 -1.28125 4.421875 -1.203125 C 3.5625 -0.125 2.359375 -0.125 2.234375 -0.125 C 1.390625 -0.125 1.28125 -1.03125 1.28125 -1.390625 C 1.28125 -1.515625 1.296875 -1.859375 1.46875 -2.515625 Z M 1.53125 -2.765625 C 1.953125 -4.421875 3.078125 -4.578125 3.359375 -4.578125 C 3.875 -4.578125 4.171875 -4.265625 4.171875 -3.890625 C 4.171875 -2.765625 2.421875 -2.765625 1.96875 -2.765625 Z M 1.53125 -2.765625 "/>
</g>
<g id="glyph-1-0">
</g>
<g id="glyph-1-1">
<path d="M 1.46875 -0.953125 C 1.109375 -0.359375 0.78125 -0.28125 0.5 -0.265625 C 0.421875 -0.25 0.3125 -0.25 0.3125 -0.109375 C 0.3125 -0.09375 0.328125 0 0.4375 0 C 0.5 0 0.546875 -0.03125 1.109375 -0.03125 C 1.65625 -0.03125 1.828125 0 1.875 0 C 1.90625 0 2.03125 0 2.03125 -0.15625 C 2.03125 -0.25 1.921875 -0.265625 1.890625 -0.265625 C 1.71875 -0.265625 1.546875 -0.328125 1.546875 -0.515625 C 1.546875 -0.625 1.625 -0.734375 1.765625 -0.96875 L 2.3125 -1.84375 L 4.5 -1.84375 L 4.65625 -0.5 C 4.65625 -0.375 4.515625 -0.265625 4.140625 -0.265625 C 4.03125 -0.265625 3.921875 -0.265625 3.921875 -0.109375 C 3.921875 -0.109375 3.921875 0 4.0625 0 C 4.140625 0 4.4375 -0.015625 4.515625 -0.03125 L 5.015625 -0.03125 C 5.734375 -0.03125 5.859375 0 5.921875 0 C 5.953125 0 6.09375 0 6.09375 -0.15625 C 6.09375 -0.265625 5.984375 -0.265625 5.859375 -0.265625 C 5.421875 -0.265625 5.40625 -0.328125 5.390625 -0.53125 L 4.75 -5.453125 C 4.734375 -5.640625 4.71875 -5.6875 4.59375 -5.6875 C 4.453125 -5.6875 4.40625 -5.609375 4.34375 -5.53125 Z M 2.484375 -2.109375 L 4.125 -4.71875 L 4.46875 -2.109375 Z M 2.484375 -2.109375 "/>
</g>
<g id="glyph-1-2">
<path d="M 1.34375 -0.625 C 1.28125 -0.328125 1.265625 -0.265625 0.671875 -0.265625 C 0.515625 -0.265625 0.421875 -0.265625 0.421875 -0.109375 C 0.421875 0 0.53125 0 0.65625 0 L 3.625 0 C 4.9375 0 5.90625 -0.9375 5.90625 -1.703125 C 5.90625 -2.28125 5.40625 -2.75 4.609375 -2.84375 C 5.53125 -3.015625 6.328125 -3.625 6.328125 -4.328125 C 6.328125 -4.921875 5.75 -5.4375 4.75 -5.4375 L 1.96875 -5.4375 C 1.828125 -5.4375 1.71875 -5.4375 1.71875 -5.296875 C 1.71875 -5.171875 1.8125 -5.171875 1.953125 -5.171875 C 2.21875 -5.171875 2.453125 -5.171875 2.453125 -5.046875 C 2.453125 -5.015625 2.4375 -5.015625 2.421875 -4.90625 Z M 2.59375 -2.9375 L 3.078125 -4.890625 C 3.140625 -5.15625 3.15625 -5.171875 3.484375 -5.171875 L 4.625 -5.171875 C 5.40625 -5.171875 5.59375 -4.671875 5.59375 -4.34375 C 5.59375 -3.671875 4.859375 -2.9375 3.84375 -2.9375 Z M 2.046875 -0.265625 C 1.96875 -0.28125 1.9375 -0.28125 1.9375 -0.328125 C 1.9375 -0.390625 1.953125 -0.46875 1.96875 -0.515625 L 2.53125 -2.71875 L 4.15625 -2.71875 C 4.890625 -2.71875 5.140625 -2.21875 5.140625 -1.765625 C 5.140625 -0.984375 4.375 -0.265625 3.421875 -0.265625 Z M 2.046875 -0.265625 "/>
</g>
<g id="glyph-2-0">
</g>
<g id="glyph-2-1">
<path d="M 7.875 -2.71875 C 7.875 -4.734375 6.234375 -6.359375 4.25 -6.359375 C 2.21875 -6.359375 0.59375 -4.71875 0.59375 -2.71875 C 0.59375 -0.71875 2.234375 0.90625 4.234375 0.90625 C 6.265625 0.90625 7.875 -0.734375 7.875 -2.71875 Z M 2.078125 -5.078125 C 2.046875 -5.09375 1.96875 -5.171875 1.96875 -5.1875 C 1.96875 -5.234375 2.859375 -6.078125 4.234375 -6.078125 C 4.609375 -6.078125 5.609375 -6.03125 6.515625 -5.1875 L 4.25 -2.90625 Z M 1.75 -0.453125 C 1.09375 -1.1875 0.875 -2.03125 0.875 -2.71875 C 0.875 -3.5625 1.1875 -4.359375 1.75 -5 L 4.03125 -2.71875 Z M 6.703125 -5 C 7.234375 -4.453125 7.609375 -3.625 7.609375 -2.71875 C 7.609375 -1.890625 7.28125 -1.09375 6.71875 -0.453125 L 4.4375 -2.71875 Z M 6.40625 -0.375 C 6.421875 -0.359375 6.5 -0.28125 6.5 -0.265625 C 6.5 -0.21875 5.609375 0.625 4.25 0.625 C 3.859375 0.625 2.859375 0.578125 1.96875 -0.265625 L 4.234375 -2.546875 Z M 6.40625 -0.375 "/>
</g>
</g>
<clipPath id="clip-0">
<path clip-rule="nonzero" d="M 0 0 L 38.613281 0 L 38.613281 2 L 0 2 Z M 0 0 "/>
</clipPath>
</defs>
<g clip-path="url(#clip-0)">
<path fill="none" stroke-width="0.436" stroke-linecap="butt" stroke-linejoin="miter" stroke="rgb(0%, 0%, 0%)" stroke-opacity="1" stroke-miterlimit="10" d="M 0 0.00165625 L 37.613281 0.00165625 " transform="matrix(1, 0, 0, -1, 0.5, 1.154)"/>
</g>
<g fill="rgb(0%, 0%, 0%)" fill-opacity="1">
<use xlink:href="#glyph-0-1" x="0.5" y="9.045"/>
</g>
<g fill="rgb(0%, 0%, 0%)" fill-opacity="1">
<use xlink:href="#glyph-1-1" x="5.58" y="10.734"/>
</g>
<g fill="rgb(0%, 0%, 0%)" fill-opacity="1">
<use xlink:href="#glyph-2-1" x="14.845" y="9.045"/>
</g>
<g fill="rgb(0%, 0%, 0%)" fill-opacity="1">
<use xlink:href="#glyph-0-1" x="25.754" y="9.045"/>
</g>
<g fill="rgb(0%, 0%, 0%)" fill-opacity="1">
<use xlink:href="#glyph-1-2" x="30.833" y="10.734"/>
</g>
</svg>
