<?xml version="1.0" encoding="UTF-8"?>
<svg xmlns="http://www.w3.org/2000/svg" xmlns:xlink="http://www.w3.org/1999/xlink" width="12.829" height="13.647" viewBox="0 0 12.829 13.647">
<defs>
<g>
<g id="glyph-0-0">
</g>
<g id="glyph-0-1">
<path d="M 2.71875 -7.5625 L 1.265625 -6.078125 L 1.46875 -5.890625 L 2.71875 -7 L 3.984375 -5.890625 L 4.171875 -6.078125 Z M 2.71875 -7.5625 "/>
</g>
<g id="glyph-1-0">
</g>
<g id="glyph-1-1">
<path d="M 0.953125 -0.640625 C 0.921875 -0.484375 0.859375 -0.234375 0.859375 -0.171875 C 0.859375 0.015625 1.015625 0.125 1.171875 0.125 C 1.3125 0.125 1.5 0.03125 1.578125 -0.1875 C 1.609375 -0.234375 1.96875 -1.71875 2.015625 -1.90625 C 2.109375 -2.265625 2.296875 -3.03125 2.359375 -3.328125 C 2.40625 -3.46875 2.71875 -3.984375 2.984375 -4.21875 C 3.0625 -4.296875 3.375 -4.578125 3.84375 -4.578125 C 4.140625 -4.578125 4.296875 -4.453125 4.3125 -4.453125 C 3.984375 -4.390625 3.734375 -4.140625 3.734375 -3.84375 C 3.734375 -3.671875 3.859375 -3.46875 4.15625 -3.46875 C 4.453125 -3.46875 4.75 -3.71875 4.75 -4.109375 C 4.75 -4.5 4.40625 -4.828125 3.84375 -4.828125 C 3.140625 -4.828125 2.65625 -4.28125 2.453125 -3.984375 C 2.359375 -4.46875 1.96875 -4.828125 1.46875 -4.828125 C 0.953125 -4.828125 0.75 -4.390625 0.65625 -4.203125 C 0.453125 -3.828125 0.3125 -3.171875 0.3125 -3.140625 C 0.3125 -3.03125 0.421875 -3.03125 0.453125 -3.03125 C 0.5625 -3.03125 0.5625 -3.046875 0.625 -3.28125 C 0.8125 -4.0625 1.03125 -4.578125 1.421875 -4.578125 C 1.609375 -4.578125 1.765625 -4.5 1.765625 -4.078125 C 1.765625 -3.84375 1.734375 -3.734375 1.59375 -3.15625 Z M 0.953125 -0.640625 "/>
</g>
<g id="glyph-2-0">
</g>
<g id="glyph-2-1">
<path d="M 3.609375 -4.828125 C 3.671875 -5.109375 3.6875 -5.125 4.015625 -5.125 L 4.609375 -5.125 C 5.4375 -5.125 5.53125 -4.859375 5.53125 -4.46875 C 5.53125 -4.265625 5.484375 -3.921875 5.484375 -3.875 C 5.46875 -3.796875 5.453125 -3.71875 5.453125 -3.703125 C 5.453125 -3.609375 5.53125 -3.578125 5.578125 -3.578125 C 5.671875 -3.578125 5.703125 -3.625 5.71875 -3.78125 L 5.9375 -5.28125 C 5.9375 -5.390625 5.84375 -5.390625 5.703125 -5.390625 L 1 -5.390625 C 0.8125 -5.390625 0.78125 -5.390625 0.734375 -5.21875 L 0.25 -3.84375 C 0.234375 -3.796875 0.203125 -3.734375 0.203125 -3.6875 C 0.203125 -3.625 0.265625 -3.578125 0.328125 -3.578125 C 0.421875 -3.578125 0.4375 -3.625 0.484375 -3.75 C 0.9375 -5.03125 1.15625 -5.125 2.375 -5.125 L 2.6875 -5.125 C 2.921875 -5.125 2.9375 -5.109375 2.9375 -5.046875 C 2.9375 -5.03125 2.90625 -4.875 2.890625 -4.84375 L 1.84375 -0.65625 C 1.765625 -0.34375 1.75 -0.265625 0.921875 -0.265625 C 0.65625 -0.265625 0.578125 -0.265625 0.578125 -0.109375 C 0.578125 -0.109375 0.578125 0 0.71875 0 C 0.9375 0 1.484375 -0.03125 1.703125 -0.03125 L 2.375 -0.03125 C 2.59375 -0.03125 3.15625 0 3.375 0 C 3.4375 0 3.5625 0 3.5625 -0.15625 C 3.5625 -0.265625 3.46875 -0.265625 3.265625 -0.265625 C 3.0625 -0.265625 3 -0.265625 2.796875 -0.28125 C 2.546875 -0.296875 2.515625 -0.328125 2.515625 -0.4375 C 2.515625 -0.46875 2.515625 -0.5 2.546875 -0.578125 Z M 3.609375 -4.828125 "/>
</g>
</g>
</defs>
<g fill="rgb(0%, 0%, 0%)" fill-opacity="1">
<use xlink:href="#glyph-0-1" x="0.991" y="10.45"/>
</g>
<g fill="rgb(0%, 0%, 0%)" fill-opacity="1">
<use xlink:href="#glyph-1-1" x="0.5" y="10.45"/>
</g>
<g fill="rgb(0%, 0%, 0%)" fill-opacity="1">
<use xlink:href="#glyph-2-1" x="5.725" y="5.946"/>
</g>
</svg>
