<?xml version="1.0" encoding="UTF-8"?>
<svg xmlns="http://www.w3.org/2000/svg" xmlns:xlink="http://www.w3.org/1999/xlink" width="93.47" height="35.44" viewBox="0 0 93.47 35.44">
<defs>
<g>
<g id="glyph-0-0">
</g>
<g id="glyph-0-1">
<path d="M 3.703125 -5.546875 C 3.109375 -5.375 2.5 -4.890625 2.5 -4.234375 C 2.5 -3.671875 2.984375 -3.375 3.546875 -3.375 C 4.390625 -3.375 5.28125 -3.71875 6.046875 -3.71875 C 6.921875 -3.71875 7.390625 -3.03125 7.390625 -2.25 C 7.390625 -1.75 7.21875 -1.1875 6.875 -0.84375 C 6.375 -0.34375 5.65625 -0.28125 4.96875 -0.28125 C 2.796875 -0.28125 1.515625 -2.140625 1.515625 -4.125 C 1.515625 -5.390625 2.375 -6.84375 3.671875 -6.84375 C 4.640625 -6.84375 5.765625 -5.65625 6.625 -5.578125 C 7.390625 -5.875 8.03125 -6.28125 8.25 -7.140625 L 8.03125 -7.265625 C 7.90625 -6.859375 7.6875 -6.453125 7.140625 -6.453125 C 6.546875 -6.453125 5.6875 -6.953125 4.640625 -7.515625 C 3.625 -7.3125 2.515625 -6.890625 1.78125 -6.15625 C 1.03125 -5.40625 0.609375 -4.421875 0.609375 -3.375 C 0.609375 -2.3125 1.03125 -1.265625 1.78125 -0.53125 C 2.375 0.078125 3.234375 0.296875 4.0625 0.296875 C 6.015625 0.296875 8.1875 -0.734375 8.1875 -3.015625 C 8.1875 -3.921875 7.5 -4.46875 6.6875 -4.46875 C 5.90625 -4.46875 4.65625 -4 4.015625 -4 C 3.609375 -4 3.3125 -4.21875 3.3125 -4.640625 C 3.3125 -4.96875 3.484375 -5.296875 3.84375 -5.40625 Z M 3.703125 -5.546875 "/>
</g>
<g id="glyph-0-2">
<path d="M 4.015625 -6.09375 C 3.265625 -5.703125 2.328125 -5.078125 2.328125 -4.234375 C 2.328125 -4.03125 2.828125 -3.390625 2.90625 -3.296875 C 3.109375 -3.078125 3.265625 -2.796875 3.265625 -2.5 C 3.265625 -1.765625 2.21875 -1.453125 1.515625 -1.453125 C 1.03125 -1.046875 0.625 -0.5625 0.34375 0 L 0.53125 0.171875 C 0.78125 -0.234375 1.1875 -0.703125 1.6875 -0.703125 C 2.375 -0.703125 3.203125 -0.359375 3.890625 -0.09375 C 4.25 0.046875 4.890625 0.296875 5.109375 0.296875 C 5.765625 0.296875 6.84375 -0.84375 7.53125 -1.609375 C 7.90625 -2.578125 8.140625 -3.421875 8.140625 -4.46875 C 8.140625 -5.765625 7.234375 -6.953125 6.015625 -7.3125 C 5.296875 -7.5 4.734375 -7.53125 4.0625 -7.53125 C 3.078125 -7.53125 1.9375 -7.171875 1.21875 -6.46875 C 0.578125 -5.828125 0.296875 -5.015625 0.296875 -4.125 L 0.53125 -4 C 0.5625 -4.640625 0.78125 -5.359375 1.25 -5.84375 C 1.890625 -6.5 2.875 -6.671875 3.78125 -6.671875 C 4.796875 -6.671875 5.828125 -6.421875 6.5625 -5.6875 C 7.125 -5.125 7.3125 -4.3125 7.3125 -3.546875 C 7.3125 -2.828125 7.234375 -2.03125 6.859375 -1.453125 C 6.484375 -0.890625 6.28125 -0.53125 5.578125 -0.53125 C 5.359375 -0.53125 4.5625 -0.8125 4.09375 -1 C 3.625 -1.15625 3.09375 -1.328125 2.625 -1.421875 C 3.296875 -1.71875 4.25 -2.234375 4.25 -3.015625 C 4.25 -3.546875 3.265625 -4.390625 3.265625 -4.828125 C 3.265625 -5.234375 3.90625 -5.796875 4.1875 -5.984375 Z M 4.015625 -6.09375 "/>
</g>
<g id="glyph-0-3">
<path d="M 4.015625 -3.203125 C 3.734375 -3.578125 3.375 -4.09375 3.375 -4.53125 C 3.375 -5.125 3.875 -5.53125 4.5 -5.71875 C 4.75 -5.578125 5.03125 -5.453125 5.296875 -5.453125 C 5.765625 -5.453125 6.375 -6.3125 6.765625 -6.859375 L 6.671875 -7.015625 C 6.40625 -6.734375 6.015625 -6.328125 5.765625 -6.328125 C 4.890625 -6.328125 3.84375 -7.484375 2.796875 -7.484375 C 1.421875 -7.484375 0.765625 -6.375 0.640625 -5.171875 L 0.8125 -5.046875 C 0.96875 -5.78125 1.3125 -6.734375 2.15625 -6.734375 C 2.796875 -6.734375 3.578125 -6.296875 4.1875 -5.921875 C 3.484375 -5.5 2.5625 -4.765625 2.5625 -4 C 2.5625 -3.5 3.078125 -2.828125 3.4375 -2.328125 C 3.84375 -1.75 4.421875 -0.953125 4.421875 -0.40625 C 4.421875 0.453125 3.90625 1.3125 2.96875 1.3125 C 2.6875 1.3125 2.453125 1.125 2.265625 0.921875 C 2.140625 0.796875 1.953125 0.53125 1.953125 -0.046875 C 1.953125 -0.546875 2.109375 -1 2.109375 -1.46875 C 2.109375 -1.890625 1.9375 -2.390625 1.546875 -2.390625 C 1.265625 -2.390625 0.75 -2.21875 0.125 -1.796875 L 0.171875 -1.578125 C 0.296875 -1.640625 0.5625 -1.765625 0.8125 -1.765625 C 0.953125 -1.765625 1.203125 -1.78125 1.203125 -1 C 1.203125 -0.625 1.125 -0.265625 1.125 0.09375 C 1.125 0.84375 1.453125 1.6875 2.390625 1.6875 C 3.765625 1.6875 5.296875 0.59375 5.296875 -0.8125 C 5.296875 -1.125 5.234375 -1.515625 5.0625 -1.765625 L 4.109375 -2.984375 C 4.359375 -3.1875 4.703125 -3.421875 4.890625 -3.421875 C 5.15625 -3.421875 5.328125 -3.1875 5.46875 -2.953125 L 5.9375 -3.59375 C 5.8125 -3.9375 5.59375 -4.203125 5.34375 -4.46875 Z M 4.015625 -3.203125 "/>
</g>
<g id="glyph-1-0">
</g>
<g id="glyph-1-1">
<path d="M 7.5 -3.5625 C 7.65625 -3.5625 7.859375 -3.5625 7.859375 -3.78125 C 7.859375 -4 7.65625 -4 7.5 -4 L 0.96875 -4 C 0.8125 -4 0.609375 -4 0.609375 -3.78125 C 0.609375 -3.5625 0.8125 -3.5625 0.984375 -3.5625 Z M 7.5 -1.453125 C 7.65625 -1.453125 7.859375 -1.453125 7.859375 -1.671875 C 7.859375 -1.890625 7.65625 -1.890625 7.5 -1.890625 L 0.984375 -1.890625 C 0.8125 -1.890625 0.609375 -1.890625 0.609375 -1.671875 C 0.609375 -1.453125 0.8125 -1.453125 0.96875 -1.453125 Z M 7.5 -1.453125 "/>
</g>
<g id="glyph-2-0">
</g>
<g id="glyph-2-1">
<path d="M 6.65625 -6.125 C 6.65625 -6.328125 6.65625 -6.515625 6.453125 -6.515625 C 6.234375 -6.515625 6.234375 -6.328125 6.234375 -6.125 L 6.234375 -2.1875 C 6.234375 -0.546875 4.453125 -0.203125 3.625 -0.203125 C 3.140625 -0.203125 2.453125 -0.296875 1.875 -0.671875 C 1.03125 -1.203125 1.03125 -1.890625 1.03125 -2.1875 L 1.03125 -6.125 C 1.03125 -6.328125 1.03125 -6.515625 0.8125 -6.515625 C 0.59375 -6.515625 0.59375 -6.328125 0.59375 -6.125 L 0.59375 -2.140625 C 0.59375 -0.484375 2.265625 0.234375 3.625 0.234375 C 5.046875 0.234375 6.65625 -0.53125 6.65625 -2.125 Z M 6.65625 -6.125 "/>
</g>
<g id="glyph-3-0">
</g>
<g id="glyph-3-1">
<path d="M 8.25 32.15625 C 8.25 32.125 8.25 32.109375 8.1875 32.03125 C 7.140625 30.765625 6.265625 29.375 5.625 27.859375 C 4.203125 24.515625 3.625 20.609375 3.625 15.921875 C 3.625 11.28125 4.171875 7.203125 5.78125 3.625 C 6.40625 2.234375 7.234375 0.953125 8.21875 -0.234375 C 8.234375 -0.265625 8.25 -0.28125 8.25 -0.328125 C 8.25 -0.4375 8.171875 -0.4375 8.015625 -0.4375 C 7.859375 -0.4375 7.828125 -0.4375 7.8125 -0.421875 C 7.796875 -0.40625 7.125 0.25 6.265625 1.453125 C 4.375 4.140625 3.40625 7.34375 2.921875 10.59375 C 2.65625 12.34375 2.578125 14.140625 2.578125 15.90625 C 2.578125 19.984375 3.09375 24.15625 4.828125 27.890625 C 5.609375 29.546875 6.640625 31.046875 7.71875 32.171875 C 7.8125 32.265625 7.828125 32.265625 8.015625 32.265625 C 8.171875 32.265625 8.25 32.265625 8.25 32.15625 Z M 8.25 32.15625 "/>
</g>
<g id="glyph-3-2">
<path d="M 10.59375 10.015625 C 10.59375 12.515625 8.484375 14.359375 6.046875 14.359375 C 3.625 14.359375 1.515625 12.5 1.515625 10.015625 L 1.515625 0.59375 C 1.515625 0.453125 1.515625 0 1.0625 0 C 0.609375 0 0.609375 0.453125 0.609375 0.59375 L 0.609375 10.0625 C 0.609375 12.875 3 15.265625 6.046875 15.265625 C 9.109375 15.265625 11.5 12.875 11.5 10.0625 L 11.5 0.59375 C 11.5 0.453125 11.5 0 11.046875 0 C 10.59375 0 10.59375 0.453125 10.59375 0.59375 Z M 10.59375 10.015625 "/>
</g>
<g id="glyph-3-3">
<path d="M 6.046875 15.921875 C 6.046875 11.84375 5.546875 7.671875 3.796875 3.953125 C 3.015625 2.296875 1.984375 0.796875 0.90625 -0.34375 C 0.8125 -0.421875 0.796875 -0.4375 0.609375 -0.4375 C 0.453125 -0.4375 0.375 -0.4375 0.375 -0.328125 C 0.375 -0.28125 0.421875 -0.234375 0.4375 -0.203125 C 1.484375 1.0625 2.359375 2.46875 3 3.984375 C 4.421875 7.3125 5 11.21875 5 15.90625 C 5 20.5625 4.453125 24.640625 2.84375 28.21875 C 2.21875 29.59375 1.390625 30.890625 0.421875 32.0625 C 0.40625 32.09375 0.375 32.125 0.375 32.15625 C 0.375 32.265625 0.453125 32.265625 0.609375 32.265625 C 0.78125 32.265625 0.796875 32.265625 0.8125 32.25 C 0.828125 32.234375 1.5 31.578125 2.359375 30.390625 C 4.25 27.703125 5.21875 24.5 5.703125 21.25 C 5.96875 19.484375 6.046875 17.703125 6.046875 15.921875 Z M 6.046875 15.921875 "/>
</g>
<g id="glyph-4-0">
</g>
<g id="glyph-4-1">
<path d="M 2.09375 -5.296875 C 2.09375 -5.3125 2.125 -5.40625 2.125 -5.421875 C 2.125 -5.453125 2.09375 -5.53125 1.984375 -5.53125 L 1.1875 -5.46875 C 0.890625 -5.4375 0.828125 -5.4375 0.828125 -5.296875 C 0.828125 -5.171875 0.9375 -5.171875 1.03125 -5.171875 C 1.421875 -5.171875 1.421875 -5.125 1.421875 -5.0625 C 1.421875 -5.03125 1.421875 -5.015625 1.375 -4.875 L 0.390625 -0.921875 C 0.359375 -0.796875 0.359375 -0.671875 0.359375 -0.671875 C 0.359375 -0.171875 0.765625 0.078125 1.15625 0.078125 C 1.5 0.078125 1.6875 -0.1875 1.78125 -0.359375 C 1.921875 -0.625 2.046875 -1.09375 2.046875 -1.140625 C 2.046875 -1.1875 2.015625 -1.25 1.90625 -1.25 C 1.84375 -1.25 1.8125 -1.203125 1.8125 -1.1875 C 1.796875 -1.171875 1.765625 -1.03125 1.734375 -0.9375 C 1.625 -0.484375 1.46875 -0.140625 1.171875 -0.140625 C 0.984375 -0.140625 0.9375 -0.328125 0.9375 -0.515625 C 0.9375 -0.671875 0.953125 -0.75 0.984375 -0.859375 Z M 2.09375 -5.296875 "/>
</g>
<g id="glyph-4-2">
<path d="M 2.375 -4.96875 C 2.375 -5.140625 2.25 -5.28125 2.0625 -5.28125 C 1.859375 -5.28125 1.625 -5.078125 1.625 -4.84375 C 1.625 -4.671875 1.75 -4.546875 1.9375 -4.546875 C 2.140625 -4.546875 2.375 -4.734375 2.375 -4.96875 Z M 1.21875 -2.046875 L 0.78125 -0.953125 C 0.734375 -0.828125 0.703125 -0.734375 0.703125 -0.59375 C 0.703125 -0.203125 1 0.078125 1.421875 0.078125 C 2.203125 0.078125 2.53125 -1.03125 2.53125 -1.140625 C 2.53125 -1.21875 2.46875 -1.25 2.40625 -1.25 C 2.3125 -1.25 2.296875 -1.1875 2.265625 -1.109375 C 2.09375 -0.46875 1.765625 -0.140625 1.4375 -0.140625 C 1.34375 -0.140625 1.25 -0.1875 1.25 -0.390625 C 1.25 -0.59375 1.3125 -0.734375 1.40625 -0.984375 C 1.484375 -1.1875 1.5625 -1.40625 1.65625 -1.625 L 1.90625 -2.265625 C 1.96875 -2.453125 2.078125 -2.703125 2.078125 -2.84375 C 2.078125 -3.234375 1.75 -3.515625 1.34375 -3.515625 C 0.578125 -3.515625 0.234375 -2.40625 0.234375 -2.296875 C 0.234375 -2.21875 0.296875 -2.1875 0.359375 -2.1875 C 0.46875 -2.1875 0.46875 -2.234375 0.5 -2.3125 C 0.71875 -3.078125 1.078125 -3.296875 1.328125 -3.296875 C 1.4375 -3.296875 1.515625 -3.25 1.515625 -3.03125 C 1.515625 -2.953125 1.5 -2.84375 1.421875 -2.59375 Z M 1.21875 -2.046875 "/>
</g>
<g id="glyph-5-0">
</g>
<g id="glyph-5-1">
<path d="M 5.828125 -2.65625 C 5.9375 -2.65625 6.109375 -2.65625 6.109375 -2.84375 C 6.109375 -3.015625 5.90625 -3.015625 5.796875 -3.015625 L 0.78125 -3.015625 C 0.65625 -3.015625 0.46875 -3.015625 0.46875 -2.84375 C 0.46875 -2.65625 0.625 -2.65625 0.75 -2.65625 Z M 5.796875 -0.96875 C 5.90625 -0.96875 6.109375 -0.96875 6.109375 -1.140625 C 6.109375 -1.328125 5.9375 -1.328125 5.828125 -1.328125 L 0.75 -1.328125 C 0.625 -1.328125 0.46875 -1.328125 0.46875 -1.140625 C 0.46875 -0.96875 0.65625 -0.96875 0.78125 -0.96875 Z M 5.796875 -0.96875 "/>
</g>
<g id="glyph-5-2">
<path d="M 2.5 -5.078125 C 2.5 -5.296875 2.484375 -5.296875 2.265625 -5.296875 C 1.9375 -4.984375 1.515625 -4.796875 0.765625 -4.796875 L 0.765625 -4.53125 C 0.984375 -4.53125 1.40625 -4.53125 1.875 -4.734375 L 1.875 -0.65625 C 1.875 -0.359375 1.84375 -0.265625 1.09375 -0.265625 L 0.8125 -0.265625 L 0.8125 0 C 1.140625 -0.03125 1.828125 -0.03125 2.1875 -0.03125 C 2.546875 -0.03125 3.234375 -0.03125 3.5625 0 L 3.5625 -0.265625 L 3.28125 -0.265625 C 2.53125 -0.265625 2.5 -0.359375 2.5 -0.65625 Z M 2.5 -5.078125 "/>
</g>
<g id="glyph-6-0">
</g>
<g id="glyph-6-1">
<path d="M 2.21875 -0.015625 C 2.21875 -0.734375 1.9375 -1.15625 1.515625 -1.15625 C 1.15625 -1.15625 0.9375 -0.890625 0.9375 -0.578125 C 0.9375 -0.28125 1.15625 0 1.515625 0 C 1.640625 0 1.78125 -0.046875 1.890625 -0.140625 C 1.9375 -0.15625 1.9375 -0.171875 1.953125 -0.171875 C 1.96875 -0.171875 1.96875 -0.15625 1.96875 -0.015625 C 1.96875 0.796875 1.59375 1.453125 1.234375 1.8125 C 1.109375 1.9375 1.109375 1.953125 1.109375 1.984375 C 1.109375 2.0625 1.171875 2.109375 1.21875 2.109375 C 1.34375 2.109375 2.21875 1.265625 2.21875 -0.015625 Z M 2.21875 -0.015625 "/>
</g>
</g>
</defs>
<g fill="rgb(0%, 0%, 0%)" fill-opacity="1">
<use xlink:href="#glyph-0-1" x="0.5" y="20.762"/>
</g>
<g fill="rgb(0%, 0%, 0%)" fill-opacity="1">
<use xlink:href="#glyph-1-1" x="12.57" y="20.762"/>
</g>
<g fill="rgb(0%, 0%, 0%)" fill-opacity="1">
<use xlink:href="#glyph-0-2" x="24.085" y="20.762"/>
</g>
<g fill="rgb(0%, 0%, 0%)" fill-opacity="1">
<use xlink:href="#glyph-2-1" x="35.581" y="20.762"/>
</g>
<g fill="rgb(0%, 0%, 0%)" fill-opacity="1">
<use xlink:href="#glyph-3-1" x="45.278" y="2.107"/>
</g>
<g fill="rgb(0%, 0%, 0%)" fill-opacity="1">
<use xlink:href="#glyph-4-1" x="59.455" y="7.125"/>
</g>
<g fill="rgb(0%, 0%, 0%)" fill-opacity="1">
<use xlink:href="#glyph-3-2" x="54.705" y="10.398"/>
</g>
<g fill="rgb(0%, 0%, 0%)" fill-opacity="1">
<use xlink:href="#glyph-4-2" x="53.914" y="33.849"/>
</g>
<g fill="rgb(0%, 0%, 0%)" fill-opacity="1">
<use xlink:href="#glyph-5-1" x="56.797" y="33.849"/>
<use xlink:href="#glyph-5-2" x="63.383491" y="33.849"/>
</g>
<g fill="rgb(0%, 0%, 0%)" fill-opacity="1">
<use xlink:href="#glyph-0-3" x="69.436" y="20.762"/>
</g>
<g fill="rgb(0%, 0%, 0%)" fill-opacity="1">
<use xlink:href="#glyph-4-2" x="76.104" y="22.398"/>
</g>
<g fill="rgb(0%, 0%, 0%)" fill-opacity="1">
<use xlink:href="#glyph-3-3" x="79.485" y="2.107"/>
</g>
<g fill="rgb(0%, 0%, 0%)" fill-opacity="1">
<use xlink:href="#glyph-6-1" x="89.939" y="20.762"/>
</g>
</svg>
