<?xml version="1.0" encoding="UTF-8"?>
<svg xmlns="http://www.w3.org/2000/svg" xmlns:xlink="http://www.w3.org/1999/xlink" width="37.568" height="41.648" viewBox="0 0 37.568 41.648">
<defs>
<g>
<g id="glyph-0-0">
</g>
<g id="glyph-0-1">
<path d="M 4.078125 19.296875 C 4.3125 19.296875 4.390625 19.296875 4.390625 19.15625 C 4.40625 11.5 5.296875 5.15625 9.109375 -0.171875 C 9.1875 -0.265625 9.1875 -0.296875 9.1875 -0.3125 C 9.1875 -0.421875 9.109375 -0.421875 8.9375 -0.421875 C 8.75 -0.421875 8.734375 -0.421875 8.71875 -0.40625 C 8.671875 -0.375 7.28125 1.21875 6.1875 3.40625 C 4.75 6.296875 3.84375 9.59375 3.4375 13.5625 C 3.40625 13.90625 3.171875 16.171875 3.171875 18.765625 L 3.171875 19.1875 C 3.1875 19.296875 3.25 19.296875 3.484375 19.296875 Z M 4.078125 19.296875 "/>
</g>
<g id="glyph-0-2">
<path d="M 3.484375 -0.546875 C 3.25 -0.546875 3.1875 -0.546875 3.171875 -0.421875 L 3.171875 0 C 3.171875 6.65625 4.359375 10.5625 4.703125 11.671875 C 5.4375 14.09375 6.65625 16.640625 8.46875 18.890625 C 8.640625 19.078125 8.6875 19.140625 8.71875 19.15625 C 8.75 19.171875 8.75 19.1875 8.9375 19.1875 C 9.109375 19.1875 9.1875 19.1875 9.1875 19.078125 C 9.1875 19.046875 9.1875 19.03125 9.125 18.9375 C 5.484375 13.890625 4.390625 7.828125 4.390625 -0.390625 C 4.390625 -0.546875 4.3125 -0.546875 4.078125 -0.546875 Z M 3.484375 -0.546875 "/>
</g>
<g id="glyph-0-3">
<path d="M 6.359375 18.765625 C 6.359375 12.09375 5.171875 8.1875 4.828125 7.09375 C 4.09375 4.671875 2.875 2.109375 1.0625 -0.125 C 0.890625 -0.328125 0.84375 -0.375 0.8125 -0.40625 C 0.78125 -0.421875 0.78125 -0.421875 0.59375 -0.421875 C 0.4375 -0.421875 0.34375 -0.421875 0.34375 -0.3125 C 0.34375 -0.296875 0.34375 -0.265625 0.484375 -0.078125 C 4.28125 5.21875 5.140625 11.765625 5.140625 19.15625 C 5.140625 19.296875 5.21875 19.296875 5.453125 19.296875 L 6.046875 19.296875 C 6.28125 19.296875 6.34375 19.296875 6.359375 19.1875 Z M 6.359375 18.765625 "/>
</g>
<g id="glyph-0-4">
<path d="M 6.359375 -0.421875 C 6.34375 -0.546875 6.28125 -0.546875 6.046875 -0.546875 L 5.453125 -0.546875 C 5.21875 -0.546875 5.140625 -0.546875 5.140625 -0.390625 C 5.140625 0.734375 5.140625 3.328125 4.859375 6.046875 C 4.265625 11.6875 2.8125 15.578125 0.421875 18.9375 C 0.34375 19.03125 0.34375 19.046875 0.34375 19.078125 C 0.34375 19.1875 0.4375 19.1875 0.59375 19.1875 C 0.78125 19.1875 0.796875 19.1875 0.8125 19.15625 C 0.859375 19.125 2.25 17.53125 3.34375 15.34375 C 4.78125 12.46875 5.6875 9.15625 6.09375 5.1875 C 6.125 4.859375 6.359375 2.578125 6.359375 0 Z M 6.359375 -0.421875 "/>
</g>
<g id="glyph-1-0">
</g>
<g id="glyph-1-1">
<path d="M 7.03125 -7.578125 C 7.03125 -7.609375 7.015625 -7.6875 6.921875 -7.6875 C 6.859375 -7.6875 6.84375 -7.671875 6.71875 -7.53125 L 6.1875 -6.90625 C 5.90625 -7.421875 5.34375 -7.6875 4.640625 -7.6875 C 3.25 -7.6875 1.9375 -6.4375 1.9375 -5.109375 C 1.9375 -4.234375 2.515625 -3.734375 3.078125 -3.5625 L 4.25 -3.265625 C 4.640625 -3.15625 5.25 -3 5.25 -2.109375 C 5.25 -1.125 4.359375 -0.09375 3.28125 -0.09375 C 2.578125 -0.09375 1.375 -0.34375 1.375 -1.6875 C 1.375 -1.953125 1.421875 -2.21875 1.4375 -2.28125 C 1.453125 -2.328125 1.46875 -2.328125 1.46875 -2.359375 C 1.46875 -2.46875 1.390625 -2.46875 1.328125 -2.46875 C 1.28125 -2.46875 1.25 -2.46875 1.21875 -2.4375 C 1.171875 -2.390625 0.5625 0.09375 0.5625 0.125 C 0.5625 0.203125 0.625 0.234375 0.6875 0.234375 C 0.734375 0.234375 0.75 0.234375 0.890625 0.078125 L 1.421875 -0.546875 C 1.890625 0.09375 2.625 0.234375 3.265625 0.234375 C 4.75 0.234375 6.03125 -1.203125 6.03125 -2.5625 C 6.03125 -3.3125 5.65625 -3.6875 5.5 -3.84375 C 5.25 -4.09375 5.078125 -4.140625 4.109375 -4.390625 C 3.875 -4.453125 3.484375 -4.5625 3.375 -4.578125 C 3.09375 -4.671875 2.71875 -5 2.71875 -5.578125 C 2.71875 -6.453125 3.59375 -7.390625 4.625 -7.390625 C 5.53125 -7.390625 6.1875 -6.921875 6.1875 -5.6875 C 6.1875 -5.34375 6.15625 -5.140625 6.15625 -5.078125 C 6.15625 -5.078125 6.15625 -4.96875 6.28125 -4.96875 C 6.390625 -4.96875 6.40625 -5 6.453125 -5.1875 Z M 7.03125 -7.578125 "/>
</g>
<g id="glyph-1-2">
<path d="M 3.203125 -4.0625 L 5.03125 -4.0625 C 5.1875 -4.0625 5.578125 -4.0625 5.578125 -4.4375 C 5.578125 -4.703125 5.34375 -4.703125 5.140625 -4.703125 L 2.078125 -4.703125 C 1.859375 -4.703125 1.4375 -4.703125 0.953125 -4.1875 C 0.59375 -3.796875 0.296875 -3.265625 0.296875 -3.203125 C 0.296875 -3.203125 0.296875 -3.09375 0.421875 -3.09375 C 0.515625 -3.09375 0.53125 -3.140625 0.59375 -3.234375 C 1.140625 -4.0625 1.75 -4.0625 1.984375 -4.0625 L 2.890625 -4.0625 L 1.828125 -0.5625 C 1.78125 -0.4375 1.71875 -0.203125 1.71875 -0.15625 C 1.71875 -0.046875 1.78125 0.125 2.03125 0.125 C 2.390625 0.125 2.4375 -0.171875 2.46875 -0.34375 Z M 3.203125 -4.0625 "/>
</g>
<g id="glyph-1-3">
<path d="M 4.09375 -6.703125 C 4.15625 -6.953125 4.1875 -7.0625 4.390625 -7.09375 C 4.5 -7.109375 4.84375 -7.109375 5.0625 -7.109375 C 5.828125 -7.109375 7.046875 -7.109375 7.046875 -6.03125 C 7.046875 -5.65625 6.875 -4.90625 6.453125 -4.484375 C 6.15625 -4.203125 5.578125 -3.84375 4.609375 -3.84375 L 3.375 -3.84375 Z M 5.65625 -3.703125 C 6.765625 -3.953125 8.0625 -4.71875 8.0625 -5.8125 C 8.0625 -6.75 7.078125 -7.453125 5.65625 -7.453125 L 2.546875 -7.453125 C 2.328125 -7.453125 2.21875 -7.453125 2.21875 -7.234375 C 2.21875 -7.109375 2.328125 -7.109375 2.53125 -7.109375 C 2.546875 -7.109375 2.765625 -7.109375 2.9375 -7.09375 C 3.140625 -7.0625 3.234375 -7.0625 3.234375 -6.921875 C 3.234375 -6.875 3.234375 -6.84375 3.203125 -6.703125 L 1.734375 -0.84375 C 1.625 -0.421875 1.609375 -0.34375 0.734375 -0.34375 C 0.546875 -0.34375 0.453125 -0.34375 0.453125 -0.125 C 0.453125 0 0.578125 0 0.59375 0 C 0.90625 0 1.671875 -0.03125 1.96875 -0.03125 C 2.28125 -0.03125 3.046875 0 3.359375 0 C 3.453125 0 3.578125 0 3.578125 -0.21875 C 3.578125 -0.34375 3.484375 -0.34375 3.265625 -0.34375 C 2.875 -0.34375 2.5625 -0.34375 2.5625 -0.53125 C 2.5625 -0.59375 2.578125 -0.65625 2.59375 -0.71875 L 3.3125 -3.609375 L 4.609375 -3.609375 C 5.609375 -3.609375 5.796875 -3 5.796875 -2.625 C 5.796875 -2.453125 5.71875 -2.109375 5.65625 -1.859375 C 5.578125 -1.5625 5.46875 -1.15625 5.46875 -0.9375 C 5.46875 0.234375 6.78125 0.234375 6.921875 0.234375 C 7.859375 0.234375 8.234375 -0.859375 8.234375 -1.015625 C 8.234375 -1.140625 8.109375 -1.140625 8.109375 -1.140625 C 8 -1.140625 7.984375 -1.0625 7.96875 -1 C 7.6875 -0.1875 7.21875 0 6.96875 0 C 6.609375 0 6.53125 -0.234375 6.53125 -0.671875 C 6.53125 -1 6.59375 -1.5625 6.640625 -1.90625 C 6.65625 -2.0625 6.6875 -2.265625 6.6875 -2.421875 C 6.6875 -3.265625 5.953125 -3.59375 5.65625 -3.703125 Z M 5.65625 -3.703125 "/>
</g>
<g id="glyph-2-0">
</g>
<g id="glyph-2-1">
<path d="M 2.25 -1.625 C 2.375 -1.75 2.703125 -2.015625 2.84375 -2.125 C 3.328125 -2.578125 3.796875 -3.015625 3.796875 -3.734375 C 3.796875 -4.6875 3 -5.296875 2.015625 -5.296875 C 1.046875 -5.296875 0.421875 -4.578125 0.421875 -3.859375 C 0.421875 -3.46875 0.734375 -3.421875 0.84375 -3.421875 C 1.015625 -3.421875 1.265625 -3.53125 1.265625 -3.84375 C 1.265625 -4.25 0.859375 -4.25 0.765625 -4.25 C 1 -4.84375 1.53125 -5.03125 1.921875 -5.03125 C 2.65625 -5.03125 3.046875 -4.40625 3.046875 -3.734375 C 3.046875 -2.90625 2.46875 -2.296875 1.515625 -1.34375 L 0.515625 -0.296875 C 0.421875 -0.21875 0.421875 -0.203125 0.421875 0 L 3.5625 0 L 3.796875 -1.421875 L 3.546875 -1.421875 C 3.53125 -1.265625 3.46875 -0.875 3.375 -0.71875 C 3.328125 -0.65625 2.71875 -0.65625 2.59375 -0.65625 L 1.171875 -0.65625 Z M 2.25 -1.625 "/>
</g>
<g id="glyph-3-0">
</g>
<g id="glyph-3-1">
<path d="M 1.609375 -1.8125 C 1.78125 -1.8125 2.375 -1.828125 2.796875 -1.96875 C 3.484375 -2.21875 3.515625 -2.6875 3.515625 -2.8125 C 3.515625 -3.265625 3.09375 -3.515625 2.578125 -3.515625 C 1.671875 -3.515625 0.390625 -2.8125 0.390625 -1.390625 C 0.390625 -0.578125 0.890625 0.078125 1.765625 0.078125 C 3 0.078125 3.671875 -0.71875 3.671875 -0.828125 C 3.671875 -0.90625 3.59375 -0.953125 3.546875 -0.953125 C 3.5 -0.953125 3.46875 -0.9375 3.4375 -0.890625 C 2.8125 -0.140625 1.90625 -0.140625 1.78125 -0.140625 C 1.1875 -0.140625 1.015625 -0.640625 1.015625 -1.078125 C 1.015625 -1.328125 1.09375 -1.6875 1.125 -1.8125 Z M 1.1875 -2.046875 C 1.4375 -3.015625 2.171875 -3.296875 2.578125 -3.296875 C 2.890625 -3.296875 3.203125 -3.125 3.203125 -2.8125 C 3.203125 -2.046875 1.890625 -2.046875 1.546875 -2.046875 Z M 1.1875 -2.046875 "/>
</g>
<g id="glyph-3-2">
<path d="M 4 -3.171875 C 3.640625 -3.09375 3.625 -2.78125 3.625 -2.75 C 3.625 -2.578125 3.765625 -2.453125 3.9375 -2.453125 C 4.109375 -2.453125 4.375 -2.59375 4.375 -2.9375 C 4.375 -3.390625 3.875 -3.515625 3.578125 -3.515625 C 3.21875 -3.515625 2.90625 -3.25 2.71875 -2.9375 C 2.546875 -3.359375 2.140625 -3.515625 1.8125 -3.515625 C 0.9375 -3.515625 0.453125 -2.515625 0.453125 -2.296875 C 0.453125 -2.21875 0.515625 -2.1875 0.578125 -2.1875 C 0.671875 -2.1875 0.6875 -2.234375 0.703125 -2.328125 C 0.890625 -2.90625 1.375 -3.296875 1.78125 -3.296875 C 2.09375 -3.296875 2.25 -3.0625 2.25 -2.78125 C 2.25 -2.625 2.15625 -2.25 2.09375 -2 C 2.03125 -1.765625 1.859375 -1.0625 1.8125 -0.90625 C 1.703125 -0.484375 1.421875 -0.140625 1.0625 -0.140625 C 1.03125 -0.140625 0.828125 -0.140625 0.65625 -0.25 C 1.015625 -0.34375 1.015625 -0.671875 1.015625 -0.6875 C 1.015625 -0.875 0.875 -0.984375 0.703125 -0.984375 C 0.484375 -0.984375 0.25 -0.796875 0.25 -0.5 C 0.25 -0.125 0.640625 0.078125 1.046875 0.078125 C 1.46875 0.078125 1.765625 -0.234375 1.90625 -0.5 C 2.09375 -0.109375 2.453125 0.078125 2.84375 0.078125 C 3.703125 0.078125 4.1875 -0.921875 4.1875 -1.140625 C 4.1875 -1.21875 4.125 -1.25 4.0625 -1.25 C 3.96875 -1.25 3.953125 -1.1875 3.921875 -1.109375 C 3.765625 -0.578125 3.3125 -0.140625 2.859375 -0.140625 C 2.59375 -0.140625 2.40625 -0.3125 2.40625 -0.65625 C 2.40625 -0.8125 2.453125 -1 2.5625 -1.4375 C 2.609375 -1.6875 2.78125 -2.375 2.828125 -2.53125 C 2.9375 -2.953125 3.21875 -3.296875 3.578125 -3.296875 C 3.625 -3.296875 3.828125 -3.296875 4 -3.171875 Z M 4 -3.171875 "/>
</g>
</g>
</defs>
<g fill="rgb(0%, 0%, 0%)" fill-opacity="1">
<use xlink:href="#glyph-0-1" x="0.5" y="1.624"/>
</g>
<g fill="rgb(0%, 0%, 0%)" fill-opacity="1">
<use xlink:href="#glyph-0-2" x="0.5" y="21.261"/>
</g>
<g fill="rgb(0%, 0%, 0%)" fill-opacity="1">
<use xlink:href="#glyph-1-1" x="12.759" y="9.985"/>
</g>
<g fill="rgb(0%, 0%, 0%)" fill-opacity="1">
<use xlink:href="#glyph-2-1" x="20.077" y="6.026"/>
</g>
<g fill="rgb(0%, 0%, 0%)" fill-opacity="1">
<use xlink:href="#glyph-1-2" x="14.186" y="23.534"/>
</g>
<g fill="rgb(0%, 0%, 0%)" fill-opacity="1">
<use xlink:href="#glyph-3-1" x="18.955" y="25.17"/>
</g>
<g fill="rgb(0%, 0%, 0%)" fill-opacity="1">
<use xlink:href="#glyph-1-3" x="10.045" y="37.083"/>
</g>
<g fill="rgb(0%, 0%, 0%)" fill-opacity="1">
<use xlink:href="#glyph-3-1" x="18.329" y="38.72"/>
<use xlink:href="#glyph-3-2" x="22.257462" y="38.72"/>
</g>
<g fill="rgb(0%, 0%, 0%)" fill-opacity="1">
<use xlink:href="#glyph-0-3" x="27.522" y="1.624"/>
</g>
<g fill="rgb(0%, 0%, 0%)" fill-opacity="1">
<use xlink:href="#glyph-0-4" x="27.522" y="21.261"/>
</g>
</svg>
