<?xml version="1.0" encoding="UTF-8"?>
<svg xmlns="http://www.w3.org/2000/svg" xmlns:xlink="http://www.w3.org/1999/xlink" width="35.186" height="151.547" viewBox="0 0 35.186 151.547">
<defs>
<g>
<g id="glyph-0-0">
</g>
<g id="glyph-0-1">
<path d="M 4.078125 19.296875 C 4.3125 19.296875 4.390625 19.296875 4.390625 19.15625 C 4.40625 11.5 5.296875 5.15625 9.109375 -0.171875 C 9.1875 -0.265625 9.1875 -0.296875 9.1875 -0.3125 C 9.1875 -0.421875 9.109375 -0.421875 8.9375 -0.421875 C 8.75 -0.421875 8.734375 -0.421875 8.71875 -0.40625 C 8.671875 -0.375 7.28125 1.21875 6.1875 3.40625 C 4.75 6.296875 3.84375 9.59375 3.4375 13.5625 C 3.40625 13.90625 3.171875 16.171875 3.171875 18.765625 L 3.171875 19.1875 C 3.1875 19.296875 3.25 19.296875 3.484375 19.296875 Z M 4.078125 19.296875 "/>
</g>
<g id="glyph-0-2">
<path d="M 4.390625 0.1875 C 4.390625 -0.09375 4.375 -0.109375 4.078125 -0.109375 L 3.484375 -0.109375 C 3.1875 -0.109375 3.171875 -0.09375 3.171875 0.1875 L 3.171875 6.359375 C 3.171875 6.640625 3.1875 6.65625 3.484375 6.65625 L 4.078125 6.65625 C 4.375 6.65625 4.390625 6.640625 4.390625 6.359375 Z M 4.390625 0.1875 "/>
</g>
<g id="glyph-0-3">
<path d="M 3.484375 -0.546875 C 3.25 -0.546875 3.1875 -0.546875 3.171875 -0.421875 L 3.171875 0 C 3.171875 6.65625 4.359375 10.5625 4.703125 11.671875 C 5.4375 14.09375 6.65625 16.640625 8.46875 18.890625 C 8.640625 19.078125 8.6875 19.140625 8.71875 19.15625 C 8.75 19.171875 8.75 19.1875 8.9375 19.1875 C 9.109375 19.1875 9.1875 19.1875 9.1875 19.078125 C 9.1875 19.046875 9.1875 19.03125 9.125 18.9375 C 5.484375 13.890625 4.390625 7.828125 4.390625 -0.390625 C 4.390625 -0.546875 4.3125 -0.546875 4.078125 -0.546875 Z M 3.484375 -0.546875 "/>
</g>
<g id="glyph-0-4">
<path d="M 6.359375 18.765625 C 6.359375 12.09375 5.171875 8.1875 4.828125 7.09375 C 4.09375 4.671875 2.875 2.109375 1.0625 -0.125 C 0.890625 -0.328125 0.84375 -0.375 0.8125 -0.40625 C 0.78125 -0.421875 0.78125 -0.421875 0.59375 -0.421875 C 0.4375 -0.421875 0.34375 -0.421875 0.34375 -0.3125 C 0.34375 -0.296875 0.34375 -0.265625 0.484375 -0.078125 C 4.28125 5.21875 5.140625 11.765625 5.140625 19.15625 C 5.140625 19.296875 5.21875 19.296875 5.453125 19.296875 L 6.046875 19.296875 C 6.28125 19.296875 6.34375 19.296875 6.359375 19.1875 Z M 6.359375 18.765625 "/>
</g>
<g id="glyph-0-5">
<path d="M 6.359375 0.1875 C 6.359375 -0.09375 6.34375 -0.109375 6.046875 -0.109375 L 5.453125 -0.109375 C 5.15625 -0.109375 5.140625 -0.09375 5.140625 0.1875 L 5.140625 6.359375 C 5.140625 6.640625 5.15625 6.65625 5.453125 6.65625 L 6.046875 6.65625 C 6.34375 6.65625 6.359375 6.640625 6.359375 6.359375 Z M 6.359375 0.1875 "/>
</g>
<g id="glyph-0-6">
<path d="M 6.359375 -0.421875 C 6.34375 -0.546875 6.28125 -0.546875 6.046875 -0.546875 L 5.453125 -0.546875 C 5.21875 -0.546875 5.140625 -0.546875 5.140625 -0.390625 C 5.140625 0.734375 5.140625 3.328125 4.859375 6.046875 C 4.265625 11.6875 2.8125 15.578125 0.421875 18.9375 C 0.34375 19.03125 0.34375 19.046875 0.34375 19.078125 C 0.34375 19.1875 0.4375 19.1875 0.59375 19.1875 C 0.78125 19.1875 0.796875 19.1875 0.8125 19.15625 C 0.859375 19.125 2.25 17.53125 3.34375 15.34375 C 4.78125 12.46875 5.6875 9.15625 6.09375 5.1875 C 6.125 4.859375 6.359375 2.578125 6.359375 0 Z M 6.359375 -0.421875 "/>
</g>
<g id="glyph-1-0">
</g>
<g id="glyph-1-1">
<path d="M 5.015625 -3.484375 C 5.015625 -4.359375 4.96875 -5.234375 4.578125 -6.046875 C 4.078125 -7.09375 3.1875 -7.265625 2.71875 -7.265625 C 2.078125 -7.265625 1.28125 -6.984375 0.828125 -5.96875 C 0.484375 -5.21875 0.421875 -4.359375 0.421875 -3.484375 C 0.421875 -2.671875 0.46875 -1.6875 0.921875 -0.859375 C 1.390625 0.015625 2.1875 0.234375 2.71875 0.234375 C 3.296875 0.234375 4.140625 0.015625 4.609375 -1.03125 C 4.96875 -1.78125 5.015625 -2.625 5.015625 -3.484375 Z M 2.71875 0 C 2.296875 0 1.640625 -0.265625 1.453125 -1.3125 C 1.328125 -1.96875 1.328125 -2.984375 1.328125 -3.625 C 1.328125 -4.3125 1.328125 -5.03125 1.421875 -5.625 C 1.625 -6.921875 2.4375 -7.03125 2.71875 -7.03125 C 3.078125 -7.03125 3.796875 -6.828125 4 -5.75 C 4.109375 -5.140625 4.109375 -4.3125 4.109375 -3.625 C 4.109375 -2.796875 4.109375 -2.0625 3.984375 -1.359375 C 3.828125 -0.328125 3.203125 0 2.71875 0 Z M 2.71875 0 "/>
</g>
<g id="glyph-2-0">
</g>
<g id="glyph-2-1">
<path d="M 7.1875 -2.515625 C 7.375 -2.515625 7.5625 -2.515625 7.5625 -2.71875 C 7.5625 -2.9375 7.375 -2.9375 7.1875 -2.9375 L 1.28125 -2.9375 C 1.09375 -2.9375 0.90625 -2.9375 0.90625 -2.71875 C 0.90625 -2.515625 1.09375 -2.515625 1.28125 -2.515625 Z M 7.1875 -2.515625 "/>
</g>
<g id="glyph-3-0">
</g>
<g id="glyph-3-1">
<path d="M 2.890625 -4.0625 L 4.125 -4.0625 C 3.765625 -2.453125 3.671875 -1.984375 3.671875 -1.25 C 3.671875 -1.09375 3.671875 -0.796875 3.75 -0.421875 C 3.859375 0.046875 3.984375 0.125 4.140625 0.125 C 4.359375 0.125 4.59375 -0.078125 4.59375 -0.296875 C 4.59375 -0.359375 4.59375 -0.375 4.53125 -0.53125 C 4.203125 -1.3125 4.203125 -2.03125 4.203125 -2.328125 C 4.203125 -2.90625 4.28125 -3.5 4.40625 -4.0625 L 5.65625 -4.0625 C 5.796875 -4.0625 6.1875 -4.0625 6.1875 -4.4375 C 6.1875 -4.703125 5.953125 -4.703125 5.75 -4.703125 L 2.09375 -4.703125 C 1.859375 -4.703125 1.4375 -4.703125 0.953125 -4.1875 C 0.578125 -3.765625 0.296875 -3.265625 0.296875 -3.203125 C 0.296875 -3.203125 0.296875 -3.09375 0.421875 -3.09375 C 0.515625 -3.09375 0.53125 -3.140625 0.59375 -3.234375 C 1.140625 -4.0625 1.765625 -4.0625 1.984375 -4.0625 L 2.609375 -4.0625 C 2.25 -2.75 1.671875 -1.421875 1.203125 -0.4375 C 1.125 -0.265625 1.125 -0.25 1.125 -0.171875 C 1.125 0.03125 1.296875 0.125 1.4375 0.125 C 1.765625 0.125 1.859375 -0.1875 1.984375 -0.59375 C 2.140625 -1.09375 2.140625 -1.109375 2.28125 -1.65625 Z M 2.890625 -4.0625 "/>
</g>
</g>
<clipPath id="clip-0">
<path clip-rule="nonzero" d="M 3 131 L 10 131 L 10 151.546875 L 3 151.546875 Z M 3 131 "/>
</clipPath>
<clipPath id="clip-1">
<path clip-rule="nonzero" d="M 25 131 L 32 131 L 32 151.546875 L 25 151.546875 Z M 25 131 "/>
</clipPath>
</defs>
<g fill="rgb(0%, 0%, 0%)" fill-opacity="1">
<use xlink:href="#glyph-0-1" x="0.5" y="0.937"/>
</g>
<g fill="rgb(0%, 0%, 0%)" fill-opacity="1">
<use xlink:href="#glyph-0-2" x="0.5" y="20.137"/>
</g>
<g fill="rgb(0%, 0%, 0%)" fill-opacity="1">
<use xlink:href="#glyph-0-2" x="0.5" y="26.682"/>
</g>
<g fill="rgb(0%, 0%, 0%)" fill-opacity="1">
<use xlink:href="#glyph-0-2" x="0.5" y="33.228"/>
</g>
<g fill="rgb(0%, 0%, 0%)" fill-opacity="1">
<use xlink:href="#glyph-0-2" x="0.5" y="39.773"/>
</g>
<g fill="rgb(0%, 0%, 0%)" fill-opacity="1">
<use xlink:href="#glyph-0-2" x="0.5" y="46.319"/>
</g>
<g fill="rgb(0%, 0%, 0%)" fill-opacity="1">
<use xlink:href="#glyph-0-2" x="0.5" y="52.864"/>
</g>
<g fill="rgb(0%, 0%, 0%)" fill-opacity="1">
<use xlink:href="#glyph-0-2" x="0.5" y="59.41"/>
</g>
<g fill="rgb(0%, 0%, 0%)" fill-opacity="1">
<use xlink:href="#glyph-0-2" x="0.5" y="65.955"/>
</g>
<g fill="rgb(0%, 0%, 0%)" fill-opacity="1">
<use xlink:href="#glyph-0-2" x="0.5" y="72.501"/>
</g>
<g fill="rgb(0%, 0%, 0%)" fill-opacity="1">
<use xlink:href="#glyph-0-2" x="0.5" y="79.046"/>
</g>
<g fill="rgb(0%, 0%, 0%)" fill-opacity="1">
<use xlink:href="#glyph-0-2" x="0.5" y="85.592"/>
</g>
<g fill="rgb(0%, 0%, 0%)" fill-opacity="1">
<use xlink:href="#glyph-0-2" x="0.5" y="92.137"/>
</g>
<g fill="rgb(0%, 0%, 0%)" fill-opacity="1">
<use xlink:href="#glyph-0-2" x="0.5" y="98.683"/>
</g>
<g fill="rgb(0%, 0%, 0%)" fill-opacity="1">
<use xlink:href="#glyph-0-2" x="0.5" y="105.228"/>
</g>
<g fill="rgb(0%, 0%, 0%)" fill-opacity="1">
<use xlink:href="#glyph-0-2" x="0.5" y="111.774"/>
</g>
<g fill="rgb(0%, 0%, 0%)" fill-opacity="1">
<use xlink:href="#glyph-0-2" x="0.5" y="118.319"/>
</g>
<g fill="rgb(0%, 0%, 0%)" fill-opacity="1">
<use xlink:href="#glyph-0-2" x="0.5" y="124.865"/>
</g>
<g clip-path="url(#clip-0)">
<g fill="rgb(0%, 0%, 0%)" fill-opacity="1">
<use xlink:href="#glyph-0-3" x="0.5" y="131.847"/>
</g>
</g>
<g fill="rgb(0%, 0%, 0%)" fill-opacity="1">
<use xlink:href="#glyph-1-1" x="14.866" y="10.738"/>
</g>
<g fill="rgb(0%, 0%, 0%)" fill-opacity="1">
<use xlink:href="#glyph-2-1" x="10.045" y="24.287"/>
</g>
<g fill="rgb(0%, 0%, 0%)" fill-opacity="1">
<use xlink:href="#glyph-3-1" x="18.53" y="24.287"/>
</g>
<g fill="rgb(0%, 0%, 0%)" fill-opacity="1">
<use xlink:href="#glyph-1-1" x="14.866" y="37.836"/>
</g>
<g fill="rgb(0%, 0%, 0%)" fill-opacity="1">
<use xlink:href="#glyph-2-1" x="10.045" y="51.385"/>
</g>
<g fill="rgb(0%, 0%, 0%)" fill-opacity="1">
<use xlink:href="#glyph-3-1" x="18.53" y="51.385"/>
</g>
<g fill="rgb(0%, 0%, 0%)" fill-opacity="1">
<use xlink:href="#glyph-1-1" x="14.866" y="64.934"/>
</g>
<g fill="rgb(0%, 0%, 0%)" fill-opacity="1">
<use xlink:href="#glyph-1-1" x="14.866" y="78.483"/>
</g>
<g fill="rgb(0%, 0%, 0%)" fill-opacity="1">
<use xlink:href="#glyph-2-1" x="10.045" y="92.033"/>
</g>
<g fill="rgb(0%, 0%, 0%)" fill-opacity="1">
<use xlink:href="#glyph-3-1" x="18.53" y="92.033"/>
</g>
<g fill="rgb(0%, 0%, 0%)" fill-opacity="1">
<use xlink:href="#glyph-1-1" x="14.866" y="105.582"/>
</g>
<g fill="rgb(0%, 0%, 0%)" fill-opacity="1">
<use xlink:href="#glyph-2-1" x="10.045" y="119.131"/>
</g>
<g fill="rgb(0%, 0%, 0%)" fill-opacity="1">
<use xlink:href="#glyph-3-1" x="18.53" y="119.131"/>
</g>
<g fill="rgb(0%, 0%, 0%)" fill-opacity="1">
<use xlink:href="#glyph-1-1" x="14.866" y="132.68"/>
</g>
<g fill="rgb(0%, 0%, 0%)" fill-opacity="1">
<use xlink:href="#glyph-2-1" x="10.045" y="146.229"/>
</g>
<g fill="rgb(0%, 0%, 0%)" fill-opacity="1">
<use xlink:href="#glyph-3-1" x="18.53" y="146.229"/>
</g>
<g fill="rgb(0%, 0%, 0%)" fill-opacity="1">
<use xlink:href="#glyph-0-4" x="25.14" y="0.937"/>
</g>
<g fill="rgb(0%, 0%, 0%)" fill-opacity="1">
<use xlink:href="#glyph-0-5" x="25.14" y="20.137"/>
</g>
<g fill="rgb(0%, 0%, 0%)" fill-opacity="1">
<use xlink:href="#glyph-0-5" x="25.14" y="26.682"/>
</g>
<g fill="rgb(0%, 0%, 0%)" fill-opacity="1">
<use xlink:href="#glyph-0-5" x="25.14" y="33.228"/>
</g>
<g fill="rgb(0%, 0%, 0%)" fill-opacity="1">
<use xlink:href="#glyph-0-5" x="25.14" y="39.773"/>
</g>
<g fill="rgb(0%, 0%, 0%)" fill-opacity="1">
<use xlink:href="#glyph-0-5" x="25.14" y="46.319"/>
</g>
<g fill="rgb(0%, 0%, 0%)" fill-opacity="1">
<use xlink:href="#glyph-0-5" x="25.14" y="52.864"/>
</g>
<g fill="rgb(0%, 0%, 0%)" fill-opacity="1">
<use xlink:href="#glyph-0-5" x="25.14" y="59.41"/>
</g>
<g fill="rgb(0%, 0%, 0%)" fill-opacity="1">
<use xlink:href="#glyph-0-5" x="25.14" y="65.955"/>
</g>
<g fill="rgb(0%, 0%, 0%)" fill-opacity="1">
<use xlink:href="#glyph-0-5" x="25.14" y="72.501"/>
</g>
<g fill="rgb(0%, 0%, 0%)" fill-opacity="1">
<use xlink:href="#glyph-0-5" x="25.14" y="79.046"/>
</g>
<g fill="rgb(0%, 0%, 0%)" fill-opacity="1">
<use xlink:href="#glyph-0-5" x="25.14" y="85.592"/>
</g>
<g fill="rgb(0%, 0%, 0%)" fill-opacity="1">
<use xlink:href="#glyph-0-5" x="25.14" y="92.137"/>
</g>
<g fill="rgb(0%, 0%, 0%)" fill-opacity="1">
<use xlink:href="#glyph-0-5" x="25.14" y="98.683"/>
</g>
<g fill="rgb(0%, 0%, 0%)" fill-opacity="1">
<use xlink:href="#glyph-0-5" x="25.14" y="105.228"/>
</g>
<g fill="rgb(0%, 0%, 0%)" fill-opacity="1">
<use xlink:href="#glyph-0-5" x="25.14" y="111.774"/>
</g>
<g fill="rgb(0%, 0%, 0%)" fill-opacity="1">
<use xlink:href="#glyph-0-5" x="25.14" y="118.319"/>
</g>
<g fill="rgb(0%, 0%, 0%)" fill-opacity="1">
<use xlink:href="#glyph-0-5" x="25.14" y="124.865"/>
</g>
<g clip-path="url(#clip-1)">
<g fill="rgb(0%, 0%, 0%)" fill-opacity="1">
<use xlink:href="#glyph-0-6" x="25.14" y="131.847"/>
</g>
</g>
</svg>
