<?xml version="1.0" encoding="UTF-8"?>
<svg xmlns="http://www.w3.org/2000/svg" xmlns:xlink="http://www.w3.org/1999/xlink" width="9.636" height="33.728" viewBox="0 0 9.636 33.728">
<defs>
<g>
<g id="glyph-0-0">
</g>
<g id="glyph-0-1">
<path d="M 8.25 32.15625 C 8.25 32.125 8.25 32.109375 8.1875 32.03125 C 7.140625 30.765625 6.265625 29.375 5.625 27.859375 C 4.203125 24.515625 3.625 20.609375 3.625 15.921875 C 3.625 11.28125 4.171875 7.203125 5.78125 3.625 C 6.40625 2.234375 7.234375 0.953125 8.21875 -0.234375 C 8.234375 -0.265625 8.25 -0.28125 8.25 -0.328125 C 8.25 -0.4375 8.171875 -0.4375 8.015625 -0.4375 C 7.859375 -0.4375 7.828125 -0.4375 7.8125 -0.421875 C 7.796875 -0.40625 7.125 0.25 6.265625 1.453125 C 4.375 4.140625 3.40625 7.34375 2.921875 10.59375 C 2.65625 12.34375 2.578125 14.140625 2.578125 15.90625 C 2.578125 19.984375 3.09375 24.15625 4.828125 27.890625 C 5.609375 29.546875 6.640625 31.046875 7.71875 32.171875 C 7.8125 32.265625 7.828125 32.265625 8.015625 32.265625 C 8.171875 32.265625 8.25 32.265625 8.25 32.15625 Z M 8.25 32.15625 "/>
</g>
</g>
<clipPath id="clip-0">
<path clip-rule="nonzero" d="M 3 0 L 9 0 L 9 33.726562 L 3 33.726562 Z M 3 0 "/>
</clipPath>
</defs>
<g clip-path="url(#clip-0)">
<g fill="rgb(0%, 0%, 0%)" fill-opacity="1">
<use xlink:href="#glyph-0-1" x="0.5" y="0.937"/>
</g>
</g>
</svg>
