<?xml version="1.0" encoding="UTF-8"?>
<svg xmlns="http://www.w3.org/2000/svg" xmlns:xlink="http://www.w3.org/1999/xlink" width="57.358" height="8.543" viewBox="0 0 57.358 8.543">
<defs>
<g>
<g id="glyph-0-0">
</g>
<g id="glyph-0-1">
<path d="M 4.015625 -6.09375 C 3.265625 -5.703125 2.328125 -5.078125 2.328125 -4.234375 C 2.328125 -4.03125 2.828125 -3.390625 2.90625 -3.296875 C 3.109375 -3.078125 3.265625 -2.796875 3.265625 -2.5 C 3.265625 -1.765625 2.21875 -1.453125 1.515625 -1.453125 C 1.03125 -1.046875 0.625 -0.5625 0.34375 0 L 0.53125 0.171875 C 0.78125 -0.234375 1.1875 -0.703125 1.6875 -0.703125 C 2.375 -0.703125 3.203125 -0.359375 3.890625 -0.09375 C 4.25 0.046875 4.890625 0.296875 5.109375 0.296875 C 5.765625 0.296875 6.84375 -0.84375 7.53125 -1.609375 C 7.90625 -2.578125 8.140625 -3.421875 8.140625 -4.46875 C 8.140625 -5.765625 7.234375 -6.953125 6.015625 -7.3125 C 5.296875 -7.5 4.734375 -7.53125 4.0625 -7.53125 C 3.078125 -7.53125 1.9375 -7.171875 1.21875 -6.46875 C 0.578125 -5.828125 0.296875 -5.015625 0.296875 -4.125 L 0.53125 -4 C 0.5625 -4.640625 0.78125 -5.359375 1.25 -5.84375 C 1.890625 -6.5 2.875 -6.671875 3.78125 -6.671875 C 4.796875 -6.671875 5.828125 -6.421875 6.5625 -5.6875 C 7.125 -5.125 7.3125 -4.3125 7.3125 -3.546875 C 7.3125 -2.828125 7.234375 -2.03125 6.859375 -1.453125 C 6.484375 -0.890625 6.28125 -0.53125 5.578125 -0.53125 C 5.359375 -0.53125 4.5625 -0.8125 4.09375 -1 C 3.625 -1.15625 3.09375 -1.328125 2.625 -1.421875 C 3.296875 -1.71875 4.25 -2.234375 4.25 -3.015625 C 4.25 -3.546875 3.265625 -4.390625 3.265625 -4.828125 C 3.265625 -5.234375 3.90625 -5.796875 4.1875 -5.984375 Z M 4.015625 -6.09375 "/>
</g>
<g id="glyph-0-2">
<path d="M 7.328125 -6.609375 L 7.28125 -6.859375 C 7.125 -6.703125 6.953125 -6.625 6.796875 -6.625 C 6.328125 -6.625 5.90625 -7.09375 5.6875 -7.546875 L 4.953125 -6.84375 C 5.046875 -6.40625 5.5625 -6.015625 6.078125 -5.828125 C 5.765625 -5.515625 5.265625 -5.140625 4.90625 -4.890625 L 4.359375 -4.609375 C 4.25 -5.046875 4.0625 -5.8125 4.0625 -6.09375 C 4.0625 -6.5 4.359375 -6.828125 4.640625 -7.078125 L 4.53125 -7.203125 L 3.3125 -6.375 L 2.96875 -6.546875 C 2.3125 -6.234375 1.75 -5.875 1.203125 -5.46875 C 0.890625 -4.828125 0.71875 -4.1875 0.71875 -3.484375 C 0.71875 -2.4375 0.890625 -1.390625 1.640625 -0.65625 C 2.203125 -0.09375 3.21875 0.265625 4.15625 0.265625 C 4.5 0.265625 4.71875 0.203125 5.0625 0.09375 L 6.734375 -1.046875 C 7.34375 -1.640625 7.75 -2.4375 7.75 -3.296875 C 7.75 -3.796875 7.5 -4.265625 7.140625 -4.5625 C 6.953125 -4.71875 6.515625 -4.96875 5.90625 -4.96875 C 5.734375 -4.96875 5.578125 -4.953125 5.40625 -4.921875 Z M 2.5625 -2.328125 C 3.09375 -2.40625 3.59375 -2.578125 3.984375 -2.953125 C 4.328125 -3.296875 4.390625 -3.84375 4.390625 -4.3125 C 4.5625 -4.359375 4.75 -4.390625 4.921875 -4.390625 C 5.8125 -4.390625 6.8125 -3.71875 6.8125 -2.78125 C 6.8125 -2.140625 6.625 -1.375 6.046875 -0.90625 C 5.5625 -0.5 5.078125 -0.421875 4.53125 -0.421875 C 3.734375 -0.421875 3.0625 -0.828125 2.5 -1.390625 C 1.828125 -2.078125 1.59375 -3.046875 1.59375 -4 C 1.59375 -4.9375 1.96875 -6.078125 3.09375 -6.15625 C 3.078125 -6.03125 3.0625 -5.921875 3.0625 -5.8125 C 3.0625 -5.171875 3.390625 -4.53125 3.390625 -3.796875 C 3.390625 -3.140625 2.9375 -2.625 2.390625 -2.5 Z M 2.5625 -2.328125 "/>
</g>
<g id="glyph-0-3">
<path d="M 4.71875 -6.5 C 6.09375 -6.5 7.140625 -5.96875 7.140625 -3.59375 C 7.140625 -2.015625 6.65625 -0.390625 5.015625 -0.390625 C 3.96875 -0.390625 3.125 -0.828125 2.171875 -1.140625 C 2.046875 -1.171875 1.875 -1.21875 1.75 -1.21875 C 2.25 -1.640625 2.84375 -2.1875 2.84375 -2.84375 C 2.84375 -3.59375 1.796875 -4.5625 1.796875 -5.28125 C 1.796875 -5.6875 2.234375 -6.078125 2.5625 -6.328125 L 2.328125 -6.453125 C 1.609375 -6.015625 0.875 -5.296875 0.875 -4.46875 C 0.875 -4.203125 1.15625 -3.921875 1.578125 -3.296875 C 1.78125 -2.984375 2.046875 -2.625 2.046875 -2.25 C 2.046875 -1.71875 1.59375 -1.3125 1.109375 -1.15625 C 0.75 -0.796875 0.421875 -0.40625 0.125 0 L 0.296875 0.171875 C 0.53125 -0.171875 0.921875 -0.40625 1.34375 -0.40625 C 1.75 -0.40625 2.140625 -0.203125 2.5 -0.046875 C 3.046875 0.171875 3.640625 0.296875 4.25 0.296875 C 5.265625 0.296875 6.34375 -0.484375 7.140625 -1.21875 C 7.953125 -1.90625 8.140625 -3.265625 8.140625 -4.359375 C 8.140625 -5.796875 7.609375 -7.03125 5.515625 -7.21875 C 4.46875 -7.3125 3.734375 -7.3125 3.734375 -7.671875 C 3.734375 -7.765625 3.78125 -7.875 3.84375 -7.953125 L 3.671875 -7.953125 C 3.40625 -7.609375 2.90625 -7.40625 2.90625 -6.96875 C 2.90625 -6.59375 3.4375 -6.46875 3.78125 -6.46875 Z M 4.71875 -6.5 "/>
</g>
<g id="glyph-1-0">
</g>
<g id="glyph-1-1">
<path d="M 7.5 -3.5625 C 7.65625 -3.5625 7.859375 -3.5625 7.859375 -3.78125 C 7.859375 -4 7.65625 -4 7.5 -4 L 0.96875 -4 C 0.8125 -4 0.609375 -4 0.609375 -3.78125 C 0.609375 -3.5625 0.8125 -3.5625 0.984375 -3.5625 Z M 7.5 -1.453125 C 7.65625 -1.453125 7.859375 -1.453125 7.859375 -1.671875 C 7.859375 -1.890625 7.65625 -1.890625 7.5 -1.890625 L 0.984375 -1.890625 C 0.8125 -1.890625 0.609375 -1.890625 0.609375 -1.671875 C 0.609375 -1.453125 0.8125 -1.453125 0.96875 -1.453125 Z M 7.5 -1.453125 "/>
</g>
<g id="glyph-2-0">
</g>
<g id="glyph-2-1">
<path d="M 6.65625 -6.125 C 6.65625 -6.328125 6.65625 -6.515625 6.453125 -6.515625 C 6.234375 -6.515625 6.234375 -6.328125 6.234375 -6.125 L 6.234375 -2.1875 C 6.234375 -0.546875 4.453125 -0.203125 3.625 -0.203125 C 3.140625 -0.203125 2.453125 -0.296875 1.875 -0.671875 C 1.03125 -1.203125 1.03125 -1.890625 1.03125 -2.1875 L 1.03125 -6.125 C 1.03125 -6.328125 1.03125 -6.515625 0.8125 -6.515625 C 0.59375 -6.515625 0.59375 -6.328125 0.59375 -6.125 L 0.59375 -2.140625 C 0.59375 -0.484375 2.265625 0.234375 3.625 0.234375 C 5.046875 0.234375 6.65625 -0.53125 6.65625 -2.125 Z M 6.65625 -6.125 "/>
</g>
<g id="glyph-3-0">
</g>
<g id="glyph-3-1">
<path d="M 2.09375 -0.578125 C 2.09375 -0.890625 1.828125 -1.15625 1.515625 -1.15625 C 1.203125 -1.15625 0.9375 -0.890625 0.9375 -0.578125 C 0.9375 -0.265625 1.203125 0 1.515625 0 C 1.828125 0 2.09375 -0.265625 2.09375 -0.578125 Z M 2.09375 -0.578125 "/>
</g>
</g>
<clipPath id="clip-0">
<path clip-rule="nonzero" d="M 0 0 L 9 0 L 9 8.542969 L 0 8.542969 Z M 0 0 "/>
</clipPath>
<clipPath id="clip-1">
<path clip-rule="nonzero" d="M 24 0 L 32 0 L 32 8.542969 L 24 8.542969 Z M 24 0 "/>
</clipPath>
<clipPath id="clip-2">
<path clip-rule="nonzero" d="M 35 1 L 42 1 L 42 8.542969 L 35 8.542969 Z M 35 1 "/>
</clipPath>
<clipPath id="clip-3">
<path clip-rule="nonzero" d="M 44 0 L 53 0 L 53 8.542969 L 44 8.542969 Z M 44 0 "/>
</clipPath>
<clipPath id="clip-4">
<path clip-rule="nonzero" d="M 54 6 L 56 6 L 56 8.542969 L 54 8.542969 Z M 54 6 "/>
</clipPath>
</defs>
<g clip-path="url(#clip-0)">
<g fill="rgb(0%, 0%, 0%)" fill-opacity="1">
<use xlink:href="#glyph-0-1" x="0.5" y="8.043"/>
</g>
</g>
<g fill="rgb(0%, 0%, 0%)" fill-opacity="1">
<use xlink:href="#glyph-1-1" x="12.602" y="8.043"/>
</g>
<g clip-path="url(#clip-1)">
<g fill="rgb(0%, 0%, 0%)" fill-opacity="1">
<use xlink:href="#glyph-0-2" x="24.117" y="8.043"/>
</g>
</g>
<g clip-path="url(#clip-2)">
<g fill="rgb(0%, 0%, 0%)" fill-opacity="1">
<use xlink:href="#glyph-2-1" x="35.109" y="8.043"/>
</g>
</g>
<g clip-path="url(#clip-3)">
<g fill="rgb(0%, 0%, 0%)" fill-opacity="1">
<use xlink:href="#glyph-0-3" x="44.806" y="8.043"/>
</g>
</g>
<g clip-path="url(#clip-4)">
<g fill="rgb(0%, 0%, 0%)" fill-opacity="1">
<use xlink:href="#glyph-3-1" x="53.828" y="8.043"/>
</g>
</g>
</svg>
