<?xml version="1.0" encoding="UTF-8"?>
<svg xmlns="http://www.w3.org/2000/svg" xmlns:xlink="http://www.w3.org/1999/xlink" width="8.879" height="8.515" viewBox="0 0 8.879 8.515">
<defs>
<g>
<g id="glyph-0-0">
</g>
<g id="glyph-0-1">
<path d="M 2.921875 -3.421875 L 3.3125 -3.421875 L 4.953125 -0.890625 C 5.0625 -0.71875 5.328125 -0.296875 5.4375 -0.125 C 5.515625 0 5.546875 0 5.796875 0 L 7.3125 0 C 7.5 0 7.671875 0 7.671875 -0.203125 C 7.671875 -0.28125 7.609375 -0.359375 7.5 -0.375 C 7.09375 -0.46875 6.5625 -1.1875 6.296875 -1.53125 C 6.234375 -1.640625 5.6875 -2.359375 4.953125 -3.546875 C 5.921875 -3.71875 6.859375 -4.140625 6.859375 -5.4375 C 6.859375 -6.953125 5.25 -7.46875 3.96875 -7.46875 L 0.546875 -7.46875 C 0.34375 -7.46875 0.171875 -7.46875 0.171875 -7.28125 C 0.171875 -7.09375 0.375 -7.09375 0.46875 -7.09375 C 1.09375 -7.09375 1.140625 -7.015625 1.140625 -6.46875 L 1.140625 -1 C 1.140625 -0.453125 1.09375 -0.375 0.46875 -0.375 C 0.375 -0.375 0.171875 -0.375 0.171875 -0.203125 C 0.171875 0 0.34375 0 0.546875 0 L 3.53125 0 C 3.734375 0 3.890625 0 3.890625 -0.203125 C 3.890625 -0.375 3.703125 -0.375 3.59375 -0.375 C 2.96875 -0.375 2.921875 -0.46875 2.921875 -1 Z M 5.03125 -3.953125 C 5.328125 -4.359375 5.359375 -4.9375 5.359375 -5.421875 C 5.359375 -5.9375 5.296875 -6.515625 4.953125 -6.96875 C 5.40625 -6.875 6.484375 -6.53125 6.484375 -5.4375 C 6.484375 -4.71875 6.15625 -4.171875 5.03125 -3.953125 Z M 2.921875 -6.5 C 2.921875 -6.734375 2.921875 -7.09375 3.59375 -7.09375 C 4.53125 -7.09375 4.984375 -6.703125 4.984375 -5.421875 C 4.984375 -4.015625 4.640625 -3.8125 2.921875 -3.8125 Z M 1.4375 -0.375 C 1.53125 -0.578125 1.53125 -0.890625 1.53125 -0.984375 L 1.53125 -6.484375 C 1.53125 -6.59375 1.53125 -6.890625 1.4375 -7.09375 L 2.6875 -7.09375 C 2.546875 -6.921875 2.546875 -6.703125 2.546875 -6.53125 L 2.546875 -0.984375 C 2.546875 -0.875 2.546875 -0.578125 2.625 -0.375 Z M 3.765625 -3.421875 C 3.84375 -3.4375 3.875 -3.453125 3.96875 -3.453125 C 4.140625 -3.453125 4.375 -3.46875 4.53125 -3.484375 C 4.703125 -3.234375 5.875 -1.28125 6.78125 -0.375 L 5.71875 -0.375 Z M 3.765625 -3.421875 "/>
</g>
</g>
<clipPath id="clip-0">
<path clip-rule="nonzero" d="M 0 0 L 8.878906 0 L 8.878906 8.515625 L 0 8.515625 Z M 0 0 "/>
</clipPath>
</defs>
<g clip-path="url(#clip-0)">
<g fill="rgb(0%, 0%, 0%)" fill-opacity="1">
<use xlink:href="#glyph-0-1" x="0.5" y="8.015"/>
</g>
</g>
</svg>
