<?xml version="1.0" encoding="UTF-8"?>
<svg xmlns="http://www.w3.org/2000/svg" xmlns:xlink="http://www.w3.org/1999/xlink" width="36.463" height="66.455" viewBox="0 0 36.463 66.455">
<defs>
<g>
<g id="glyph-0-0">
</g>
<g id="glyph-0-1">
<path d="M 4.078125 19.296875 C 4.3125 19.296875 4.390625 19.296875 4.390625 19.15625 C 4.40625 11.5 5.296875 5.15625 9.109375 -0.171875 C 9.1875 -0.265625 9.1875 -0.296875 9.1875 -0.3125 C 9.1875 -0.421875 9.109375 -0.421875 8.9375 -0.421875 C 8.75 -0.421875 8.734375 -0.421875 8.71875 -0.40625 C 8.671875 -0.375 7.28125 1.21875 6.1875 3.40625 C 4.75 6.296875 3.84375 9.59375 3.4375 13.5625 C 3.40625 13.90625 3.171875 16.171875 3.171875 18.765625 L 3.171875 19.1875 C 3.1875 19.296875 3.25 19.296875 3.484375 19.296875 Z M 4.078125 19.296875 "/>
</g>
<g id="glyph-0-2">
<path d="M 4.390625 0.1875 C 4.390625 -0.09375 4.375 -0.109375 4.078125 -0.109375 L 3.484375 -0.109375 C 3.1875 -0.109375 3.171875 -0.09375 3.171875 0.1875 L 3.171875 6.359375 C 3.171875 6.640625 3.1875 6.65625 3.484375 6.65625 L 4.078125 6.65625 C 4.375 6.65625 4.390625 6.640625 4.390625 6.359375 Z M 4.390625 0.1875 "/>
</g>
<g id="glyph-0-3">
<path d="M 3.484375 -0.546875 C 3.25 -0.546875 3.1875 -0.546875 3.171875 -0.421875 L 3.171875 0 C 3.171875 6.65625 4.359375 10.5625 4.703125 11.671875 C 5.4375 14.09375 6.65625 16.640625 8.46875 18.890625 C 8.640625 19.078125 8.6875 19.140625 8.71875 19.15625 C 8.75 19.171875 8.75 19.1875 8.9375 19.1875 C 9.109375 19.1875 9.1875 19.1875 9.1875 19.078125 C 9.1875 19.046875 9.1875 19.03125 9.125 18.9375 C 5.484375 13.890625 4.390625 7.828125 4.390625 -0.390625 C 4.390625 -0.546875 4.3125 -0.546875 4.078125 -0.546875 Z M 3.484375 -0.546875 "/>
</g>
<g id="glyph-0-4">
<path d="M 6.359375 18.765625 C 6.359375 12.09375 5.171875 8.1875 4.828125 7.09375 C 4.09375 4.671875 2.875 2.109375 1.0625 -0.125 C 0.890625 -0.328125 0.84375 -0.375 0.8125 -0.40625 C 0.78125 -0.421875 0.78125 -0.421875 0.59375 -0.421875 C 0.4375 -0.421875 0.34375 -0.421875 0.34375 -0.3125 C 0.34375 -0.296875 0.34375 -0.265625 0.484375 -0.078125 C 4.28125 5.21875 5.140625 11.765625 5.140625 19.15625 C 5.140625 19.296875 5.21875 19.296875 5.453125 19.296875 L 6.046875 19.296875 C 6.28125 19.296875 6.34375 19.296875 6.359375 19.1875 Z M 6.359375 18.765625 "/>
</g>
<g id="glyph-0-5">
<path d="M 6.359375 0.1875 C 6.359375 -0.09375 6.34375 -0.109375 6.046875 -0.109375 L 5.453125 -0.109375 C 5.15625 -0.109375 5.140625 -0.09375 5.140625 0.1875 L 5.140625 6.359375 C 5.140625 6.640625 5.15625 6.65625 5.453125 6.65625 L 6.046875 6.65625 C 6.34375 6.65625 6.359375 6.640625 6.359375 6.359375 Z M 6.359375 0.1875 "/>
</g>
<g id="glyph-0-6">
<path d="M 6.359375 -0.421875 C 6.34375 -0.546875 6.28125 -0.546875 6.046875 -0.546875 L 5.453125 -0.546875 C 5.21875 -0.546875 5.140625 -0.546875 5.140625 -0.390625 C 5.140625 0.734375 5.140625 3.328125 4.859375 6.046875 C 4.265625 11.6875 2.8125 15.578125 0.421875 18.9375 C 0.34375 19.03125 0.34375 19.046875 0.34375 19.078125 C 0.34375 19.1875 0.4375 19.1875 0.59375 19.1875 C 0.78125 19.1875 0.796875 19.1875 0.8125 19.15625 C 0.859375 19.125 2.25 17.53125 3.34375 15.34375 C 4.78125 12.46875 5.6875 9.15625 6.09375 5.1875 C 6.125 4.859375 6.359375 2.578125 6.359375 0 Z M 6.359375 -0.421875 "/>
</g>
<g id="glyph-1-0">
</g>
<g id="glyph-1-1">
<path d="M 3.890625 -2.734375 C 3.78125 -3.171875 3.484375 -3.640625 2.75 -3.640625 C 2 -3.640625 1.515625 -3.296875 1.140625 -2.96875 C 0.328125 -2.265625 0.328125 -1.34375 0.328125 -1.28125 C 0.328125 -0.78125 0.71875 0.171875 1.921875 0.171875 C 2.59375 0.171875 3.296875 -0.15625 3.84375 -0.890625 C 4.359375 -1.609375 4.75 -2.78125 4.75 -3.578125 C 4.75 -4.875 3.953125 -5.703125 2.890625 -5.703125 C 1.671875 -5.703125 1.296875 -4.671875 1.296875 -4.4375 C 1.296875 -4.234375 1.4375 -4.140625 1.609375 -4.140625 C 1.859375 -4.140625 2.0625 -4.359375 2.0625 -4.578125 C 2.0625 -4.671875 2.03125 -4.859375 1.71875 -4.875 C 2.03125 -5.390625 2.5625 -5.484375 2.890625 -5.484375 C 3.609375 -5.484375 4.109375 -4.9375 4.109375 -4.015625 C 4.109375 -3.5625 4.015625 -3.140625 3.90625 -2.734375 Z M 1.9375 -0.078125 C 1.046875 -0.078125 1 -0.828125 1 -0.984375 C 1 -1.296875 1.234375 -2.140625 1.3125 -2.34375 C 1.515625 -2.8125 2.015625 -3.421875 2.78125 -3.421875 C 3.453125 -3.421875 3.734375 -2.90625 3.734375 -2.34375 C 3.734375 -1.734375 3.171875 -0.078125 1.9375 -0.078125 Z M 1.9375 -0.078125 "/>
</g>
<g id="glyph-1-2">
<path d="M 3.8125 -3.90625 C 3.8125 -4.90625 3.4375 -5.609375 2.765625 -5.609375 C 1.578125 -5.609375 0.34375 -3.390625 0.34375 -1.625 C 0.34375 -0.859375 0.609375 0.078125 1.40625 0.078125 C 2.5625 0.078125 3.8125 -2.078125 3.8125 -3.90625 Z M 1.25 -2.90625 C 1.625 -4.515625 2.265625 -5.390625 2.765625 -5.390625 C 3.25 -5.390625 3.25 -4.53125 3.25 -4.375 C 3.25 -3.9375 3.09375 -3.296875 3 -2.90625 Z M 2.9375 -2.625 C 2.5625 -1.03125 1.90625 -0.140625 1.40625 -0.140625 C 0.984375 -0.140625 0.9375 -0.78125 0.9375 -1.140625 C 0.9375 -1.65625 1.078125 -2.296875 1.171875 -2.625 Z M 2.9375 -2.625 "/>
</g>
<g id="glyph-2-0">
</g>
<g id="glyph-2-1">
<path d="M 2.140625 -3.796875 C 2.140625 -3.984375 2.125 -3.984375 1.9375 -3.984375 C 1.546875 -3.59375 0.9375 -3.59375 0.71875 -3.59375 L 0.71875 -3.359375 C 0.875 -3.359375 1.28125 -3.359375 1.640625 -3.53125 L 1.640625 -0.515625 C 1.640625 -0.3125 1.640625 -0.234375 1.015625 -0.234375 L 0.765625 -0.234375 L 0.765625 0 C 1.09375 -0.03125 1.5625 -0.03125 1.890625 -0.03125 C 2.21875 -0.03125 2.6875 -0.03125 3.015625 0 L 3.015625 -0.234375 L 2.765625 -0.234375 C 2.140625 -0.234375 2.140625 -0.3125 2.140625 -0.515625 Z M 2.140625 -3.796875 "/>
</g>
<g id="glyph-2-2">
<path d="M 3.21875 -1.125 L 3 -1.125 C 2.984375 -1.03125 2.921875 -0.640625 2.84375 -0.578125 C 2.796875 -0.53125 2.3125 -0.53125 2.21875 -0.53125 L 1.109375 -0.53125 L 1.875 -1.15625 C 2.078125 -1.328125 2.609375 -1.703125 2.796875 -1.890625 C 2.96875 -2.0625 3.21875 -2.375 3.21875 -2.796875 C 3.21875 -3.546875 2.546875 -3.984375 1.734375 -3.984375 C 0.96875 -3.984375 0.4375 -3.46875 0.4375 -2.90625 C 0.4375 -2.609375 0.6875 -2.5625 0.75 -2.5625 C 0.90625 -2.5625 1.078125 -2.671875 1.078125 -2.890625 C 1.078125 -3.015625 1 -3.21875 0.734375 -3.21875 C 0.875 -3.515625 1.234375 -3.75 1.65625 -3.75 C 2.28125 -3.75 2.609375 -3.28125 2.609375 -2.796875 C 2.609375 -2.375 2.328125 -1.9375 1.921875 -1.546875 L 0.5 -0.25 C 0.4375 -0.1875 0.4375 -0.1875 0.4375 0 L 3.03125 0 Z M 3.21875 -1.125 "/>
</g>
<g id="glyph-3-0">
</g>
<g id="glyph-3-1">
<path d="M 2.09375 -0.578125 C 2.09375 -0.890625 1.828125 -1.15625 1.515625 -1.15625 C 1.203125 -1.15625 0.9375 -0.890625 0.9375 -0.578125 C 0.9375 -0.265625 1.203125 0 1.515625 0 C 1.828125 0 2.09375 -0.265625 2.09375 -0.578125 Z M 2.09375 -0.578125 "/>
</g>
<g id="glyph-4-0">
</g>
<g id="glyph-4-1">
<path d="M 1.75 -2.078125 C 1.71875 -2.53125 1.296875 -2.640625 1.078125 -2.640625 C 0.84375 -2.640625 0.6875 -2.5 0.59375 -2.3125 C 0.4375 -2.0625 0.359375 -1.75 0.359375 -1.71875 C 0.359375 -1.65625 0.421875 -1.640625 0.46875 -1.640625 C 0.5625 -1.640625 0.578125 -1.671875 0.609375 -1.765625 C 0.71875 -2.25 0.875 -2.4375 1.0625 -2.4375 C 1.28125 -2.4375 1.28125 -2.203125 1.28125 -2.140625 C 1.28125 -2.046875 1.21875 -1.796875 1.171875 -1.640625 C 1.125 -1.46875 1.078125 -1.234375 1.046875 -1.09375 C 1 -0.953125 0.96875 -0.796875 0.921875 -0.640625 C 0.875 -0.46875 0.8125 -0.171875 0.8125 -0.140625 C 0.8125 0 0.90625 0.0625 1.015625 0.0625 C 1.125 0.0625 1.234375 -0.015625 1.28125 -0.109375 C 1.28125 -0.140625 1.34375 -0.34375 1.375 -0.46875 L 1.5 -1 C 1.546875 -1.15625 1.5625 -1.265625 1.609375 -1.40625 C 1.65625 -1.609375 1.859375 -1.921875 2.09375 -2.140625 C 2.203125 -2.265625 2.46875 -2.4375 2.78125 -2.4375 C 3.171875 -2.4375 3.171875 -2.140625 3.171875 -2.015625 C 3.171875 -1.671875 2.921875 -1.03125 2.8125 -0.765625 C 2.765625 -0.65625 2.734375 -0.5625 2.734375 -0.453125 C 2.734375 -0.15625 3 0.0625 3.328125 0.0625 C 3.9375 0.0625 4.234375 -0.734375 4.234375 -0.859375 C 4.234375 -0.875 4.234375 -0.953125 4.125 -0.953125 C 4.046875 -0.953125 4.03125 -0.921875 4 -0.796875 C 3.90625 -0.484375 3.65625 -0.140625 3.34375 -0.140625 C 3.234375 -0.140625 3.1875 -0.234375 3.1875 -0.359375 C 3.1875 -0.46875 3.234375 -0.578125 3.28125 -0.703125 C 3.375 -0.9375 3.640625 -1.609375 3.640625 -1.9375 C 3.640625 -2.4375 3.265625 -2.640625 2.8125 -2.640625 C 2.515625 -2.640625 2.140625 -2.546875 1.75 -2.078125 Z M 1.75 -2.078125 "/>
</g>
</g>
</defs>
<g fill="rgb(0%, 0%, 0%)" fill-opacity="1">
<use xlink:href="#glyph-0-1" x="0.5" y="0.936"/>
</g>
<g fill="rgb(0%, 0%, 0%)" fill-opacity="1">
<use xlink:href="#glyph-0-2" x="0.5" y="20.136"/>
</g>
<g fill="rgb(0%, 0%, 0%)" fill-opacity="1">
<use xlink:href="#glyph-0-2" x="0.5" y="26.682"/>
</g>
<g fill="rgb(0%, 0%, 0%)" fill-opacity="1">
<use xlink:href="#glyph-0-2" x="0.5" y="33.227"/>
</g>
<g fill="rgb(0%, 0%, 0%)" fill-opacity="1">
<use xlink:href="#glyph-0-2" x="0.5" y="39.773"/>
</g>
<g fill="rgb(0%, 0%, 0%)" fill-opacity="1">
<use xlink:href="#glyph-0-3" x="0.5" y="46.755"/>
</g>
<g fill="rgb(0%, 0%, 0%)" fill-opacity="1">
<use xlink:href="#glyph-1-1" x="15.766" y="6.524"/>
</g>
<path fill="none" stroke-width="0.436" stroke-linecap="butt" stroke-linejoin="miter" stroke="rgb(0%, 0%, 0%)" stroke-opacity="1" stroke-miterlimit="10" d="M -0.00015625 -0.00175 L 13.031094 -0.00175 " transform="matrix(1, 0, 0, -1, 11.715, 8.092)"/>
<g fill="rgb(0%, 0%, 0%)" fill-opacity="1">
<use xlink:href="#glyph-1-1" x="11.715" y="14.581"/>
</g>
<g fill="rgb(0%, 0%, 0%)" fill-opacity="1">
<use xlink:href="#glyph-1-2" x="16.646101" y="14.581"/>
</g>
<g fill="rgb(0%, 0%, 0%)" fill-opacity="1">
<use xlink:href="#glyph-2-1" x="20.597" y="15.688"/>
</g>
<g fill="rgb(0%, 0%, 0%)" fill-opacity="1">
<use xlink:href="#glyph-1-1" x="15.766" y="21.223"/>
</g>
<path fill="none" stroke-width="0.436" stroke-linecap="butt" stroke-linejoin="miter" stroke="rgb(0%, 0%, 0%)" stroke-opacity="1" stroke-miterlimit="10" d="M -0.00015625 0.0019375 L 13.031094 0.0019375 " transform="matrix(1, 0, 0, -1, 11.715, 22.791)"/>
<g fill="rgb(0%, 0%, 0%)" fill-opacity="1">
<use xlink:href="#glyph-1-1" x="11.715" y="29.28"/>
</g>
<g fill="rgb(0%, 0%, 0%)" fill-opacity="1">
<use xlink:href="#glyph-1-2" x="16.646101" y="29.28"/>
</g>
<g fill="rgb(0%, 0%, 0%)" fill-opacity="1">
<use xlink:href="#glyph-2-2" x="20.597" y="30.387"/>
</g>
<g fill="rgb(0%, 0%, 0%)" fill-opacity="1">
<use xlink:href="#glyph-3-1" x="16.716" y="38.085"/>
</g>
<g fill="rgb(0%, 0%, 0%)" fill-opacity="1">
<use xlink:href="#glyph-3-1" x="16.716" y="42.448"/>
</g>
<g fill="rgb(0%, 0%, 0%)" fill-opacity="1">
<use xlink:href="#glyph-3-1" x="16.716" y="46.812"/>
</g>
<g fill="rgb(0%, 0%, 0%)" fill-opacity="1">
<use xlink:href="#glyph-1-1" x="15.766" y="56.412"/>
</g>
<path fill="none" stroke-width="0.436" stroke-linecap="butt" stroke-linejoin="miter" stroke="rgb(0%, 0%, 0%)" stroke-opacity="1" stroke-miterlimit="10" d="M 0.0011875 -0.00046875 L 13.981656 -0.00046875 " transform="matrix(1, 0, 0, -1, 11.241, 57.98)"/>
<g fill="rgb(0%, 0%, 0%)" fill-opacity="1">
<use xlink:href="#glyph-1-1" x="11.241" y="64.469"/>
</g>
<g fill="rgb(0%, 0%, 0%)" fill-opacity="1">
<use xlink:href="#glyph-1-2" x="16.172101" y="64.469"/>
</g>
<g fill="rgb(0%, 0%, 0%)" fill-opacity="1">
<use xlink:href="#glyph-4-1" x="20.123" y="65.465"/>
</g>
<g fill="rgb(0%, 0%, 0%)" fill-opacity="1">
<use xlink:href="#glyph-0-4" x="26.417" y="0.936"/>
</g>
<g fill="rgb(0%, 0%, 0%)" fill-opacity="1">
<use xlink:href="#glyph-0-5" x="26.417" y="20.136"/>
</g>
<g fill="rgb(0%, 0%, 0%)" fill-opacity="1">
<use xlink:href="#glyph-0-5" x="26.417" y="26.682"/>
</g>
<g fill="rgb(0%, 0%, 0%)" fill-opacity="1">
<use xlink:href="#glyph-0-5" x="26.417" y="33.227"/>
</g>
<g fill="rgb(0%, 0%, 0%)" fill-opacity="1">
<use xlink:href="#glyph-0-5" x="26.417" y="39.773"/>
</g>
<g fill="rgb(0%, 0%, 0%)" fill-opacity="1">
<use xlink:href="#glyph-0-6" x="26.417" y="46.755"/>
</g>
</svg>
