<?xml version="1.0" encoding="UTF-8"?>
<svg xmlns="http://www.w3.org/2000/svg" xmlns:xlink="http://www.w3.org/1999/xlink" width="363.282" height="35.274" viewBox="0 0 363.282 35.274">
<defs>
<g>
<g id="glyph-0-0">
</g>
<g id="glyph-0-1">
<path d="M 6.859375 -2.15625 C 6.75 -1.765625 6.625 -1.390625 6.34375 -1.09375 C 6 -0.765625 5.515625 -0.703125 5.0625 -0.703125 C 4.140625 -0.703125 3.15625 -1.0625 2.28125 -1.4375 C 2.375 -1.5 3.546875 -2.546875 3.546875 -2.90625 C 3.546875 -3.578125 2.9375 -4.4375 2.71875 -5.09375 C 2.65625 -5.296875 2.625 -5.46875 2.625 -5.6875 C 2.625 -6.546875 3.34375 -7.03125 4.09375 -7.03125 C 4.71875 -7.03125 5.25 -6.703125 5.25 -5.90625 C 5.25 -5.46875 5.1875 -5.0625 5.1875 -4.90625 C 5.1875 -4.640625 5.46875 -4.40625 5.609375 -4.40625 L 6.921875 -4.734375 L 6.921875 -4.921875 C 6.59375 -4.921875 6.1875 -4.96875 6.1875 -5.265625 C 6.1875 -5.453125 6.234375 -5.9375 6.234375 -6.234375 C 6.234375 -7.265625 5.546875 -7.484375 4.890625 -7.484375 C 3.6875 -7.484375 2.578125 -6.875 1.953125 -5.796875 C 1.84375 -5.578125 1.75 -5.34375 1.75 -5.109375 C 1.75 -4.140625 2.765625 -3.1875 2.765625 -2.46875 C 2.765625 -2.078125 2.3125 -1.6875 1.890625 -1.5625 L 1.5625 -1.5625 C 0.890625 -1.453125 0.59375 -0.578125 0.34375 0 L 0.484375 0.15625 C 0.734375 -0.28125 1.0625 -0.75 1.390625 -0.75 C 1.640625 -0.75 1.875 -0.671875 2.09375 -0.578125 C 3.078125 -0.15625 4.171875 0.296875 5.171875 0.296875 C 6.125 0.296875 6.65625 0.015625 7.03125 -2.03125 Z M 6.859375 -2.15625 "/>
</g>
<g id="glyph-1-0">
</g>
<g id="glyph-1-1">
<path d="M 1.46875 -0.953125 C 1.109375 -0.359375 0.78125 -0.28125 0.5 -0.265625 C 0.421875 -0.25 0.3125 -0.25 0.3125 -0.109375 C 0.3125 -0.09375 0.328125 0 0.4375 0 C 0.5 0 0.546875 -0.03125 1.109375 -0.03125 C 1.65625 -0.03125 1.828125 0 1.875 0 C 1.90625 0 2.03125 0 2.03125 -0.15625 C 2.03125 -0.25 1.921875 -0.265625 1.890625 -0.265625 C 1.71875 -0.265625 1.546875 -0.328125 1.546875 -0.515625 C 1.546875 -0.625 1.625 -0.734375 1.765625 -0.96875 L 2.3125 -1.84375 L 4.5 -1.84375 L 4.65625 -0.5 C 4.65625 -0.375 4.515625 -0.265625 4.140625 -0.265625 C 4.03125 -0.265625 3.921875 -0.265625 3.921875 -0.109375 C 3.921875 -0.109375 3.921875 0 4.0625 0 C 4.140625 0 4.4375 -0.015625 4.515625 -0.03125 L 5.015625 -0.03125 C 5.734375 -0.03125 5.859375 0 5.921875 0 C 5.953125 0 6.09375 0 6.09375 -0.15625 C 6.09375 -0.265625 5.984375 -0.265625 5.859375 -0.265625 C 5.421875 -0.265625 5.40625 -0.328125 5.390625 -0.53125 L 4.75 -5.453125 C 4.734375 -5.640625 4.71875 -5.6875 4.59375 -5.6875 C 4.453125 -5.6875 4.40625 -5.609375 4.34375 -5.53125 Z M 2.484375 -2.109375 L 4.125 -4.71875 L 4.46875 -2.109375 Z M 2.484375 -2.109375 "/>
</g>
<g id="glyph-1-2">
<path d="M 2.328125 -5.296875 C 2.328125 -5.3125 2.359375 -5.40625 2.359375 -5.421875 C 2.359375 -5.453125 2.328125 -5.53125 2.234375 -5.53125 C 2.203125 -5.53125 1.953125 -5.5 1.765625 -5.484375 L 1.328125 -5.453125 C 1.140625 -5.4375 1.0625 -5.4375 1.0625 -5.296875 C 1.0625 -5.171875 1.171875 -5.171875 1.28125 -5.171875 C 1.65625 -5.171875 1.65625 -5.125 1.65625 -5.0625 C 1.65625 -5.03125 1.65625 -5.015625 1.625 -4.875 L 0.484375 -0.34375 C 0.453125 -0.21875 0.453125 -0.171875 0.453125 -0.171875 C 0.453125 -0.03125 0.5625 0.078125 0.71875 0.078125 C 0.984375 0.078125 1.046875 -0.171875 1.078125 -0.28125 C 1.15625 -0.625 1.375 -1.46875 1.453125 -1.796875 C 1.890625 -1.75 2.4375 -1.609375 2.4375 -1.140625 C 2.4375 -1.109375 2.4375 -1.0625 2.421875 -0.984375 C 2.390625 -0.890625 2.375 -0.765625 2.375 -0.734375 C 2.375 -0.265625 2.71875 0.078125 3.1875 0.078125 C 3.515625 0.078125 3.734375 -0.171875 3.828125 -0.3125 C 4.03125 -0.609375 4.15625 -1.09375 4.15625 -1.140625 C 4.15625 -1.21875 4.09375 -1.25 4.03125 -1.25 C 3.9375 -1.25 3.921875 -1.1875 3.890625 -1.046875 C 3.78125 -0.671875 3.578125 -0.140625 3.203125 -0.140625 C 3 -0.140625 2.953125 -0.3125 2.953125 -0.53125 C 2.953125 -0.640625 2.953125 -0.734375 3 -0.921875 C 3 -0.953125 3.03125 -1.078125 3.03125 -1.15625 C 3.03125 -1.8125 2.21875 -1.953125 1.8125 -2.015625 C 2.109375 -2.1875 2.375 -2.46875 2.46875 -2.5625 C 2.90625 -3 3.265625 -3.296875 3.65625 -3.296875 C 3.75 -3.296875 3.84375 -3.265625 3.90625 -3.1875 C 3.484375 -3.125 3.484375 -2.75 3.484375 -2.75 C 3.484375 -2.578125 3.625 -2.453125 3.796875 -2.453125 C 4.015625 -2.453125 4.25 -2.625 4.25 -2.953125 C 4.25 -3.234375 4.0625 -3.515625 3.65625 -3.515625 C 3.203125 -3.515625 2.78125 -3.15625 2.328125 -2.703125 C 1.859375 -2.25 1.671875 -2.171875 1.53125 -2.109375 Z M 2.328125 -5.296875 "/>
</g>
<g id="glyph-1-3">
<path d="M 2.375 -4.96875 C 2.375 -5.140625 2.25 -5.28125 2.0625 -5.28125 C 1.859375 -5.28125 1.625 -5.078125 1.625 -4.84375 C 1.625 -4.671875 1.75 -4.546875 1.9375 -4.546875 C 2.140625 -4.546875 2.375 -4.734375 2.375 -4.96875 Z M 1.21875 -2.046875 L 0.78125 -0.953125 C 0.734375 -0.828125 0.703125 -0.734375 0.703125 -0.59375 C 0.703125 -0.203125 1 0.078125 1.421875 0.078125 C 2.203125 0.078125 2.53125 -1.03125 2.53125 -1.140625 C 2.53125 -1.21875 2.46875 -1.25 2.40625 -1.25 C 2.3125 -1.25 2.296875 -1.1875 2.265625 -1.109375 C 2.09375 -0.46875 1.765625 -0.140625 1.4375 -0.140625 C 1.34375 -0.140625 1.25 -0.1875 1.25 -0.390625 C 1.25 -0.59375 1.3125 -0.734375 1.40625 -0.984375 C 1.484375 -1.1875 1.5625 -1.40625 1.65625 -1.625 L 1.90625 -2.265625 C 1.96875 -2.453125 2.078125 -2.703125 2.078125 -2.84375 C 2.078125 -3.234375 1.75 -3.515625 1.34375 -3.515625 C 0.578125 -3.515625 0.234375 -2.40625 0.234375 -2.296875 C 0.234375 -2.21875 0.296875 -2.1875 0.359375 -2.1875 C 0.46875 -2.1875 0.46875 -2.234375 0.5 -2.3125 C 0.71875 -3.078125 1.078125 -3.296875 1.328125 -3.296875 C 1.4375 -3.296875 1.515625 -3.25 1.515625 -3.03125 C 1.515625 -2.953125 1.5 -2.84375 1.421875 -2.59375 Z M 1.21875 -2.046875 "/>
</g>
<g id="glyph-1-4">
<path d="M 3.265625 -3.046875 C 2.9375 -3.015625 2.828125 -2.765625 2.828125 -2.609375 C 2.828125 -2.375 3.03125 -2.3125 3.140625 -2.3125 C 3.171875 -2.3125 3.578125 -2.34375 3.578125 -2.828125 C 3.578125 -3.3125 3.0625 -3.515625 2.578125 -3.515625 C 1.453125 -3.515625 0.34375 -2.421875 0.34375 -1.296875 C 0.34375 -0.546875 0.875 0.078125 1.75 0.078125 C 3.015625 0.078125 3.671875 -0.71875 3.671875 -0.828125 C 3.671875 -0.90625 3.59375 -0.953125 3.546875 -0.953125 C 3.5 -0.953125 3.46875 -0.9375 3.4375 -0.890625 C 2.8125 -0.140625 1.90625 -0.140625 1.765625 -0.140625 C 1.34375 -0.140625 1 -0.40625 1 -1.015625 C 1 -1.359375 1.15625 -2.203125 1.53125 -2.703125 C 1.875 -3.140625 2.28125 -3.296875 2.59375 -3.296875 C 2.6875 -3.296875 3.046875 -3.28125 3.265625 -3.046875 Z M 3.265625 -3.046875 "/>
</g>
<g id="glyph-1-5">
<path d="M 3.8125 -3.90625 C 3.8125 -4.90625 3.4375 -5.609375 2.765625 -5.609375 C 1.578125 -5.609375 0.34375 -3.390625 0.34375 -1.625 C 0.34375 -0.859375 0.609375 0.078125 1.40625 0.078125 C 2.5625 0.078125 3.8125 -2.078125 3.8125 -3.90625 Z M 1.25 -2.90625 C 1.625 -4.515625 2.265625 -5.390625 2.765625 -5.390625 C 3.25 -5.390625 3.25 -4.53125 3.25 -4.375 C 3.25 -3.9375 3.09375 -3.296875 3 -2.90625 Z M 2.9375 -2.625 C 2.5625 -1.03125 1.90625 -0.140625 1.40625 -0.140625 C 0.984375 -0.140625 0.9375 -0.78125 0.9375 -1.140625 C 0.9375 -1.65625 1.078125 -2.296875 1.171875 -2.625 Z M 2.9375 -2.625 "/>
</g>
<g id="glyph-1-6">
<path d="M 1.921875 -2.8125 C 1.96875 -2.96875 2.03125 -3.234375 2.03125 -3.265625 C 2.03125 -3.4375 1.90625 -3.515625 1.765625 -3.515625 C 1.5 -3.515625 1.4375 -3.25 1.40625 -3.140625 L 0.296875 1.28125 C 0.265625 1.40625 0.265625 1.453125 0.265625 1.46875 C 0.265625 1.671875 0.421875 1.71875 0.515625 1.71875 C 0.5625 1.71875 0.734375 1.703125 0.84375 1.5 C 0.875 1.4375 1.09375 0.484375 1.265625 -0.15625 C 1.390625 -0.046875 1.671875 0.078125 2.078125 0.078125 C 2.71875 0.078125 3.15625 -0.453125 3.171875 -0.484375 C 3.328125 0.0625 3.859375 0.078125 3.953125 0.078125 C 4.328125 0.078125 4.515625 -0.21875 4.578125 -0.359375 C 4.734375 -0.640625 4.84375 -1.109375 4.84375 -1.140625 C 4.84375 -1.1875 4.8125 -1.25 4.71875 -1.25 C 4.625 -1.25 4.609375 -1.1875 4.5625 -1 C 4.453125 -0.5625 4.296875 -0.140625 3.984375 -0.140625 C 3.796875 -0.140625 3.734375 -0.296875 3.734375 -0.515625 C 3.734375 -0.65625 3.8125 -1 3.875 -1.234375 L 4.078125 -2.046875 C 4.125 -2.25 4.171875 -2.421875 4.234375 -2.65625 C 4.265625 -2.828125 4.34375 -3.140625 4.34375 -3.1875 C 4.34375 -3.390625 4.1875 -3.4375 4.09375 -3.4375 C 3.8125 -3.4375 3.765625 -3.234375 3.6875 -2.875 L 3.515625 -2.21875 L 3.1875 -0.90625 C 3.171875 -0.859375 2.953125 -0.546875 2.765625 -0.390625 C 2.640625 -0.296875 2.40625 -0.140625 2.109375 -0.140625 C 1.734375 -0.140625 1.484375 -0.34375 1.484375 -0.84375 C 1.484375 -1.046875 1.546875 -1.28125 1.59375 -1.46875 Z M 1.921875 -2.8125 "/>
</g>
<g id="glyph-1-7">
<path d="M 3 -2.28125 C 3.296875 -1.5625 3.78125 -0.265625 3.859375 -0.125 C 4 0.078125 4.15625 0.078125 4.34375 0.078125 C 4.578125 0.078125 4.640625 0.078125 4.640625 -0.015625 C 4.640625 -0.0625 4.625 -0.078125 4.59375 -0.109375 C 4.5 -0.21875 4.46875 -0.296875 4.40625 -0.453125 L 2.609375 -5 C 2.5625 -5.140625 2.40625 -5.53125 1.578125 -5.53125 C 1.5 -5.53125 1.390625 -5.53125 1.390625 -5.421875 C 1.390625 -5.328125 1.46875 -5.3125 1.5 -5.3125 C 1.671875 -5.28125 1.8125 -5.265625 2 -4.8125 L 2.578125 -3.375 L 2.890625 -2.5625 L 0.609375 -0.453125 C 0.515625 -0.375 0.4375 -0.28125 0.4375 -0.171875 C 0.4375 -0.015625 0.578125 0.09375 0.703125 0.09375 C 0.828125 0.09375 0.9375 0.015625 1 -0.078125 Z M 3 -2.28125 "/>
</g>
<g id="glyph-2-0">
</g>
<g id="glyph-2-1">
<path d="M 3.609375 2.625 C 3.609375 2.578125 3.609375 2.5625 3.421875 2.375 C 2.0625 1 1.71875 -1.0625 1.71875 -2.71875 C 1.71875 -4.625 2.125 -6.515625 3.46875 -7.890625 C 3.609375 -8.015625 3.609375 -8.03125 3.609375 -8.078125 C 3.609375 -8.140625 3.5625 -8.171875 3.5 -8.171875 C 3.390625 -8.171875 2.40625 -7.4375 1.765625 -6.046875 C 1.203125 -4.859375 1.078125 -3.640625 1.078125 -2.71875 C 1.078125 -1.875 1.203125 -0.5625 1.796875 0.671875 C 2.453125 2.015625 3.390625 2.71875 3.5 2.71875 C 3.5625 2.71875 3.609375 2.6875 3.609375 2.625 Z M 3.609375 2.625 "/>
</g>
<g id="glyph-2-2">
<path d="M 2.09375 -4.125 C 2.09375 -4.4375 1.828125 -4.703125 1.515625 -4.703125 C 1.203125 -4.703125 0.9375 -4.4375 0.9375 -4.125 C 0.9375 -3.8125 1.203125 -3.546875 1.515625 -3.546875 C 1.828125 -3.546875 2.09375 -3.8125 2.09375 -4.125 Z M 1.890625 -0.125 C 1.890625 0.1875 1.890625 1.03125 1.1875 1.84375 C 1.109375 1.9375 1.109375 1.953125 1.109375 1.984375 C 1.109375 2.0625 1.171875 2.109375 1.21875 2.109375 C 1.34375 2.109375 2.125 1.234375 2.125 -0.03125 C 2.125 -0.34375 2.109375 -1.15625 1.515625 -1.15625 C 1.140625 -1.15625 0.9375 -0.859375 0.9375 -0.578125 C 0.9375 -0.296875 1.125 0 1.515625 0 C 1.578125 0 1.59375 0 1.609375 -0.015625 C 1.671875 -0.015625 1.796875 -0.046875 1.890625 -0.125 Z M 1.890625 -0.125 "/>
</g>
<g id="glyph-2-3">
<path d="M 3.15625 -2.71875 C 3.15625 -3.578125 3.03125 -4.890625 2.4375 -6.125 C 1.78125 -7.46875 0.84375 -8.171875 0.734375 -8.171875 C 0.671875 -8.171875 0.625 -8.140625 0.625 -8.078125 C 0.625 -8.03125 0.625 -8.015625 0.828125 -7.8125 C 1.890625 -6.734375 2.515625 -5 2.515625 -2.71875 C 2.515625 -0.859375 2.109375 1.0625 0.765625 2.4375 C 0.625 2.5625 0.625 2.578125 0.625 2.625 C 0.625 2.6875 0.671875 2.71875 0.734375 2.71875 C 0.84375 2.71875 1.828125 1.984375 2.46875 0.59375 C 3.015625 -0.59375 3.15625 -1.8125 3.15625 -2.71875 Z M 3.15625 -2.71875 "/>
</g>
<g id="glyph-2-4">
<path d="M 7.5 -3.5625 C 7.65625 -3.5625 7.859375 -3.5625 7.859375 -3.78125 C 7.859375 -4 7.65625 -4 7.5 -4 L 0.96875 -4 C 0.8125 -4 0.609375 -4 0.609375 -3.78125 C 0.609375 -3.5625 0.8125 -3.5625 0.984375 -3.5625 Z M 7.5 -1.453125 C 7.65625 -1.453125 7.859375 -1.453125 7.859375 -1.671875 C 7.859375 -1.890625 7.65625 -1.890625 7.5 -1.890625 L 0.984375 -1.890625 C 0.8125 -1.890625 0.609375 -1.890625 0.609375 -1.671875 C 0.609375 -1.453125 0.8125 -1.453125 0.96875 -1.453125 Z M 7.5 -1.453125 "/>
</g>
<g id="glyph-2-5">
<path d="M 4.453125 -2.515625 L 7.5 -2.515625 C 7.65625 -2.515625 7.859375 -2.515625 7.859375 -2.71875 C 7.859375 -2.9375 7.65625 -2.9375 7.5 -2.9375 L 4.453125 -2.9375 L 4.453125 -6 C 4.453125 -6.15625 4.453125 -6.359375 4.25 -6.359375 C 4.03125 -6.359375 4.03125 -6.15625 4.03125 -6 L 4.03125 -2.9375 L 0.96875 -2.9375 C 0.8125 -2.9375 0.609375 -2.9375 0.609375 -2.71875 C 0.609375 -2.515625 0.8125 -2.515625 0.96875 -2.515625 L 4.03125 -2.515625 L 4.03125 0.546875 C 4.03125 0.703125 4.03125 0.90625 4.25 0.90625 C 4.453125 0.90625 4.453125 0.703125 4.453125 0.546875 Z M 4.453125 -2.515625 "/>
</g>
<g id="glyph-2-6">
<path d="M 3.203125 -6.984375 C 3.203125 -7.234375 3.203125 -7.265625 2.953125 -7.265625 C 2.28125 -6.5625 1.3125 -6.5625 0.96875 -6.5625 L 0.96875 -6.234375 C 1.1875 -6.234375 1.828125 -6.234375 2.40625 -6.515625 L 2.40625 -0.859375 C 2.40625 -0.46875 2.359375 -0.34375 1.390625 -0.34375 L 1.03125 -0.34375 L 1.03125 0 C 1.421875 -0.03125 2.359375 -0.03125 2.796875 -0.03125 C 3.234375 -0.03125 4.1875 -0.03125 4.5625 0 L 4.5625 -0.34375 L 4.21875 -0.34375 C 3.234375 -0.34375 3.203125 -0.453125 3.203125 -0.859375 Z M 3.203125 -6.984375 "/>
</g>
<g id="glyph-3-0">
</g>
<g id="glyph-3-1">
<path d="M 4.96875 -5.453125 C 4.96875 -6.171875 4.765625 -7.6875 3.65625 -7.6875 C 2.140625 -7.6875 0.453125 -4.609375 0.453125 -2.109375 C 0.453125 -1.09375 0.78125 0.125 1.765625 0.125 C 3.296875 0.125 4.96875 -3.015625 4.96875 -5.453125 Z M 1.609375 -3.953125 C 1.796875 -4.65625 2.015625 -5.53125 2.453125 -6.296875 C 2.75 -6.84375 3.15625 -7.453125 3.640625 -7.453125 C 4.171875 -7.453125 4.25 -6.75 4.25 -6.125 C 4.25 -5.59375 4.15625 -5.03125 3.890625 -3.953125 Z M 3.796875 -3.609375 C 3.671875 -3.109375 3.453125 -2.1875 3.03125 -1.390625 C 2.65625 -0.65625 2.234375 -0.125 1.765625 -0.125 C 1.40625 -0.125 1.171875 -0.4375 1.171875 -1.453125 C 1.171875 -1.90625 1.25 -2.546875 1.53125 -3.609375 Z M 3.796875 -3.609375 "/>
</g>
<g id="glyph-3-2">
<path d="M 2.21875 -0.015625 C 2.21875 -0.734375 1.9375 -1.15625 1.515625 -1.15625 C 1.15625 -1.15625 0.9375 -0.890625 0.9375 -0.578125 C 0.9375 -0.28125 1.15625 0 1.515625 0 C 1.640625 0 1.78125 -0.046875 1.890625 -0.140625 C 1.9375 -0.15625 1.9375 -0.171875 1.953125 -0.171875 C 1.96875 -0.171875 1.96875 -0.15625 1.96875 -0.015625 C 1.96875 0.796875 1.59375 1.453125 1.234375 1.8125 C 1.109375 1.9375 1.109375 1.953125 1.109375 1.984375 C 1.109375 2.0625 1.171875 2.109375 1.21875 2.109375 C 1.34375 2.109375 2.21875 1.265625 2.21875 -0.015625 Z M 2.21875 -0.015625 "/>
</g>
<g id="glyph-3-3">
<path d="M 3.890625 -3.1875 C 4.34375 -2.046875 4.859375 -0.375 5.03125 -0.125 C 5.21875 0.125 5.328125 0.125 5.609375 0.125 L 5.859375 0.125 C 5.96875 0.109375 5.984375 0.046875 5.984375 0.015625 C 5.984375 -0.015625 5.953125 -0.046875 5.921875 -0.09375 C 5.8125 -0.203125 5.75 -0.375 5.671875 -0.59375 L 3.453125 -6.796875 C 3.21875 -7.421875 2.625 -7.5625 2.109375 -7.5625 C 2.0625 -7.5625 1.921875 -7.5625 1.921875 -7.453125 C 1.921875 -7.359375 2 -7.34375 2.015625 -7.34375 C 2.375 -7.28125 2.453125 -7.203125 2.71875 -6.46875 L 3.78125 -3.5 L 0.78125 -0.515625 C 0.640625 -0.375 0.578125 -0.3125 0.578125 -0.171875 C 0.578125 0.015625 0.734375 0.140625 0.90625 0.140625 C 1.078125 0.140625 1.171875 0.015625 1.265625 -0.09375 Z M 3.890625 -3.1875 "/>
</g>
<g id="glyph-3-4">
<path d="M 2.515625 -3.828125 C 2.578125 -4.0625 2.6875 -4.46875 2.6875 -4.53125 C 2.6875 -4.71875 2.546875 -4.828125 2.359375 -4.828125 C 2.328125 -4.828125 2.03125 -4.8125 1.9375 -4.421875 L 0.359375 1.890625 C 0.328125 2.015625 0.328125 2.046875 0.328125 2.0625 C 0.328125 2.21875 0.453125 2.359375 0.625 2.359375 C 0.859375 2.359375 1 2.15625 1.015625 2.125 C 1.0625 2.03125 1.203125 1.46875 1.609375 -0.21875 C 1.96875 0.078125 2.453125 0.125 2.671875 0.125 C 3.4375 0.125 3.859375 -0.375 4.125 -0.671875 C 4.21875 -0.1875 4.625 0.125 5.109375 0.125 C 5.484375 0.125 5.734375 -0.125 5.90625 -0.484375 C 6.09375 -0.875 6.234375 -1.53125 6.234375 -1.5625 C 6.234375 -1.671875 6.140625 -1.671875 6.109375 -1.671875 C 6 -1.671875 5.984375 -1.625 5.953125 -1.46875 C 5.765625 -0.765625 5.578125 -0.125 5.125 -0.125 C 4.828125 -0.125 4.796875 -0.40625 4.796875 -0.625 C 4.796875 -0.859375 4.921875 -1.375 5.015625 -1.75 L 5.328125 -2.9375 C 5.359375 -3.09375 5.46875 -3.515625 5.5 -3.671875 C 5.5625 -3.921875 5.671875 -4.34375 5.671875 -4.40625 C 5.671875 -4.609375 5.515625 -4.703125 5.359375 -4.703125 C 5.296875 -4.703125 5.015625 -4.6875 4.921875 -4.3125 L 4.421875 -2.28125 C 4.28125 -1.734375 4.171875 -1.28125 4.140625 -1.171875 C 4.125 -1.109375 3.59375 -0.125 2.71875 -0.125 C 2.171875 -0.125 1.90625 -0.484375 1.90625 -1.0625 C 1.90625 -1.390625 1.984375 -1.6875 2.0625 -2 Z M 2.515625 -3.828125 "/>
</g>
<g id="glyph-3-5">
<path d="M 4 -4.359375 L 4.9375 -4.359375 C 5.15625 -4.359375 5.265625 -4.359375 5.265625 -4.578125 C 5.265625 -4.703125 5.15625 -4.703125 4.96875 -4.703125 L 4.0625 -4.703125 L 4.296875 -5.9375 C 4.34375 -6.171875 4.5 -6.953125 4.5625 -7.078125 C 4.65625 -7.28125 4.84375 -7.453125 5.078125 -7.453125 C 5.109375 -7.453125 5.40625 -7.453125 5.609375 -7.25 C 5.125 -7.203125 5.015625 -6.828125 5.015625 -6.65625 C 5.015625 -6.40625 5.21875 -6.28125 5.421875 -6.28125 C 5.703125 -6.28125 6.015625 -6.515625 6.015625 -6.9375 C 6.015625 -7.4375 5.515625 -7.6875 5.078125 -7.6875 C 4.703125 -7.6875 4.015625 -7.5 3.6875 -6.40625 C 3.625 -6.1875 3.59375 -6.078125 3.328125 -4.703125 L 2.578125 -4.703125 C 2.359375 -4.703125 2.25 -4.703125 2.25 -4.5 C 2.25 -4.359375 2.34375 -4.359375 2.546875 -4.359375 L 3.265625 -4.359375 L 2.453125 -0.046875 C 2.25 1 2.078125 2 1.5 2 C 1.46875 2 1.1875 2 0.984375 1.796875 C 1.484375 1.765625 1.578125 1.375 1.578125 1.203125 C 1.578125 0.953125 1.390625 0.828125 1.171875 0.828125 C 0.890625 0.828125 0.578125 1.0625 0.578125 1.484375 C 0.578125 1.96875 1.0625 2.234375 1.5 2.234375 C 2.109375 2.234375 2.546875 1.59375 2.734375 1.171875 C 3.09375 0.484375 3.34375 -0.828125 3.34375 -0.90625 Z M 4 -4.359375 "/>
</g>
<g id="glyph-3-6">
<path d="M 4.3125 -4.140625 C 4.140625 -4.140625 3.984375 -4.140625 3.84375 -3.984375 C 3.671875 -3.828125 3.640625 -3.640625 3.640625 -3.5625 C 3.640625 -3.296875 3.84375 -3.1875 4.046875 -3.1875 C 4.359375 -3.1875 4.65625 -3.453125 4.65625 -3.875 C 4.65625 -4.421875 4.140625 -4.828125 3.375 -4.828125 C 1.890625 -4.828125 0.453125 -3.265625 0.453125 -1.71875 C 0.453125 -0.734375 1.078125 0.125 2.21875 0.125 C 3.78125 0.125 4.6875 -1.03125 4.6875 -1.171875 C 4.6875 -1.234375 4.625 -1.3125 4.5625 -1.3125 C 4.5 -1.3125 4.484375 -1.28125 4.421875 -1.203125 C 3.5625 -0.125 2.359375 -0.125 2.234375 -0.125 C 1.546875 -0.125 1.25 -0.65625 1.25 -1.3125 C 1.25 -1.75 1.46875 -2.8125 1.84375 -3.484375 C 2.1875 -4.109375 2.78125 -4.578125 3.375 -4.578125 C 3.75 -4.578125 4.171875 -4.4375 4.3125 -4.140625 Z M 4.3125 -4.140625 "/>
</g>
<g id="glyph-3-7">
<path d="M 2.09375 -0.578125 C 2.09375 -0.890625 1.828125 -1.15625 1.515625 -1.15625 C 1.203125 -1.15625 0.9375 -0.890625 0.9375 -0.578125 C 0.9375 -0.265625 1.203125 0 1.515625 0 C 1.828125 0 2.09375 -0.265625 2.09375 -0.578125 Z M 2.09375 -0.578125 "/>
</g>
<g id="glyph-4-0">
</g>
<g id="glyph-4-1">
<path d="M 8.5 -7.203125 C 8.53125 -7.234375 8.5625 -7.3125 8.5625 -7.359375 C 8.5625 -7.4375 8.546875 -7.453125 8.296875 -7.453125 L 0.78125 -7.453125 C 0.53125 -7.453125 0.515625 -7.4375 0.515625 -7.359375 C 0.515625 -7.3125 0.546875 -7.234375 0.5625 -7.203125 L 4.25 0.15625 C 4.3125 0.296875 4.359375 0.359375 4.53125 0.359375 C 4.71875 0.359375 4.75 0.296875 4.828125 0.15625 Z M 1.859375 -6.65625 L 7.859375 -6.65625 L 4.859375 -0.671875 Z M 1.859375 -6.65625 "/>
</g>
<g id="glyph-4-2">
<path d="M 7.1875 -2.515625 C 7.375 -2.515625 7.5625 -2.515625 7.5625 -2.71875 C 7.5625 -2.9375 7.375 -2.9375 7.1875 -2.9375 L 1.28125 -2.9375 C 1.09375 -2.9375 0.90625 -2.9375 0.90625 -2.71875 C 0.90625 -2.515625 1.09375 -2.515625 1.28125 -2.515625 Z M 7.1875 -2.515625 "/>
</g>
<g id="glyph-5-0">
</g>
<g id="glyph-5-1">
<path d="M 2.25 -1.625 C 2.375 -1.75 2.703125 -2.015625 2.84375 -2.125 C 3.328125 -2.578125 3.796875 -3.015625 3.796875 -3.734375 C 3.796875 -4.6875 3 -5.296875 2.015625 -5.296875 C 1.046875 -5.296875 0.421875 -4.578125 0.421875 -3.859375 C 0.421875 -3.46875 0.734375 -3.421875 0.84375 -3.421875 C 1.015625 -3.421875 1.265625 -3.53125 1.265625 -3.84375 C 1.265625 -4.25 0.859375 -4.25 0.765625 -4.25 C 1 -4.84375 1.53125 -5.03125 1.921875 -5.03125 C 2.65625 -5.03125 3.046875 -4.40625 3.046875 -3.734375 C 3.046875 -2.90625 2.46875 -2.296875 1.515625 -1.34375 L 0.515625 -0.296875 C 0.421875 -0.21875 0.421875 -0.203125 0.421875 0 L 3.5625 0 L 3.796875 -1.421875 L 3.546875 -1.421875 C 3.53125 -1.265625 3.46875 -0.875 3.375 -0.71875 C 3.328125 -0.65625 2.71875 -0.65625 2.59375 -0.65625 L 1.171875 -0.65625 Z M 2.25 -1.625 "/>
</g>
<g id="glyph-5-2">
<path d="M 2.65625 1.984375 C 2.71875 1.984375 2.8125 1.984375 2.8125 1.890625 C 2.8125 1.859375 2.8125 1.859375 2.703125 1.75 C 1.609375 0.71875 1.34375 -0.75 1.34375 -1.984375 C 1.34375 -4.28125 2.28125 -5.359375 2.6875 -5.734375 C 2.8125 -5.828125 2.8125 -5.84375 2.8125 -5.875 C 2.8125 -5.921875 2.78125 -5.96875 2.703125 -5.96875 C 2.578125 -5.96875 2.171875 -5.5625 2.109375 -5.5 C 1.046875 -4.375 0.828125 -2.953125 0.828125 -1.984375 C 0.828125 -0.203125 1.5625 1.234375 2.65625 1.984375 Z M 2.65625 1.984375 "/>
</g>
<g id="glyph-5-3">
<path d="M 2.46875 -1.984375 C 2.46875 -2.75 2.328125 -3.65625 1.84375 -4.59375 C 1.453125 -5.328125 0.71875 -5.96875 0.578125 -5.96875 C 0.5 -5.96875 0.484375 -5.921875 0.484375 -5.875 C 0.484375 -5.84375 0.484375 -5.828125 0.578125 -5.734375 C 1.6875 -4.671875 1.9375 -3.21875 1.9375 -1.984375 C 1.9375 0.296875 1 1.375 0.59375 1.75 C 0.484375 1.84375 0.484375 1.859375 0.484375 1.890625 C 0.484375 1.9375 0.5 1.984375 0.578125 1.984375 C 0.703125 1.984375 1.109375 1.578125 1.171875 1.515625 C 2.234375 0.390625 2.46875 -1.03125 2.46875 -1.984375 Z M 2.46875 -1.984375 "/>
</g>
<g id="glyph-6-0">
</g>
<g id="glyph-6-1">
<path d="M 13.8125 15.265625 L 15.125 11.78125 L 14.859375 11.78125 C 14.421875 12.90625 13.265625 13.65625 12.015625 13.984375 C 11.796875 14.03125 10.71875 14.3125 8.625 14.3125 L 2.046875 14.3125 L 7.609375 7.8125 C 7.671875 7.71875 7.703125 7.6875 7.703125 7.640625 C 7.703125 7.609375 7.703125 7.578125 7.625 7.46875 L 2.546875 0.53125 L 8.515625 0.53125 C 9.984375 0.53125 10.96875 0.671875 11.0625 0.703125 C 11.65625 0.78125 12.609375 0.96875 13.46875 1.515625 C 13.734375 1.6875 14.484375 2.1875 14.859375 3.0625 L 15.125 3.0625 L 13.8125 0 L 0.921875 0 C 0.671875 0 0.65625 0.015625 0.625 0.078125 C 0.609375 0.109375 0.609375 0.3125 0.609375 0.4375 L 6.375 8.328125 L 0.734375 14.953125 C 0.625 15.078125 0.625 15.140625 0.625 15.15625 C 0.625 15.265625 0.71875 15.265625 0.921875 15.265625 Z M 13.8125 15.265625 "/>
</g>
<g id="glyph-6-2">
<path d="M 2.71875 25.734375 L 5.59375 25.734375 L 5.59375 25.125 L 3.328125 25.125 L 3.328125 0.15625 L 5.59375 0.15625 L 5.59375 -0.4375 L 2.71875 -0.4375 Z M 2.71875 25.734375 "/>
</g>
<g id="glyph-6-3">
<path d="M 7.640625 25.625 C 7.640625 25.578125 7.609375 25.546875 7.59375 25.515625 C 7.1875 25.109375 6.453125 24.390625 5.71875 23.203125 C 3.96875 20.390625 3.171875 16.84375 3.171875 12.65625 C 3.171875 9.71875 3.5625 5.9375 5.359375 2.6875 C 6.234375 1.140625 7.125 0.234375 7.609375 -0.234375 C 7.640625 -0.265625 7.640625 -0.296875 7.640625 -0.328125 C 7.640625 -0.4375 7.5625 -0.4375 7.40625 -0.4375 C 7.25 -0.4375 7.234375 -0.4375 7.0625 -0.265625 C 3.40625 3.046875 2.265625 8.046875 2.265625 12.640625 C 2.265625 16.921875 3.25 21.25 6.015625 24.5 C 6.234375 24.75 6.65625 25.203125 7.09375 25.59375 C 7.234375 25.734375 7.25 25.734375 7.40625 25.734375 C 7.5625 25.734375 7.640625 25.734375 7.640625 25.625 Z M 7.640625 25.625 "/>
</g>
<g id="glyph-6-4">
<path d="M 5.75 12.65625 C 5.75 8.359375 4.765625 4.046875 2 0.78125 C 1.78125 0.53125 1.359375 0.09375 0.921875 -0.3125 C 0.78125 -0.4375 0.765625 -0.4375 0.609375 -0.4375 C 0.484375 -0.4375 0.375 -0.4375 0.375 -0.328125 C 0.375 -0.28125 0.421875 -0.234375 0.453125 -0.21875 C 0.828125 0.171875 1.5625 0.90625 2.296875 2.078125 C 4.046875 4.890625 4.84375 8.4375 4.84375 12.640625 C 4.84375 15.578125 4.453125 19.359375 2.65625 22.609375 C 1.78125 24.15625 0.890625 25.0625 0.421875 25.515625 C 0.40625 25.546875 0.375 25.59375 0.375 25.625 C 0.375 25.734375 0.484375 25.734375 0.609375 25.734375 C 0.765625 25.734375 0.78125 25.734375 0.953125 25.5625 C 4.609375 22.234375 5.75 17.25 5.75 12.65625 Z M 5.75 12.65625 "/>
</g>
<g id="glyph-6-5">
<path d="M 2.421875 25.125 L 0.15625 25.125 L 0.15625 25.734375 L 3.015625 25.734375 L 3.015625 -0.4375 L 0.15625 -0.4375 L 0.15625 0.15625 L 2.421875 0.15625 Z M 2.421875 25.125 "/>
</g>
<g id="glyph-7-0">
</g>
<g id="glyph-7-1">
<path d="M 4.625 -1.8125 C 4.75 -1.8125 4.9375 -1.8125 4.9375 -1.984375 C 4.9375 -2.171875 4.75 -2.171875 4.625 -2.171875 L 1.078125 -2.171875 C 1.171875 -3.28125 2.109375 -4.125 3.3125 -4.125 L 4.625 -4.125 C 4.75 -4.125 4.9375 -4.125 4.9375 -4.3125 C 4.9375 -4.5 4.75 -4.5 4.625 -4.5 L 3.296875 -4.5 C 1.859375 -4.5 0.703125 -3.375 0.703125 -1.984375 C 0.703125 -0.59375 1.859375 0.515625 3.296875 0.515625 L 4.625 0.515625 C 4.75 0.515625 4.9375 0.515625 4.9375 0.328125 C 4.9375 0.140625 4.75 0.140625 4.625 0.140625 L 3.3125 0.140625 C 2.109375 0.140625 1.171875 -0.703125 1.078125 -1.8125 Z M 4.625 -1.8125 "/>
</g>
<g id="glyph-7-2">
<path d="M 1.359375 -5.671875 C 1.359375 -5.796875 1.359375 -5.96875 1.171875 -5.96875 C 0.984375 -5.96875 0.984375 -5.796875 0.984375 -5.671875 L 0.984375 1.6875 C 0.984375 1.8125 0.984375 1.984375 1.171875 1.984375 C 1.359375 1.984375 1.359375 1.8125 1.359375 1.6875 Z M 1.359375 -5.671875 "/>
</g>
<g id="glyph-8-0">
</g>
<g id="glyph-8-1">
<path d="M 4.15625 -5.34375 C 3.96875 -5.171875 3.703125 -4.921875 3.359375 -4.921875 C 3.203125 -4.921875 3.0625 -4.984375 2.9375 -5.046875 C 2.53125 -5.234375 2.046875 -5.46875 1.703125 -5.46875 C 0.953125 -5.46875 0.625 -4.796875 0.21875 -3.71875 L 0.359375 -3.640625 C 0.5625 -4.171875 0.90625 -4.796875 1.53125 -4.796875 C 1.875 -4.796875 2.359375 -4.5625 3.015625 -4.328125 C 3.46875 -4.5625 3.875 -4.875 4.25 -5.21875 Z M 0.34375 0.125 L 0.765625 -0.171875 C 0.984375 0.03125 1.234375 0.21875 1.53125 0.21875 C 2.1875 0.21875 2.765625 -0.140625 3.234375 -0.59375 C 3.578125 -0.953125 3.703125 -1.453125 3.703125 -1.953125 C 3.703125 -2.53125 3.578125 -3 3.578125 -3.703125 C 3.578125 -4.0625 3.828125 -4.359375 4.09375 -4.609375 L 4 -4.65625 C 3.59375 -4.40625 3.203125 -4.046875 2.890625 -3.6875 C 2.875 -3.609375 2.875 -3.515625 2.875 -3.421875 C 2.875 -2.921875 3.015625 -2.359375 3.015625 -1.65625 C 3.015625 -1.015625 2.828125 -0.140625 2.125 -0.140625 C 1.921875 -0.140625 1.703125 -0.234375 1.5625 -0.375 C 1.46875 -0.484375 1.421875 -0.5625 1.21875 -1.015625 C 1.171875 -0.984375 0.5625 -0.34375 0.296875 0 Z M 0.34375 0.125 "/>
</g>
<g id="glyph-9-0">
</g>
<g id="glyph-9-1">
<path d="M 2.078125 -3.734375 C 2.078125 -3.875 1.96875 -3.96875 1.84375 -3.96875 C 1.671875 -3.96875 1.5 -3.8125 1.5 -3.640625 C 1.5 -3.5 1.609375 -3.40625 1.734375 -3.40625 C 1.9375 -3.40625 2.078125 -3.578125 2.078125 -3.734375 Z M 1.71875 -1.640625 C 1.75 -1.703125 1.796875 -1.84375 1.828125 -1.90625 C 1.84375 -1.953125 1.859375 -2.015625 1.859375 -2.125 C 1.859375 -2.453125 1.5625 -2.640625 1.265625 -2.640625 C 0.65625 -2.640625 0.359375 -1.84375 0.359375 -1.71875 C 0.359375 -1.6875 0.390625 -1.640625 0.46875 -1.640625 C 0.5625 -1.640625 0.578125 -1.671875 0.59375 -1.71875 C 0.765625 -2.296875 1.078125 -2.4375 1.25 -2.4375 C 1.359375 -2.4375 1.40625 -2.359375 1.40625 -2.21875 C 1.40625 -2.109375 1.375 -2.015625 1.359375 -1.96875 L 1.046875 -1.203125 C 0.96875 -1.03125 0.96875 -1.015625 0.890625 -0.8125 C 0.8125 -0.640625 0.796875 -0.5625 0.796875 -0.453125 C 0.796875 -0.15625 1.0625 0.0625 1.390625 0.0625 C 2 0.0625 2.296875 -0.734375 2.296875 -0.859375 C 2.296875 -0.875 2.296875 -0.953125 2.1875 -0.953125 C 2.09375 -0.953125 2.09375 -0.921875 2.0625 -0.796875 C 1.96875 -0.5 1.71875 -0.140625 1.40625 -0.140625 C 1.296875 -0.140625 1.25 -0.203125 1.25 -0.359375 C 1.25 -0.46875 1.28125 -0.5625 1.359375 -0.75 Z M 1.71875 -1.640625 "/>
</g>
<g id="glyph-9-2">
<path d="M 1.984375 -3.96875 C 2 -4 2 -4.03125 2 -4.0625 C 2 -4.15625 1.890625 -4.15625 1.8125 -4.140625 L 1.140625 -4.09375 C 1.046875 -4.09375 0.96875 -4.078125 0.96875 -3.9375 C 0.96875 -3.84375 1.046875 -3.84375 1.140625 -3.84375 C 1.3125 -3.84375 1.359375 -3.828125 1.4375 -3.8125 C 1.4375 -3.734375 1.4375 -3.71875 1.40625 -3.625 L 0.5625 -0.28125 C 0.546875 -0.1875 0.546875 -0.15625 0.546875 -0.140625 C 0.546875 0 0.671875 0.0625 0.75 0.0625 C 0.8125 0.0625 0.921875 0.03125 1 -0.078125 C 1.046875 -0.15625 1.28125 -1.15625 1.328125 -1.34375 C 1.71875 -1.3125 2.15625 -1.21875 2.15625 -0.859375 C 2.15625 -0.828125 2.15625 -0.796875 2.140625 -0.734375 C 2.125 -0.640625 2.125 -0.609375 2.125 -0.5625 C 2.125 -0.171875 2.453125 0.0625 2.796875 0.0625 C 3.375 0.0625 3.578125 -0.8125 3.578125 -0.859375 C 3.578125 -0.875 3.578125 -0.953125 3.46875 -0.953125 C 3.390625 -0.953125 3.375 -0.90625 3.34375 -0.8125 C 3.28125 -0.59375 3.125 -0.140625 2.8125 -0.140625 C 2.578125 -0.140625 2.578125 -0.390625 2.578125 -0.453125 C 2.578125 -0.5625 2.578125 -0.5625 2.609375 -0.6875 C 2.609375 -0.6875 2.640625 -0.8125 2.640625 -0.875 C 2.640625 -1.34375 2.125 -1.484375 1.65625 -1.53125 C 1.8125 -1.609375 1.9375 -1.71875 2.171875 -1.921875 C 2.46875 -2.1875 2.78125 -2.4375 3.109375 -2.4375 C 3.1875 -2.4375 3.265625 -2.421875 3.3125 -2.359375 C 3.109375 -2.328125 3.015625 -2.15625 3.015625 -2.03125 C 3.015625 -1.84375 3.171875 -1.796875 3.25 -1.796875 C 3.390625 -1.796875 3.609375 -1.890625 3.609375 -2.1875 C 3.609375 -2.453125 3.40625 -2.640625 3.125 -2.640625 C 2.734375 -2.640625 2.390625 -2.359375 2.109375 -2.109375 C 1.796875 -1.84375 1.609375 -1.6875 1.390625 -1.609375 Z M 1.984375 -3.96875 "/>
</g>
<g id="glyph-10-0">
</g>
<g id="glyph-10-1">
<path d="M 5.375 -4.734375 C 5.46875 -4.78125 5.53125 -4.828125 5.53125 -4.90625 C 5.53125 -5 5.453125 -5.0625 5.375 -5.0625 C 5.328125 -5.0625 5.265625 -5.03125 5.234375 -5.015625 L 0.828125 -2.9375 C 0.6875 -2.875 0.65625 -2.828125 0.65625 -2.75 C 0.65625 -2.6875 0.6875 -2.640625 0.828125 -2.578125 L 5.234375 -0.515625 C 5.328125 -0.453125 5.34375 -0.453125 5.375 -0.453125 C 5.453125 -0.453125 5.53125 -0.53125 5.53125 -0.609375 C 5.53125 -0.71875 5.453125 -0.75 5.375 -0.78125 L 1.1875 -2.75 Z M 5.234375 1.03125 C 5.328125 1.09375 5.34375 1.09375 5.375 1.09375 C 5.453125 1.09375 5.53125 1.015625 5.53125 0.9375 C 5.53125 0.828125 5.453125 0.796875 5.375 0.75 L 0.96875 -1.3125 C 0.875 -1.375 0.859375 -1.375 0.828125 -1.375 C 0.71875 -1.375 0.65625 -1.296875 0.65625 -1.21875 C 0.65625 -1.140625 0.6875 -1.09375 0.828125 -1.03125 Z M 5.234375 1.03125 "/>
</g>
</g>
</defs>
<g fill="rgb(0%, 0%, 0%)" fill-opacity="1">
<use xlink:href="#glyph-0-1" x="0.5" y="16.319"/>
</g>
<g fill="rgb(0%, 0%, 0%)" fill-opacity="1">
<use xlink:href="#glyph-1-1" x="7.766" y="18.007"/>
</g>
<g fill="rgb(0%, 0%, 0%)" fill-opacity="1">
<use xlink:href="#glyph-2-1" x="14.607" y="16.319"/>
</g>
<g fill="rgb(0%, 0%, 0%)" fill-opacity="1">
<use xlink:href="#glyph-3-1" x="18.849" y="16.319"/>
</g>
<g fill="rgb(0%, 0%, 0%)" fill-opacity="1">
<use xlink:href="#glyph-3-2" x="24.275186" y="16.319"/>
</g>
<g fill="rgb(0%, 0%, 0%)" fill-opacity="1">
<use xlink:href="#glyph-3-3" x="29.116645" y="16.319"/>
</g>
<g fill="rgb(0%, 0%, 0%)" fill-opacity="1">
<use xlink:href="#glyph-1-2" x="35.486" y="11.814"/>
</g>
<g fill="rgb(0%, 0%, 0%)" fill-opacity="1">
<use xlink:href="#glyph-2-2" x="40.605" y="16.319"/>
</g>
<g fill="rgb(0%, 0%, 0%)" fill-opacity="1">
<use xlink:href="#glyph-3-4" x="45.454" y="16.319"/>
</g>
<g fill="rgb(0%, 0%, 0%)" fill-opacity="1">
<use xlink:href="#glyph-1-2" x="52.027" y="18.096"/>
</g>
<g fill="rgb(0%, 0%, 0%)" fill-opacity="1">
<use xlink:href="#glyph-2-3" x="57.147" y="16.319"/>
</g>
<g fill="rgb(0%, 0%, 0%)" fill-opacity="1">
<use xlink:href="#glyph-2-4" x="64.422279" y="16.319"/>
</g>
<g fill="rgb(0%, 0%, 0%)" fill-opacity="1">
<use xlink:href="#glyph-4-1" x="75.935" y="16.319"/>
</g>
<g fill="rgb(0%, 0%, 0%)" fill-opacity="1">
<use xlink:href="#glyph-5-1" x="85.025" y="11.814"/>
</g>
<g fill="rgb(0%, 0%, 0%)" fill-opacity="1">
<use xlink:href="#glyph-3-5" x="89.758" y="16.319"/>
</g>
<g fill="rgb(0%, 0%, 0%)" fill-opacity="1">
<use xlink:href="#glyph-2-1" x="96.273" y="16.319"/>
</g>
<g fill="rgb(0%, 0%, 0%)" fill-opacity="1">
<use xlink:href="#glyph-3-1" x="100.515" y="16.319"/>
</g>
<g fill="rgb(0%, 0%, 0%)" fill-opacity="1">
<use xlink:href="#glyph-2-3" x="105.94" y="16.319"/>
</g>
<g fill="rgb(0%, 0%, 0%)" fill-opacity="1">
<use xlink:href="#glyph-2-5" x="112.604369" y="16.319"/>
</g>
<g fill="rgb(0%, 0%, 0%)" fill-opacity="1">
<use xlink:href="#glyph-6-1" x="144.777" y="5.955"/>
</g>
<g fill="rgb(0%, 0%, 0%)" fill-opacity="1">
<use xlink:href="#glyph-1-3" x="123.515" y="31.033"/>
</g>
<g fill="rgb(0%, 0%, 0%)" fill-opacity="1">
<use xlink:href="#glyph-7-1" x="126.398" y="31.033"/>
</g>
<g fill="rgb(0%, 0%, 0%)" fill-opacity="1">
<use xlink:href="#glyph-8-1" x="132.044" y="31.033"/>
</g>
<g fill="rgb(0%, 0%, 0%)" fill-opacity="1">
<use xlink:href="#glyph-7-2" x="136.463" y="31.033"/>
</g>
<g fill="rgb(0%, 0%, 0%)" fill-opacity="1">
<use xlink:href="#glyph-1-4" x="138.816" y="31.033"/>
</g>
<g fill="rgb(0%, 0%, 0%)" fill-opacity="1">
<use xlink:href="#glyph-9-1" x="142.483" y="32.248"/>
</g>
<g fill="rgb(0%, 0%, 0%)" fill-opacity="1">
<use xlink:href="#glyph-5-2" x="145.645" y="31.033"/>
</g>
<g fill="rgb(0%, 0%, 0%)" fill-opacity="1">
<use xlink:href="#glyph-1-5" x="148.938" y="31.033"/>
</g>
<g fill="rgb(0%, 0%, 0%)" fill-opacity="1">
<use xlink:href="#glyph-5-3" x="153.124" y="31.033"/>
</g>
<g fill="rgb(0%, 0%, 0%)" fill-opacity="1">
<use xlink:href="#glyph-10-1" x="156.417" y="31.033"/>
</g>
<g fill="rgb(0%, 0%, 0%)" fill-opacity="1">
<use xlink:href="#glyph-1-6" x="162.616" y="31.033"/>
</g>
<g fill="rgb(0%, 0%, 0%)" fill-opacity="1">
<use xlink:href="#glyph-9-2" x="167.711" y="32.439"/>
</g>
<g fill="rgb(0%, 0%, 0%)" fill-opacity="1">
<use xlink:href="#glyph-1-7" x="172.284" y="31.033"/>
</g>
<g fill="rgb(0%, 0%, 0%)" fill-opacity="1">
<use xlink:href="#glyph-9-2" x="177.224" y="28.288"/>
</g>
<g fill="rgb(0%, 0%, 0%)" fill-opacity="1">
<use xlink:href="#glyph-9-1" x="177.224" y="33.683"/>
</g>
<g fill="rgb(0%, 0%, 0%)" fill-opacity="1">
<use xlink:href="#glyph-6-2" x="183.615" y="0.937"/>
</g>
<g fill="rgb(0%, 0%, 0%)" fill-opacity="1">
<use xlink:href="#glyph-2-6" x="193.687" y="8.939"/>
</g>
<path fill="none" stroke-width="0.436" stroke-linecap="butt" stroke-linejoin="miter" stroke="rgb(0%, 0%, 0%)" stroke-opacity="1" stroke-miterlimit="10" d="M -0.00159375 0.00115625 L 11.693719 0.00115625 " transform="matrix(1, 0, 0, -1, 190.568, 13.591)"/>
<g fill="rgb(0%, 0%, 0%)" fill-opacity="1">
<use xlink:href="#glyph-3-4" x="190.568" y="23.802"/>
</g>
<g fill="rgb(0%, 0%, 0%)" fill-opacity="1">
<use xlink:href="#glyph-1-2" x="197.141" y="25.579"/>
</g>
<g fill="rgb(0%, 0%, 0%)" fill-opacity="1">
<use xlink:href="#glyph-4-1" x="203.457" y="16.319"/>
</g>
<g fill="rgb(0%, 0%, 0%)" fill-opacity="1">
<use xlink:href="#glyph-3-6" x="212.548" y="16.319"/>
</g>
<g fill="rgb(0%, 0%, 0%)" fill-opacity="1">
<use xlink:href="#glyph-5-1" x="217.269" y="11.814"/>
</g>
<g fill="rgb(0%, 0%, 0%)" fill-opacity="1">
<use xlink:href="#glyph-1-3" x="217.269" y="19.016"/>
</g>
<g fill="rgb(0%, 0%, 0%)" fill-opacity="1">
<use xlink:href="#glyph-2-1" x="222.001" y="16.319"/>
</g>
<g fill="rgb(0%, 0%, 0%)" fill-opacity="1">
<use xlink:href="#glyph-3-1" x="226.243" y="16.319"/>
</g>
<g fill="rgb(0%, 0%, 0%)" fill-opacity="1">
<use xlink:href="#glyph-2-3" x="231.668" y="16.319"/>
</g>
<g fill="rgb(0%, 0%, 0%)" fill-opacity="1">
<use xlink:href="#glyph-4-2" x="238.334" y="16.319"/>
</g>
<g fill="rgb(0%, 0%, 0%)" fill-opacity="1">
<use xlink:href="#glyph-6-3" x="249.243" y="0.937"/>
</g>
<g fill="rgb(0%, 0%, 0%)" fill-opacity="1">
<use xlink:href="#glyph-3-3" x="257.274" y="16.319"/>
</g>
<g fill="rgb(0%, 0%, 0%)" fill-opacity="1">
<use xlink:href="#glyph-1-2" x="263.637" y="11.815"/>
</g>
<g fill="rgb(0%, 0%, 0%)" fill-opacity="1">
<use xlink:href="#glyph-1-3" x="263.637" y="19.016"/>
</g>
<g fill="rgb(0%, 0%, 0%)" fill-opacity="1">
<use xlink:href="#glyph-4-2" x="271.181" y="16.319"/>
</g>
<g fill="rgb(0%, 0%, 0%)" fill-opacity="1">
<use xlink:href="#glyph-3-6" x="283.286" y="8.939"/>
</g>
<g fill="rgb(0%, 0%, 0%)" fill-opacity="1">
<use xlink:href="#glyph-1-3" x="288.007" y="10.575"/>
</g>
<g fill="rgb(0%, 0%, 0%)" fill-opacity="1">
<use xlink:href="#glyph-2-1" x="291.388" y="8.939"/>
</g>
<g fill="rgb(0%, 0%, 0%)" fill-opacity="1">
<use xlink:href="#glyph-3-1" x="295.63" y="8.939"/>
</g>
<g fill="rgb(0%, 0%, 0%)" fill-opacity="1">
<use xlink:href="#glyph-2-3" x="301.055" y="8.939"/>
</g>
<path fill="none" stroke-width="0.436" stroke-linecap="butt" stroke-linejoin="miter" stroke="rgb(0%, 0%, 0%)" stroke-opacity="1" stroke-miterlimit="10" d="M -0.00084375 0.00115625 L 22.010875 0.00115625 " transform="matrix(1, 0, 0, -1, 283.286, 13.591)"/>
<g fill="rgb(0%, 0%, 0%)" fill-opacity="1">
<use xlink:href="#glyph-3-4" x="288.445" y="23.802"/>
</g>
<g fill="rgb(0%, 0%, 0%)" fill-opacity="1">
<use xlink:href="#glyph-1-2" x="295.018" y="25.579"/>
</g>
<g fill="rgb(0%, 0%, 0%)" fill-opacity="1">
<use xlink:href="#glyph-6-4" x="306.493" y="0.937"/>
</g>
<g fill="rgb(0%, 0%, 0%)" fill-opacity="1">
<use xlink:href="#glyph-4-1" x="316.341" y="16.319"/>
</g>
<g fill="rgb(0%, 0%, 0%)" fill-opacity="1">
<use xlink:href="#glyph-5-1" x="325.432" y="11.814"/>
</g>
<g fill="rgb(0%, 0%, 0%)" fill-opacity="1">
<use xlink:href="#glyph-3-6" x="330.164" y="16.319"/>
</g>
<g fill="rgb(0%, 0%, 0%)" fill-opacity="1">
<use xlink:href="#glyph-1-3" x="334.885" y="17.955"/>
</g>
<g fill="rgb(0%, 0%, 0%)" fill-opacity="1">
<use xlink:href="#glyph-2-1" x="338.267" y="16.319"/>
</g>
<g fill="rgb(0%, 0%, 0%)" fill-opacity="1">
<use xlink:href="#glyph-3-1" x="342.509" y="16.319"/>
</g>
<g fill="rgb(0%, 0%, 0%)" fill-opacity="1">
<use xlink:href="#glyph-2-3" x="347.933" y="16.319"/>
</g>
<g fill="rgb(0%, 0%, 0%)" fill-opacity="1">
<use xlink:href="#glyph-6-5" x="352.176" y="0.937"/>
</g>
<g fill="rgb(0%, 0%, 0%)" fill-opacity="1">
<use xlink:href="#glyph-3-7" x="359.751" y="16.319"/>
</g>
</svg>
