<?xml version="1.0" encoding="UTF-8"?>
<svg xmlns="http://www.w3.org/2000/svg" xmlns:xlink="http://www.w3.org/1999/xlink" width="11.909" height="25.243" viewBox="0 0 11.909 25.243">
<defs>
<g>
<g id="glyph-0-0">
</g>
<g id="glyph-0-1">
<path d="M 1.140625 23.75 C 1.484375 23.71875 1.671875 23.484375 1.671875 23.203125 C 1.671875 22.84375 1.390625 22.671875 1.140625 22.671875 C 0.890625 22.671875 0.609375 22.84375 0.609375 23.21875 C 0.609375 23.78125 1.15625 24.234375 1.828125 24.234375 C 3.484375 24.234375 4.09375 21.6875 4.875 18.515625 C 5.71875 15.078125 6.421875 11.59375 7.015625 8.09375 C 7.421875 5.765625 7.8125 3.59375 8.1875 2.1875 C 8.328125 1.640625 8.6875 0.234375 9.125 0.234375 C 9.453125 0.234375 9.734375 0.453125 9.765625 0.484375 C 9.40625 0.515625 9.234375 0.75 9.234375 1.03125 C 9.234375 1.390625 9.5 1.5625 9.75 1.5625 C 10.015625 1.5625 10.28125 1.390625 10.28125 1.015625 C 10.28125 0.421875 9.703125 0 9.09375 0 C 8.265625 0 7.65625 1.1875 7.0625 3.40625 C 7.03125 3.53125 5.546875 9.015625 4.34375 16.140625 C 4.0625 17.8125 3.734375 19.625 3.375 21.140625 C 3.1875 21.9375 2.6875 24 1.796875 24 C 1.40625 24 1.140625 23.75 1.140625 23.75 Z M 1.140625 23.75 "/>
</g>
</g>
</defs>
<g fill="rgb(0%, 0%, 0%)" fill-opacity="1">
<use xlink:href="#glyph-0-1" x="0.5" y="0.5"/>
</g>
</svg>
