<?xml version="1.0" encoding="UTF-8"?>
<svg xmlns="http://www.w3.org/2000/svg" xmlns:xlink="http://www.w3.org/1999/xlink" width="6.455" height="11.909" viewBox="0 0 6.455 11.909">
<defs>
<g>
<g id="glyph-0-0">
</g>
<g id="glyph-0-1">
<path d="M 1.875 -7.8125 C 1.875 -7.984375 1.875 -8.171875 1.65625 -8.171875 C 1.4375 -8.171875 1.4375 -7.9375 1.4375 -7.78125 L 1.4375 2.328125 C 1.4375 2.5 1.4375 2.71875 1.65625 2.71875 C 1.875 2.71875 1.875 2.53125 1.875 2.359375 Z M 4 -7.78125 C 4 -7.953125 4 -8.171875 3.78125 -8.171875 C 3.5625 -8.171875 3.5625 -7.984375 3.5625 -7.8125 L 3.5625 2.359375 C 3.5625 2.53125 3.5625 2.71875 3.78125 2.71875 C 4 2.71875 4 2.484375 4 2.328125 Z M 4 -7.78125 "/>
</g>
</g>
<clipPath id="clip-0">
<path clip-rule="nonzero" d="M 1 0 L 5 0 L 5 11.910156 L 1 11.910156 Z M 1 0 "/>
</clipPath>
</defs>
<g clip-path="url(#clip-0)">
<g fill="rgb(0%, 0%, 0%)" fill-opacity="1">
<use xlink:href="#glyph-0-1" x="0.5" y="8.682"/>
</g>
</g>
</svg>
