<?xml version="1.0" encoding="UTF-8"?>
<svg xmlns="http://www.w3.org/2000/svg" xmlns:xlink="http://www.w3.org/1999/xlink" width="13.488" height="12.415" viewBox="0 0 13.488 12.415">
<defs>
<g>
<g id="glyph-0-0">
</g>
<g id="glyph-0-1">
<path d="M 1.875 -7.8125 C 1.875 -7.984375 1.875 -8.171875 1.65625 -8.171875 C 1.4375 -8.171875 1.4375 -7.9375 1.4375 -7.78125 L 1.4375 2.328125 C 1.4375 2.5 1.4375 2.71875 1.65625 2.71875 C 1.875 2.71875 1.875 2.53125 1.875 2.359375 Z M 4 -7.78125 C 4 -7.953125 4 -8.171875 3.78125 -8.171875 C 3.5625 -8.171875 3.5625 -7.984375 3.5625 -7.8125 L 3.5625 2.359375 C 3.5625 2.53125 3.5625 2.71875 3.78125 2.71875 C 4 2.71875 4 2.484375 4 2.328125 Z M 4 -7.78125 "/>
</g>
<g id="glyph-1-0">
</g>
<g id="glyph-1-1">
<path d="M 2.515625 -2.578125 L 3.34375 -2.578125 C 4 -2.578125 4.03125 -2.453125 4.03125 -2.21875 C 4.03125 -2.171875 4.03125 -2.09375 3.96875 -1.875 C 3.96875 -1.84375 3.953125 -1.78125 3.953125 -1.765625 C 3.953125 -1.75 3.953125 -1.65625 4.078125 -1.65625 C 4.171875 -1.65625 4.203125 -1.734375 4.21875 -1.828125 L 4.640625 -3.53125 C 4.65625 -3.546875 4.671875 -3.65625 4.671875 -3.671875 C 4.671875 -3.703125 4.65625 -3.78125 4.546875 -3.78125 C 4.453125 -3.78125 4.4375 -3.703125 4.421875 -3.609375 C 4.25 -2.984375 4.078125 -2.84375 3.359375 -2.84375 L 2.59375 -2.84375 L 3.09375 -4.859375 C 3.15625 -5.140625 3.171875 -5.15625 3.5 -5.15625 L 4.671875 -5.15625 C 5.625 -5.15625 5.890625 -4.953125 5.890625 -4.265625 C 5.890625 -4.109375 5.84375 -3.890625 5.84375 -3.75 C 5.84375 -3.65625 5.90625 -3.609375 5.96875 -3.609375 C 6.078125 -3.609375 6.09375 -3.6875 6.109375 -3.8125 L 6.25 -5.171875 C 6.25 -5.21875 6.25 -5.265625 6.25 -5.3125 C 6.25 -5.421875 6.15625 -5.421875 6.015625 -5.421875 L 1.921875 -5.421875 C 1.78125 -5.421875 1.6875 -5.421875 1.6875 -5.28125 C 1.6875 -5.15625 1.78125 -5.15625 1.90625 -5.15625 C 1.96875 -5.15625 2.078125 -5.15625 2.21875 -5.140625 C 2.375 -5.125 2.40625 -5.109375 2.40625 -5.03125 C 2.40625 -4.984375 2.40625 -4.953125 2.375 -4.875 L 1.3125 -0.625 C 1.25 -0.328125 1.234375 -0.265625 0.640625 -0.265625 C 0.484375 -0.265625 0.390625 -0.265625 0.390625 -0.109375 C 0.390625 -0.078125 0.421875 0 0.515625 0 C 0.6875 0 0.875 -0.03125 1.046875 -0.03125 L 2.15625 -0.03125 C 2.296875 -0.015625 2.59375 0 2.734375 0 C 2.796875 0 2.90625 0 2.90625 -0.15625 C 2.90625 -0.265625 2.8125 -0.265625 2.640625 -0.265625 C 2.484375 -0.265625 2.421875 -0.265625 2.234375 -0.28125 C 2.015625 -0.296875 1.984375 -0.328125 1.984375 -0.421875 C 1.984375 -0.4375 1.984375 -0.484375 2.03125 -0.59375 Z M 2.515625 -2.578125 "/>
</g>
</g>
</defs>
<g fill="rgb(0%, 0%, 0%)" fill-opacity="1">
<use xlink:href="#glyph-0-1" x="0.5" y="8.682"/>
</g>
<g fill="rgb(0%, 0%, 0%)" fill-opacity="1">
<use xlink:href="#glyph-1-1" x="5.955" y="11.915"/>
</g>
</svg>
