<?xml version="1.0" encoding="UTF-8"?>
<svg xmlns="http://www.w3.org/2000/svg" xmlns:xlink="http://www.w3.org/1999/xlink" width="66.612" height="12.345" viewBox="0 0 66.612 12.345">
<defs>
<g>
<g id="glyph-0-0">
</g>
<g id="glyph-0-1">
<path d="M 2.9375 -4.453125 C 2.375 -4.171875 1.703125 -3.703125 1.703125 -3.09375 C 1.703125 -2.953125 2.078125 -2.484375 2.125 -2.421875 C 2.265625 -2.25 2.375 -2.046875 2.375 -1.828125 C 2.375 -1.296875 1.625 -1.0625 1.109375 -1.0625 C 0.75 -0.765625 0.46875 -0.40625 0.25 0 L 0.375 0.125 C 0.578125 -0.171875 0.875 -0.515625 1.234375 -0.515625 C 1.734375 -0.515625 2.34375 -0.265625 2.84375 -0.0625 C 3.109375 0.046875 3.5625 0.21875 3.734375 0.21875 C 4.203125 0.21875 5 -0.625 5.5 -1.171875 C 5.78125 -1.875 5.9375 -2.5 5.9375 -3.265625 C 5.9375 -4.203125 5.296875 -5.078125 4.40625 -5.34375 C 3.875 -5.484375 3.453125 -5.5 2.96875 -5.5 C 2.25 -5.5 1.421875 -5.25 0.890625 -4.71875 C 0.421875 -4.265625 0.21875 -3.671875 0.21875 -3.015625 L 0.375 -2.921875 C 0.40625 -3.390625 0.5625 -3.921875 0.921875 -4.265625 C 1.390625 -4.75 2.09375 -4.875 2.75 -4.875 C 3.5 -4.875 4.265625 -4.6875 4.796875 -4.15625 C 5.21875 -3.75 5.34375 -3.15625 5.34375 -2.59375 C 5.34375 -2.078125 5.296875 -1.484375 5.015625 -1.0625 C 4.734375 -0.65625 4.59375 -0.375 4.078125 -0.375 C 3.921875 -0.375 3.34375 -0.59375 2.984375 -0.71875 C 2.65625 -0.84375 2.265625 -0.96875 1.921875 -1.046875 C 2.40625 -1.25 3.09375 -1.640625 3.09375 -2.203125 C 3.09375 -2.59375 2.375 -3.203125 2.375 -3.515625 C 2.375 -3.828125 2.859375 -4.234375 3.0625 -4.359375 Z M 2.9375 -4.453125 "/>
</g>
<g id="glyph-0-2">
<path d="M 5.015625 -1.5625 C 4.9375 -1.296875 4.84375 -1.015625 4.625 -0.8125 C 4.375 -0.5625 4.03125 -0.515625 3.703125 -0.515625 C 3.03125 -0.515625 2.296875 -0.78125 1.671875 -1.046875 C 1.734375 -1.09375 2.59375 -1.859375 2.59375 -2.125 C 2.59375 -2.609375 2.140625 -3.25 1.984375 -3.71875 C 1.9375 -3.859375 1.90625 -4 1.90625 -4.15625 C 1.90625 -4.78125 2.453125 -5.125 3 -5.125 C 3.4375 -5.125 3.84375 -4.890625 3.84375 -4.3125 C 3.84375 -4 3.78125 -3.703125 3.78125 -3.578125 C 3.78125 -3.390625 4 -3.21875 4.109375 -3.21875 L 5.0625 -3.453125 L 5.0625 -3.609375 C 4.8125 -3.609375 4.53125 -3.625 4.53125 -3.84375 C 4.53125 -3.984375 4.5625 -4.34375 4.5625 -4.546875 C 4.5625 -5.3125 4.0625 -5.46875 3.5625 -5.46875 C 2.6875 -5.46875 1.875 -5.03125 1.421875 -4.234375 C 1.34375 -4.078125 1.28125 -3.90625 1.28125 -3.734375 C 1.28125 -3.03125 2.015625 -2.328125 2.015625 -1.8125 C 2.015625 -1.515625 1.6875 -1.234375 1.390625 -1.140625 L 1.140625 -1.140625 C 0.640625 -1.0625 0.4375 -0.421875 0.25 0 L 0.34375 0.125 C 0.546875 -0.203125 0.78125 -0.546875 1.015625 -0.546875 C 1.1875 -0.546875 1.375 -0.5 1.53125 -0.421875 C 2.25 -0.109375 3.046875 0.21875 3.78125 0.21875 C 4.484375 0.21875 4.859375 0.015625 5.140625 -1.484375 Z M 5.015625 -1.5625 "/>
</g>
<g id="glyph-1-0">
</g>
<g id="glyph-1-1">
<path d="M 2.078125 -3.734375 C 2.078125 -3.875 1.96875 -3.96875 1.84375 -3.96875 C 1.671875 -3.96875 1.5 -3.8125 1.5 -3.640625 C 1.5 -3.5 1.609375 -3.40625 1.734375 -3.40625 C 1.9375 -3.40625 2.078125 -3.578125 2.078125 -3.734375 Z M 1.71875 -1.640625 C 1.75 -1.703125 1.796875 -1.84375 1.828125 -1.90625 C 1.84375 -1.953125 1.859375 -2.015625 1.859375 -2.125 C 1.859375 -2.453125 1.5625 -2.640625 1.265625 -2.640625 C 0.65625 -2.640625 0.359375 -1.84375 0.359375 -1.71875 C 0.359375 -1.6875 0.390625 -1.640625 0.46875 -1.640625 C 0.5625 -1.640625 0.578125 -1.671875 0.59375 -1.71875 C 0.765625 -2.296875 1.078125 -2.4375 1.25 -2.4375 C 1.359375 -2.4375 1.40625 -2.359375 1.40625 -2.21875 C 1.40625 -2.109375 1.375 -2.015625 1.359375 -1.96875 L 1.046875 -1.203125 C 0.96875 -1.03125 0.96875 -1.015625 0.890625 -0.8125 C 0.8125 -0.640625 0.796875 -0.5625 0.796875 -0.453125 C 0.796875 -0.15625 1.0625 0.0625 1.390625 0.0625 C 2 0.0625 2.296875 -0.734375 2.296875 -0.859375 C 2.296875 -0.875 2.296875 -0.953125 2.1875 -0.953125 C 2.09375 -0.953125 2.09375 -0.921875 2.0625 -0.796875 C 1.96875 -0.5 1.71875 -0.140625 1.40625 -0.140625 C 1.296875 -0.140625 1.25 -0.203125 1.25 -0.359375 C 1.25 -0.46875 1.28125 -0.5625 1.359375 -0.75 Z M 1.71875 -1.640625 "/>
</g>
<g id="glyph-1-2">
<path d="M 2.734375 -2.25 C 2.5625 -2.203125 2.5 -2.0625 2.5 -1.96875 C 2.5 -1.875 2.5625 -1.765625 2.703125 -1.765625 C 2.828125 -1.765625 3 -1.859375 3 -2.109375 C 3 -2.515625 2.546875 -2.640625 2.15625 -2.640625 C 1.234375 -2.640625 1.015625 -2.03125 1.015625 -1.78125 C 1.015625 -1.296875 1.5625 -1.203125 1.71875 -1.171875 C 2.171875 -1.09375 2.515625 -1.03125 2.515625 -0.734375 C 2.515625 -0.609375 2.421875 -0.390625 2.203125 -0.28125 C 1.96875 -0.15625 1.71875 -0.140625 1.53125 -0.140625 C 1.328125 -0.140625 0.953125 -0.15625 0.78125 -0.359375 C 1 -0.390625 1.09375 -0.5625 1.09375 -0.703125 C 1.09375 -0.828125 1.015625 -0.921875 0.84375 -0.921875 C 0.6875 -0.921875 0.5 -0.796875 0.5 -0.515625 C 0.5 -0.1875 0.828125 0.0625 1.53125 0.0625 C 2.65625 0.0625 2.890625 -0.640625 2.890625 -0.90625 C 2.890625 -1.109375 2.8125 -1.25 2.671875 -1.359375 C 2.484375 -1.53125 2.25 -1.5625 1.96875 -1.609375 C 1.671875 -1.671875 1.390625 -1.71875 1.390625 -1.953125 C 1.390625 -1.953125 1.390625 -2.4375 2.140625 -2.4375 C 2.296875 -2.4375 2.59375 -2.421875 2.734375 -2.25 Z M 2.734375 -2.25 "/>
</g>
<g id="glyph-1-3">
<path d="M 3.40625 -1.578125 C 3.40625 -2.171875 2.9375 -2.640625 2.234375 -2.640625 C 1.328125 -2.640625 0.453125 -1.84375 0.453125 -1 C 0.453125 -0.359375 0.953125 0.0625 1.609375 0.0625 C 2.546875 0.0625 3.40625 -0.75 3.40625 -1.578125 Z M 1.625 -0.140625 C 1.28125 -0.140625 0.96875 -0.34375 0.96875 -0.8125 C 0.96875 -1.015625 1.0625 -1.5625 1.3125 -1.921875 C 1.5625 -2.28125 1.9375 -2.4375 2.234375 -2.4375 C 2.53125 -2.4375 2.875 -2.265625 2.875 -1.765625 C 2.875 -1.625 2.8125 -1.015625 2.484375 -0.59375 C 2.296875 -0.359375 1.96875 -0.140625 1.625 -0.140625 Z M 1.625 -0.140625 "/>
</g>
<g id="glyph-2-0">
</g>
<g id="glyph-2-1">
<path d="M 3.46875 -1.8125 L 5.8125 -1.8125 C 5.921875 -1.8125 6.109375 -1.8125 6.109375 -1.984375 C 6.109375 -2.171875 5.921875 -2.171875 5.8125 -2.171875 L 3.46875 -2.171875 L 3.46875 -4.53125 C 3.46875 -4.640625 3.46875 -4.8125 3.296875 -4.8125 C 3.109375 -4.8125 3.109375 -4.640625 3.109375 -4.53125 L 3.109375 -2.171875 L 0.75 -2.171875 C 0.640625 -2.171875 0.46875 -2.171875 0.46875 -1.984375 C 0.46875 -1.8125 0.640625 -1.8125 0.75 -1.8125 L 3.109375 -1.8125 L 3.109375 0.546875 C 3.109375 0.65625 3.109375 0.828125 3.296875 0.828125 C 3.46875 0.828125 3.46875 0.65625 3.46875 0.546875 Z M 3.46875 -1.8125 "/>
</g>
<g id="glyph-3-0">
</g>
<g id="glyph-3-1">
<path d="M 4.25 9.328125 L 2.328125 5.078125 C 2.25 4.90625 2.1875 4.90625 2.15625 4.90625 C 2.15625 4.90625 2.09375 4.90625 1.96875 5 L 0.9375 5.78125 C 0.796875 5.890625 0.796875 5.921875 0.796875 5.953125 C 0.796875 6.015625 0.828125 6.078125 0.90625 6.078125 C 0.96875 6.078125 1.15625 5.921875 1.28125 5.828125 C 1.34375 5.78125 1.5 5.65625 1.625 5.578125 L 3.78125 10.296875 C 3.84375 10.46875 3.90625 10.46875 4 10.46875 C 4.171875 10.46875 4.203125 10.40625 4.28125 10.25 L 9.234375 0 C 9.296875 -0.15625 9.296875 -0.203125 9.296875 -0.21875 C 9.296875 -0.328125 9.21875 -0.4375 9.078125 -0.4375 C 9 -0.4375 8.921875 -0.375 8.828125 -0.203125 Z M 4.25 9.328125 "/>
</g>
<g id="glyph-4-0">
</g>
<g id="glyph-4-1">
<path d="M 3.21875 -1.125 L 3 -1.125 C 2.984375 -1.03125 2.921875 -0.640625 2.84375 -0.578125 C 2.796875 -0.53125 2.3125 -0.53125 2.21875 -0.53125 L 1.109375 -0.53125 L 1.875 -1.15625 C 2.078125 -1.328125 2.609375 -1.703125 2.796875 -1.890625 C 2.96875 -2.0625 3.21875 -2.375 3.21875 -2.796875 C 3.21875 -3.546875 2.546875 -3.984375 1.734375 -3.984375 C 0.96875 -3.984375 0.4375 -3.46875 0.4375 -2.90625 C 0.4375 -2.609375 0.6875 -2.5625 0.75 -2.5625 C 0.90625 -2.5625 1.078125 -2.671875 1.078125 -2.890625 C 1.078125 -3.015625 1 -3.21875 0.734375 -3.21875 C 0.875 -3.515625 1.234375 -3.75 1.65625 -3.75 C 2.28125 -3.75 2.609375 -3.28125 2.609375 -2.796875 C 2.609375 -2.375 2.328125 -1.9375 1.921875 -1.546875 L 0.5 -0.25 C 0.4375 -0.1875 0.4375 -0.1875 0.4375 0 L 3.03125 0 Z M 3.21875 -1.125 "/>
</g>
<g id="glyph-5-0">
</g>
<g id="glyph-5-1">
<path d="M 5.5625 -1.8125 C 5.703125 -1.8125 5.875 -1.8125 5.875 -1.984375 C 5.875 -2.171875 5.703125 -2.171875 5.5625 -2.171875 L 1 -2.171875 C 0.875 -2.171875 0.703125 -2.171875 0.703125 -1.984375 C 0.703125 -1.8125 0.875 -1.8125 1 -1.8125 Z M 5.5625 -1.8125 "/>
</g>
</g>
<clipPath id="clip-0">
<path clip-rule="nonzero" d="M 32 0 L 66.613281 0 L 66.613281 2 L 32 2 Z M 32 0 "/>
</clipPath>
</defs>
<g fill="rgb(0%, 0%, 0%)" fill-opacity="1">
<use xlink:href="#glyph-0-1" x="0.5" y="8.807"/>
</g>
<g fill="rgb(0%, 0%, 0%)" fill-opacity="1">
<use xlink:href="#glyph-1-1" x="7.128" y="10.022"/>
<use xlink:href="#glyph-1-2" x="9.791619" y="10.022"/>
<use xlink:href="#glyph-1-3" x="13.285526" y="10.022"/>
</g>
<g fill="rgb(0%, 0%, 0%)" fill-opacity="1">
<use xlink:href="#glyph-2-1" x="17.445" y="8.807"/>
</g>
<g fill="rgb(0%, 0%, 0%)" fill-opacity="1">
<use xlink:href="#glyph-3-1" x="24.031" y="1.372"/>
</g>
<g clip-path="url(#clip-0)">
<path fill="none" stroke-width="0.436" stroke-linecap="butt" stroke-linejoin="miter" stroke="rgb(0%, 0%, 0%)" stroke-opacity="1" stroke-miterlimit="10" d="M -0.00090625 0.00165625 L 32.991281 0.00165625 " transform="matrix(1, 0, 0, -1, 33.122, 1.154)"/>
</g>
<g fill="rgb(0%, 0%, 0%)" fill-opacity="1">
<use xlink:href="#glyph-0-1" x="33.122" y="8.807"/>
</g>
<g fill="rgb(0%, 0%, 0%)" fill-opacity="1">
<use xlink:href="#glyph-4-1" x="39.75" y="6.061"/>
</g>
<g fill="rgb(0%, 0%, 0%)" fill-opacity="1">
<use xlink:href="#glyph-1-1" x="39.75" y="11.456"/>
<use xlink:href="#glyph-1-2" x="42.413619" y="11.456"/>
<use xlink:href="#glyph-1-3" x="45.907526" y="11.456"/>
</g>
<g fill="rgb(0%, 0%, 0%)" fill-opacity="1">
<use xlink:href="#glyph-5-1" x="50.067" y="8.807"/>
</g>
<g fill="rgb(0%, 0%, 0%)" fill-opacity="1">
<use xlink:href="#glyph-0-2" x="56.653" y="8.807"/>
</g>
<g fill="rgb(0%, 0%, 0%)" fill-opacity="1">
<use xlink:href="#glyph-4-1" x="61.961" y="6.537"/>
</g>
</svg>
