<?xml version="1.0" encoding="UTF-8"?>
<svg xmlns="http://www.w3.org/2000/svg" xmlns:xlink="http://www.w3.org/1999/xlink" width="8.846" height="22.893" viewBox="0 0 8.846 22.893">
<defs>
<g>
<g id="glyph-0-0">
</g>
<g id="glyph-0-1">
<path d="M 3.203125 -1.796875 L 3.203125 -0.84375 C 3.203125 -0.453125 3.1875 -0.34375 2.375 -0.34375 L 2.15625 -0.34375 L 2.15625 0 C 2.59375 -0.03125 3.15625 -0.03125 3.625 -0.03125 C 4.078125 -0.03125 4.65625 -0.03125 5.109375 0 L 5.109375 -0.34375 L 4.875 -0.34375 C 4.0625 -0.34375 4.046875 -0.453125 4.046875 -0.84375 L 4.046875 -1.796875 L 5.140625 -1.796875 L 5.140625 -2.140625 L 4.046875 -2.140625 L 4.046875 -7.09375 C 4.046875 -7.3125 4.046875 -7.390625 3.875 -7.390625 C 3.78125 -7.390625 3.734375 -7.390625 3.65625 -7.25 L 0.3125 -2.140625 L 0.3125 -1.796875 Z M 3.265625 -2.140625 L 0.609375 -2.140625 L 3.265625 -6.203125 Z M 3.265625 -2.140625 "/>
</g>
<g id="glyph-0-2">
<path d="M 4.890625 -2.1875 C 4.890625 -3.484375 4 -4.578125 2.828125 -4.578125 C 2.296875 -4.578125 1.828125 -4.40625 1.4375 -4.03125 L 1.4375 -6.15625 C 1.65625 -6.078125 2.015625 -6.015625 2.359375 -6.015625 C 3.703125 -6.015625 4.46875 -7 4.46875 -7.140625 C 4.46875 -7.203125 4.4375 -7.265625 4.359375 -7.265625 C 4.359375 -7.265625 4.328125 -7.265625 4.28125 -7.234375 C 4.0625 -7.125 3.515625 -6.921875 2.796875 -6.921875 C 2.359375 -6.921875 1.859375 -6.984375 1.34375 -7.21875 C 1.25 -7.25 1.234375 -7.25 1.203125 -7.25 C 1.09375 -7.25 1.09375 -7.171875 1.09375 -6.984375 L 1.09375 -3.765625 C 1.09375 -3.5625 1.09375 -3.484375 1.25 -3.484375 C 1.328125 -3.484375 1.359375 -3.515625 1.390625 -3.578125 C 1.515625 -3.75 1.921875 -4.34375 2.796875 -4.34375 C 3.375 -4.34375 3.640625 -3.84375 3.734375 -3.640625 C 3.90625 -3.234375 3.921875 -2.8125 3.921875 -2.265625 C 3.921875 -1.890625 3.921875 -1.234375 3.671875 -0.78125 C 3.40625 -0.34375 3 -0.0625 2.5 -0.0625 C 1.703125 -0.0625 1.078125 -0.640625 0.890625 -1.28125 C 0.921875 -1.28125 0.953125 -1.265625 1.078125 -1.265625 C 1.4375 -1.265625 1.625 -1.53125 1.625 -1.796875 C 1.625 -2.0625 1.4375 -2.328125 1.078125 -2.328125 C 0.921875 -2.328125 0.546875 -2.25 0.546875 -1.75 C 0.546875 -0.8125 1.296875 0.234375 2.515625 0.234375 C 3.78125 0.234375 4.890625 -0.8125 4.890625 -2.1875 Z M 4.890625 -2.1875 "/>
</g>
</g>
<clipPath id="clip-0">
<path clip-rule="nonzero" d="M 2 15 L 7 15 L 7 22.894531 L 2 22.894531 Z M 2 15 "/>
</clipPath>
</defs>
<g fill="rgb(0%, 0%, 0%)" fill-opacity="1">
<use xlink:href="#glyph-0-1" x="1.696" y="7.53"/>
</g>
<path fill="none" stroke-width="0.436" stroke-linecap="butt" stroke-linejoin="miter" stroke="rgb(0%, 0%, 0%)" stroke-opacity="1" stroke-miterlimit="10" d="M -0.0006875 -0.00059375 L 5.456344 -0.00059375 " transform="matrix(1, 0, 0, -1, 1.696, 12.183)"/>
<g clip-path="url(#clip-0)">
<g fill="rgb(0%, 0%, 0%)" fill-opacity="1">
<use xlink:href="#glyph-0-2" x="1.696" y="22.393"/>
</g>
</g>
</svg>
