<?xml version="1.0" encoding="UTF-8"?>
<svg xmlns="http://www.w3.org/2000/svg" xmlns:xlink="http://www.w3.org/1999/xlink" width="47.668" height="26.453" viewBox="0 0 47.668 26.453">
<defs>
<g>
<g id="glyph-0-0">
</g>
<g id="glyph-0-1">
<path d="M 3.609375 2.625 C 3.609375 2.578125 3.609375 2.5625 3.421875 2.375 C 2.0625 1 1.71875 -1.0625 1.71875 -2.71875 C 1.71875 -4.625 2.125 -6.515625 3.46875 -7.890625 C 3.609375 -8.015625 3.609375 -8.03125 3.609375 -8.078125 C 3.609375 -8.140625 3.5625 -8.171875 3.5 -8.171875 C 3.390625 -8.171875 2.40625 -7.4375 1.765625 -6.046875 C 1.203125 -4.859375 1.078125 -3.640625 1.078125 -2.71875 C 1.078125 -1.875 1.203125 -0.5625 1.796875 0.671875 C 2.453125 2.015625 3.390625 2.71875 3.5 2.71875 C 3.5625 2.71875 3.609375 2.6875 3.609375 2.625 Z M 3.609375 2.625 "/>
</g>
<g id="glyph-0-2">
<path d="M 3.15625 -2.71875 C 3.15625 -3.578125 3.03125 -4.890625 2.4375 -6.125 C 1.78125 -7.46875 0.84375 -8.171875 0.734375 -8.171875 C 0.671875 -8.171875 0.625 -8.140625 0.625 -8.078125 C 0.625 -8.03125 0.625 -8.015625 0.828125 -7.8125 C 1.890625 -6.734375 2.515625 -5 2.515625 -2.71875 C 2.515625 -0.859375 2.109375 1.0625 0.765625 2.4375 C 0.625 2.5625 0.625 2.578125 0.625 2.625 C 0.625 2.6875 0.671875 2.71875 0.734375 2.71875 C 0.84375 2.71875 1.828125 1.984375 2.46875 0.59375 C 3.015625 -0.59375 3.15625 -1.8125 3.15625 -2.71875 Z M 3.15625 -2.71875 "/>
</g>
<g id="glyph-1-0">
</g>
<g id="glyph-1-1">
<path d="M 0.453125 -2.765625 C 0.875 -4.03125 2.0625 -4.03125 2.1875 -4.03125 C 3.828125 -4.03125 3.953125 -2.125 3.953125 -1.265625 C 3.953125 -0.59375 3.890625 -0.421875 3.8125 -0.203125 C 3.578125 0.59375 3.25 1.859375 3.25 2.15625 C 3.25 2.265625 3.296875 2.34375 3.390625 2.34375 C 3.53125 2.34375 3.625 2.109375 3.734375 1.6875 C 3.984375 0.78125 4.09375 0.15625 4.140625 -0.1875 C 4.171875 -0.328125 4.1875 -0.46875 4.234375 -0.609375 C 4.578125 -1.6875 5.28125 -3.3125 5.71875 -4.171875 C 5.796875 -4.3125 5.921875 -4.546875 5.921875 -4.59375 C 5.921875 -4.703125 5.8125 -4.703125 5.796875 -4.703125 C 5.765625 -4.703125 5.6875 -4.703125 5.65625 -4.625 C 5.09375 -3.59375 4.65625 -2.5 4.21875 -1.390625 C 4.203125 -1.734375 4.203125 -2.5625 3.78125 -3.625 C 3.515625 -4.28125 3.078125 -4.828125 2.328125 -4.828125 C 0.953125 -4.828125 0.203125 -3.15625 0.203125 -2.828125 C 0.203125 -2.71875 0.296875 -2.71875 0.40625 -2.71875 Z M 0.453125 -2.765625 "/>
</g>
<g id="glyph-1-2">
<path d="M 7.359375 -5.4375 C 7.5 -5.5 7.5625 -5.546875 7.5625 -5.671875 C 7.5625 -5.796875 7.46875 -5.890625 7.34375 -5.890625 C 7.3125 -5.890625 7.296875 -5.890625 7.15625 -5.8125 L 1.109375 -2.96875 C 1 -2.90625 0.90625 -2.859375 0.90625 -2.71875 C 0.90625 -2.59375 1 -2.546875 1.109375 -2.484375 L 7.15625 0.359375 C 7.296875 0.4375 7.3125 0.4375 7.34375 0.4375 C 7.46875 0.4375 7.5625 0.34375 7.5625 0.21875 C 7.5625 0.09375 7.5 0.046875 7.359375 -0.015625 L 1.640625 -2.71875 Z M 7.359375 -5.4375 "/>
</g>
<g id="glyph-1-3">
<path d="M 0.953125 -0.640625 C 0.921875 -0.484375 0.859375 -0.234375 0.859375 -0.171875 C 0.859375 0.015625 1.015625 0.125 1.171875 0.125 C 1.3125 0.125 1.5 0.03125 1.578125 -0.1875 C 1.609375 -0.234375 1.96875 -1.71875 2.015625 -1.90625 C 2.109375 -2.265625 2.296875 -3.03125 2.359375 -3.328125 C 2.40625 -3.46875 2.71875 -3.984375 2.984375 -4.21875 C 3.0625 -4.296875 3.375 -4.578125 3.84375 -4.578125 C 4.140625 -4.578125 4.296875 -4.453125 4.3125 -4.453125 C 3.984375 -4.390625 3.734375 -4.140625 3.734375 -3.84375 C 3.734375 -3.671875 3.859375 -3.46875 4.15625 -3.46875 C 4.453125 -3.46875 4.75 -3.71875 4.75 -4.109375 C 4.75 -4.5 4.40625 -4.828125 3.84375 -4.828125 C 3.140625 -4.828125 2.65625 -4.28125 2.453125 -3.984375 C 2.359375 -4.46875 1.96875 -4.828125 1.46875 -4.828125 C 0.953125 -4.828125 0.75 -4.390625 0.65625 -4.203125 C 0.453125 -3.828125 0.3125 -3.171875 0.3125 -3.140625 C 0.3125 -3.03125 0.421875 -3.03125 0.453125 -3.03125 C 0.5625 -3.03125 0.5625 -3.046875 0.625 -3.28125 C 0.8125 -4.0625 1.03125 -4.578125 1.421875 -4.578125 C 1.609375 -4.578125 1.765625 -4.5 1.765625 -4.078125 C 1.765625 -3.84375 1.734375 -3.734375 1.59375 -3.15625 Z M 0.953125 -0.640625 "/>
</g>
<g id="glyph-1-4">
<path d="M 7.359375 -2.484375 C 7.484375 -2.546875 7.5625 -2.59375 7.5625 -2.71875 C 7.5625 -2.859375 7.484375 -2.90625 7.359375 -2.96875 L 1.3125 -5.8125 C 1.171875 -5.890625 1.15625 -5.890625 1.125 -5.890625 C 1 -5.890625 0.90625 -5.796875 0.90625 -5.671875 C 0.90625 -5.578125 0.953125 -5.5 1.109375 -5.4375 L 6.84375 -2.71875 L 1.109375 -0.015625 C 0.953125 0.046875 0.90625 0.125 0.90625 0.21875 C 0.90625 0.34375 1 0.4375 1.125 0.4375 C 1.15625 0.4375 1.171875 0.4375 1.3125 0.359375 Z M 7.359375 -2.484375 "/>
</g>
<g id="glyph-2-0">
</g>
<g id="glyph-2-1">
<path d="M 5.3125 -3.609375 C 5.359375 -3.796875 5.375 -3.84375 5.84375 -3.84375 C 5.953125 -3.84375 6.03125 -3.84375 6.03125 -3.984375 C 6.03125 -4.046875 6 -4.09375 5.9375 -4.09375 C 5.8125 -4.09375 5.671875 -4.0625 5.53125 -4.0625 C 5.40625 -4.0625 5.265625 -4.0625 5.140625 -4.0625 C 5 -4.0625 4.859375 -4.0625 4.71875 -4.0625 C 4.59375 -4.0625 4.4375 -4.09375 4.3125 -4.09375 C 4.265625 -4.09375 4.171875 -4.09375 4.171875 -3.9375 C 4.171875 -3.84375 4.265625 -3.84375 4.375 -3.84375 C 4.46875 -3.84375 4.625 -3.84375 4.75 -3.8125 C 4.75 -3.75 4.75 -3.703125 4.734375 -3.609375 L 4.375 -2.25 L 2.265625 -2.25 L 2.609375 -3.609375 C 2.65625 -3.796875 2.65625 -3.84375 3.140625 -3.84375 C 3.25 -3.84375 3.328125 -3.84375 3.328125 -3.984375 C 3.328125 -4.046875 3.296875 -4.09375 3.234375 -4.09375 C 3.109375 -4.09375 2.96875 -4.0625 2.828125 -4.0625 C 2.703125 -4.0625 2.5625 -4.0625 2.421875 -4.0625 C 2.296875 -4.0625 2.15625 -4.0625 2.015625 -4.0625 C 1.890625 -4.0625 1.734375 -4.09375 1.609375 -4.09375 C 1.5625 -4.09375 1.46875 -4.09375 1.46875 -3.9375 C 1.46875 -3.84375 1.5625 -3.84375 1.65625 -3.84375 C 1.765625 -3.84375 1.921875 -3.84375 2.046875 -3.8125 C 2.046875 -3.75 2.046875 -3.703125 2.015625 -3.609375 L 1.234375 -0.5 C 1.1875 -0.28125 1.171875 -0.234375 0.71875 -0.234375 C 0.59375 -0.234375 0.578125 -0.234375 0.5625 -0.21875 C 0.53125 -0.203125 0.5 -0.125 0.5 -0.078125 C 0.515625 -0.0625 0.515625 0 0.609375 0 C 0.734375 0 0.875 -0.015625 1.015625 -0.015625 C 1.15625 -0.015625 1.28125 -0.03125 1.40625 -0.03125 C 1.546875 -0.03125 1.6875 -0.015625 1.828125 -0.015625 C 1.953125 -0.015625 2.109375 0 2.234375 0 C 2.28125 0 2.3125 0 2.34375 -0.046875 C 2.359375 -0.0625 2.375 -0.125 2.375 -0.15625 C 2.359375 -0.234375 2.296875 -0.234375 2.171875 -0.234375 C 2.09375 -0.234375 2 -0.25 1.9375 -0.25 C 1.828125 -0.265625 1.796875 -0.265625 1.796875 -0.328125 C 1.796875 -0.359375 1.796875 -0.375 1.8125 -0.4375 L 2.203125 -2 L 4.328125 -2 L 3.921875 -0.390625 C 3.875 -0.28125 3.859375 -0.25 3.390625 -0.234375 C 3.296875 -0.234375 3.28125 -0.234375 3.25 -0.21875 C 3.234375 -0.1875 3.203125 -0.109375 3.203125 -0.078125 C 3.21875 -0.0625 3.21875 0 3.3125 0 C 3.4375 0 3.578125 -0.015625 3.71875 -0.015625 C 3.859375 -0.015625 3.984375 -0.03125 4.125 -0.03125 C 4.25 -0.03125 4.390625 -0.015625 4.53125 -0.015625 C 4.65625 -0.015625 4.8125 0 4.9375 0 C 4.984375 0 5.015625 0 5.046875 -0.046875 C 5.0625 -0.0625 5.078125 -0.125 5.078125 -0.15625 C 5.0625 -0.234375 5.015625 -0.234375 4.875 -0.234375 C 4.796875 -0.234375 4.703125 -0.25 4.640625 -0.25 C 4.53125 -0.265625 4.5 -0.265625 4.5 -0.328125 C 4.5 -0.359375 4.5 -0.375 4.515625 -0.4375 Z M 5.3125 -3.609375 "/>
</g>
<g id="glyph-2-2">
<path d="M 3.578125 -2.203125 C 3.578125 -2.203125 3.546875 -2.265625 3.546875 -2.28125 C 3.546875 -2.28125 3.546875 -2.28125 3.671875 -2.40625 L 4.640625 -3.34375 C 4.796875 -3.484375 5 -3.625 5.0625 -3.65625 C 5.296875 -3.796875 5.5 -3.84375 5.703125 -3.84375 C 5.796875 -3.859375 5.875 -3.859375 5.875 -4 C 5.875 -4.03125 5.828125 -4.09375 5.78125 -4.09375 C 5.59375 -4.09375 5.375 -4.0625 5.1875 -4.0625 L 4.828125 -4.0625 C 4.71875 -4.0625 4.59375 -4.09375 4.46875 -4.09375 C 4.4375 -4.09375 4.34375 -4.09375 4.34375 -3.9375 C 4.34375 -3.859375 4.421875 -3.84375 4.453125 -3.84375 C 4.53125 -3.84375 4.640625 -3.8125 4.640625 -3.703125 C 4.640625 -3.625 4.578125 -3.578125 4.40625 -3.390625 L 3.90625 -2.9375 C 3.875 -2.890625 3.5 -2.53125 3.421875 -2.484375 L 2.796875 -3.640625 C 2.78125 -3.65625 2.765625 -3.703125 2.765625 -3.71875 C 2.765625 -3.75 2.890625 -3.84375 3.0625 -3.84375 C 3.125 -3.84375 3.203125 -3.859375 3.203125 -4 C 3.203125 -4.015625 3.203125 -4.09375 3.09375 -4.09375 C 2.96875 -4.09375 2.828125 -4.0625 2.703125 -4.0625 C 2.703125 -4.0625 2.296875 -4.0625 2.296875 -4.0625 C 2.171875 -4.0625 2.0625 -4.0625 1.9375 -4.0625 C 1.8125 -4.0625 1.6875 -4.09375 1.578125 -4.09375 C 1.515625 -4.09375 1.4375 -4.0625 1.4375 -3.9375 C 1.4375 -3.84375 1.515625 -3.84375 1.640625 -3.84375 C 1.984375 -3.84375 2.015625 -3.78125 2.078125 -3.6875 L 2.96875 -2.046875 C 2.84375 -1.9375 2.546875 -1.65625 2.34375 -1.453125 C 1.34375 -0.484375 1.125 -0.265625 0.546875 -0.234375 C 0.46875 -0.234375 0.390625 -0.234375 0.390625 -0.09375 C 0.390625 -0.046875 0.421875 0 0.484375 0 C 0.65625 0 0.875 -0.03125 1.0625 -0.03125 C 1.234375 -0.03125 1.625 0 1.78125 0 C 1.8125 0 1.921875 0 1.921875 -0.15625 C 1.921875 -0.234375 1.84375 -0.234375 1.8125 -0.234375 C 1.71875 -0.25 1.609375 -0.28125 1.609375 -0.375 C 1.609375 -0.40625 1.625 -0.4375 1.6875 -0.515625 C 1.6875 -0.53125 1.703125 -0.5625 1.71875 -0.5625 L 3.078125 -1.84375 L 3.84375 -0.453125 C 3.875 -0.40625 3.890625 -0.390625 3.890625 -0.375 C 3.890625 -0.328125 3.765625 -0.25 3.578125 -0.234375 C 3.53125 -0.234375 3.4375 -0.234375 3.4375 -0.09375 C 3.4375 -0.078125 3.453125 0 3.546875 0 C 3.671875 0 3.8125 -0.015625 3.9375 -0.015625 C 3.9375 -0.015625 4.34375 -0.03125 4.34375 -0.03125 C 4.46875 -0.03125 4.578125 -0.015625 4.703125 -0.015625 C 4.828125 -0.015625 4.953125 0 5.0625 0 C 5.140625 0 5.203125 -0.03125 5.203125 -0.15625 C 5.203125 -0.234375 5.109375 -0.234375 5.03125 -0.234375 C 4.65625 -0.234375 4.625 -0.296875 4.5625 -0.40625 Z M 3.578125 -2.203125 "/>
</g>
<g id="glyph-3-0">
</g>
<g id="glyph-3-1">
<path d="M 2.78125 -6 L 4.890625 -6 C 5.078125 -6 5.203125 -6 5.203125 -6.125 C 5.203125 -6.265625 5.078125 -6.265625 4.859375 -6.265625 L 2.84375 -6.265625 C 2.921875 -6.546875 2.921875 -6.5625 2.984375 -6.84375 C 3.046875 -7.03125 3.140625 -7.421875 3.140625 -7.4375 C 3.140625 -7.53125 3.078125 -7.5625 2.984375 -7.5625 C 2.78125 -7.5625 1.921875 -7.484375 1.65625 -7.453125 C 1.578125 -7.453125 1.453125 -7.4375 1.453125 -7.234375 C 1.453125 -7.109375 1.5625 -7.109375 1.71875 -7.109375 C 2.234375 -7.109375 2.25 -7.03125 2.25 -6.921875 C 2.25 -6.84375 2.15625 -6.484375 2.109375 -6.265625 L 1.5 -6.265625 C 1.28125 -6.265625 1.15625 -6.265625 1.15625 -6.125 C 1.15625 -6 1.25 -6 1.46875 -6 L 2.046875 -6 L 0.640625 -0.4375 C 0.59375 -0.265625 0.59375 -0.25 0.59375 -0.1875 C 0.59375 0.046875 0.78125 0.125 0.921875 0.125 C 1.125 0.125 1.28125 -0.03125 1.3125 -0.171875 C 1.34375 -0.234375 1.46875 -0.71875 1.53125 -1 L 1.78125 -1.96875 C 1.8125 -2.125 1.921875 -2.546875 1.953125 -2.703125 C 2 -2.875 2.078125 -3.21875 2.09375 -3.25 C 2.1875 -3.4375 2.765625 -4.578125 3.859375 -4.578125 C 4.34375 -4.578125 4.453125 -4.1875 4.453125 -3.828125 C 4.453125 -3.15625 3.953125 -1.828125 3.75 -1.3125 C 3.6875 -1.140625 3.625 -1 3.625 -0.78125 C 3.625 -0.21875 4.03125 0.125 4.53125 0.125 C 5.578125 0.125 5.953125 -1.5 5.953125 -1.5625 C 5.953125 -1.671875 5.859375 -1.671875 5.828125 -1.671875 C 5.71875 -1.671875 5.71875 -1.640625 5.65625 -1.46875 C 5.34375 -0.359375 4.859375 -0.125 4.5625 -0.125 C 4.359375 -0.125 4.28125 -0.25 4.28125 -0.484375 C 4.28125 -0.75 4.40625 -1.0625 4.46875 -1.25 C 4.65625 -1.71875 5.140625 -3.03125 5.140625 -3.640625 C 5.140625 -4.4375 4.640625 -4.828125 3.890625 -4.828125 C 3.5625 -4.828125 2.90625 -4.75 2.28125 -3.984375 Z M 2.78125 -6 "/>
</g>
<g id="glyph-4-0">
</g>
<g id="glyph-4-1">
<path d="M 2.25 -1.625 C 2.375 -1.75 2.703125 -2.015625 2.84375 -2.125 C 3.328125 -2.578125 3.796875 -3.015625 3.796875 -3.734375 C 3.796875 -4.6875 3 -5.296875 2.015625 -5.296875 C 1.046875 -5.296875 0.421875 -4.578125 0.421875 -3.859375 C 0.421875 -3.46875 0.734375 -3.421875 0.84375 -3.421875 C 1.015625 -3.421875 1.265625 -3.53125 1.265625 -3.84375 C 1.265625 -4.25 0.859375 -4.25 0.765625 -4.25 C 1 -4.84375 1.53125 -5.03125 1.921875 -5.03125 C 2.65625 -5.03125 3.046875 -4.40625 3.046875 -3.734375 C 3.046875 -2.90625 2.46875 -2.296875 1.515625 -1.34375 L 0.515625 -0.296875 C 0.421875 -0.21875 0.421875 -0.203125 0.421875 0 L 3.5625 0 L 3.796875 -1.421875 L 3.546875 -1.421875 C 3.53125 -1.265625 3.46875 -0.875 3.375 -0.71875 C 3.328125 -0.65625 2.71875 -0.65625 2.59375 -0.65625 L 1.171875 -0.65625 Z M 2.25 -1.625 "/>
</g>
<g id="glyph-4-2">
<path d="M 4.03125 -4.859375 C 4.109375 -4.9375 4.109375 -4.953125 4.109375 -5.125 L 2.078125 -5.125 C 1.875 -5.125 1.640625 -5.140625 1.4375 -5.15625 C 1.015625 -5.1875 1.015625 -5.265625 0.984375 -5.390625 L 0.734375 -5.390625 L 0.46875 -3.703125 L 0.71875 -3.703125 C 0.734375 -3.828125 0.828125 -4.375 0.9375 -4.4375 C 1.015625 -4.484375 1.625 -4.484375 1.734375 -4.484375 L 3.421875 -4.484375 L 2.609375 -3.375 C 1.703125 -2.171875 1.5 -0.90625 1.5 -0.28125 C 1.5 -0.203125 1.5 0.171875 1.875 0.171875 C 2.25 0.171875 2.25 -0.1875 2.25 -0.28125 L 2.25 -0.671875 C 2.25 -1.8125 2.453125 -2.75 2.84375 -3.28125 Z M 4.03125 -4.859375 "/>
</g>
</g>
</defs>
<g fill="rgb(0%, 0%, 0%)" fill-opacity="1">
<use xlink:href="#glyph-0-1" x="1.696" y="10.663"/>
</g>
<g fill="rgb(0%, 0%, 0%)" fill-opacity="1">
<use xlink:href="#glyph-1-1" x="5.938" y="10.663"/>
</g>
<g fill="rgb(0%, 0%, 0%)" fill-opacity="1">
<use xlink:href="#glyph-2-1" x="11.586" y="12.3"/>
</g>
<g fill="rgb(0%, 0%, 0%)" fill-opacity="1">
<use xlink:href="#glyph-1-1" x="18.51" y="10.663"/>
</g>
<g fill="rgb(0%, 0%, 0%)" fill-opacity="1">
<use xlink:href="#glyph-2-2" x="24.158" y="12.3"/>
</g>
<g fill="rgb(0%, 0%, 0%)" fill-opacity="1">
<use xlink:href="#glyph-3-1" x="31.104" y="10.663"/>
</g>
<g fill="rgb(0%, 0%, 0%)" fill-opacity="1">
<use xlink:href="#glyph-0-2" x="36.998" y="10.663"/>
</g>
<g fill="rgb(0%, 0%, 0%)" fill-opacity="1">
<use xlink:href="#glyph-4-1" x="41.24" y="5.636"/>
</g>
<path fill="none" stroke-width="0.436" stroke-linecap="butt" stroke-linejoin="miter" stroke="rgb(0%, 0%, 0%)" stroke-opacity="1" stroke-miterlimit="10" d="M -0.0006875 -0.00040625 L 44.276656 -0.00040625 " transform="matrix(1, 0, 0, -1, 1.696, 15.316)"/>
<g fill="rgb(0%, 0%, 0%)" fill-opacity="1">
<use xlink:href="#glyph-1-2" x="7.34" y="25.526"/>
</g>
<g fill="rgb(0%, 0%, 0%)" fill-opacity="1">
<use xlink:href="#glyph-1-3" x="18.857828" y="25.526"/>
</g>
<g fill="rgb(0%, 0%, 0%)" fill-opacity="1">
<use xlink:href="#glyph-4-2" x="24.08" y="22.375"/>
</g>
<g fill="rgb(0%, 0%, 0%)" fill-opacity="1">
<use xlink:href="#glyph-1-4" x="31.843" y="25.526"/>
</g>
</svg>
