<?xml version="1.0" encoding="UTF-8"?>
<svg xmlns="http://www.w3.org/2000/svg" xmlns:xlink="http://www.w3.org/1999/xlink" width="46.652" height="28.144" viewBox="0 0 46.652 28.144">
<defs>
<g>
<g id="glyph-0-0">
</g>
<g id="glyph-0-1">
<path d="M 5.046875 -3.703125 C 4.9375 -4.375 4.5 -4.984375 3.640625 -4.984375 C 2.984375 -4.984375 2.265625 -4.8125 1.421875 -3.953125 C 0.515625 -3.046875 0.4375 -2.046875 0.4375 -1.703125 C 0.4375 -1.03125 0.921875 0.234375 2.4375 0.234375 C 5.03125 0.234375 6.171875 -3.421875 6.171875 -4.984375 C 6.171875 -6.71875 5.15625 -7.8125 3.8125 -7.8125 C 2.234375 -7.8125 1.734375 -6.390625 1.734375 -6.078125 C 1.734375 -5.9375 1.828125 -5.703125 2.15625 -5.703125 C 2.515625 -5.703125 2.734375 -6.03125 2.734375 -6.28125 C 2.734375 -6.65625 2.40625 -6.65625 2.21875 -6.65625 C 2.703125 -7.46875 3.484375 -7.53125 3.796875 -7.53125 C 4.59375 -7.53125 5.359375 -6.96875 5.359375 -5.5625 C 5.359375 -5.140625 5.296875 -4.578125 5.0625 -3.703125 Z M 2.46875 -0.0625 C 1.28125 -0.0625 1.28125 -1.1875 1.28125 -1.296875 C 1.28125 -1.59375 1.546875 -3.125 2 -3.78125 C 2.4375 -4.390625 2.96875 -4.75 3.640625 -4.75 C 4.828125 -4.75 4.859375 -3.515625 4.859375 -3.296875 C 4.859375 -2.515625 4.15625 -0.0625 2.46875 -0.0625 Z M 2.46875 -0.0625 "/>
</g>
<g id="glyph-0-2">
<path d="M 5.90625 -6.65625 C 5.984375 -7.015625 6.015625 -7.109375 6.609375 -7.109375 C 6.78125 -7.109375 6.90625 -7.109375 6.90625 -7.3125 C 6.90625 -7.421875 6.84375 -7.453125 6.75 -7.453125 C 6.484375 -7.453125 5.8125 -7.421875 5.546875 -7.421875 C 5.1875 -7.421875 4.296875 -7.453125 3.9375 -7.453125 C 3.84375 -7.453125 3.703125 -7.453125 3.703125 -7.234375 C 3.703125 -7.109375 3.796875 -7.109375 4.078125 -7.109375 C 4.328125 -7.109375 4.4375 -7.109375 4.71875 -7.09375 C 4.96875 -7.0625 5.046875 -7.03125 5.046875 -6.875 C 5.046875 -6.8125 5.03125 -6.734375 5 -6.640625 L 3.75 -1.640625 C 3.484375 -0.578125 2.75 0 2.1875 0 C 1.890625 0 1.3125 -0.109375 1.140625 -0.671875 C 1.171875 -0.671875 1.25 -0.671875 1.28125 -0.671875 C 1.703125 -0.671875 1.984375 -1.03125 1.984375 -1.359375 C 1.984375 -1.71875 1.6875 -1.828125 1.5 -1.828125 C 1.3125 -1.828125 0.78125 -1.6875 0.78125 -0.953125 C 0.78125 -0.265625 1.359375 0.234375 2.21875 0.234375 C 3.21875 0.234375 4.359375 -0.484375 4.625 -1.5625 Z M 5.90625 -6.65625 "/>
</g>
<g id="glyph-0-3">
<path d="M 6.59375 -4.0625 C 6.59375 -4.546875 6.40625 -4.828125 6.15625 -4.828125 C 5.875 -4.828125 5.578125 -4.5625 5.578125 -4.3125 C 5.578125 -4.203125 5.640625 -4.078125 5.75 -3.984375 C 5.9375 -3.8125 6.125 -3.515625 6.125 -3.0625 C 6.125 -2.625 5.921875 -2 5.578125 -1.5 C 5.25 -1.03125 4.859375 -0.671875 4.34375 -0.671875 C 3.71875 -0.671875 3.375 -1.0625 3.28125 -1.640625 C 3.40625 -1.9375 3.65625 -2.625 3.65625 -2.9375 C 3.65625 -3.0625 3.59375 -3.171875 3.453125 -3.171875 C 3.375 -3.171875 3.25 -3.15625 3.15625 -2.984375 C 3.046875 -2.765625 2.90625 -2.0625 2.90625 -1.671875 C 2.546875 -1.15625 2.109375 -0.671875 1.421875 -0.671875 C 0.703125 -0.671875 0.484375 -1.3125 0.484375 -1.921875 C 0.484375 -3.28125 1.59375 -4.421875 1.59375 -4.5625 C 1.59375 -4.6875 1.5 -4.78125 1.390625 -4.78125 C 1.25 -4.78125 1.171875 -4.640625 1.09375 -4.53125 C 0.546875 -3.734375 0.125 -2.4375 0.125 -1.4375 C 0.125 -0.6875 0.375 0.125 1.28125 0.125 C 2.046875 0.125 2.5625 -0.421875 2.953125 -1.03125 C 3.046875 -0.390625 3.484375 0.125 4.15625 0.125 C 5 0.125 5.53125 -0.546875 5.921875 -1.359375 C 6.1875 -1.890625 6.59375 -3.375 6.59375 -4.0625 Z M 6.59375 -4.0625 "/>
</g>
<g id="glyph-0-4">
<path d="M 3.203125 -4.0625 L 5.03125 -4.0625 C 5.1875 -4.0625 5.578125 -4.0625 5.578125 -4.4375 C 5.578125 -4.703125 5.34375 -4.703125 5.140625 -4.703125 L 2.078125 -4.703125 C 1.859375 -4.703125 1.4375 -4.703125 0.953125 -4.1875 C 0.59375 -3.796875 0.296875 -3.265625 0.296875 -3.203125 C 0.296875 -3.203125 0.296875 -3.09375 0.421875 -3.09375 C 0.515625 -3.09375 0.53125 -3.140625 0.59375 -3.234375 C 1.140625 -4.0625 1.75 -4.0625 1.984375 -4.0625 L 2.890625 -4.0625 L 1.828125 -0.5625 C 1.78125 -0.4375 1.71875 -0.203125 1.71875 -0.15625 C 1.71875 -0.046875 1.78125 0.125 2.03125 0.125 C 2.390625 0.125 2.4375 -0.171875 2.46875 -0.34375 Z M 3.203125 -4.0625 "/>
</g>
<g id="glyph-1-0">
</g>
<g id="glyph-1-1">
<path d="M 2.25 -1.625 C 2.375 -1.75 2.703125 -2.015625 2.84375 -2.125 C 3.328125 -2.578125 3.796875 -3.015625 3.796875 -3.734375 C 3.796875 -4.6875 3 -5.296875 2.015625 -5.296875 C 1.046875 -5.296875 0.421875 -4.578125 0.421875 -3.859375 C 0.421875 -3.46875 0.734375 -3.421875 0.84375 -3.421875 C 1.015625 -3.421875 1.265625 -3.53125 1.265625 -3.84375 C 1.265625 -4.25 0.859375 -4.25 0.765625 -4.25 C 1 -4.84375 1.53125 -5.03125 1.921875 -5.03125 C 2.65625 -5.03125 3.046875 -4.40625 3.046875 -3.734375 C 3.046875 -2.90625 2.46875 -2.296875 1.515625 -1.34375 L 0.515625 -0.296875 C 0.421875 -0.21875 0.421875 -0.203125 0.421875 0 L 3.5625 0 L 3.796875 -1.421875 L 3.546875 -1.421875 C 3.53125 -1.265625 3.46875 -0.875 3.375 -0.71875 C 3.328125 -0.65625 2.71875 -0.65625 2.59375 -0.65625 L 1.171875 -0.65625 Z M 2.25 -1.625 "/>
</g>
<g id="glyph-2-0">
</g>
<g id="glyph-2-1">
<path d="M 3.609375 2.625 C 3.609375 2.578125 3.609375 2.5625 3.421875 2.375 C 2.0625 1 1.71875 -1.0625 1.71875 -2.71875 C 1.71875 -4.625 2.125 -6.515625 3.46875 -7.890625 C 3.609375 -8.015625 3.609375 -8.03125 3.609375 -8.078125 C 3.609375 -8.140625 3.5625 -8.171875 3.5 -8.171875 C 3.390625 -8.171875 2.40625 -7.4375 1.765625 -6.046875 C 1.203125 -4.859375 1.078125 -3.640625 1.078125 -2.71875 C 1.078125 -1.875 1.203125 -0.5625 1.796875 0.671875 C 2.453125 2.015625 3.390625 2.71875 3.5 2.71875 C 3.5625 2.71875 3.609375 2.6875 3.609375 2.625 Z M 3.609375 2.625 "/>
</g>
<g id="glyph-2-2">
<path d="M 3.15625 -2.71875 C 3.15625 -3.578125 3.03125 -4.890625 2.4375 -6.125 C 1.78125 -7.46875 0.84375 -8.171875 0.734375 -8.171875 C 0.671875 -8.171875 0.625 -8.140625 0.625 -8.078125 C 0.625 -8.03125 0.625 -8.015625 0.828125 -7.8125 C 1.890625 -6.734375 2.515625 -5 2.515625 -2.71875 C 2.515625 -0.859375 2.109375 1.0625 0.765625 2.4375 C 0.625 2.5625 0.625 2.578125 0.625 2.625 C 0.625 2.6875 0.671875 2.71875 0.734375 2.71875 C 0.84375 2.71875 1.828125 1.984375 2.46875 0.59375 C 3.015625 -0.59375 3.15625 -1.8125 3.15625 -2.71875 Z M 3.15625 -2.71875 "/>
</g>
<g id="glyph-3-0">
</g>
<g id="glyph-3-1">
<path d="M 4.71875 -6.5 C 6.09375 -6.5 7.140625 -5.96875 7.140625 -3.59375 C 7.140625 -2.015625 6.65625 -0.390625 5.015625 -0.390625 C 3.96875 -0.390625 3.125 -0.828125 2.171875 -1.140625 C 2.046875 -1.171875 1.875 -1.21875 1.75 -1.21875 C 2.25 -1.640625 2.84375 -2.1875 2.84375 -2.84375 C 2.84375 -3.59375 1.796875 -4.5625 1.796875 -5.28125 C 1.796875 -5.6875 2.234375 -6.078125 2.5625 -6.328125 L 2.328125 -6.453125 C 1.609375 -6.015625 0.875 -5.296875 0.875 -4.46875 C 0.875 -4.203125 1.15625 -3.921875 1.578125 -3.296875 C 1.78125 -2.984375 2.046875 -2.625 2.046875 -2.25 C 2.046875 -1.71875 1.59375 -1.3125 1.109375 -1.15625 C 0.75 -0.796875 0.421875 -0.40625 0.125 0 L 0.296875 0.171875 C 0.53125 -0.171875 0.921875 -0.40625 1.34375 -0.40625 C 1.75 -0.40625 2.140625 -0.203125 2.5 -0.046875 C 3.046875 0.171875 3.640625 0.296875 4.25 0.296875 C 5.265625 0.296875 6.34375 -0.484375 7.140625 -1.21875 C 7.953125 -1.90625 8.140625 -3.265625 8.140625 -4.359375 C 8.140625 -5.796875 7.609375 -7.03125 5.515625 -7.21875 C 4.46875 -7.3125 3.734375 -7.3125 3.734375 -7.671875 C 3.734375 -7.765625 3.78125 -7.875 3.84375 -7.953125 L 3.671875 -7.953125 C 3.40625 -7.609375 2.90625 -7.40625 2.90625 -6.96875 C 2.90625 -6.59375 3.4375 -6.46875 3.78125 -6.46875 Z M 4.71875 -6.5 "/>
</g>
<g id="glyph-4-0">
</g>
<g id="glyph-4-1">
<path d="M 3.296875 -4.96875 C 3.296875 -5.125 3.171875 -5.28125 2.984375 -5.28125 C 2.734375 -5.28125 2.53125 -5.046875 2.53125 -4.84375 C 2.53125 -4.6875 2.65625 -4.546875 2.84375 -4.546875 C 3.078125 -4.546875 3.296875 -4.765625 3.296875 -4.96875 Z M 1.625 0.390625 C 1.5 0.890625 1.109375 1.40625 0.625 1.40625 C 0.5 1.40625 0.375 1.375 0.359375 1.359375 C 0.609375 1.25 0.640625 1.03125 0.640625 0.953125 C 0.640625 0.765625 0.5 0.65625 0.328125 0.65625 C 0.109375 0.65625 -0.109375 0.859375 -0.109375 1.125 C -0.109375 1.421875 0.1875 1.625 0.640625 1.625 C 1.125 1.625 2 1.328125 2.234375 0.359375 L 2.953125 -2.484375 C 2.984375 -2.578125 3 -2.640625 3 -2.765625 C 3 -3.203125 2.640625 -3.515625 2.1875 -3.515625 C 1.34375 -3.515625 0.84375 -2.40625 0.84375 -2.296875 C 0.84375 -2.21875 0.90625 -2.1875 0.96875 -2.1875 C 1.046875 -2.1875 1.0625 -2.21875 1.109375 -2.328125 C 1.359375 -2.890625 1.765625 -3.296875 2.15625 -3.296875 C 2.328125 -3.296875 2.421875 -3.171875 2.421875 -2.921875 C 2.421875 -2.8125 2.40625 -2.6875 2.375 -2.578125 Z M 1.625 0.390625 "/>
</g>
<g id="glyph-4-2">
<path d="M 3.21875 -3 C 3.03125 -2.96875 2.859375 -2.828125 2.859375 -2.625 C 2.859375 -2.484375 2.953125 -2.375 3.125 -2.375 C 3.25 -2.375 3.5 -2.46875 3.5 -2.828125 C 3.5 -3.3125 2.984375 -3.515625 2.484375 -3.515625 C 1.421875 -3.515625 1.078125 -2.75 1.078125 -2.34375 C 1.078125 -2.265625 1.078125 -1.984375 1.375 -1.765625 C 1.5625 -1.625 1.703125 -1.59375 2.109375 -1.515625 C 2.390625 -1.453125 2.84375 -1.375 2.84375 -0.96875 C 2.84375 -0.75 2.6875 -0.5 2.46875 -0.34375 C 2.171875 -0.15625 1.78125 -0.140625 1.65625 -0.140625 C 1.46875 -0.140625 0.921875 -0.171875 0.71875 -0.5 C 1.125 -0.515625 1.1875 -0.84375 1.1875 -0.9375 C 1.1875 -1.171875 0.96875 -1.234375 0.875 -1.234375 C 0.75 -1.234375 0.421875 -1.125 0.421875 -0.6875 C 0.421875 -0.21875 0.921875 0.078125 1.65625 0.078125 C 3.046875 0.078125 3.34375 -0.90625 3.34375 -1.234375 C 3.34375 -1.953125 2.5625 -2.109375 2.265625 -2.15625 C 1.875 -2.234375 1.5625 -2.28125 1.5625 -2.625 C 1.5625 -2.765625 1.703125 -3.296875 2.484375 -3.296875 C 2.78125 -3.296875 3.09375 -3.203125 3.21875 -3 Z M 3.21875 -3 "/>
</g>
<g id="glyph-5-0">
</g>
<g id="glyph-5-1">
<path d="M 2.09375 -2.71875 C 2.09375 -3.046875 1.828125 -3.296875 1.515625 -3.296875 C 1.203125 -3.296875 0.9375 -3.046875 0.9375 -2.71875 C 0.9375 -2.40625 1.203125 -2.15625 1.515625 -2.15625 C 1.828125 -2.15625 2.09375 -2.40625 2.09375 -2.71875 Z M 2.09375 -2.71875 "/>
</g>
</g>
</defs>
<g fill="rgb(0%, 0%, 0%)" fill-opacity="1">
<use xlink:href="#glyph-0-1" x="6.378" y="9.595"/>
</g>
<g fill="rgb(0%, 0%, 0%)" fill-opacity="1">
<use xlink:href="#glyph-1-1" x="12.776" y="5.636"/>
</g>
<g fill="rgb(0%, 0%, 0%)" fill-opacity="1">
<use xlink:href="#glyph-0-2" x="17.508" y="9.595"/>
</g>
<g fill="rgb(0%, 0%, 0%)" fill-opacity="1">
<use xlink:href="#glyph-2-1" x="24.607" y="9.595"/>
</g>
<g fill="rgb(0%, 0%, 0%)" fill-opacity="1">
<use xlink:href="#glyph-0-3" x="28.849" y="9.595"/>
</g>
<g fill="rgb(0%, 0%, 0%)" fill-opacity="1">
<use xlink:href="#glyph-2-2" x="36.031" y="9.595"/>
</g>
<path fill="none" stroke-width="0.436" stroke-linecap="butt" stroke-linejoin="miter" stroke="rgb(0%, 0%, 0%)" stroke-opacity="1" stroke-miterlimit="10" d="M -0.0006875 0.00190625 L 43.261031 0.00190625 " transform="matrix(1, 0, 0, -1, 1.696, 14.248)"/>
<g fill="rgb(0%, 0%, 0%)" fill-opacity="1">
<use xlink:href="#glyph-0-1" x="1.696" y="24.458"/>
</g>
<g fill="rgb(0%, 0%, 0%)" fill-opacity="1">
<use xlink:href="#glyph-3-1" x="8.093" y="24.458"/>
</g>
<g fill="rgb(0%, 0%, 0%)" fill-opacity="1">
<use xlink:href="#glyph-4-1" x="17.115" y="26.094"/>
</g>
<g fill="rgb(0%, 0%, 0%)" fill-opacity="1">
<use xlink:href="#glyph-5-1" x="23.921" y="24.458"/>
</g>
<g fill="rgb(0%, 0%, 0%)" fill-opacity="1">
<use xlink:href="#glyph-0-1" x="29.376" y="24.458"/>
</g>
<g fill="rgb(0%, 0%, 0%)" fill-opacity="1">
<use xlink:href="#glyph-0-4" x="35.778551" y="24.458"/>
</g>
<g fill="rgb(0%, 0%, 0%)" fill-opacity="1">
<use xlink:href="#glyph-4-2" x="40.542" y="26.094"/>
</g>
</svg>
