<?xml version="1.0" encoding="UTF-8"?>
<svg xmlns="http://www.w3.org/2000/svg" xmlns:xlink="http://www.w3.org/1999/xlink" width="29.9" height="24.958" viewBox="0 0 29.9 24.958">
<defs>
<g>
<g id="glyph-0-0">
</g>
<g id="glyph-0-1">
<path d="M 4.140625 -0.59375 L 4.140625 0.125 L 5.75 0 L 5.75 -0.34375 C 4.984375 -0.34375 4.890625 -0.421875 4.890625 -0.953125 L 4.890625 -7.5625 L 3.328125 -7.453125 L 3.328125 -7.109375 C 4.09375 -7.109375 4.171875 -7.03125 4.171875 -6.5 L 4.171875 -4.140625 C 3.859375 -4.53125 3.390625 -4.828125 2.796875 -4.828125 C 1.515625 -4.828125 0.375 -3.75 0.375 -2.34375 C 0.375 -0.953125 1.4375 0.125 2.6875 0.125 C 3.375 0.125 3.875 -0.25 4.140625 -0.59375 Z M 4.140625 -3.515625 L 4.140625 -1.28125 C 4.140625 -1.09375 4.140625 -1.0625 4.03125 -0.890625 C 3.703125 -0.359375 3.203125 -0.125 2.734375 -0.125 C 2.25 -0.125 1.859375 -0.40625 1.59375 -0.8125 C 1.3125 -1.265625 1.28125 -1.890625 1.28125 -2.328125 C 1.28125 -2.734375 1.296875 -3.390625 1.609375 -3.875 C 1.84375 -4.21875 2.25 -4.578125 2.84375 -4.578125 C 3.234375 -4.578125 3.6875 -4.421875 4.03125 -3.921875 C 4.140625 -3.734375 4.140625 -3.71875 4.140625 -3.515625 Z M 4.140625 -3.515625 "/>
</g>
<g id="glyph-0-2">
<path d="M 4.828125 -7.609375 C 4.75 -7.75 4.71875 -7.8125 4.53125 -7.8125 C 4.359375 -7.8125 4.328125 -7.75 4.25 -7.609375 L 0.5625 -0.21875 C 0.515625 -0.125 0.515625 -0.09375 0.515625 -0.09375 C 0.515625 0 0.578125 0 0.75 0 L 8.328125 0 C 8.5 0 8.5625 0 8.5625 -0.09375 C 8.5625 -0.09375 8.5625 -0.125 8.5 -0.21875 Z M 4.1875 -6.71875 L 7.125 -0.828125 L 1.25 -0.828125 Z M 4.1875 -6.71875 "/>
</g>
<g id="glyph-1-0">
</g>
<g id="glyph-1-1">
<path d="M 2.25 -1.625 C 2.375 -1.75 2.703125 -2.015625 2.84375 -2.125 C 3.328125 -2.578125 3.796875 -3.015625 3.796875 -3.734375 C 3.796875 -4.6875 3 -5.296875 2.015625 -5.296875 C 1.046875 -5.296875 0.421875 -4.578125 0.421875 -3.859375 C 0.421875 -3.46875 0.734375 -3.421875 0.84375 -3.421875 C 1.015625 -3.421875 1.265625 -3.53125 1.265625 -3.84375 C 1.265625 -4.25 0.859375 -4.25 0.765625 -4.25 C 1 -4.84375 1.53125 -5.03125 1.921875 -5.03125 C 2.65625 -5.03125 3.046875 -4.40625 3.046875 -3.734375 C 3.046875 -2.90625 2.46875 -2.296875 1.515625 -1.34375 L 0.515625 -0.296875 C 0.421875 -0.21875 0.421875 -0.203125 0.421875 0 L 3.5625 0 L 3.796875 -1.421875 L 3.546875 -1.421875 C 3.53125 -1.265625 3.46875 -0.875 3.375 -0.71875 C 3.328125 -0.65625 2.71875 -0.65625 2.59375 -0.65625 L 1.171875 -0.65625 Z M 2.25 -1.625 "/>
</g>
<g id="glyph-2-0">
</g>
<g id="glyph-2-1">
<path d="M 4.3125 -4.140625 C 4.140625 -4.140625 3.984375 -4.140625 3.84375 -3.984375 C 3.671875 -3.828125 3.640625 -3.640625 3.640625 -3.5625 C 3.640625 -3.296875 3.84375 -3.1875 4.046875 -3.1875 C 4.359375 -3.1875 4.65625 -3.453125 4.65625 -3.875 C 4.65625 -4.421875 4.140625 -4.828125 3.375 -4.828125 C 1.890625 -4.828125 0.453125 -3.265625 0.453125 -1.71875 C 0.453125 -0.734375 1.078125 0.125 2.21875 0.125 C 3.78125 0.125 4.6875 -1.03125 4.6875 -1.171875 C 4.6875 -1.234375 4.625 -1.3125 4.5625 -1.3125 C 4.5 -1.3125 4.484375 -1.28125 4.421875 -1.203125 C 3.5625 -0.125 2.359375 -0.125 2.234375 -0.125 C 1.546875 -0.125 1.25 -0.65625 1.25 -1.3125 C 1.25 -1.75 1.46875 -2.8125 1.84375 -3.484375 C 2.1875 -4.109375 2.78125 -4.578125 3.375 -4.578125 C 3.75 -4.578125 4.171875 -4.4375 4.3125 -4.140625 Z M 4.3125 -4.140625 "/>
</g>
<g id="glyph-2-2">
<path d="M 5.65625 -4.0625 C 5.796875 -4.0625 6.1875 -4.0625 6.1875 -4.4375 C 6.1875 -4.703125 5.953125 -4.703125 5.765625 -4.703125 L 3.265625 -4.703125 C 1.625 -4.703125 0.421875 -2.90625 0.421875 -1.609375 C 0.421875 -0.640625 1.0625 0.125 2.046875 0.125 C 3.34375 0.125 4.78125 -1.203125 4.78125 -2.875 C 4.78125 -3.0625 4.78125 -3.59375 4.453125 -4.0625 Z M 2.0625 -0.125 C 1.53125 -0.125 1.09375 -0.515625 1.09375 -1.296875 C 1.09375 -1.625 1.21875 -2.515625 1.609375 -3.15625 C 2.0625 -3.921875 2.71875 -4.0625 3.09375 -4.0625 C 4 -4.0625 4.09375 -3.34375 4.09375 -3.015625 C 4.09375 -2.5 3.875 -1.609375 3.5 -1.046875 C 3.078125 -0.40625 2.484375 -0.125 2.0625 -0.125 Z M 2.0625 -0.125 "/>
</g>
</g>
<clipPath id="clip-0">
<path clip-rule="nonzero" d="M 2 16 L 17 16 L 17 24.957031 L 2 24.957031 Z M 2 16 "/>
</clipPath>
<clipPath id="clip-1">
<path clip-rule="nonzero" d="M 17 19 L 24 19 L 24 24.957031 L 17 24.957031 Z M 17 19 "/>
</clipPath>
</defs>
<g fill="rgb(0%, 0%, 0%)" fill-opacity="1">
<use xlink:href="#glyph-0-1" x="7.193" y="9.595"/>
</g>
<g fill="rgb(0%, 0%, 0%)" fill-opacity="1">
<use xlink:href="#glyph-1-1" x="13.254" y="5.636"/>
</g>
<g fill="rgb(0%, 0%, 0%)" fill-opacity="1">
<use xlink:href="#glyph-2-1" x="17.986" y="9.595"/>
</g>
<path fill="none" stroke-width="0.436" stroke-linecap="butt" stroke-linejoin="miter" stroke="rgb(0%, 0%, 0%)" stroke-opacity="1" stroke-miterlimit="10" d="M -0.0006875 0.00190625 L 26.507125 0.00190625 " transform="matrix(1, 0, 0, -1, 1.696, 14.248)"/>
<g clip-path="url(#clip-0)">
<g fill="rgb(0%, 0%, 0%)" fill-opacity="1">
<use xlink:href="#glyph-0-1" x="1.696" y="24.458"/>
<use xlink:href="#glyph-0-2" x="7.757096" y="24.458"/>
</g>
</g>
<g clip-path="url(#clip-1)">
<g fill="rgb(0%, 0%, 0%)" fill-opacity="1">
<use xlink:href="#glyph-2-2" x="16.847" y="24.458"/>
</g>
</g>
<g fill="rgb(0%, 0%, 0%)" fill-opacity="1">
<use xlink:href="#glyph-1-1" x="23.472" y="21.306"/>
</g>
</svg>
