<?xml version="1.0" encoding="UTF-8"?>
<svg xmlns="http://www.w3.org/2000/svg" xmlns:xlink="http://www.w3.org/1999/xlink" width="31.661" height="27.655" viewBox="0 0 31.661 27.655">
<defs>
<g>
<g id="glyph-0-0">
</g>
<g id="glyph-0-1">
<path d="M 4.140625 -0.59375 L 4.140625 0.125 L 5.75 0 L 5.75 -0.34375 C 4.984375 -0.34375 4.890625 -0.421875 4.890625 -0.953125 L 4.890625 -7.5625 L 3.328125 -7.453125 L 3.328125 -7.109375 C 4.09375 -7.109375 4.171875 -7.03125 4.171875 -6.5 L 4.171875 -4.140625 C 3.859375 -4.53125 3.390625 -4.828125 2.796875 -4.828125 C 1.515625 -4.828125 0.375 -3.75 0.375 -2.34375 C 0.375 -0.953125 1.4375 0.125 2.6875 0.125 C 3.375 0.125 3.875 -0.25 4.140625 -0.59375 Z M 4.140625 -3.515625 L 4.140625 -1.28125 C 4.140625 -1.09375 4.140625 -1.0625 4.03125 -0.890625 C 3.703125 -0.359375 3.203125 -0.125 2.734375 -0.125 C 2.25 -0.125 1.859375 -0.40625 1.59375 -0.8125 C 1.3125 -1.265625 1.28125 -1.890625 1.28125 -2.328125 C 1.28125 -2.734375 1.296875 -3.390625 1.609375 -3.875 C 1.84375 -4.21875 2.25 -4.578125 2.84375 -4.578125 C 3.234375 -4.578125 3.6875 -4.421875 4.03125 -3.921875 C 4.140625 -3.734375 4.140625 -3.71875 4.140625 -3.515625 Z M 4.140625 -3.515625 "/>
</g>
<g id="glyph-1-0">
</g>
<g id="glyph-1-1">
<path d="M 2.25 -1.625 C 2.375 -1.75 2.703125 -2.015625 2.84375 -2.125 C 3.328125 -2.578125 3.796875 -3.015625 3.796875 -3.734375 C 3.796875 -4.6875 3 -5.296875 2.015625 -5.296875 C 1.046875 -5.296875 0.421875 -4.578125 0.421875 -3.859375 C 0.421875 -3.46875 0.734375 -3.421875 0.84375 -3.421875 C 1.015625 -3.421875 1.265625 -3.53125 1.265625 -3.84375 C 1.265625 -4.25 0.859375 -4.25 0.765625 -4.25 C 1 -4.84375 1.53125 -5.03125 1.921875 -5.03125 C 2.65625 -5.03125 3.046875 -4.40625 3.046875 -3.734375 C 3.046875 -2.90625 2.46875 -2.296875 1.515625 -1.34375 L 0.515625 -0.296875 C 0.421875 -0.21875 0.421875 -0.203125 0.421875 0 L 3.5625 0 L 3.796875 -1.421875 L 3.546875 -1.421875 C 3.53125 -1.265625 3.46875 -0.875 3.375 -0.71875 C 3.328125 -0.65625 2.71875 -0.65625 2.59375 -0.65625 L 1.171875 -0.65625 Z M 2.25 -1.625 "/>
</g>
<g id="glyph-2-0">
</g>
<g id="glyph-2-1">
<path d="M 4.09375 -6.703125 C 4.15625 -6.953125 4.1875 -7.0625 4.390625 -7.09375 C 4.5 -7.109375 4.84375 -7.109375 5.0625 -7.109375 C 5.828125 -7.109375 7.046875 -7.109375 7.046875 -6.03125 C 7.046875 -5.65625 6.875 -4.90625 6.453125 -4.484375 C 6.15625 -4.203125 5.578125 -3.84375 4.609375 -3.84375 L 3.375 -3.84375 Z M 5.65625 -3.703125 C 6.765625 -3.953125 8.0625 -4.71875 8.0625 -5.8125 C 8.0625 -6.75 7.078125 -7.453125 5.65625 -7.453125 L 2.546875 -7.453125 C 2.328125 -7.453125 2.21875 -7.453125 2.21875 -7.234375 C 2.21875 -7.109375 2.328125 -7.109375 2.53125 -7.109375 C 2.546875 -7.109375 2.765625 -7.109375 2.9375 -7.09375 C 3.140625 -7.0625 3.234375 -7.0625 3.234375 -6.921875 C 3.234375 -6.875 3.234375 -6.84375 3.203125 -6.703125 L 1.734375 -0.84375 C 1.625 -0.421875 1.609375 -0.34375 0.734375 -0.34375 C 0.546875 -0.34375 0.453125 -0.34375 0.453125 -0.125 C 0.453125 0 0.578125 0 0.59375 0 C 0.90625 0 1.671875 -0.03125 1.96875 -0.03125 C 2.28125 -0.03125 3.046875 0 3.359375 0 C 3.453125 0 3.578125 0 3.578125 -0.21875 C 3.578125 -0.34375 3.484375 -0.34375 3.265625 -0.34375 C 2.875 -0.34375 2.5625 -0.34375 2.5625 -0.53125 C 2.5625 -0.59375 2.578125 -0.65625 2.59375 -0.71875 L 3.3125 -3.609375 L 4.609375 -3.609375 C 5.609375 -3.609375 5.796875 -3 5.796875 -2.625 C 5.796875 -2.453125 5.71875 -2.109375 5.65625 -1.859375 C 5.578125 -1.5625 5.46875 -1.15625 5.46875 -0.9375 C 5.46875 0.234375 6.78125 0.234375 6.921875 0.234375 C 7.859375 0.234375 8.234375 -0.859375 8.234375 -1.015625 C 8.234375 -1.140625 8.109375 -1.140625 8.109375 -1.140625 C 8 -1.140625 7.984375 -1.0625 7.96875 -1 C 7.6875 -0.1875 7.21875 0 6.96875 0 C 6.609375 0 6.53125 -0.234375 6.53125 -0.671875 C 6.53125 -1 6.59375 -1.5625 6.640625 -1.90625 C 6.65625 -2.0625 6.6875 -2.265625 6.6875 -2.421875 C 6.6875 -3.265625 5.953125 -3.59375 5.65625 -3.703125 Z M 5.65625 -3.703125 "/>
</g>
<g id="glyph-2-2">
<path d="M 0.359375 1.890625 C 0.328125 2.015625 0.328125 2.046875 0.328125 2.0625 C 0.328125 2.21875 0.453125 2.359375 0.625 2.359375 C 0.859375 2.359375 1 2.15625 1.015625 2.125 C 1.0625 2.03125 1.421875 0.5625 1.71875 -0.609375 C 1.9375 -0.171875 2.28125 0.125 2.796875 0.125 C 4.0625 0.125 5.46875 -1.421875 5.46875 -3.046875 C 5.46875 -4.203125 4.75 -4.828125 3.953125 -4.828125 C 2.90625 -4.828125 1.75 -3.734375 1.421875 -2.40625 Z M 2.78125 -0.125 C 2.015625 -0.125 1.84375 -1 1.84375 -1.09375 C 1.84375 -1.140625 1.890625 -1.359375 1.9375 -1.5 C 2.234375 -2.71875 2.34375 -3.109375 2.578125 -3.546875 C 3.046875 -4.34375 3.59375 -4.578125 3.9375 -4.578125 C 4.34375 -4.578125 4.6875 -4.265625 4.6875 -3.515625 C 4.6875 -2.90625 4.375 -1.6875 4.078125 -1.15625 C 3.71875 -0.46875 3.203125 -0.125 2.78125 -0.125 Z M 2.78125 -0.125 "/>
</g>
<g id="glyph-3-0">
</g>
<g id="glyph-3-1">
<path d="M 1.609375 -1.8125 C 1.78125 -1.8125 2.375 -1.828125 2.796875 -1.96875 C 3.484375 -2.21875 3.515625 -2.6875 3.515625 -2.8125 C 3.515625 -3.265625 3.09375 -3.515625 2.578125 -3.515625 C 1.671875 -3.515625 0.390625 -2.8125 0.390625 -1.390625 C 0.390625 -0.578125 0.890625 0.078125 1.765625 0.078125 C 3 0.078125 3.671875 -0.71875 3.671875 -0.828125 C 3.671875 -0.90625 3.59375 -0.953125 3.546875 -0.953125 C 3.5 -0.953125 3.46875 -0.9375 3.4375 -0.890625 C 2.8125 -0.140625 1.90625 -0.140625 1.78125 -0.140625 C 1.1875 -0.140625 1.015625 -0.640625 1.015625 -1.078125 C 1.015625 -1.328125 1.09375 -1.6875 1.125 -1.8125 Z M 1.1875 -2.046875 C 1.4375 -3.015625 2.171875 -3.296875 2.578125 -3.296875 C 2.890625 -3.296875 3.203125 -3.125 3.203125 -2.8125 C 3.203125 -2.046875 1.890625 -2.046875 1.546875 -2.046875 Z M 1.1875 -2.046875 "/>
</g>
<g id="glyph-3-2">
<path d="M 4 -3.171875 C 3.640625 -3.09375 3.625 -2.78125 3.625 -2.75 C 3.625 -2.578125 3.765625 -2.453125 3.9375 -2.453125 C 4.109375 -2.453125 4.375 -2.59375 4.375 -2.9375 C 4.375 -3.390625 3.875 -3.515625 3.578125 -3.515625 C 3.21875 -3.515625 2.90625 -3.25 2.71875 -2.9375 C 2.546875 -3.359375 2.140625 -3.515625 1.8125 -3.515625 C 0.9375 -3.515625 0.453125 -2.515625 0.453125 -2.296875 C 0.453125 -2.21875 0.515625 -2.1875 0.578125 -2.1875 C 0.671875 -2.1875 0.6875 -2.234375 0.703125 -2.328125 C 0.890625 -2.90625 1.375 -3.296875 1.78125 -3.296875 C 2.09375 -3.296875 2.25 -3.0625 2.25 -2.78125 C 2.25 -2.625 2.15625 -2.25 2.09375 -2 C 2.03125 -1.765625 1.859375 -1.0625 1.8125 -0.90625 C 1.703125 -0.484375 1.421875 -0.140625 1.0625 -0.140625 C 1.03125 -0.140625 0.828125 -0.140625 0.65625 -0.25 C 1.015625 -0.34375 1.015625 -0.671875 1.015625 -0.6875 C 1.015625 -0.875 0.875 -0.984375 0.703125 -0.984375 C 0.484375 -0.984375 0.25 -0.796875 0.25 -0.5 C 0.25 -0.125 0.640625 0.078125 1.046875 0.078125 C 1.46875 0.078125 1.765625 -0.234375 1.90625 -0.5 C 2.09375 -0.109375 2.453125 0.078125 2.84375 0.078125 C 3.703125 0.078125 4.1875 -0.921875 4.1875 -1.140625 C 4.1875 -1.21875 4.125 -1.25 4.0625 -1.25 C 3.96875 -1.25 3.953125 -1.1875 3.921875 -1.109375 C 3.765625 -0.578125 3.3125 -0.140625 2.859375 -0.140625 C 2.59375 -0.140625 2.40625 -0.3125 2.40625 -0.65625 C 2.40625 -0.8125 2.453125 -1 2.5625 -1.4375 C 2.609375 -1.6875 2.78125 -2.375 2.828125 -2.53125 C 2.9375 -2.953125 3.21875 -3.296875 3.578125 -3.296875 C 3.625 -3.296875 3.828125 -3.296875 4 -3.171875 Z M 4 -3.171875 "/>
</g>
</g>
<clipPath id="clip-0">
<path clip-rule="nonzero" d="M 17 23 L 26 23 L 26 27.65625 L 17 27.65625 Z M 17 23 "/>
</clipPath>
</defs>
<g fill="rgb(0%, 0%, 0%)" fill-opacity="1">
<use xlink:href="#glyph-0-1" x="1.696" y="9.595"/>
</g>
<g fill="rgb(0%, 0%, 0%)" fill-opacity="1">
<use xlink:href="#glyph-1-1" x="7.756" y="5.636"/>
</g>
<g fill="rgb(0%, 0%, 0%)" fill-opacity="1">
<use xlink:href="#glyph-2-1" x="12.488" y="9.595"/>
</g>
<g fill="rgb(0%, 0%, 0%)" fill-opacity="1">
<use xlink:href="#glyph-3-1" x="20.772" y="11.231"/>
<use xlink:href="#glyph-3-2" x="24.700462" y="11.231"/>
</g>
<path fill="none" stroke-width="0.436" stroke-linecap="butt" stroke-linejoin="miter" stroke="rgb(0%, 0%, 0%)" stroke-opacity="1" stroke-miterlimit="10" d="M -0.0006875 0.00190625 L 28.268844 0.00190625 " transform="matrix(1, 0, 0, -1, 1.696, 14.248)"/>
<g fill="rgb(0%, 0%, 0%)" fill-opacity="1">
<use xlink:href="#glyph-0-1" x="5.383" y="24.458"/>
</g>
<g fill="rgb(0%, 0%, 0%)" fill-opacity="1">
<use xlink:href="#glyph-2-2" x="11.444" y="24.458"/>
</g>
<g fill="rgb(0%, 0%, 0%)" fill-opacity="1">
<use xlink:href="#glyph-1-1" x="17.084" y="21.307"/>
</g>
<g clip-path="url(#clip-0)">
<g fill="rgb(0%, 0%, 0%)" fill-opacity="1">
<use xlink:href="#glyph-3-1" x="17.084" y="27.155"/>
<use xlink:href="#glyph-3-2" x="21.012462" y="27.155"/>
</g>
</g>
</svg>
