<?xml version="1.0" encoding="UTF-8"?>
<svg xmlns="http://www.w3.org/2000/svg" xmlns:xlink="http://www.w3.org/1999/xlink" width="27.766" height="29.757" viewBox="0 0 27.766 29.757">
<defs>
<g>
<g id="glyph-0-0">
</g>
<g id="glyph-0-1">
<path d="M 5.046875 -3.703125 C 4.9375 -4.375 4.5 -4.984375 3.640625 -4.984375 C 2.984375 -4.984375 2.265625 -4.8125 1.421875 -3.953125 C 0.515625 -3.046875 0.4375 -2.046875 0.4375 -1.703125 C 0.4375 -1.03125 0.921875 0.234375 2.4375 0.234375 C 5.03125 0.234375 6.171875 -3.421875 6.171875 -4.984375 C 6.171875 -6.71875 5.15625 -7.8125 3.8125 -7.8125 C 2.234375 -7.8125 1.734375 -6.390625 1.734375 -6.078125 C 1.734375 -5.9375 1.828125 -5.703125 2.15625 -5.703125 C 2.515625 -5.703125 2.734375 -6.03125 2.734375 -6.28125 C 2.734375 -6.65625 2.40625 -6.65625 2.21875 -6.65625 C 2.703125 -7.46875 3.484375 -7.53125 3.796875 -7.53125 C 4.59375 -7.53125 5.359375 -6.96875 5.359375 -5.5625 C 5.359375 -5.140625 5.296875 -4.578125 5.0625 -3.703125 Z M 2.46875 -0.0625 C 1.28125 -0.0625 1.28125 -1.1875 1.28125 -1.296875 C 1.28125 -1.59375 1.546875 -3.125 2 -3.78125 C 2.4375 -4.390625 2.96875 -4.75 3.640625 -4.75 C 4.828125 -4.75 4.859375 -3.515625 4.859375 -3.296875 C 4.859375 -2.515625 4.15625 -0.0625 2.46875 -0.0625 Z M 2.46875 -0.0625 "/>
</g>
<g id="glyph-0-2">
<path d="M 5.90625 -6.65625 C 5.984375 -7.015625 6.015625 -7.109375 6.609375 -7.109375 C 6.78125 -7.109375 6.90625 -7.109375 6.90625 -7.3125 C 6.90625 -7.421875 6.84375 -7.453125 6.75 -7.453125 C 6.484375 -7.453125 5.8125 -7.421875 5.546875 -7.421875 C 5.1875 -7.421875 4.296875 -7.453125 3.9375 -7.453125 C 3.84375 -7.453125 3.703125 -7.453125 3.703125 -7.234375 C 3.703125 -7.109375 3.796875 -7.109375 4.078125 -7.109375 C 4.328125 -7.109375 4.4375 -7.109375 4.71875 -7.09375 C 4.96875 -7.0625 5.046875 -7.03125 5.046875 -6.875 C 5.046875 -6.8125 5.03125 -6.734375 5 -6.640625 L 3.75 -1.640625 C 3.484375 -0.578125 2.75 0 2.1875 0 C 1.890625 0 1.3125 -0.109375 1.140625 -0.671875 C 1.171875 -0.671875 1.25 -0.671875 1.28125 -0.671875 C 1.703125 -0.671875 1.984375 -1.03125 1.984375 -1.359375 C 1.984375 -1.71875 1.6875 -1.828125 1.5 -1.828125 C 1.3125 -1.828125 0.78125 -1.6875 0.78125 -0.953125 C 0.78125 -0.265625 1.359375 0.234375 2.21875 0.234375 C 3.21875 0.234375 4.359375 -0.484375 4.625 -1.5625 Z M 5.90625 -6.65625 "/>
</g>
<g id="glyph-0-3">
<path d="M 4.96875 -5.453125 C 4.96875 -6.171875 4.765625 -7.6875 3.65625 -7.6875 C 2.140625 -7.6875 0.453125 -4.609375 0.453125 -2.109375 C 0.453125 -1.09375 0.78125 0.125 1.765625 0.125 C 3.296875 0.125 4.96875 -3.015625 4.96875 -5.453125 Z M 1.609375 -3.953125 C 1.796875 -4.65625 2.015625 -5.53125 2.453125 -6.296875 C 2.75 -6.84375 3.15625 -7.453125 3.640625 -7.453125 C 4.171875 -7.453125 4.25 -6.75 4.25 -6.125 C 4.25 -5.59375 4.15625 -5.03125 3.890625 -3.953125 Z M 3.796875 -3.609375 C 3.671875 -3.109375 3.453125 -2.1875 3.03125 -1.390625 C 2.65625 -0.65625 2.234375 -0.125 1.765625 -0.125 C 1.40625 -0.125 1.171875 -0.4375 1.171875 -1.453125 C 1.171875 -1.90625 1.25 -2.546875 1.53125 -3.609375 Z M 3.796875 -3.609375 "/>
</g>
<g id="glyph-1-0">
</g>
<g id="glyph-1-1">
<path d="M 3.78125 -2.703125 C 4.40625 -2.875 5.15625 -3.328125 5.15625 -4.015625 C 5.15625 -4.796875 4.15625 -5.4375 2.96875 -5.4375 L 0.359375 -5.4375 L 0.359375 -5.171875 L 0.546875 -5.171875 C 1.15625 -5.171875 1.171875 -5.09375 1.171875 -4.796875 L 1.171875 -0.640625 C 1.171875 -0.34375 1.15625 -0.265625 0.546875 -0.265625 L 0.359375 -0.265625 L 0.359375 0 C 1.046875 -0.03125 1.0625 -0.03125 1.515625 -0.03125 C 1.984375 -0.03125 2.015625 -0.03125 2.6875 0 L 2.6875 -0.265625 L 2.515625 -0.265625 C 1.890625 -0.265625 1.875 -0.34375 1.875 -0.640625 L 1.875 -2.609375 L 2.890625 -2.609375 C 3.46875 -2.609375 3.734375 -2.3125 3.796875 -2.25 C 4.03125 -2 4.03125 -1.84375 4.03125 -1.3125 C 4.03125 -0.8125 4.03125 -0.46875 4.359375 -0.171875 C 4.703125 0.125 5.140625 0.171875 5.375 0.171875 C 6.046875 0.171875 6.203125 -0.484375 6.203125 -0.71875 C 6.203125 -0.765625 6.203125 -0.875 6.078125 -0.875 C 5.953125 -0.875 5.953125 -0.78125 5.953125 -0.734375 C 5.90625 -0.234375 5.640625 -0.0625 5.40625 -0.0625 C 4.984375 -0.0625 4.9375 -0.421875 4.796875 -1.4375 C 4.734375 -1.890625 4.65625 -2.4375 3.78125 -2.703125 Z M 2.859375 -2.84375 L 1.875 -2.84375 L 1.875 -4.859375 C 1.875 -5.0625 1.890625 -5.140625 2.078125 -5.171875 C 2.15625 -5.171875 2.40625 -5.171875 2.5625 -5.171875 C 3.28125 -5.171875 4.328125 -5.171875 4.328125 -4.015625 C 4.328125 -3.125 3.703125 -2.84375 2.859375 -2.84375 Z M 2.859375 -2.84375 "/>
</g>
<g id="glyph-2-0">
</g>
<g id="glyph-2-1">
<path d="M 3.21875 -1.125 L 3 -1.125 C 2.984375 -1.03125 2.921875 -0.640625 2.84375 -0.578125 C 2.796875 -0.53125 2.3125 -0.53125 2.21875 -0.53125 L 1.109375 -0.53125 L 1.875 -1.15625 C 2.078125 -1.328125 2.609375 -1.703125 2.796875 -1.890625 C 2.96875 -2.0625 3.21875 -2.375 3.21875 -2.796875 C 3.21875 -3.546875 2.546875 -3.984375 1.734375 -3.984375 C 0.96875 -3.984375 0.4375 -3.46875 0.4375 -2.90625 C 0.4375 -2.609375 0.6875 -2.5625 0.75 -2.5625 C 0.90625 -2.5625 1.078125 -2.671875 1.078125 -2.890625 C 1.078125 -3.015625 1 -3.21875 0.734375 -3.21875 C 0.875 -3.515625 1.234375 -3.75 1.65625 -3.75 C 2.28125 -3.75 2.609375 -3.28125 2.609375 -2.796875 C 2.609375 -2.375 2.328125 -1.9375 1.921875 -1.546875 L 0.5 -0.25 C 0.4375 -0.1875 0.4375 -0.1875 0.4375 0 L 3.03125 0 Z M 3.21875 -1.125 "/>
</g>
<g id="glyph-3-0">
</g>
<g id="glyph-3-1">
<path d="M 4.28125 -5.296875 C 4.296875 -5.3125 4.3125 -5.40625 4.3125 -5.421875 C 4.3125 -5.453125 4.28125 -5.53125 4.1875 -5.53125 C 4.15625 -5.53125 3.90625 -5.5 3.734375 -5.484375 L 3.28125 -5.453125 C 3.109375 -5.4375 3.03125 -5.4375 3.03125 -5.296875 C 3.03125 -5.171875 3.140625 -5.171875 3.234375 -5.171875 C 3.625 -5.171875 3.625 -5.125 3.625 -5.0625 C 3.625 -5.015625 3.546875 -4.75 3.515625 -4.59375 L 3.125 -3.03125 C 3.046875 -3.171875 2.828125 -3.515625 2.328125 -3.515625 C 1.390625 -3.515625 0.34375 -2.40625 0.34375 -1.234375 C 0.34375 -0.390625 0.875 0.078125 1.484375 0.078125 C 2 0.078125 2.4375 -0.328125 2.578125 -0.484375 C 2.71875 0.0625 3.265625 0.078125 3.359375 0.078125 C 3.734375 0.078125 3.90625 -0.21875 3.96875 -0.359375 C 4.140625 -0.640625 4.25 -1.109375 4.25 -1.140625 C 4.25 -1.1875 4.21875 -1.25 4.125 -1.25 C 4.03125 -1.25 4.015625 -1.1875 3.953125 -1 C 3.84375 -0.5625 3.703125 -0.140625 3.390625 -0.140625 C 3.203125 -0.140625 3.125 -0.296875 3.125 -0.515625 C 3.125 -0.671875 3.15625 -0.75 3.171875 -0.859375 Z M 2.578125 -0.859375 C 2.1875 -0.3125 1.765625 -0.140625 1.515625 -0.140625 C 1.140625 -0.140625 0.96875 -0.484375 0.96875 -0.890625 C 0.96875 -1.265625 1.171875 -2.125 1.359375 -2.46875 C 1.578125 -2.953125 1.96875 -3.296875 2.34375 -3.296875 C 2.859375 -3.296875 3.015625 -2.703125 3.015625 -2.609375 C 3.015625 -2.578125 2.8125 -1.796875 2.765625 -1.59375 C 2.65625 -1.21875 2.65625 -1.203125 2.578125 -0.859375 Z M 2.578125 -0.859375 "/>
</g>
<g id="glyph-3-2">
<path d="M 3.296875 -4.96875 C 3.296875 -5.125 3.171875 -5.28125 2.984375 -5.28125 C 2.734375 -5.28125 2.53125 -5.046875 2.53125 -4.84375 C 2.53125 -4.6875 2.65625 -4.546875 2.84375 -4.546875 C 3.078125 -4.546875 3.296875 -4.765625 3.296875 -4.96875 Z M 1.625 0.390625 C 1.5 0.890625 1.109375 1.40625 0.625 1.40625 C 0.5 1.40625 0.375 1.375 0.359375 1.359375 C 0.609375 1.25 0.640625 1.03125 0.640625 0.953125 C 0.640625 0.765625 0.5 0.65625 0.328125 0.65625 C 0.109375 0.65625 -0.109375 0.859375 -0.109375 1.125 C -0.109375 1.421875 0.1875 1.625 0.640625 1.625 C 1.125 1.625 2 1.328125 2.234375 0.359375 L 2.953125 -2.484375 C 2.984375 -2.578125 3 -2.640625 3 -2.765625 C 3 -3.203125 2.640625 -3.515625 2.1875 -3.515625 C 1.34375 -3.515625 0.84375 -2.40625 0.84375 -2.296875 C 0.84375 -2.21875 0.90625 -2.1875 0.96875 -2.1875 C 1.046875 -2.1875 1.0625 -2.21875 1.109375 -2.328125 C 1.359375 -2.890625 1.765625 -3.296875 2.15625 -3.296875 C 2.328125 -3.296875 2.421875 -3.171875 2.421875 -2.921875 C 2.421875 -2.8125 2.40625 -2.6875 2.375 -2.578125 Z M 1.625 0.390625 "/>
</g>
</g>
<clipPath id="clip-0">
<path clip-rule="nonzero" d="M 17 22 L 21 22 L 21 29.757812 L 17 29.757812 Z M 17 22 "/>
</clipPath>
</defs>
<g fill="rgb(0%, 0%, 0%)" fill-opacity="1">
<use xlink:href="#glyph-0-1" x="1.696" y="10.811"/>
</g>
<g fill="rgb(0%, 0%, 0%)" fill-opacity="1">
<use xlink:href="#glyph-0-2" x="8.098551" y="10.811"/>
</g>
<g fill="rgb(0%, 0%, 0%)" fill-opacity="1">
<use xlink:href="#glyph-1-1" x="15.192" y="5.946"/>
</g>
<g fill="rgb(0%, 0%, 0%)" fill-opacity="1">
<use xlink:href="#glyph-2-1" x="21.421" y="7.053"/>
</g>
<g fill="rgb(0%, 0%, 0%)" fill-opacity="1">
<use xlink:href="#glyph-3-1" x="14.142" y="14.333"/>
</g>
<path fill="none" stroke-width="0.436" stroke-linecap="butt" stroke-linejoin="miter" stroke="rgb(0%, 0%, 0%)" stroke-opacity="1" stroke-miterlimit="10" d="M -0.0006875 0.001625 L 24.374312 0.001625 " transform="matrix(1, 0, 0, -1, 1.696, 15.861)"/>
<g fill="rgb(0%, 0%, 0%)" fill-opacity="1">
<use xlink:href="#glyph-0-1" x="5.932" y="26.071"/>
</g>
<g fill="rgb(0%, 0%, 0%)" fill-opacity="1">
<use xlink:href="#glyph-0-3" x="12.334551" y="26.071"/>
</g>
<g clip-path="url(#clip-0)">
<g fill="rgb(0%, 0%, 0%)" fill-opacity="1">
<use xlink:href="#glyph-3-2" x="17.451" y="27.707"/>
</g>
</g>
</svg>
