<?xml version="1.0" encoding="UTF-8"?>
<svg xmlns="http://www.w3.org/2000/svg" xmlns:xlink="http://www.w3.org/1999/xlink" width="10.226" height="27.487" viewBox="0 0 10.226 27.487">
<defs>
<g>
<g id="glyph-0-0">
</g>
<g id="glyph-0-1">
<path d="M 5.75 12.65625 C 5.75 8.359375 4.765625 4.046875 2 0.78125 C 1.78125 0.53125 1.359375 0.09375 0.921875 -0.3125 C 0.78125 -0.4375 0.765625 -0.4375 0.609375 -0.4375 C 0.484375 -0.4375 0.375 -0.4375 0.375 -0.328125 C 0.375 -0.28125 0.421875 -0.234375 0.453125 -0.21875 C 0.828125 0.171875 1.5625 0.90625 2.296875 2.078125 C 4.046875 4.890625 4.84375 8.4375 4.84375 12.640625 C 4.84375 15.578125 4.453125 19.359375 2.65625 22.609375 C 1.78125 24.15625 0.890625 25.0625 0.421875 25.515625 C 0.40625 25.546875 0.375 25.59375 0.375 25.625 C 0.375 25.734375 0.484375 25.734375 0.609375 25.734375 C 0.765625 25.734375 0.78125 25.734375 0.953125 25.5625 C 4.609375 22.234375 5.75 17.25 5.75 12.65625 Z M 5.75 12.65625 "/>
</g>
</g>
</defs>
<g fill="rgb(0%, 0%, 0%)" fill-opacity="1">
<use xlink:href="#glyph-0-1" x="1.696" y="0.936"/>
</g>
</svg>
