<?xml version="1.0" encoding="UTF-8"?>
<svg xmlns="http://www.w3.org/2000/svg" xmlns:xlink="http://www.w3.org/1999/xlink" width="9.485" height="9.436" viewBox="0 0 9.485 9.436">
<defs>
<g>
<g id="glyph-0-0">
</g>
<g id="glyph-0-1">
<path d="M 7.34375 -3.53125 C 7.53125 -3.609375 7.5625 -3.6875 7.5625 -3.78125 C 7.5625 -3.921875 7.5 -3.953125 7.34375 -4.015625 L 1.34375 -6.859375 C 1.1875 -6.9375 1.140625 -6.9375 1.125 -6.9375 C 1 -6.9375 0.90625 -6.84375 0.90625 -6.71875 C 0.90625 -6.578125 1 -6.546875 1.125 -6.484375 L 6.84375 -3.78125 L 1.109375 -1.078125 C 0.953125 -1 0.90625 -0.9375 0.90625 -0.84375 C 0.90625 -0.71875 1 -0.625 1.125 -0.625 C 1.15625 -0.625 1.171875 -0.625 1.3125 -0.703125 Z M 7.34375 -1.421875 C 7.53125 -1.5 7.5625 -1.578125 7.5625 -1.65625 C 7.5625 -1.875 7.359375 -1.875 7.28125 -1.875 L 1.109375 1.03125 C 1 1.09375 0.90625 1.15625 0.90625 1.28125 C 0.90625 1.390625 1 1.5 1.125 1.5 C 1.15625 1.5 1.171875 1.5 1.3125 1.421875 Z M 7.34375 -1.421875 "/>
</g>
</g>
</defs>
<g fill="rgb(0%, 0%, 0%)" fill-opacity="1">
<use xlink:href="#glyph-0-1" x="0.5" y="7.445"/>
</g>
</svg>
