<?xml version="1.0" encoding="UTF-8"?>
<svg xmlns="http://www.w3.org/2000/svg" xmlns:xlink="http://www.w3.org/1999/xlink" width="10.226" height="27.487" viewBox="0 0 10.226 27.487">
<defs>
<g>
<g id="glyph-0-0">
</g>
<g id="glyph-0-1">
<path d="M 7.640625 25.625 C 7.640625 25.578125 7.609375 25.546875 7.59375 25.515625 C 7.1875 25.109375 6.453125 24.390625 5.71875 23.203125 C 3.96875 20.390625 3.171875 16.84375 3.171875 12.65625 C 3.171875 9.71875 3.5625 5.9375 5.359375 2.6875 C 6.234375 1.140625 7.125 0.234375 7.609375 -0.234375 C 7.640625 -0.265625 7.640625 -0.296875 7.640625 -0.328125 C 7.640625 -0.4375 7.5625 -0.4375 7.40625 -0.4375 C 7.25 -0.4375 7.234375 -0.4375 7.0625 -0.265625 C 3.40625 3.046875 2.265625 8.046875 2.265625 12.640625 C 2.265625 16.921875 3.25 21.25 6.015625 24.5 C 6.234375 24.75 6.65625 25.203125 7.09375 25.59375 C 7.234375 25.734375 7.25 25.734375 7.40625 25.734375 C 7.5625 25.734375 7.640625 25.734375 7.640625 25.625 Z M 7.640625 25.625 "/>
</g>
</g>
</defs>
<g fill="rgb(0%, 0%, 0%)" fill-opacity="1">
<use xlink:href="#glyph-0-1" x="0.5" y="0.936"/>
</g>
</svg>
