<?xml version="1.0" encoding="UTF-8"?>
<svg xmlns="http://www.w3.org/2000/svg" xmlns:xlink="http://www.w3.org/1999/xlink" width="194.573" height="33.728" viewBox="0 0 194.573 33.728">
<defs>
<g>
<g id="glyph-0-0">
</g>
<g id="glyph-0-1">
<path d="M 4.015625 -6.09375 C 3.265625 -5.703125 2.328125 -5.078125 2.328125 -4.234375 C 2.328125 -4.03125 2.828125 -3.390625 2.90625 -3.296875 C 3.109375 -3.078125 3.265625 -2.796875 3.265625 -2.5 C 3.265625 -1.765625 2.21875 -1.453125 1.515625 -1.453125 C 1.03125 -1.046875 0.625 -0.5625 0.34375 0 L 0.53125 0.171875 C 0.78125 -0.234375 1.1875 -0.703125 1.6875 -0.703125 C 2.375 -0.703125 3.203125 -0.359375 3.890625 -0.09375 C 4.25 0.046875 4.890625 0.296875 5.109375 0.296875 C 5.765625 0.296875 6.84375 -0.84375 7.53125 -1.609375 C 7.90625 -2.578125 8.140625 -3.421875 8.140625 -4.46875 C 8.140625 -5.765625 7.234375 -6.953125 6.015625 -7.3125 C 5.296875 -7.5 4.734375 -7.53125 4.0625 -7.53125 C 3.078125 -7.53125 1.9375 -7.171875 1.21875 -6.46875 C 0.578125 -5.828125 0.296875 -5.015625 0.296875 -4.125 L 0.53125 -4 C 0.5625 -4.640625 0.78125 -5.359375 1.25 -5.84375 C 1.890625 -6.5 2.875 -6.671875 3.78125 -6.671875 C 4.796875 -6.671875 5.828125 -6.421875 6.5625 -5.6875 C 7.125 -5.125 7.3125 -4.3125 7.3125 -3.546875 C 7.3125 -2.828125 7.234375 -2.03125 6.859375 -1.453125 C 6.484375 -0.890625 6.28125 -0.53125 5.578125 -0.53125 C 5.359375 -0.53125 4.5625 -0.8125 4.09375 -1 C 3.625 -1.15625 3.09375 -1.328125 2.625 -1.421875 C 3.296875 -1.71875 4.25 -2.234375 4.25 -3.015625 C 4.25 -3.546875 3.265625 -4.390625 3.265625 -4.828125 C 3.265625 -5.234375 3.90625 -5.796875 4.1875 -5.984375 Z M 4.015625 -6.09375 "/>
</g>
<g id="glyph-0-2">
<path d="M 4.71875 -6.5 C 6.09375 -6.5 7.140625 -5.96875 7.140625 -3.59375 C 7.140625 -2.015625 6.65625 -0.390625 5.015625 -0.390625 C 3.96875 -0.390625 3.125 -0.828125 2.171875 -1.140625 C 2.046875 -1.171875 1.875 -1.21875 1.75 -1.21875 C 2.25 -1.640625 2.84375 -2.1875 2.84375 -2.84375 C 2.84375 -3.59375 1.796875 -4.5625 1.796875 -5.28125 C 1.796875 -5.6875 2.234375 -6.078125 2.5625 -6.328125 L 2.328125 -6.453125 C 1.609375 -6.015625 0.875 -5.296875 0.875 -4.46875 C 0.875 -4.203125 1.15625 -3.921875 1.578125 -3.296875 C 1.78125 -2.984375 2.046875 -2.625 2.046875 -2.25 C 2.046875 -1.71875 1.59375 -1.3125 1.109375 -1.15625 C 0.75 -0.796875 0.421875 -0.40625 0.125 0 L 0.296875 0.171875 C 0.53125 -0.171875 0.921875 -0.40625 1.34375 -0.40625 C 1.75 -0.40625 2.140625 -0.203125 2.5 -0.046875 C 3.046875 0.171875 3.640625 0.296875 4.25 0.296875 C 5.265625 0.296875 6.34375 -0.484375 7.140625 -1.21875 C 7.953125 -1.90625 8.140625 -3.265625 8.140625 -4.359375 C 8.140625 -5.796875 7.609375 -7.03125 5.515625 -7.21875 C 4.46875 -7.3125 3.734375 -7.3125 3.734375 -7.671875 C 3.734375 -7.765625 3.78125 -7.875 3.84375 -7.953125 L 3.671875 -7.953125 C 3.40625 -7.609375 2.90625 -7.40625 2.90625 -6.96875 C 2.90625 -6.59375 3.4375 -6.46875 3.78125 -6.46875 Z M 4.71875 -6.5 "/>
</g>
<g id="glyph-1-0">
</g>
<g id="glyph-1-1">
<path d="M 1.53125 -1.09375 C 1.625 -1.4375 1.71875 -1.78125 1.796875 -2.140625 C 1.796875 -2.15625 1.859375 -2.375 1.859375 -2.421875 C 1.890625 -2.5 2.09375 -2.828125 2.296875 -3.015625 C 2.546875 -3.25 2.828125 -3.296875 2.96875 -3.296875 C 3.046875 -3.296875 3.203125 -3.28125 3.3125 -3.1875 C 2.96875 -3.109375 2.921875 -2.828125 2.921875 -2.75 C 2.921875 -2.578125 3.046875 -2.453125 3.234375 -2.453125 C 3.4375 -2.453125 3.6875 -2.625 3.6875 -2.953125 C 3.6875 -3.234375 3.4375 -3.515625 2.984375 -3.515625 C 2.4375 -3.515625 2.078125 -3.15625 1.90625 -2.9375 C 1.75 -3.515625 1.203125 -3.515625 1.125 -3.515625 C 0.84375 -3.515625 0.640625 -3.328125 0.515625 -3.078125 C 0.328125 -2.71875 0.234375 -2.3125 0.234375 -2.296875 C 0.234375 -2.21875 0.296875 -2.1875 0.359375 -2.1875 C 0.46875 -2.1875 0.46875 -2.21875 0.53125 -2.4375 C 0.625 -2.828125 0.765625 -3.296875 1.09375 -3.296875 C 1.3125 -3.296875 1.359375 -3.09375 1.359375 -2.921875 C 1.359375 -2.765625 1.3125 -2.625 1.25 -2.359375 C 1.234375 -2.296875 1.109375 -1.828125 1.078125 -1.71875 L 0.78125 -0.515625 C 0.75 -0.390625 0.703125 -0.203125 0.703125 -0.171875 C 0.703125 0.015625 0.859375 0.078125 0.96875 0.078125 C 1.25 0.078125 1.296875 -0.140625 1.359375 -0.421875 Z M 1.53125 -1.09375 "/>
</g>
<g id="glyph-1-2">
<path d="M 4.125 -3 C 4.15625 -3.109375 4.15625 -3.125 4.15625 -3.1875 C 4.15625 -3.390625 4 -3.4375 3.90625 -3.4375 C 3.859375 -3.4375 3.6875 -3.421875 3.578125 -3.21875 C 3.5625 -3.171875 3.484375 -2.890625 3.453125 -2.71875 L 2.96875 -0.8125 C 2.96875 -0.78125 2.625 -0.140625 2.046875 -0.140625 C 1.65625 -0.140625 1.515625 -0.4375 1.515625 -0.78125 C 1.515625 -1.25 1.78125 -1.953125 1.96875 -2.421875 C 2.046875 -2.625 2.078125 -2.6875 2.078125 -2.84375 C 2.078125 -3.28125 1.71875 -3.515625 1.359375 -3.515625 C 0.5625 -3.515625 0.234375 -2.390625 0.234375 -2.296875 C 0.234375 -2.21875 0.296875 -2.1875 0.359375 -2.1875 C 0.46875 -2.1875 0.46875 -2.234375 0.5 -2.3125 C 0.703125 -3.015625 1.046875 -3.296875 1.328125 -3.296875 C 1.453125 -3.296875 1.515625 -3.21875 1.515625 -3.03125 C 1.515625 -2.859375 1.453125 -2.671875 1.40625 -2.53125 C 1.078125 -1.6875 0.9375 -1.28125 0.9375 -0.90625 C 0.9375 -0.125 1.53125 0.078125 2 0.078125 C 2.375 0.078125 2.640625 -0.09375 2.84375 -0.265625 C 2.71875 0.171875 2.640625 0.484375 2.34375 0.875 C 2.078125 1.1875 1.765625 1.40625 1.40625 1.40625 C 1.265625 1.40625 0.96875 1.375 0.8125 1.140625 C 1.234375 1.109375 1.265625 0.75 1.265625 0.703125 C 1.265625 0.515625 1.109375 0.40625 0.953125 0.40625 C 0.765625 0.40625 0.5 0.546875 0.5 0.9375 C 0.5 1.3125 0.84375 1.625 1.40625 1.625 C 2.21875 1.625 3.125 0.96875 3.375 0.015625 Z M 4.125 -3 "/>
</g>
<g id="glyph-1-3">
<path d="M 2.375 -4.96875 C 2.375 -5.140625 2.25 -5.28125 2.0625 -5.28125 C 1.859375 -5.28125 1.625 -5.078125 1.625 -4.84375 C 1.625 -4.671875 1.75 -4.546875 1.9375 -4.546875 C 2.140625 -4.546875 2.375 -4.734375 2.375 -4.96875 Z M 1.21875 -2.046875 L 0.78125 -0.953125 C 0.734375 -0.828125 0.703125 -0.734375 0.703125 -0.59375 C 0.703125 -0.203125 1 0.078125 1.421875 0.078125 C 2.203125 0.078125 2.53125 -1.03125 2.53125 -1.140625 C 2.53125 -1.21875 2.46875 -1.25 2.40625 -1.25 C 2.3125 -1.25 2.296875 -1.1875 2.265625 -1.109375 C 2.09375 -0.46875 1.765625 -0.140625 1.4375 -0.140625 C 1.34375 -0.140625 1.25 -0.1875 1.25 -0.390625 C 1.25 -0.59375 1.3125 -0.734375 1.40625 -0.984375 C 1.484375 -1.1875 1.5625 -1.40625 1.65625 -1.625 L 1.90625 -2.265625 C 1.96875 -2.453125 2.078125 -2.703125 2.078125 -2.84375 C 2.078125 -3.234375 1.75 -3.515625 1.34375 -3.515625 C 0.578125 -3.515625 0.234375 -2.40625 0.234375 -2.296875 C 0.234375 -2.21875 0.296875 -2.1875 0.359375 -2.1875 C 0.46875 -2.1875 0.46875 -2.234375 0.5 -2.3125 C 0.71875 -3.078125 1.078125 -3.296875 1.328125 -3.296875 C 1.4375 -3.296875 1.515625 -3.25 1.515625 -3.03125 C 1.515625 -2.953125 1.5 -2.84375 1.421875 -2.59375 Z M 1.21875 -2.046875 "/>
</g>
<g id="glyph-1-4">
<path d="M 3.296875 -4.96875 C 3.296875 -5.125 3.171875 -5.28125 2.984375 -5.28125 C 2.734375 -5.28125 2.53125 -5.046875 2.53125 -4.84375 C 2.53125 -4.6875 2.65625 -4.546875 2.84375 -4.546875 C 3.078125 -4.546875 3.296875 -4.765625 3.296875 -4.96875 Z M 1.625 0.390625 C 1.5 0.890625 1.109375 1.40625 0.625 1.40625 C 0.5 1.40625 0.375 1.375 0.359375 1.359375 C 0.609375 1.25 0.640625 1.03125 0.640625 0.953125 C 0.640625 0.765625 0.5 0.65625 0.328125 0.65625 C 0.109375 0.65625 -0.109375 0.859375 -0.109375 1.125 C -0.109375 1.421875 0.1875 1.625 0.640625 1.625 C 1.125 1.625 2 1.328125 2.234375 0.359375 L 2.953125 -2.484375 C 2.984375 -2.578125 3 -2.640625 3 -2.765625 C 3 -3.203125 2.640625 -3.515625 2.1875 -3.515625 C 1.34375 -3.515625 0.84375 -2.40625 0.84375 -2.296875 C 0.84375 -2.21875 0.90625 -2.1875 0.96875 -2.1875 C 1.046875 -2.1875 1.0625 -2.21875 1.109375 -2.328125 C 1.359375 -2.890625 1.765625 -3.296875 2.15625 -3.296875 C 2.328125 -3.296875 2.421875 -3.171875 2.421875 -2.921875 C 2.421875 -2.8125 2.40625 -2.6875 2.375 -2.578125 Z M 1.625 0.390625 "/>
</g>
<g id="glyph-2-0">
</g>
<g id="glyph-2-1">
<path d="M 3.15625 -2.71875 C 3.15625 -3.578125 3.03125 -4.890625 2.4375 -6.125 C 1.78125 -7.46875 0.84375 -8.171875 0.734375 -8.171875 C 0.671875 -8.171875 0.625 -8.140625 0.625 -8.078125 C 0.625 -8.03125 0.625 -8.015625 0.828125 -7.8125 C 1.890625 -6.734375 2.515625 -5 2.515625 -2.71875 C 2.515625 -0.859375 2.109375 1.0625 0.765625 2.4375 C 0.625 2.5625 0.625 2.578125 0.625 2.625 C 0.625 2.6875 0.671875 2.71875 0.734375 2.71875 C 0.84375 2.71875 1.828125 1.984375 2.46875 0.59375 C 3.015625 -0.59375 3.15625 -1.8125 3.15625 -2.71875 Z M 3.15625 -2.71875 "/>
</g>
<g id="glyph-2-2">
<path d="M 4.453125 -2.515625 L 7.5 -2.515625 C 7.65625 -2.515625 7.859375 -2.515625 7.859375 -2.71875 C 7.859375 -2.9375 7.65625 -2.9375 7.5 -2.9375 L 4.453125 -2.9375 L 4.453125 -6 C 4.453125 -6.15625 4.453125 -6.359375 4.25 -6.359375 C 4.03125 -6.359375 4.03125 -6.15625 4.03125 -6 L 4.03125 -2.9375 L 0.96875 -2.9375 C 0.8125 -2.9375 0.609375 -2.9375 0.609375 -2.71875 C 0.609375 -2.515625 0.8125 -2.515625 0.96875 -2.515625 L 4.03125 -2.515625 L 4.03125 0.546875 C 4.03125 0.703125 4.03125 0.90625 4.25 0.90625 C 4.453125 0.90625 4.453125 0.703125 4.453125 0.546875 Z M 4.453125 -2.515625 "/>
</g>
<g id="glyph-2-3">
<path d="M 3.15625 -3.84375 C 4.0625 -4.140625 4.6875 -4.890625 4.6875 -5.765625 C 4.6875 -6.65625 3.734375 -7.265625 2.6875 -7.265625 C 1.578125 -7.265625 0.75 -6.609375 0.75 -5.78125 C 0.75 -5.421875 1 -5.21875 1.3125 -5.21875 C 1.640625 -5.21875 1.859375 -5.453125 1.859375 -5.765625 C 1.859375 -6.3125 1.359375 -6.3125 1.1875 -6.3125 C 1.53125 -6.84375 2.25 -6.984375 2.640625 -6.984375 C 3.09375 -6.984375 3.6875 -6.75 3.6875 -5.765625 C 3.6875 -5.640625 3.671875 -5 3.375 -4.53125 C 3.046875 -4 2.6875 -3.96875 2.40625 -3.953125 C 2.328125 -3.953125 2.0625 -3.921875 1.984375 -3.921875 C 1.890625 -3.921875 1.828125 -3.90625 1.828125 -3.796875 C 1.828125 -3.671875 1.890625 -3.671875 2.078125 -3.671875 L 2.5625 -3.671875 C 3.453125 -3.671875 3.859375 -2.9375 3.859375 -1.859375 C 3.859375 -0.375 3.109375 -0.0625 2.625 -0.0625 C 2.15625 -0.0625 1.34375 -0.25 0.953125 -0.890625 C 1.34375 -0.84375 1.671875 -1.078125 1.671875 -1.5 C 1.671875 -1.890625 1.390625 -2.109375 1.0625 -2.109375 C 0.8125 -2.109375 0.453125 -1.953125 0.453125 -1.46875 C 0.453125 -0.484375 1.46875 0.234375 2.65625 0.234375 C 3.984375 0.234375 4.984375 -0.75 4.984375 -1.859375 C 4.984375 -2.765625 4.296875 -3.609375 3.15625 -3.84375 Z M 3.15625 -3.84375 "/>
</g>
<g id="glyph-3-0">
</g>
<g id="glyph-3-1">
<path d="M 8.25 32.15625 C 8.25 32.125 8.25 32.109375 8.1875 32.03125 C 7.140625 30.765625 6.265625 29.375 5.625 27.859375 C 4.203125 24.515625 3.625 20.609375 3.625 15.921875 C 3.625 11.28125 4.171875 7.203125 5.78125 3.625 C 6.40625 2.234375 7.234375 0.953125 8.21875 -0.234375 C 8.234375 -0.265625 8.25 -0.28125 8.25 -0.328125 C 8.25 -0.4375 8.171875 -0.4375 8.015625 -0.4375 C 7.859375 -0.4375 7.828125 -0.4375 7.8125 -0.421875 C 7.796875 -0.40625 7.125 0.25 6.265625 1.453125 C 4.375 4.140625 3.40625 7.34375 2.921875 10.59375 C 2.65625 12.34375 2.578125 14.140625 2.578125 15.90625 C 2.578125 19.984375 3.09375 24.15625 4.828125 27.890625 C 5.609375 29.546875 6.640625 31.046875 7.71875 32.171875 C 7.8125 32.265625 7.828125 32.265625 8.015625 32.265625 C 8.171875 32.265625 8.25 32.265625 8.25 32.15625 Z M 8.25 32.15625 "/>
</g>
<g id="glyph-3-2">
<path d="M 7.640625 25.625 C 7.640625 25.578125 7.609375 25.546875 7.59375 25.515625 C 7.1875 25.109375 6.453125 24.390625 5.71875 23.203125 C 3.96875 20.390625 3.171875 16.84375 3.171875 12.65625 C 3.171875 9.71875 3.5625 5.9375 5.359375 2.6875 C 6.234375 1.140625 7.125 0.234375 7.609375 -0.234375 C 7.640625 -0.265625 7.640625 -0.296875 7.640625 -0.328125 C 7.640625 -0.4375 7.5625 -0.4375 7.40625 -0.4375 C 7.25 -0.4375 7.234375 -0.4375 7.0625 -0.265625 C 3.40625 3.046875 2.265625 8.046875 2.265625 12.640625 C 2.265625 16.921875 3.25 21.25 6.015625 24.5 C 6.234375 24.75 6.65625 25.203125 7.09375 25.59375 C 7.234375 25.734375 7.25 25.734375 7.40625 25.734375 C 7.5625 25.734375 7.640625 25.734375 7.640625 25.625 Z M 7.640625 25.625 "/>
</g>
<g id="glyph-3-3">
<path d="M 5.75 12.65625 C 5.75 8.359375 4.765625 4.046875 2 0.78125 C 1.78125 0.53125 1.359375 0.09375 0.921875 -0.3125 C 0.78125 -0.4375 0.765625 -0.4375 0.609375 -0.4375 C 0.484375 -0.4375 0.375 -0.4375 0.375 -0.328125 C 0.375 -0.28125 0.421875 -0.234375 0.453125 -0.21875 C 0.828125 0.171875 1.5625 0.90625 2.296875 2.078125 C 4.046875 4.890625 4.84375 8.4375 4.84375 12.640625 C 4.84375 15.578125 4.453125 19.359375 2.65625 22.609375 C 1.78125 24.15625 0.890625 25.0625 0.421875 25.515625 C 0.40625 25.546875 0.375 25.59375 0.375 25.625 C 0.375 25.734375 0.484375 25.734375 0.609375 25.734375 C 0.765625 25.734375 0.78125 25.734375 0.953125 25.5625 C 4.609375 22.234375 5.75 17.25 5.75 12.65625 Z M 5.75 12.65625 "/>
</g>
<g id="glyph-4-0">
</g>
<g id="glyph-4-1">
<path d="M 2.875 -4.765625 C 1.515625 -4.4375 0.453125 -3.015625 0.453125 -1.703125 C 0.453125 -0.65625 1.15625 0.125 2.1875 0.125 C 3.453125 0.125 4.359375 -1.578125 4.359375 -3.09375 C 4.359375 -4.078125 3.921875 -4.625 3.5625 -5.109375 C 3.15625 -5.609375 2.515625 -6.421875 2.515625 -6.90625 C 2.515625 -7.140625 2.734375 -7.40625 3.125 -7.40625 C 3.453125 -7.40625 3.671875 -7.265625 3.890625 -7.109375 C 4.109375 -6.984375 4.328125 -6.84375 4.5 -6.84375 C 4.765625 -6.84375 4.921875 -7.09375 4.921875 -7.28125 C 4.921875 -7.515625 4.75 -7.546875 4.359375 -7.640625 C 3.796875 -7.75 3.640625 -7.75 3.46875 -7.75 C 2.625 -7.75 2.21875 -7.28125 2.21875 -6.625 C 2.21875 -6.046875 2.546875 -5.4375 2.875 -4.765625 Z M 3.015625 -4.53125 C 3.28125 -4.03125 3.609375 -3.4375 3.609375 -2.65625 C 3.609375 -1.9375 3.203125 -0.109375 2.1875 -0.109375 C 1.578125 -0.109375 1.140625 -0.5625 1.140625 -1.390625 C 1.140625 -2.078125 1.53125 -4.140625 3.015625 -4.53125 Z M 3.015625 -4.53125 "/>
</g>
<g id="glyph-4-2">
<path d="M 5.046875 -3.703125 C 4.9375 -4.375 4.5 -4.984375 3.640625 -4.984375 C 2.984375 -4.984375 2.265625 -4.8125 1.421875 -3.953125 C 0.515625 -3.046875 0.4375 -2.046875 0.4375 -1.703125 C 0.4375 -1.03125 0.921875 0.234375 2.4375 0.234375 C 5.03125 0.234375 6.171875 -3.421875 6.171875 -4.984375 C 6.171875 -6.71875 5.15625 -7.8125 3.8125 -7.8125 C 2.234375 -7.8125 1.734375 -6.390625 1.734375 -6.078125 C 1.734375 -5.9375 1.828125 -5.703125 2.15625 -5.703125 C 2.515625 -5.703125 2.734375 -6.03125 2.734375 -6.28125 C 2.734375 -6.65625 2.40625 -6.65625 2.21875 -6.65625 C 2.703125 -7.46875 3.484375 -7.53125 3.796875 -7.53125 C 4.59375 -7.53125 5.359375 -6.96875 5.359375 -5.5625 C 5.359375 -5.140625 5.296875 -4.578125 5.0625 -3.703125 Z M 2.46875 -0.0625 C 1.28125 -0.0625 1.28125 -1.1875 1.28125 -1.296875 C 1.28125 -1.59375 1.546875 -3.125 2 -3.78125 C 2.4375 -4.390625 2.96875 -4.75 3.640625 -4.75 C 4.828125 -4.75 4.859375 -3.515625 4.859375 -3.296875 C 4.859375 -2.515625 4.15625 -0.0625 2.46875 -0.0625 Z M 2.46875 -0.0625 "/>
</g>
<g id="glyph-5-0">
</g>
<g id="glyph-5-1">
<path d="M 2.25 -1.625 C 2.375 -1.75 2.703125 -2.015625 2.84375 -2.125 C 3.328125 -2.578125 3.796875 -3.015625 3.796875 -3.734375 C 3.796875 -4.6875 3 -5.296875 2.015625 -5.296875 C 1.046875 -5.296875 0.421875 -4.578125 0.421875 -3.859375 C 0.421875 -3.46875 0.734375 -3.421875 0.84375 -3.421875 C 1.015625 -3.421875 1.265625 -3.53125 1.265625 -3.84375 C 1.265625 -4.25 0.859375 -4.25 0.765625 -4.25 C 1 -4.84375 1.53125 -5.03125 1.921875 -5.03125 C 2.65625 -5.03125 3.046875 -4.40625 3.046875 -3.734375 C 3.046875 -2.90625 2.46875 -2.296875 1.515625 -1.34375 L 0.515625 -0.296875 C 0.421875 -0.21875 0.421875 -0.203125 0.421875 0 L 3.5625 0 L 3.796875 -1.421875 L 3.546875 -1.421875 C 3.53125 -1.265625 3.46875 -0.875 3.375 -0.71875 C 3.328125 -0.65625 2.71875 -0.65625 2.59375 -0.65625 L 1.171875 -0.65625 Z M 2.25 -1.625 "/>
</g>
<g id="glyph-6-0">
</g>
<g id="glyph-6-1">
<path d="M 2.09375 -2.71875 C 2.09375 -3.046875 1.828125 -3.296875 1.515625 -3.296875 C 1.203125 -3.296875 0.9375 -3.046875 0.9375 -2.71875 C 0.9375 -2.40625 1.203125 -2.15625 1.515625 -2.15625 C 1.828125 -2.15625 2.09375 -2.40625 2.09375 -2.71875 Z M 2.09375 -2.71875 "/>
</g>
</g>
<clipPath id="clip-0">
<path clip-rule="nonzero" d="M 20 0 L 27 0 L 27 33.726562 L 20 33.726562 Z M 20 0 "/>
</clipPath>
</defs>
<g fill="rgb(0%, 0%, 0%)" fill-opacity="1">
<use xlink:href="#glyph-0-1" x="0.5" y="19.591"/>
</g>
<g fill="rgb(0%, 0%, 0%)" fill-opacity="1">
<use xlink:href="#glyph-1-1" x="9.572" y="21.228"/>
</g>
<g fill="rgb(0%, 0%, 0%)" fill-opacity="1">
<use xlink:href="#glyph-2-1" x="14.126" y="19.591"/>
</g>
<g clip-path="url(#clip-0)">
<g fill="rgb(0%, 0%, 0%)" fill-opacity="1">
<use xlink:href="#glyph-3-1" x="18.369" y="0.937"/>
</g>
</g>
<g fill="rgb(0%, 0%, 0%)" fill-opacity="1">
<use xlink:href="#glyph-4-1" x="27.005" y="19.591"/>
</g>
<g fill="rgb(0%, 0%, 0%)" fill-opacity="1">
<use xlink:href="#glyph-5-1" x="32.267" y="15.087"/>
</g>
<g fill="rgb(0%, 0%, 0%)" fill-opacity="1">
<use xlink:href="#glyph-1-2" x="31.854" y="22.288"/>
</g>
<g fill="rgb(0%, 0%, 0%)" fill-opacity="1">
<use xlink:href="#glyph-3-2" x="38.817" y="4.21"/>
</g>
<g fill="rgb(0%, 0%, 0%)" fill-opacity="1">
<use xlink:href="#glyph-4-1" x="46.847" y="19.591"/>
</g>
<g fill="rgb(0%, 0%, 0%)" fill-opacity="1">
<use xlink:href="#glyph-1-2" x="51.696" y="21.228"/>
</g>
<g fill="rgb(0%, 0%, 0%)" fill-opacity="1">
<use xlink:href="#glyph-4-2" x="70.628" y="12.151"/>
</g>
<g fill="rgb(0%, 0%, 0%)" fill-opacity="1">
<use xlink:href="#glyph-5-1" x="77.025" y="8.192"/>
</g>
<g fill="rgb(0%, 0%, 0%)" fill-opacity="1">
<use xlink:href="#glyph-4-1" x="81.758" y="12.151"/>
</g>
<g fill="rgb(0%, 0%, 0%)" fill-opacity="1">
<use xlink:href="#glyph-1-2" x="86.606" y="13.787"/>
</g>
<path fill="none" stroke-width="0.436" stroke-linecap="butt" stroke-linejoin="miter" stroke="rgb(0%, 0%, 0%)" stroke-opacity="1" stroke-miterlimit="10" d="M -0.001625 0.00071875 L 46.48275 0.00071875 " transform="matrix(1, 0, 0, -1, 57.861, 16.864)"/>
<g fill="rgb(0%, 0%, 0%)" fill-opacity="1">
<use xlink:href="#glyph-4-2" x="57.861" y="27.075"/>
</g>
<g fill="rgb(0%, 0%, 0%)" fill-opacity="1">
<use xlink:href="#glyph-0-2" x="64.259" y="27.075"/>
</g>
<g fill="rgb(0%, 0%, 0%)" fill-opacity="1">
<use xlink:href="#glyph-1-3" x="73.281" y="28.711"/>
</g>
<g fill="rgb(0%, 0%, 0%)" fill-opacity="1">
<use xlink:href="#glyph-6-1" x="79.086" y="27.075"/>
</g>
<g fill="rgb(0%, 0%, 0%)" fill-opacity="1">
<use xlink:href="#glyph-4-2" x="84.541" y="27.075"/>
</g>
<g fill="rgb(0%, 0%, 0%)" fill-opacity="1">
<use xlink:href="#glyph-0-2" x="90.938" y="27.075"/>
</g>
<g fill="rgb(0%, 0%, 0%)" fill-opacity="1">
<use xlink:href="#glyph-1-4" x="99.96" y="28.711"/>
</g>
<g fill="rgb(0%, 0%, 0%)" fill-opacity="1">
<use xlink:href="#glyph-2-2" x="107.962" y="19.592"/>
</g>
<g fill="rgb(0%, 0%, 0%)" fill-opacity="1">
<use xlink:href="#glyph-2-3" x="118.868918" y="19.592"/>
</g>
<g fill="rgb(0%, 0%, 0%)" fill-opacity="1">
<use xlink:href="#glyph-4-2" x="126.813" y="12.151"/>
</g>
<g fill="rgb(0%, 0%, 0%)" fill-opacity="1">
<use xlink:href="#glyph-4-1" x="133.215551" y="12.151"/>
</g>
<g fill="rgb(0%, 0%, 0%)" fill-opacity="1">
<use xlink:href="#glyph-1-2" x="138.06" y="13.787"/>
</g>
<path fill="none" stroke-width="0.436" stroke-linecap="butt" stroke-linejoin="miter" stroke="rgb(0%, 0%, 0%)" stroke-opacity="1" stroke-miterlimit="10" d="M -0.00146875 0.00071875 L 18.799312 0.00071875 " transform="matrix(1, 0, 0, -1, 125.521, 16.864)"/>
<g fill="rgb(0%, 0%, 0%)" fill-opacity="1">
<use xlink:href="#glyph-4-2" x="125.521" y="27.075"/>
</g>
<g fill="rgb(0%, 0%, 0%)" fill-opacity="1">
<use xlink:href="#glyph-0-2" x="131.919" y="27.075"/>
</g>
<g fill="rgb(0%, 0%, 0%)" fill-opacity="1">
<use xlink:href="#glyph-1-3" x="140.94" y="28.711"/>
</g>
<g fill="rgb(0%, 0%, 0%)" fill-opacity="1">
<use xlink:href="#glyph-6-1" x="147.941" y="19.591"/>
</g>
<g fill="rgb(0%, 0%, 0%)" fill-opacity="1">
<use xlink:href="#glyph-4-2" x="156.384" y="12.151"/>
</g>
<g fill="rgb(0%, 0%, 0%)" fill-opacity="1">
<use xlink:href="#glyph-4-1" x="162.786551" y="12.151"/>
</g>
<g fill="rgb(0%, 0%, 0%)" fill-opacity="1">
<use xlink:href="#glyph-1-2" x="167.63" y="13.787"/>
</g>
<path fill="none" stroke-width="0.436" stroke-linecap="butt" stroke-linejoin="miter" stroke="rgb(0%, 0%, 0%)" stroke-opacity="1" stroke-miterlimit="10" d="M -0.00115625 0.00071875 L 19.803531 0.00071875 " transform="matrix(1, 0, 0, -1, 154.591, 16.864)"/>
<g fill="rgb(0%, 0%, 0%)" fill-opacity="1">
<use xlink:href="#glyph-4-2" x="154.591" y="27.075"/>
</g>
<g fill="rgb(0%, 0%, 0%)" fill-opacity="1">
<use xlink:href="#glyph-0-2" x="160.989" y="27.075"/>
</g>
<g fill="rgb(0%, 0%, 0%)" fill-opacity="1">
<use xlink:href="#glyph-1-4" x="170.011" y="28.711"/>
</g>
<g fill="rgb(0%, 0%, 0%)" fill-opacity="1">
<use xlink:href="#glyph-3-3" x="175.588" y="4.21"/>
</g>
</svg>
