<?xml version="1.0" encoding="UTF-8"?>
<svg xmlns="http://www.w3.org/2000/svg" xmlns:xlink="http://www.w3.org/1999/xlink" width="7.364" height="33.728" viewBox="0 0 7.364 33.728">
<defs>
<g>
<g id="glyph-0-0">
</g>
<g id="glyph-0-1">
<path d="M 2.671875 31.59375 L 0.125 31.59375 L 0.125 32.265625 L 3.34375 32.265625 L 3.34375 -0.4375 L 0.125 -0.4375 L 0.125 0.234375 L 2.671875 0.234375 Z M 2.671875 31.59375 "/>
</g>
</g>
<clipPath id="clip-0">
<path clip-rule="nonzero" d="M 0 0 L 4 0 L 4 33.726562 L 0 33.726562 Z M 0 0 "/>
</clipPath>
</defs>
<g clip-path="url(#clip-0)">
<g fill="rgb(0%, 0%, 0%)" fill-opacity="1">
<use xlink:href="#glyph-0-1" x="0.5" y="0.937"/>
</g>
</g>
</svg>
