<?xml version="1.0" encoding="UTF-8"?>
<svg xmlns="http://www.w3.org/2000/svg" xmlns:xlink="http://www.w3.org/1999/xlink" width="17.157" height="22.893" viewBox="0 0 17.157 22.893">
<defs>
<g>
<g id="glyph-0-0">
</g>
<g id="glyph-0-1">
<path d="M 3.203125 -6.984375 C 3.203125 -7.234375 3.203125 -7.265625 2.953125 -7.265625 C 2.28125 -6.5625 1.3125 -6.5625 0.96875 -6.5625 L 0.96875 -6.234375 C 1.1875 -6.234375 1.828125 -6.234375 2.40625 -6.515625 L 2.40625 -0.859375 C 2.40625 -0.46875 2.359375 -0.34375 1.390625 -0.34375 L 1.03125 -0.34375 L 1.03125 0 C 1.421875 -0.03125 2.359375 -0.03125 2.796875 -0.03125 C 3.234375 -0.03125 4.1875 -0.03125 4.5625 0 L 4.5625 -0.34375 L 4.21875 -0.34375 C 3.234375 -0.34375 3.203125 -0.453125 3.203125 -0.859375 Z M 3.203125 -6.984375 "/>
</g>
<g id="glyph-1-0">
</g>
<g id="glyph-1-1">
<path d="M 4.71875 -3.796875 C 4.75 -4.171875 4.75 -4.5625 4.75 -4.921875 C 4.75 -5.0625 4.703125 -5.53125 4.6875 -5.578125 C 5.078125 -6.265625 5.5 -6.84375 6.15625 -6.84375 C 6.953125 -6.84375 6.734375 -5.46875 6.96875 -5.21875 C 7.078125 -5.109375 7.234375 -5.0625 7.375 -5.046875 L 5.96875 -4.234375 C 5.46875 -4.15625 4.9375 -3.921875 4.71875 -3.796875 Z M 4.5625 -5.984375 C 4.296875 -6.6875 3.640625 -7.484375 2.875 -7.484375 C 1.859375 -7.484375 1.140625 -6.8125 0.875 -6.546875 C 0.5625 -6.234375 0.3125 -5.90625 0.3125 -5.46875 C 0.3125 -4.890625 0.765625 -4.5 1.09375 -4.03125 C 1.171875 -3.9375 1.25 -3.84375 1.25 -3.734375 C 1.25 -3.375 0.890625 -3.03125 0.546875 -2.84375 L 0.703125 -2.71875 C 1.359375 -3.046875 2.046875 -3.484375 2.046875 -4.1875 C 2.046875 -4.796875 1.078125 -5.40625 1.078125 -5.84375 C 1.078125 -6.515625 1.53125 -6.796875 2.140625 -6.796875 C 2.65625 -6.796875 3.140625 -6.4375 3.421875 -6.015625 C 3.84375 -5.375 3.859375 -4.515625 3.859375 -4 C 3.859375 -2.578125 3.765625 -1.3125 2.59375 -0.53125 C 2.328125 -0.8125 1.9375 -1.15625 1.578125 -1.15625 C 1.015625 -1.15625 0.5625 -0.421875 0.296875 0 L 0.421875 0.171875 C 0.609375 -0.09375 0.875 -0.28125 1.203125 -0.28125 C 1.4375 -0.28125 1.859375 0.046875 2.09375 0.296875 C 2.6875 -0.203125 3.3125 -0.8125 3.921875 -1.296875 C 4.359375 -1.96875 4.5625 -2.703125 4.671875 -3.53125 C 4.96875 -3.625 5.421875 -3.734375 5.671875 -3.734375 C 5.984375 -3.734375 6.34375 -3.59375 6.578125 -3.359375 C 6.703125 -3.234375 6.890625 -3.015625 6.890625 -1.953125 C 6.890625 -1.640625 6.875 -1.3125 6.859375 -0.984375 L 7.5625 0.296875 L 9.015625 -0.8125 L 9.015625 -0.984375 C 8.796875 -0.890625 8.421875 -0.75 8.359375 -0.75 C 8.109375 -0.75 7.890625 -1.34375 7.78125 -1.671875 C 7.6875 -1.96875 7.640625 -3.109375 7.609375 -3.828125 C 7.328125 -4.0625 7.0625 -4.234375 6.5 -4.234375 C 7.234375 -4.828125 8.09375 -5.234375 8.796875 -5.5 L 8.71875 -5.640625 C 8.578125 -5.609375 8.4375 -5.59375 8.296875 -5.59375 C 7.59375 -5.59375 7.765625 -6.15625 7.734375 -6.453125 C 7.671875 -7 7.453125 -7.484375 6.859375 -7.484375 C 5.890625 -7.484375 5.1875 -6.765625 4.609375 -6.03125 Z M 4.5625 -5.984375 "/>
</g>
<g id="glyph-2-0">
</g>
<g id="glyph-2-1">
<path d="M 1.109375 -4.484375 C 1.21875 -4.453125 1.53125 -4.359375 1.875 -4.359375 C 2.875 -4.359375 3.46875 -5.0625 3.46875 -5.1875 C 3.46875 -5.28125 3.421875 -5.296875 3.375 -5.296875 C 3.359375 -5.296875 3.34375 -5.296875 3.28125 -5.265625 C 2.96875 -5.140625 2.59375 -5.046875 2.171875 -5.046875 C 1.703125 -5.046875 1.3125 -5.15625 1.0625 -5.265625 C 0.984375 -5.296875 0.96875 -5.296875 0.953125 -5.296875 C 0.859375 -5.296875 0.859375 -5.21875 0.859375 -5.0625 L 0.859375 -2.734375 C 0.859375 -2.59375 0.859375 -2.5 0.984375 -2.5 C 1.046875 -2.5 1.0625 -2.53125 1.109375 -2.59375 C 1.203125 -2.703125 1.5 -3.109375 2.1875 -3.109375 C 2.625 -3.109375 2.84375 -2.75 2.921875 -2.59375 C 3.046875 -2.3125 3.0625 -1.9375 3.0625 -1.640625 C 3.0625 -1.34375 3.0625 -0.90625 2.84375 -0.5625 C 2.6875 -0.3125 2.359375 -0.078125 1.9375 -0.078125 C 1.421875 -0.078125 0.921875 -0.390625 0.734375 -0.921875 C 0.75 -0.90625 0.8125 -0.90625 0.8125 -0.90625 C 1.03125 -0.90625 1.21875 -1.046875 1.21875 -1.296875 C 1.21875 -1.59375 0.984375 -1.703125 0.828125 -1.703125 C 0.671875 -1.703125 0.421875 -1.625 0.421875 -1.28125 C 0.421875 -0.5625 1.046875 0.171875 1.953125 0.171875 C 2.953125 0.171875 3.796875 -0.609375 3.796875 -1.59375 C 3.796875 -2.515625 3.125 -3.34375 2.1875 -3.34375 C 1.796875 -3.34375 1.421875 -3.21875 1.109375 -2.9375 Z M 1.109375 -4.484375 "/>
</g>
</g>
<clipPath id="clip-0">
<path clip-rule="nonzero" d="M 1 14 L 11 14 L 11 22.894531 L 1 22.894531 Z M 1 14 "/>
</clipPath>
</defs>
<g fill="rgb(0%, 0%, 0%)" fill-opacity="1">
<use xlink:href="#glyph-0-1" x="5.851" y="7.53"/>
</g>
<path fill="none" stroke-width="0.436" stroke-linecap="butt" stroke-linejoin="miter" stroke="rgb(0%, 0%, 0%)" stroke-opacity="1" stroke-miterlimit="10" d="M -0.0006875 -0.00059375 L 13.764938 -0.00059375 " transform="matrix(1, 0, 0, -1, 1.696, 12.183)"/>
<g clip-path="url(#clip-0)">
<g fill="rgb(0%, 0%, 0%)" fill-opacity="1">
<use xlink:href="#glyph-1-1" x="1.696" y="22.393"/>
</g>
</g>
<g fill="rgb(0%, 0%, 0%)" fill-opacity="1">
<use xlink:href="#glyph-2-1" x="10.729" y="19.241"/>
</g>
</svg>
