<?xml version="1.0" encoding="UTF-8"?>
<svg xmlns="http://www.w3.org/2000/svg" xmlns:xlink="http://www.w3.org/1999/xlink" width="6.553" height="8.576" viewBox="0 0 6.553 8.576">
<defs>
<g>
<g id="glyph-0-0">
</g>
<g id="glyph-0-1">
<path d="M 2.71875 -7.5625 L 1.265625 -6.078125 L 1.46875 -5.890625 L 2.71875 -7 L 3.984375 -5.890625 L 4.171875 -6.078125 Z M 2.71875 -7.5625 "/>
</g>
<g id="glyph-1-0">
</g>
<g id="glyph-1-1">
<path d="M 1.453125 -0.90625 C 2.046875 -1.53125 2.359375 -1.8125 2.75 -2.15625 C 2.75 -2.15625 3.421875 -2.734375 3.8125 -3.125 C 4.859375 -4.140625 5.09375 -4.671875 5.09375 -4.71875 C 5.09375 -4.828125 5 -4.828125 4.96875 -4.828125 C 4.890625 -4.828125 4.859375 -4.796875 4.8125 -4.703125 C 4.484375 -4.171875 4.25 -4 3.984375 -4 C 3.734375 -4 3.59375 -4.171875 3.4375 -4.359375 C 3.234375 -4.609375 3.046875 -4.828125 2.6875 -4.828125 C 1.859375 -4.828125 1.359375 -3.8125 1.359375 -3.578125 C 1.359375 -3.515625 1.390625 -3.453125 1.5 -3.453125 C 1.59375 -3.453125 1.609375 -3.515625 1.640625 -3.578125 C 1.84375 -4.078125 2.46875 -4.09375 2.5625 -4.09375 C 2.796875 -4.09375 3 -4.015625 3.25 -3.921875 C 3.6875 -3.765625 3.8125 -3.765625 4.09375 -3.765625 C 3.703125 -3.296875 2.78125 -2.515625 2.578125 -2.328125 L 1.59375 -1.421875 C 0.84375 -0.6875 0.46875 -0.0625 0.46875 0.015625 C 0.46875 0.125 0.578125 0.125 0.59375 0.125 C 0.6875 0.125 0.703125 0.09375 0.78125 -0.015625 C 1.03125 -0.40625 1.359375 -0.703125 1.703125 -0.703125 C 1.953125 -0.703125 2.0625 -0.59375 2.328125 -0.28125 C 2.515625 -0.046875 2.71875 0.125 3.03125 0.125 C 4.109375 0.125 4.75 -1.265625 4.75 -1.5625 C 4.75 -1.609375 4.703125 -1.671875 4.609375 -1.671875 C 4.515625 -1.671875 4.5 -1.609375 4.453125 -1.53125 C 4.203125 -0.8125 3.515625 -0.609375 3.15625 -0.609375 C 2.9375 -0.609375 2.734375 -0.671875 2.515625 -0.75 C 2.140625 -0.890625 1.96875 -0.9375 1.75 -0.9375 C 1.71875 -0.9375 1.546875 -0.9375 1.453125 -0.90625 Z M 1.453125 -0.90625 "/>
</g>
</g>
<clipPath id="clip-0">
<path clip-rule="nonzero" d="M 0 3 L 6 3 L 6 8.574219 L 0 8.574219 Z M 0 3 "/>
</clipPath>
</defs>
<g fill="rgb(0%, 0%, 0%)" fill-opacity="1">
<use xlink:href="#glyph-0-1" x="1.155" y="8.076"/>
</g>
<g clip-path="url(#clip-0)">
<g fill="rgb(0%, 0%, 0%)" fill-opacity="1">
<use xlink:href="#glyph-1-1" x="0.5" y="8.076"/>
</g>
</g>
</svg>
