<?xml version="1.0" encoding="UTF-8"?>
<svg xmlns="http://www.w3.org/2000/svg" xmlns:xlink="http://www.w3.org/1999/xlink" width="9.485" height="9.436" viewBox="0 0 9.485 9.436">
<defs>
<g>
<g id="glyph-0-0">
</g>
<g id="glyph-0-1">
<path d="M 7.359375 -6.484375 C 7.5 -6.546875 7.5625 -6.59375 7.5625 -6.71875 C 7.5625 -6.84375 7.46875 -6.9375 7.34375 -6.9375 C 7.296875 -6.9375 7.203125 -6.890625 7.15625 -6.875 L 1.125 -4.03125 C 0.9375 -3.9375 0.90625 -3.859375 0.90625 -3.78125 C 0.90625 -3.6875 0.953125 -3.609375 1.125 -3.53125 L 7.15625 -0.703125 C 7.296875 -0.625 7.3125 -0.625 7.34375 -0.625 C 7.46875 -0.625 7.5625 -0.71875 7.5625 -0.84375 C 7.5625 -0.984375 7.46875 -1.03125 7.34375 -1.078125 L 1.640625 -3.78125 Z M 7.15625 1.421875 C 7.296875 1.5 7.3125 1.5 7.34375 1.5 C 7.46875 1.5 7.5625 1.390625 7.5625 1.28125 C 7.5625 1.140625 7.46875 1.09375 7.34375 1.03125 L 1.328125 -1.796875 C 1.1875 -1.875 1.171875 -1.875 1.125 -1.875 C 1 -1.875 0.90625 -1.78125 0.90625 -1.65625 C 0.90625 -1.578125 0.953125 -1.5 1.125 -1.421875 Z M 7.15625 1.421875 "/>
</g>
</g>
</defs>
<g fill="rgb(0%, 0%, 0%)" fill-opacity="1">
<use xlink:href="#glyph-0-1" x="0.5" y="7.445"/>
</g>
</svg>
