<?xml version="1.0" encoding="UTF-8"?>
<svg xmlns="http://www.w3.org/2000/svg" xmlns:xlink="http://www.w3.org/1999/xlink" width="13.453" height="13.664" viewBox="0 0 13.453 13.664">
<defs>
<g>
<g id="glyph-0-0">
</g>
<g id="glyph-0-1">
<path d="M 5.4375 -7.78125 L 10.859375 -6.265625 L 10.9375 -6.53125 L 5.453125 -8.421875 L -0.046875 -6.53125 L 0.046875 -6.265625 Z M 5.4375 -7.78125 "/>
</g>
<g id="glyph-1-0">
</g>
<g id="glyph-1-1">
<path d="M 4.015625 -6.09375 C 3.265625 -5.703125 2.328125 -5.078125 2.328125 -4.234375 C 2.328125 -4.03125 2.828125 -3.390625 2.90625 -3.296875 C 3.109375 -3.078125 3.265625 -2.796875 3.265625 -2.5 C 3.265625 -1.765625 2.21875 -1.453125 1.515625 -1.453125 C 1.03125 -1.046875 0.625 -0.5625 0.34375 0 L 0.53125 0.171875 C 0.78125 -0.234375 1.1875 -0.703125 1.6875 -0.703125 C 2.375 -0.703125 3.203125 -0.359375 3.890625 -0.09375 C 4.25 0.046875 4.890625 0.296875 5.109375 0.296875 C 5.765625 0.296875 6.84375 -0.84375 7.53125 -1.609375 C 7.90625 -2.578125 8.140625 -3.421875 8.140625 -4.46875 C 8.140625 -5.765625 7.234375 -6.953125 6.015625 -7.3125 C 5.296875 -7.5 4.734375 -7.53125 4.0625 -7.53125 C 3.078125 -7.53125 1.9375 -7.171875 1.21875 -6.46875 C 0.578125 -5.828125 0.296875 -5.015625 0.296875 -4.125 L 0.53125 -4 C 0.5625 -4.640625 0.78125 -5.359375 1.25 -5.84375 C 1.890625 -6.5 2.875 -6.671875 3.78125 -6.671875 C 4.796875 -6.671875 5.828125 -6.421875 6.5625 -5.6875 C 7.125 -5.125 7.3125 -4.3125 7.3125 -3.546875 C 7.3125 -2.828125 7.234375 -2.03125 6.859375 -1.453125 C 6.484375 -0.890625 6.28125 -0.53125 5.578125 -0.53125 C 5.359375 -0.53125 4.5625 -0.8125 4.09375 -1 C 3.625 -1.15625 3.09375 -1.328125 2.625 -1.421875 C 3.296875 -1.71875 4.25 -2.234375 4.25 -3.015625 C 4.25 -3.546875 3.265625 -4.390625 3.265625 -4.828125 C 3.265625 -5.234375 3.90625 -5.796875 4.1875 -5.984375 Z M 4.015625 -6.09375 "/>
</g>
<g id="glyph-2-0">
</g>
<g id="glyph-2-1">
<path d="M 2.375 -4.96875 C 2.375 -5.140625 2.25 -5.28125 2.0625 -5.28125 C 1.859375 -5.28125 1.625 -5.078125 1.625 -4.84375 C 1.625 -4.671875 1.75 -4.546875 1.9375 -4.546875 C 2.140625 -4.546875 2.375 -4.734375 2.375 -4.96875 Z M 1.21875 -2.046875 L 0.78125 -0.953125 C 0.734375 -0.828125 0.703125 -0.734375 0.703125 -0.59375 C 0.703125 -0.203125 1 0.078125 1.421875 0.078125 C 2.203125 0.078125 2.53125 -1.03125 2.53125 -1.140625 C 2.53125 -1.21875 2.46875 -1.25 2.40625 -1.25 C 2.3125 -1.25 2.296875 -1.1875 2.265625 -1.109375 C 2.09375 -0.46875 1.765625 -0.140625 1.4375 -0.140625 C 1.34375 -0.140625 1.25 -0.1875 1.25 -0.390625 C 1.25 -0.59375 1.3125 -0.734375 1.40625 -0.984375 C 1.484375 -1.1875 1.5625 -1.40625 1.65625 -1.625 L 1.90625 -2.265625 C 1.96875 -2.453125 2.078125 -2.703125 2.078125 -2.84375 C 2.078125 -3.234375 1.75 -3.515625 1.34375 -3.515625 C 0.578125 -3.515625 0.234375 -2.40625 0.234375 -2.296875 C 0.234375 -2.21875 0.296875 -2.1875 0.359375 -2.1875 C 0.46875 -2.1875 0.46875 -2.234375 0.5 -2.3125 C 0.71875 -3.078125 1.078125 -3.296875 1.328125 -3.296875 C 1.4375 -3.296875 1.515625 -3.25 1.515625 -3.03125 C 1.515625 -2.953125 1.5 -2.84375 1.421875 -2.59375 Z M 1.21875 -2.046875 "/>
</g>
</g>
<clipPath id="clip-0">
<path clip-rule="nonzero" d="M 9 7 L 13 7 L 13 13.664062 L 9 13.664062 Z M 9 7 "/>
</clipPath>
</defs>
<g fill="rgb(0%, 0%, 0%)" fill-opacity="1">
<use xlink:href="#glyph-0-1" x="1.272" y="8.682"/>
</g>
<g fill="rgb(0%, 0%, 0%)" fill-opacity="1">
<use xlink:href="#glyph-1-1" x="0.5" y="11.528"/>
</g>
<g clip-path="url(#clip-0)">
<g fill="rgb(0%, 0%, 0%)" fill-opacity="1">
<use xlink:href="#glyph-2-1" x="9.572" y="13.164"/>
</g>
</g>
</svg>
