<?xml version="1.0" encoding="UTF-8"?>
<svg xmlns="http://www.w3.org/2000/svg" xmlns:xlink="http://www.w3.org/1999/xlink" width="29.637" height="29.989" viewBox="0 0 29.637 29.989">
<defs>
<g>
<g id="glyph-0-0">
</g>
<g id="glyph-0-1">
<path d="M 5.046875 -3.703125 C 4.9375 -4.375 4.5 -4.984375 3.640625 -4.984375 C 2.984375 -4.984375 2.265625 -4.8125 1.421875 -3.953125 C 0.515625 -3.046875 0.4375 -2.046875 0.4375 -1.703125 C 0.4375 -1.03125 0.921875 0.234375 2.4375 0.234375 C 5.03125 0.234375 6.171875 -3.421875 6.171875 -4.984375 C 6.171875 -6.71875 5.15625 -7.8125 3.8125 -7.8125 C 2.234375 -7.8125 1.734375 -6.390625 1.734375 -6.078125 C 1.734375 -5.9375 1.828125 -5.703125 2.15625 -5.703125 C 2.515625 -5.703125 2.734375 -6.03125 2.734375 -6.28125 C 2.734375 -6.65625 2.40625 -6.65625 2.21875 -6.65625 C 2.703125 -7.46875 3.484375 -7.53125 3.796875 -7.53125 C 4.59375 -7.53125 5.359375 -6.96875 5.359375 -5.5625 C 5.359375 -5.140625 5.296875 -4.578125 5.0625 -3.703125 Z M 2.46875 -0.0625 C 1.28125 -0.0625 1.28125 -1.1875 1.28125 -1.296875 C 1.28125 -1.59375 1.546875 -3.125 2 -3.78125 C 2.4375 -4.390625 2.96875 -4.75 3.640625 -4.75 C 4.828125 -4.75 4.859375 -3.515625 4.859375 -3.296875 C 4.859375 -2.515625 4.15625 -0.0625 2.46875 -0.0625 Z M 2.46875 -0.0625 "/>
</g>
<g id="glyph-0-2">
<path d="M 5.296875 -4.484375 L 4.375 -6.65625 C 4.34375 -6.734375 4.3125 -6.78125 4.3125 -6.796875 C 4.3125 -6.859375 4.5 -7.0625 4.96875 -7.109375 C 5.078125 -7.125 5.1875 -7.125 5.1875 -7.3125 C 5.1875 -7.453125 5.046875 -7.453125 5.015625 -7.453125 C 4.5625 -7.453125 4.09375 -7.421875 3.640625 -7.421875 C 3.375 -7.421875 2.6875 -7.453125 2.421875 -7.453125 C 2.359375 -7.453125 2.21875 -7.453125 2.21875 -7.234375 C 2.21875 -7.109375 2.328125 -7.109375 2.46875 -7.109375 C 3.125 -7.109375 3.203125 -7 3.296875 -6.765625 L 4.578125 -3.71875 L 2.28125 -1.25 L 2.140625 -1.125 C 1.609375 -0.546875 1.09375 -0.375 0.53125 -0.34375 C 0.390625 -0.328125 0.296875 -0.328125 0.296875 -0.125 C 0.296875 -0.109375 0.296875 0 0.4375 0 C 0.765625 0 1.125 -0.03125 1.46875 -0.03125 C 1.859375 -0.03125 2.296875 0 2.6875 0 C 2.75 0 2.875 0 2.875 -0.21875 C 2.875 -0.328125 2.765625 -0.34375 2.75 -0.34375 C 2.65625 -0.34375 2.3125 -0.375 2.3125 -0.671875 C 2.3125 -0.84375 2.46875 -1.03125 2.609375 -1.171875 L 3.71875 -2.34375 L 4.703125 -3.40625 L 5.796875 -0.8125 C 5.84375 -0.6875 5.859375 -0.671875 5.859375 -0.65625 C 5.859375 -0.5625 5.65625 -0.375 5.21875 -0.34375 C 5.109375 -0.328125 5 -0.3125 5 -0.125 C 5 0 5.125 0 5.171875 0 C 5.46875 0 6.234375 -0.03125 6.546875 -0.03125 C 6.8125 -0.03125 7.484375 0 7.75 0 C 7.828125 0 7.96875 0 7.96875 -0.203125 C 7.96875 -0.34375 7.859375 -0.34375 7.765625 -0.34375 C 7.03125 -0.34375 7.015625 -0.375 6.828125 -0.8125 C 6.40625 -1.828125 5.671875 -3.53125 5.421875 -4.1875 C 6.15625 -4.953125 7.3125 -6.25 7.65625 -6.546875 C 7.96875 -6.8125 8.390625 -7.078125 9.046875 -7.109375 C 9.1875 -7.125 9.28125 -7.125 9.28125 -7.328125 C 9.28125 -7.34375 9.28125 -7.453125 9.140625 -7.453125 C 8.8125 -7.453125 8.453125 -7.421875 8.109375 -7.421875 C 7.703125 -7.421875 7.296875 -7.453125 6.90625 -7.453125 C 6.84375 -7.453125 6.703125 -7.453125 6.703125 -7.234375 C 6.703125 -7.15625 6.75 -7.125 6.828125 -7.109375 C 6.921875 -7.09375 7.265625 -7.078125 7.265625 -6.765625 C 7.265625 -6.625 7.140625 -6.484375 7.0625 -6.375 Z M 5.296875 -4.484375 "/>
</g>
<g id="glyph-0-3">
<path d="M 8.328125 -6.609375 C 8.421875 -7 8.4375 -7.109375 9.234375 -7.109375 C 9.515625 -7.109375 9.609375 -7.109375 9.609375 -7.328125 C 9.609375 -7.453125 9.484375 -7.453125 9.453125 -7.453125 C 9.15625 -7.453125 8.359375 -7.421875 8.0625 -7.421875 C 7.75 -7.421875 6.96875 -7.453125 6.65625 -7.453125 C 6.5625 -7.453125 6.453125 -7.453125 6.453125 -7.234375 C 6.453125 -7.109375 6.546875 -7.109375 6.75 -7.109375 C 6.765625 -7.109375 6.984375 -7.109375 7.171875 -7.09375 C 7.359375 -7.0625 7.453125 -7.0625 7.453125 -6.921875 C 7.453125 -6.875 7.453125 -6.84375 7.421875 -6.703125 L 6.765625 -4.046875 L 3.4375 -4.046875 L 4.078125 -6.609375 C 4.171875 -7 4.203125 -7.109375 5 -7.109375 C 5.28125 -7.109375 5.359375 -7.109375 5.359375 -7.328125 C 5.359375 -7.453125 5.25 -7.453125 5.21875 -7.453125 C 4.90625 -7.453125 4.125 -7.421875 3.8125 -7.421875 C 3.5 -7.421875 2.71875 -7.453125 2.40625 -7.453125 C 2.328125 -7.453125 2.203125 -7.453125 2.203125 -7.234375 C 2.203125 -7.109375 2.296875 -7.109375 2.515625 -7.109375 C 2.53125 -7.109375 2.734375 -7.109375 2.921875 -7.09375 C 3.125 -7.0625 3.21875 -7.0625 3.21875 -6.921875 C 3.21875 -6.875 3.203125 -6.84375 3.171875 -6.703125 L 1.71875 -0.84375 C 1.609375 -0.421875 1.578125 -0.34375 0.71875 -0.34375 C 0.53125 -0.34375 0.421875 -0.34375 0.421875 -0.125 C 0.421875 0 0.5625 0 0.578125 0 C 0.890625 0 1.65625 -0.03125 1.96875 -0.03125 C 2.1875 -0.03125 2.4375 -0.015625 2.65625 -0.015625 C 2.90625 -0.015625 3.140625 0 3.375 0 C 3.453125 0 3.59375 0 3.59375 -0.21875 C 3.59375 -0.34375 3.484375 -0.34375 3.28125 -0.34375 C 2.875 -0.34375 2.578125 -0.34375 2.578125 -0.53125 C 2.578125 -0.59375 2.59375 -0.65625 2.609375 -0.71875 L 3.34375 -3.703125 L 6.671875 -3.703125 C 6.21875 -1.890625 5.96875 -0.859375 5.921875 -0.703125 C 5.8125 -0.34375 5.609375 -0.34375 4.921875 -0.34375 C 4.765625 -0.34375 4.671875 -0.34375 4.671875 -0.125 C 4.671875 0 4.796875 0 4.828125 0 C 5.125 0 5.90625 -0.03125 6.203125 -0.03125 C 6.4375 -0.03125 6.671875 -0.015625 6.90625 -0.015625 C 7.140625 -0.015625 7.390625 0 7.609375 0 C 7.703125 0 7.828125 0 7.828125 -0.21875 C 7.828125 -0.34375 7.734375 -0.34375 7.53125 -0.34375 C 7.125 -0.34375 6.8125 -0.34375 6.8125 -0.53125 C 6.8125 -0.59375 6.84375 -0.65625 6.84375 -0.71875 Z M 8.328125 -6.609375 "/>
</g>
<g id="glyph-1-0">
</g>
<g id="glyph-1-1">
<path d="M 15.703125 -6.265625 L 15.765625 -6.53125 L 7.859375 -8.421875 L -0.03125 -6.53125 L 0.03125 -6.265625 L 7.875 -7.78125 Z M 15.703125 -6.265625 "/>
</g>
<g id="glyph-2-0">
</g>
<g id="glyph-2-1">
<path d="M 4.71875 -6.5 C 6.09375 -6.5 7.140625 -5.96875 7.140625 -3.59375 C 7.140625 -2.015625 6.65625 -0.390625 5.015625 -0.390625 C 3.96875 -0.390625 3.125 -0.828125 2.171875 -1.140625 C 2.046875 -1.171875 1.875 -1.21875 1.75 -1.21875 C 2.25 -1.640625 2.84375 -2.1875 2.84375 -2.84375 C 2.84375 -3.59375 1.796875 -4.5625 1.796875 -5.28125 C 1.796875 -5.6875 2.234375 -6.078125 2.5625 -6.328125 L 2.328125 -6.453125 C 1.609375 -6.015625 0.875 -5.296875 0.875 -4.46875 C 0.875 -4.203125 1.15625 -3.921875 1.578125 -3.296875 C 1.78125 -2.984375 2.046875 -2.625 2.046875 -2.25 C 2.046875 -1.71875 1.59375 -1.3125 1.109375 -1.15625 C 0.75 -0.796875 0.421875 -0.40625 0.125 0 L 0.296875 0.171875 C 0.53125 -0.171875 0.921875 -0.40625 1.34375 -0.40625 C 1.75 -0.40625 2.140625 -0.203125 2.5 -0.046875 C 3.046875 0.171875 3.640625 0.296875 4.25 0.296875 C 5.265625 0.296875 6.34375 -0.484375 7.140625 -1.21875 C 7.953125 -1.90625 8.140625 -3.265625 8.140625 -4.359375 C 8.140625 -5.796875 7.609375 -7.03125 5.515625 -7.21875 C 4.46875 -7.3125 3.734375 -7.3125 3.734375 -7.671875 C 3.734375 -7.765625 3.78125 -7.875 3.84375 -7.953125 L 3.671875 -7.953125 C 3.40625 -7.609375 2.90625 -7.40625 2.90625 -6.96875 C 2.90625 -6.59375 3.4375 -6.46875 3.78125 -6.46875 Z M 4.71875 -6.5 "/>
</g>
<g id="glyph-3-0">
</g>
<g id="glyph-3-1">
<path d="M 3.296875 -4.96875 C 3.296875 -5.125 3.171875 -5.28125 2.984375 -5.28125 C 2.734375 -5.28125 2.53125 -5.046875 2.53125 -4.84375 C 2.53125 -4.6875 2.65625 -4.546875 2.84375 -4.546875 C 3.078125 -4.546875 3.296875 -4.765625 3.296875 -4.96875 Z M 1.625 0.390625 C 1.5 0.890625 1.109375 1.40625 0.625 1.40625 C 0.5 1.40625 0.375 1.375 0.359375 1.359375 C 0.609375 1.25 0.640625 1.03125 0.640625 0.953125 C 0.640625 0.765625 0.5 0.65625 0.328125 0.65625 C 0.109375 0.65625 -0.109375 0.859375 -0.109375 1.125 C -0.109375 1.421875 0.1875 1.625 0.640625 1.625 C 1.125 1.625 2 1.328125 2.234375 0.359375 L 2.953125 -2.484375 C 2.984375 -2.578125 3 -2.640625 3 -2.765625 C 3 -3.203125 2.640625 -3.515625 2.1875 -3.515625 C 1.34375 -3.515625 0.84375 -2.40625 0.84375 -2.296875 C 0.84375 -2.21875 0.90625 -2.1875 0.96875 -2.1875 C 1.046875 -2.1875 1.0625 -2.21875 1.109375 -2.328125 C 1.359375 -2.890625 1.765625 -3.296875 2.15625 -3.296875 C 2.328125 -3.296875 2.421875 -3.171875 2.421875 -2.921875 C 2.421875 -2.8125 2.40625 -2.6875 2.375 -2.578125 Z M 1.625 0.390625 "/>
</g>
</g>
<clipPath id="clip-0">
<path clip-rule="nonzero" d="M 20 22 L 24 22 L 24 29.988281 L 20 29.988281 Z M 20 22 "/>
</clipPath>
</defs>
<g fill="rgb(0%, 0%, 0%)" fill-opacity="1">
<use xlink:href="#glyph-0-1" x="1.696" y="11.44"/>
</g>
<g fill="rgb(0%, 0%, 0%)" fill-opacity="1">
<use xlink:href="#glyph-1-1" x="10.139" y="8.682"/>
</g>
<g fill="rgb(0%, 0%, 0%)" fill-opacity="1">
<use xlink:href="#glyph-0-2" x="8.093" y="11.44"/>
</g>
<g fill="rgb(0%, 0%, 0%)" fill-opacity="1">
<use xlink:href="#glyph-0-3" x="17.982099" y="11.44"/>
</g>
<path fill="none" stroke-width="0.436" stroke-linecap="butt" stroke-linejoin="miter" stroke="rgb(0%, 0%, 0%)" stroke-opacity="1" stroke-miterlimit="10" d="M -0.0006875 -0.00075 L 26.245406 -0.00075 " transform="matrix(1, 0, 0, -1, 1.696, 16.093)"/>
<g fill="rgb(0%, 0%, 0%)" fill-opacity="1">
<use xlink:href="#glyph-0-1" x="4.918" y="26.303"/>
</g>
<g fill="rgb(0%, 0%, 0%)" fill-opacity="1">
<use xlink:href="#glyph-2-1" x="11.316" y="26.303"/>
</g>
<g clip-path="url(#clip-0)">
<g fill="rgb(0%, 0%, 0%)" fill-opacity="1">
<use xlink:href="#glyph-3-1" x="20.337" y="27.939"/>
</g>
</g>
</svg>
