<?xml version="1.0" encoding="UTF-8"?>
<svg xmlns="http://www.w3.org/2000/svg" xmlns:xlink="http://www.w3.org/1999/xlink" width="77.818" height="12.368" viewBox="0 0 77.818 12.368">
<defs>
<g>
<g id="glyph-0-0">
</g>
<g id="glyph-0-1">
<path d="M 1.84375 1.859375 C 1.8125 1.09375 1.796875 0.34375 1.796875 -0.40625 C 2.234375 -0.328125 2.625 -0.09375 2.984375 0.203125 L 4.4375 -0.96875 C 4.671875 -1.625 4.6875 -2.40625 4.6875 -3.078125 C 4.6875 -3.5625 4.671875 -4.03125 4.640625 -4.515625 C 4.171875 -4.6875 3.734375 -4.90625 3.34375 -5.21875 C 2.828125 -4.8125 2.328125 -4.421875 1.796875 -4.0625 C 1.8125 -4.1875 1.828125 -4.421875 1.828125 -4.421875 C 1.578125 -4.671875 1.3125 -5 1.3125 -5.3125 C 1.3125 -5.484375 1.40625 -5.640625 1.515625 -5.765625 L 1.359375 -5.875 C 1.03125 -5.546875 0.453125 -4.921875 0.453125 -4.609375 C 0.453125 -4.5 0.59375 -4.359375 0.953125 -3.84375 L 0.953125 -1.140625 C 0.8125 -1.03125 0.40625 -0.671875 0.125 -0.421875 L 0.25 -0.265625 C 0.453125 -0.4375 0.703125 -0.515625 0.953125 -0.515625 C 0.953125 0.09375 0.890625 1.359375 0.84375 2.25 L 0.96875 2.328125 Z M 1.8125 -3.78125 C 2.109375 -3.96875 2.375 -4.140625 2.6875 -4.265625 C 3.015625 -4.15625 3.46875 -3.984375 3.734375 -3.84375 C 3.78125 -3.40625 3.8125 -2.953125 3.8125 -2.515625 C 3.8125 -1.46875 3.703125 -0.890625 3.515625 -0.5625 C 2.984375 -0.828125 2.25 -1.15625 1.8125 -1.15625 Z M 1.8125 -3.78125 "/>
</g>
<g id="glyph-1-0">
</g>
<g id="glyph-1-1">
<path d="M 2.5 -5.078125 C 2.5 -5.296875 2.484375 -5.296875 2.265625 -5.296875 C 1.9375 -4.984375 1.515625 -4.796875 0.765625 -4.796875 L 0.765625 -4.53125 C 0.984375 -4.53125 1.40625 -4.53125 1.875 -4.734375 L 1.875 -0.65625 C 1.875 -0.359375 1.84375 -0.265625 1.09375 -0.265625 L 0.8125 -0.265625 L 0.8125 0 C 1.140625 -0.03125 1.828125 -0.03125 2.1875 -0.03125 C 2.546875 -0.03125 3.234375 -0.03125 3.5625 0 L 3.5625 -0.265625 L 3.28125 -0.265625 C 2.53125 -0.265625 2.5 -0.359375 2.5 -0.65625 Z M 2.5 -5.078125 "/>
</g>
<g id="glyph-2-0">
</g>
<g id="glyph-2-1">
<path d="M 7.5 -3.5625 C 7.65625 -3.5625 7.859375 -3.5625 7.859375 -3.78125 C 7.859375 -4 7.65625 -4 7.5 -4 L 0.96875 -4 C 0.8125 -4 0.609375 -4 0.609375 -3.78125 C 0.609375 -3.5625 0.8125 -3.5625 0.984375 -3.5625 Z M 7.5 -1.453125 C 7.65625 -1.453125 7.859375 -1.453125 7.859375 -1.671875 C 7.859375 -1.890625 7.65625 -1.890625 7.5 -1.890625 L 0.984375 -1.890625 C 0.8125 -1.890625 0.609375 -1.890625 0.609375 -1.671875 C 0.609375 -1.453125 0.8125 -1.453125 0.96875 -1.453125 Z M 7.5 -1.453125 "/>
</g>
<g id="glyph-3-0">
</g>
<g id="glyph-3-1">
<path d="M 3.09375 -6.734375 C 3.09375 -7.171875 3.375 -7.859375 4.5625 -7.9375 C 4.609375 -7.953125 4.65625 -8 4.65625 -8.0625 C 4.65625 -8.171875 4.5625 -8.171875 4.453125 -8.171875 C 3.359375 -8.171875 2.359375 -7.625 2.359375 -6.8125 L 2.359375 -4.328125 C 2.359375 -3.90625 2.359375 -3.5625 1.921875 -3.203125 C 1.53125 -2.875 1.125 -2.859375 0.890625 -2.84375 C 0.828125 -2.828125 0.78125 -2.796875 0.78125 -2.71875 C 0.78125 -2.625 0.84375 -2.625 0.953125 -2.609375 C 1.671875 -2.5625 2.203125 -2.171875 2.328125 -1.640625 C 2.359375 -1.515625 2.359375 -1.5 2.359375 -1.09375 L 2.359375 1.0625 C 2.359375 1.515625 2.359375 1.859375 2.875 2.28125 C 3.296875 2.609375 4.03125 2.71875 4.453125 2.71875 C 4.5625 2.71875 4.65625 2.71875 4.65625 2.609375 C 4.65625 2.5 4.59375 2.5 4.484375 2.484375 C 3.796875 2.4375 3.265625 2.09375 3.125 1.53125 C 3.09375 1.4375 3.09375 1.421875 3.09375 1.03125 L 3.09375 -1.265625 C 3.09375 -1.765625 3 -1.953125 2.65625 -2.296875 C 2.421875 -2.53125 2.109375 -2.640625 1.796875 -2.71875 C 2.6875 -2.984375 3.09375 -3.484375 3.09375 -4.109375 Z M 3.09375 -6.734375 "/>
</g>
<g id="glyph-3-2">
<path d="M 2.359375 1.28125 C 2.359375 1.71875 2.078125 2.40625 0.890625 2.484375 C 0.828125 2.5 0.78125 2.546875 0.78125 2.609375 C 0.78125 2.71875 0.90625 2.71875 1 2.71875 C 2.0625 2.71875 3.078125 2.1875 3.09375 1.359375 L 3.09375 -1.125 C 3.09375 -1.546875 3.09375 -1.890625 3.515625 -2.25 C 3.90625 -2.578125 4.3125 -2.59375 4.5625 -2.609375 C 4.609375 -2.625 4.65625 -2.65625 4.65625 -2.71875 C 4.65625 -2.828125 4.59375 -2.828125 4.484375 -2.84375 C 3.765625 -2.890625 3.234375 -3.28125 3.125 -3.8125 C 3.09375 -3.9375 3.09375 -3.953125 3.09375 -4.359375 L 3.09375 -6.515625 C 3.09375 -6.96875 3.09375 -7.3125 2.5625 -7.734375 C 2.125 -8.078125 1.375 -8.171875 1 -8.171875 C 0.90625 -8.171875 0.78125 -8.171875 0.78125 -8.0625 C 0.78125 -7.953125 0.84375 -7.953125 0.953125 -7.9375 C 1.640625 -7.890625 2.1875 -7.546875 2.328125 -6.984375 C 2.359375 -6.890625 2.359375 -6.875 2.359375 -6.484375 L 2.359375 -4.1875 C 2.359375 -3.6875 2.4375 -3.5 2.796875 -3.15625 C 3.015625 -2.921875 3.34375 -2.8125 3.640625 -2.71875 C 2.75 -2.46875 2.359375 -1.96875 2.359375 -1.34375 Z M 2.359375 1.28125 "/>
</g>
<g id="glyph-4-0">
</g>
<g id="glyph-4-1">
<path d="M 0.484375 1.328125 C 0.40625 1.703125 0.375 1.78125 -0.09375 1.78125 C -0.234375 1.78125 -0.34375 1.78125 -0.34375 1.984375 C -0.34375 2.078125 -0.296875 2.109375 -0.203125 2.109375 C 0.09375 2.109375 0.40625 2.078125 0.703125 2.078125 C 1.0625 2.078125 1.4375 2.109375 1.78125 2.109375 C 1.84375 2.109375 1.984375 2.109375 1.984375 1.890625 C 1.984375 1.78125 1.875 1.78125 1.71875 1.78125 C 1.171875 1.78125 1.171875 1.703125 1.171875 1.609375 C 1.171875 1.46875 1.640625 -0.3125 1.71875 -0.578125 C 1.859375 -0.265625 2.15625 0.125 2.71875 0.125 C 3.984375 0.125 5.34375 -1.46875 5.34375 -3.078125 C 5.34375 -4.09375 4.71875 -4.828125 3.890625 -4.828125 C 3.34375 -4.828125 2.828125 -4.421875 2.46875 -4 C 2.359375 -4.59375 1.890625 -4.828125 1.484375 -4.828125 C 0.984375 -4.828125 0.78125 -4.390625 0.671875 -4.203125 C 0.484375 -3.828125 0.34375 -3.171875 0.34375 -3.140625 C 0.34375 -3.03125 0.453125 -3.03125 0.46875 -3.03125 C 0.578125 -3.03125 0.59375 -3.046875 0.65625 -3.28125 C 0.84375 -4.0625 1.0625 -4.578125 1.453125 -4.578125 C 1.640625 -4.578125 1.78125 -4.5 1.78125 -4.078125 C 1.78125 -3.828125 1.75 -3.703125 1.71875 -3.515625 Z M 2.40625 -3.40625 C 2.484375 -3.703125 2.78125 -4 2.984375 -4.171875 C 3.359375 -4.5 3.671875 -4.578125 3.859375 -4.578125 C 4.296875 -4.578125 4.5625 -4.203125 4.5625 -3.5625 C 4.5625 -2.90625 4.203125 -1.65625 4 -1.25 C 3.625 -0.484375 3.109375 -0.125 2.703125 -0.125 C 1.984375 -0.125 1.84375 -1.03125 1.84375 -1.09375 C 1.84375 -1.109375 1.84375 -1.140625 1.875 -1.265625 Z M 2.40625 -3.40625 "/>
</g>
<g id="glyph-4-2">
<path d="M 2.21875 -0.015625 C 2.21875 -0.734375 1.9375 -1.15625 1.515625 -1.15625 C 1.15625 -1.15625 0.9375 -0.890625 0.9375 -0.578125 C 0.9375 -0.28125 1.15625 0 1.515625 0 C 1.640625 0 1.78125 -0.046875 1.890625 -0.140625 C 1.9375 -0.15625 1.9375 -0.171875 1.953125 -0.171875 C 1.96875 -0.171875 1.96875 -0.15625 1.96875 -0.015625 C 1.96875 0.796875 1.59375 1.453125 1.234375 1.8125 C 1.109375 1.9375 1.109375 1.953125 1.109375 1.984375 C 1.109375 2.0625 1.171875 2.109375 1.21875 2.109375 C 1.34375 2.109375 2.21875 1.265625 2.21875 -0.015625 Z M 2.21875 -0.015625 "/>
</g>
<g id="glyph-5-0">
</g>
<g id="glyph-5-1">
<path d="M 4 -3.171875 C 3.640625 -3.09375 3.625 -2.78125 3.625 -2.75 C 3.625 -2.578125 3.765625 -2.453125 3.9375 -2.453125 C 4.109375 -2.453125 4.375 -2.59375 4.375 -2.9375 C 4.375 -3.390625 3.875 -3.515625 3.578125 -3.515625 C 3.21875 -3.515625 2.90625 -3.25 2.71875 -2.9375 C 2.546875 -3.359375 2.140625 -3.515625 1.8125 -3.515625 C 0.9375 -3.515625 0.453125 -2.515625 0.453125 -2.296875 C 0.453125 -2.21875 0.515625 -2.1875 0.578125 -2.1875 C 0.671875 -2.1875 0.6875 -2.234375 0.703125 -2.328125 C 0.890625 -2.90625 1.375 -3.296875 1.78125 -3.296875 C 2.09375 -3.296875 2.25 -3.0625 2.25 -2.78125 C 2.25 -2.625 2.15625 -2.25 2.09375 -2 C 2.03125 -1.765625 1.859375 -1.0625 1.8125 -0.90625 C 1.703125 -0.484375 1.421875 -0.140625 1.0625 -0.140625 C 1.03125 -0.140625 0.828125 -0.140625 0.65625 -0.25 C 1.015625 -0.34375 1.015625 -0.671875 1.015625 -0.6875 C 1.015625 -0.875 0.875 -0.984375 0.703125 -0.984375 C 0.484375 -0.984375 0.25 -0.796875 0.25 -0.5 C 0.25 -0.125 0.640625 0.078125 1.046875 0.078125 C 1.46875 0.078125 1.765625 -0.234375 1.90625 -0.5 C 2.09375 -0.109375 2.453125 0.078125 2.84375 0.078125 C 3.703125 0.078125 4.1875 -0.921875 4.1875 -1.140625 C 4.1875 -1.21875 4.125 -1.25 4.0625 -1.25 C 3.96875 -1.25 3.953125 -1.1875 3.921875 -1.109375 C 3.765625 -0.578125 3.3125 -0.140625 2.859375 -0.140625 C 2.59375 -0.140625 2.40625 -0.3125 2.40625 -0.65625 C 2.40625 -0.8125 2.453125 -1 2.5625 -1.4375 C 2.609375 -1.6875 2.78125 -2.375 2.828125 -2.53125 C 2.9375 -2.953125 3.21875 -3.296875 3.578125 -3.296875 C 3.625 -3.296875 3.828125 -3.296875 4 -3.171875 Z M 4 -3.171875 "/>
</g>
<g id="glyph-5-2">
<path d="M 4.125 -3 C 4.15625 -3.109375 4.15625 -3.125 4.15625 -3.1875 C 4.15625 -3.390625 4 -3.4375 3.90625 -3.4375 C 3.859375 -3.4375 3.6875 -3.421875 3.578125 -3.21875 C 3.5625 -3.171875 3.484375 -2.890625 3.453125 -2.71875 L 2.96875 -0.8125 C 2.96875 -0.78125 2.625 -0.140625 2.046875 -0.140625 C 1.65625 -0.140625 1.515625 -0.4375 1.515625 -0.78125 C 1.515625 -1.25 1.78125 -1.953125 1.96875 -2.421875 C 2.046875 -2.625 2.078125 -2.6875 2.078125 -2.84375 C 2.078125 -3.28125 1.71875 -3.515625 1.359375 -3.515625 C 0.5625 -3.515625 0.234375 -2.390625 0.234375 -2.296875 C 0.234375 -2.21875 0.296875 -2.1875 0.359375 -2.1875 C 0.46875 -2.1875 0.46875 -2.234375 0.5 -2.3125 C 0.703125 -3.015625 1.046875 -3.296875 1.328125 -3.296875 C 1.453125 -3.296875 1.515625 -3.21875 1.515625 -3.03125 C 1.515625 -2.859375 1.453125 -2.671875 1.40625 -2.53125 C 1.078125 -1.6875 0.9375 -1.28125 0.9375 -0.90625 C 0.9375 -0.125 1.53125 0.078125 2 0.078125 C 2.375 0.078125 2.640625 -0.09375 2.84375 -0.265625 C 2.71875 0.171875 2.640625 0.484375 2.34375 0.875 C 2.078125 1.1875 1.765625 1.40625 1.40625 1.40625 C 1.265625 1.40625 0.96875 1.375 0.8125 1.140625 C 1.234375 1.109375 1.265625 0.75 1.265625 0.703125 C 1.265625 0.515625 1.109375 0.40625 0.953125 0.40625 C 0.765625 0.40625 0.5 0.546875 0.5 0.9375 C 0.5 1.3125 0.84375 1.625 1.40625 1.625 C 2.21875 1.625 3.125 0.96875 3.375 0.015625 Z M 4.125 -3 "/>
</g>
<g id="glyph-5-3">
<path d="M 1.15625 -0.6875 C 1.4375 -0.984375 1.53125 -1.078125 2.234375 -1.65625 C 2.3125 -1.734375 2.875 -2.1875 3.09375 -2.40625 C 3.59375 -2.890625 3.90625 -3.328125 3.90625 -3.421875 C 3.90625 -3.484375 3.84375 -3.515625 3.78125 -3.515625 C 3.703125 -3.515625 3.703125 -3.5 3.625 -3.375 C 3.375 -3.015625 3.203125 -2.953125 3.046875 -2.953125 C 2.90625 -2.953125 2.8125 -3.015625 2.640625 -3.171875 C 2.4375 -3.375 2.28125 -3.515625 2.03125 -3.515625 C 1.390625 -3.515625 0.984375 -2.796875 0.984375 -2.578125 C 0.984375 -2.578125 0.984375 -2.484375 1.109375 -2.484375 C 1.1875 -2.484375 1.21875 -2.515625 1.25 -2.609375 C 1.34375 -2.84375 1.6875 -2.921875 1.921875 -2.921875 C 2.109375 -2.921875 2.296875 -2.875 2.5 -2.8125 C 2.828125 -2.71875 2.90625 -2.71875 3.078125 -2.71875 C 2.921875 -2.546875 2.6875 -2.328125 2.078125 -1.828125 C 1.75 -1.546875 1.40625 -1.28125 1.1875 -1.0625 C 0.609375 -0.484375 0.34375 -0.09375 0.34375 -0.015625 C 0.34375 0.0625 0.40625 0.078125 0.46875 0.078125 C 0.546875 0.078125 0.5625 0.0625 0.609375 0 C 0.765625 -0.234375 1.015625 -0.484375 1.3125 -0.484375 C 1.5 -0.484375 1.578125 -0.421875 1.734375 -0.265625 C 1.984375 -0.015625 2.125 0.078125 2.359375 0.078125 C 3.1875 0.078125 3.6875 -0.90625 3.6875 -1.15625 C 3.6875 -1.234375 3.640625 -1.265625 3.5625 -1.265625 C 3.484375 -1.265625 3.46875 -1.21875 3.4375 -1.125 C 3.28125 -0.734375 2.84375 -0.515625 2.453125 -0.515625 C 2.296875 -0.515625 2.125 -0.5625 1.875 -0.625 C 1.546875 -0.703125 1.46875 -0.703125 1.34375 -0.703125 C 1.265625 -0.703125 1.21875 -0.703125 1.15625 -0.6875 Z M 1.15625 -0.6875 "/>
</g>
</g>
</defs>
<g fill="rgb(0%, 0%, 0%)" fill-opacity="1">
<use xlink:href="#glyph-0-1" x="0.5" y="8.682"/>
</g>
<g fill="rgb(0%, 0%, 0%)" fill-opacity="1">
<use xlink:href="#glyph-1-1" x="5.96" y="10.318"/>
</g>
<g fill="rgb(0%, 0%, 0%)" fill-opacity="1">
<use xlink:href="#glyph-2-1" x="13.722" y="8.682"/>
</g>
<g fill="rgb(0%, 0%, 0%)" fill-opacity="1">
<use xlink:href="#glyph-3-1" x="25.237" y="8.682"/>
</g>
<g fill="rgb(0%, 0%, 0%)" fill-opacity="1">
<use xlink:href="#glyph-4-1" x="30.692" y="8.682"/>
</g>
<g fill="rgb(0%, 0%, 0%)" fill-opacity="1">
<use xlink:href="#glyph-5-1" x="36.18" y="10.318"/>
</g>
<g fill="rgb(0%, 0%, 0%)" fill-opacity="1">
<use xlink:href="#glyph-4-2" x="41.445" y="8.682"/>
</g>
<g fill="rgb(0%, 0%, 0%)" fill-opacity="1">
<use xlink:href="#glyph-4-1" x="46.297368" y="8.682"/>
</g>
<g fill="rgb(0%, 0%, 0%)" fill-opacity="1">
<use xlink:href="#glyph-5-2" x="51.783" y="10.318"/>
</g>
<g fill="rgb(0%, 0%, 0%)" fill-opacity="1">
<use xlink:href="#glyph-4-2" x="56.752" y="8.682"/>
</g>
<g fill="rgb(0%, 0%, 0%)" fill-opacity="1">
<use xlink:href="#glyph-4-1" x="61.604368" y="8.682"/>
</g>
<g fill="rgb(0%, 0%, 0%)" fill-opacity="1">
<use xlink:href="#glyph-5-3" x="67.089" y="10.318"/>
</g>
<g fill="rgb(0%, 0%, 0%)" fill-opacity="1">
<use xlink:href="#glyph-3-2" x="71.863" y="8.682"/>
</g>
</svg>
