<?xml version="1.0" encoding="UTF-8"?>
<svg xmlns="http://www.w3.org/2000/svg" xmlns:xlink="http://www.w3.org/1999/xlink" width="174.848" height="174.858" viewBox="0 0 174.848 174.858">
<defs>
<g>
<g id="glyph-0-0">
</g>
<g id="glyph-0-1">
<path d="M 3.375 -4.25 C 3.375 -4.59375 3.296875 -4.703125 2.9375 -4.703125 L 1.390625 -4.703125 C 1.21875 -4.703125 0.9375 -4.703125 0.9375 -4.375 C 0.9375 -4.03125 1.21875 -4.03125 1.390625 -4.03125 L 2.625 -4.03125 L 2.625 -0.671875 L 1.296875 -0.671875 C 1.125 -0.671875 0.84375 -0.671875 0.84375 -0.328125 C 0.84375 0 1.140625 0 1.296875 0 L 4.515625 0 C 4.671875 0 4.96875 0 4.96875 -0.328125 C 4.96875 -0.671875 4.671875 -0.671875 4.515625 -0.671875 L 3.375 -0.671875 Z M 3.375 -6.125 C 3.375 -6.4375 3.125 -6.671875 2.828125 -6.671875 C 2.515625 -6.671875 2.28125 -6.4375 2.28125 -6.125 C 2.28125 -5.828125 2.515625 -5.578125 2.828125 -5.578125 C 3.125 -5.578125 3.375 -5.828125 3.375 -6.125 Z M 3.375 -6.125 "/>
</g>
<g id="glyph-0-2">
<path d="M 1.1875 -4.375 C 1.171875 -4.703125 0.953125 -4.703125 0.75 -4.703125 L 0.40625 -4.703125 C 0.234375 -4.703125 -0.046875 -4.703125 -0.046875 -4.375 C -0.046875 -4.03125 0.1875 -4.03125 0.578125 -4.03125 L 0.578125 -0.671875 C 0.1875 -0.671875 -0.046875 -0.671875 -0.046875 -0.328125 C -0.046875 0 0.25 0 0.40625 0 L 1.359375 0 C 1.53125 0 1.8125 0 1.8125 -0.328125 C 1.8125 -0.671875 1.578125 -0.671875 1.1875 -0.671875 L 1.1875 -2.625 C 1.1875 -3.59375 1.640625 -4.09375 2.078125 -4.09375 C 2.328125 -4.09375 2.484375 -3.921875 2.484375 -3.203125 L 2.484375 -0.671875 C 2.28125 -0.671875 2 -0.671875 2 -0.328125 C 2 0 2.296875 0 2.453125 0 L 3.265625 0 C 3.4375 0 3.71875 0 3.71875 -0.328125 C 3.71875 -0.671875 3.484375 -0.671875 3.09375 -0.671875 L 3.09375 -2.625 C 3.09375 -3.59375 3.546875 -4.09375 3.984375 -4.09375 C 4.25 -4.09375 4.390625 -3.921875 4.390625 -3.203125 L 4.390625 -0.671875 C 4.1875 -0.671875 3.921875 -0.671875 3.921875 -0.328125 C 3.921875 0 4.203125 0 4.359375 0 L 5.1875 0 C 5.34375 0 5.625 0 5.625 -0.328125 C 5.625 -0.671875 5.40625 -0.671875 5 -0.671875 L 5 -3.296875 C 5 -3.515625 5 -4.765625 4.03125 -4.765625 C 3.703125 -4.765625 3.265625 -4.625 2.953125 -4.203125 C 2.796875 -4.5625 2.484375 -4.765625 2.125 -4.765625 C 1.78125 -4.765625 1.453125 -4.609375 1.1875 -4.375 Z M 1.1875 -4.375 "/>
</g>
<g id="glyph-0-3">
<path d="M 3.984375 -0.34375 C 4.234375 -0.015625 4.75 0 5.171875 0 C 5.46875 0 5.71875 0 5.71875 -0.34375 C 5.71875 -0.671875 5.4375 -0.671875 5.28125 -0.671875 C 4.828125 -0.671875 4.71875 -0.71875 4.625 -0.75 L 4.625 -3.109375 C 4.625 -3.875 4.03125 -4.796875 2.46875 -4.796875 C 2 -4.796875 0.890625 -4.796875 0.890625 -4 C 0.890625 -3.671875 1.109375 -3.5 1.375 -3.5 C 1.53125 -3.5 1.84375 -3.59375 1.859375 -4 C 1.859375 -4.09375 1.859375 -4.09375 2.078125 -4.125 C 2.234375 -4.140625 2.375 -4.140625 2.46875 -4.140625 C 3.296875 -4.140625 3.875 -3.796875 3.875 -3.015625 C 1.9375 -2.984375 0.59375 -2.4375 0.59375 -1.390625 C 0.59375 -0.640625 1.28125 0.0625 2.40625 0.0625 C 2.796875 0.0625 3.484375 -0.015625 3.984375 -0.34375 Z M 3.875 -2.375 L 3.875 -1.46875 C 3.875 -1.203125 3.875 -0.984375 3.453125 -0.78125 C 3.046875 -0.59375 2.5625 -0.59375 2.46875 -0.59375 C 1.796875 -0.59375 1.359375 -0.96875 1.359375 -1.390625 C 1.359375 -1.9375 2.296875 -2.328125 3.875 -2.375 Z M 3.875 -2.375 "/>
</g>
<g id="glyph-0-4">
<path d="M 2.546875 -1.921875 C 1.953125 -1.921875 1.5 -2.4375 1.5 -3.015625 C 1.5 -3.625 1.96875 -4.109375 2.546875 -4.109375 C 3.125 -4.109375 3.59375 -3.59375 3.59375 -3.015625 C 3.59375 -2.40625 3.109375 -1.921875 2.546875 -1.921875 Z M 1.5625 -1.53125 C 1.59375 -1.515625 2 -1.265625 2.546875 -1.265625 C 3.546875 -1.265625 4.34375 -2.046875 4.34375 -3.015625 C 4.34375 -3.34375 4.25 -3.671875 4.0625 -3.96875 C 4.28125 -4.09375 4.546875 -4.140625 4.6875 -4.15625 C 4.75 -3.859375 5 -3.78125 5.109375 -3.78125 C 5.296875 -3.78125 5.546875 -3.921875 5.546875 -4.234375 C 5.546875 -4.484375 5.34375 -4.828125 4.75 -4.828125 C 4.640625 -4.828125 4.09375 -4.8125 3.59375 -4.4375 C 3.421875 -4.5625 3.046875 -4.765625 2.546875 -4.765625 C 1.515625 -4.765625 0.734375 -3.953125 0.734375 -3.015625 C 0.734375 -2.546875 0.921875 -2.1875 1.09375 -1.984375 C 0.96875 -1.8125 0.875 -1.578125 0.875 -1.25 C 0.875 -0.859375 1.03125 -0.59375 1.125 -0.453125 C 0.3125 0.03125 0.3125 0.78125 0.3125 0.890625 C 0.3125 1.828125 1.46875 2.5 2.859375 2.5 C 4.25 2.5 5.40625 1.828125 5.40625 0.890625 C 5.40625 0.484375 5.203125 -0.046875 4.640625 -0.34375 C 4.5 -0.421875 4.046875 -0.671875 3.0625 -0.671875 L 2.296875 -0.671875 C 2.21875 -0.671875 2.078125 -0.671875 1.984375 -0.6875 C 1.828125 -0.6875 1.75 -0.6875 1.625 -0.84375 C 1.5 -1 1.5 -1.203125 1.5 -1.234375 C 1.5 -1.28125 1.515625 -1.421875 1.5625 -1.53125 Z M 2.859375 1.84375 C 1.765625 1.84375 0.953125 1.375 0.953125 0.890625 C 0.953125 0.703125 1.046875 0.34375 1.390625 0.125 C 1.671875 -0.046875 1.765625 -0.046875 2.5625 -0.046875 C 3.53125 -0.046875 4.765625 -0.046875 4.765625 0.890625 C 4.765625 1.375 3.953125 1.84375 2.859375 1.84375 Z M 2.859375 1.84375 "/>
</g>
<g id="glyph-0-5">
<path d="M 4.625 -2.078125 C 4.859375 -2.078125 5.0625 -2.078125 5.0625 -2.484375 C 5.0625 -3.734375 4.359375 -4.796875 2.9375 -4.796875 C 1.640625 -4.796875 0.59375 -3.703125 0.59375 -2.359375 C 0.59375 -1.03125 1.703125 0.0625 3.109375 0.0625 C 4.546875 0.0625 5.0625 -0.921875 5.0625 -1.1875 C 5.0625 -1.5 4.75 -1.5 4.671875 -1.5 C 4.484375 -1.5 4.390625 -1.46875 4.3125 -1.25 C 4.078125 -0.703125 3.484375 -0.59375 3.1875 -0.59375 C 2.359375 -0.59375 1.546875 -1.140625 1.375 -2.078125 Z M 1.390625 -2.734375 C 1.53125 -3.53125 2.1875 -4.140625 2.9375 -4.140625 C 3.515625 -4.140625 4.1875 -3.859375 4.28125 -2.734375 Z M 1.390625 -2.734375 "/>
</g>
<g id="glyph-0-6">
<path d="M 3.25 -2.78125 C 3 -2.828125 2.78125 -2.859375 2.515625 -2.90625 C 2.1875 -2.953125 1.453125 -3.09375 1.453125 -3.515625 C 1.453125 -3.796875 1.796875 -4.140625 2.828125 -4.140625 C 3.734375 -4.140625 3.890625 -3.8125 3.921875 -3.515625 C 3.9375 -3.34375 3.953125 -3.15625 4.296875 -3.15625 C 4.671875 -3.15625 4.671875 -3.375 4.671875 -3.59375 L 4.671875 -4.359375 C 4.671875 -4.53125 4.671875 -4.796875 4.359375 -4.796875 C 4.09375 -4.796875 4.046875 -4.640625 4.03125 -4.5625 C 3.546875 -4.796875 3.0625 -4.796875 2.859375 -4.796875 C 1.03125 -4.796875 0.78125 -3.90625 0.78125 -3.515625 C 0.78125 -2.515625 1.9375 -2.328125 2.9375 -2.171875 C 3.46875 -2.078125 4.34375 -1.9375 4.34375 -1.359375 C 4.34375 -0.953125 3.9375 -0.59375 2.9375 -0.59375 C 2.4375 -0.59375 1.828125 -0.71875 1.546875 -1.578125 C 1.5 -1.765625 1.453125 -1.890625 1.171875 -1.890625 C 0.78125 -1.890625 0.78125 -1.65625 0.78125 -1.4375 L 0.78125 -0.375 C 0.78125 -0.203125 0.78125 0.0625 1.109375 0.0625 C 1.203125 0.0625 1.390625 0.046875 1.515625 -0.34375 C 2.046875 0.046875 2.625 0.0625 2.9375 0.0625 C 4.65625 0.0625 5 -0.84375 5 -1.359375 C 5 -2.5 3.59375 -2.71875 3.25 -2.78125 Z M 3.25 -2.78125 "/>
</g>
<g id="glyph-0-7">
<path d="M 5 -6.921875 C 5.078125 -7.09375 5.078125 -7.09375 5.078125 -7.1875 C 5.078125 -7.390625 4.921875 -7.5625 4.703125 -7.5625 C 4.453125 -7.5625 4.390625 -7.40625 4.3125 -7.265625 L 0.71875 0.265625 C 0.640625 0.4375 0.625 0.4375 0.625 0.53125 C 0.625 0.71875 0.796875 0.90625 1.015625 0.90625 C 1.25 0.90625 1.328125 0.734375 1.390625 0.59375 Z M 5 -6.921875 "/>
</g>
<g id="glyph-0-8">
<path d="M 2.765625 -4.03125 L 4.09375 -4.03125 C 4.25 -4.03125 4.53125 -4.03125 4.53125 -4.359375 C 4.53125 -4.703125 4.265625 -4.703125 4.09375 -4.703125 L 2.765625 -4.703125 L 2.765625 -5.21875 C 2.765625 -6.0625 3.484375 -6.0625 3.8125 -6.0625 C 3.8125 -6.015625 3.921875 -5.59375 4.296875 -5.59375 C 4.515625 -5.59375 4.765625 -5.765625 4.765625 -6.078125 C 4.765625 -6.734375 3.890625 -6.734375 3.71875 -6.734375 C 2.84375 -6.734375 2 -6.234375 2 -5.28125 L 2 -4.703125 L 0.921875 -4.703125 C 0.734375 -4.703125 0.46875 -4.703125 0.46875 -4.359375 C 0.46875 -4.03125 0.734375 -4.03125 0.90625 -4.03125 L 2 -4.03125 L 2 -0.671875 L 0.90625 -0.671875 C 0.734375 -0.671875 0.453125 -0.671875 0.453125 -0.34375 C 0.453125 0 0.734375 0 0.90625 0 L 3.859375 0 C 4.03125 0 4.3125 0 4.3125 -0.328125 C 4.3125 -0.671875 4.03125 -0.671875 3.859375 -0.671875 L 2.765625 -0.671875 Z M 2.765625 -4.03125 "/>
</g>
<g id="glyph-0-9">
<path d="M 2.421875 -2.03125 C 2.421875 -3.046875 3.0625 -4.09375 4.390625 -4.09375 C 4.390625 -3.84375 4.578125 -3.625 4.859375 -3.625 C 5.09375 -3.625 5.3125 -3.796875 5.3125 -4.09375 C 5.3125 -4.3125 5.1875 -4.765625 4.28125 -4.765625 C 3.71875 -4.765625 3.015625 -4.5625 2.421875 -3.875 L 2.421875 -4.25 C 2.421875 -4.59375 2.359375 -4.703125 1.984375 -4.703125 L 0.78125 -4.703125 C 0.625 -4.703125 0.34375 -4.703125 0.34375 -4.375 C 0.34375 -4.03125 0.609375 -4.03125 0.78125 -4.03125 L 1.671875 -4.03125 L 1.671875 -0.671875 L 0.78125 -0.671875 C 0.625 -0.671875 0.34375 -0.671875 0.34375 -0.34375 C 0.34375 0 0.609375 0 0.78125 0 L 3.625 0 C 3.796875 0 4.078125 0 4.078125 -0.328125 C 4.078125 -0.671875 3.796875 -0.671875 3.625 -0.671875 L 2.421875 -0.671875 Z M 2.421875 -2.03125 "/>
</g>
<g id="glyph-0-10">
<path d="M 4.59375 1.03125 C 4.71875 1.03125 5.109375 1.03125 5.109375 0.65625 C 5.109375 0.265625 4.71875 0.265625 4.59375 0.265625 L 1.125 0.265625 C 1 0.265625 0.609375 0.265625 0.609375 0.65625 C 0.609375 1.03125 1 1.03125 1.125 1.03125 Z M 4.59375 1.03125 "/>
</g>
<g id="glyph-0-11">
<path d="M 5.09375 -2.359375 C 5.09375 -3.71875 4.078125 -4.796875 2.859375 -4.796875 C 1.640625 -4.796875 0.625 -3.71875 0.625 -2.359375 C 0.625 -0.96875 1.65625 0.0625 2.859375 0.0625 C 4.0625 0.0625 5.09375 -0.984375 5.09375 -2.359375 Z M 2.859375 -0.59375 C 2.046875 -0.59375 1.375 -1.421875 1.375 -2.4375 C 1.375 -3.421875 2.078125 -4.140625 2.859375 -4.140625 C 3.640625 -4.140625 4.34375 -3.421875 4.34375 -2.4375 C 4.34375 -1.421875 3.671875 -0.59375 2.859375 -0.59375 Z M 2.859375 -0.59375 "/>
</g>
<g id="glyph-0-12">
<path d="M 3.90625 -0.546875 C 3.90625 -0.15625 3.90625 0 4.34375 0 L 5.140625 0 C 5.3125 0 5.578125 0 5.578125 -0.34375 C 5.578125 -0.671875 5.296875 -0.671875 5.140625 -0.671875 L 4.65625 -0.671875 L 4.65625 -6.21875 C 4.65625 -6.546875 4.59375 -6.65625 4.21875 -6.65625 L 3.421875 -6.65625 C 3.25 -6.65625 2.984375 -6.65625 2.984375 -6.328125 C 2.984375 -6 3.265625 -6 3.40625 -6 L 3.90625 -6 L 3.90625 -4.28125 C 3.546875 -4.59375 3.09375 -4.765625 2.625 -4.765625 C 1.4375 -4.765625 0.390625 -3.734375 0.390625 -2.34375 C 0.390625 -1 1.375 0.0625 2.53125 0.0625 C 3.140625 0.0625 3.59375 -0.234375 3.90625 -0.546875 Z M 3.90625 -2.890625 L 3.90625 -2.109375 C 3.90625 -1.5 3.40625 -0.59375 2.578125 -0.59375 C 1.796875 -0.59375 1.140625 -1.375 1.140625 -2.34375 C 1.140625 -3.390625 1.90625 -4.09375 2.671875 -4.09375 C 3.375 -4.09375 3.90625 -3.484375 3.90625 -2.890625 Z M 3.90625 -2.890625 "/>
</g>
<g id="glyph-0-13">
<path d="M 2.421875 -4.03125 L 4.203125 -4.03125 C 4.375 -4.03125 4.640625 -4.03125 4.640625 -4.359375 C 4.640625 -4.703125 4.390625 -4.703125 4.203125 -4.703125 L 2.421875 -4.703125 L 2.421875 -5.59375 C 2.421875 -5.796875 2.421875 -6.046875 2.046875 -6.046875 C 1.671875 -6.046875 1.671875 -5.8125 1.671875 -5.59375 L 1.671875 -4.703125 L 0.71875 -4.703125 C 0.546875 -4.703125 0.265625 -4.703125 0.265625 -4.359375 C 0.265625 -4.03125 0.546875 -4.03125 0.703125 -4.03125 L 1.671875 -4.03125 L 1.671875 -1.375 C 1.671875 -0.328125 2.40625 0.0625 3.203125 0.0625 C 4.015625 0.0625 4.890625 -0.40625 4.890625 -1.375 C 4.890625 -1.578125 4.890625 -1.796875 4.515625 -1.796875 C 4.15625 -1.796875 4.140625 -1.578125 4.140625 -1.390625 C 4.140625 -0.703125 3.515625 -0.59375 3.265625 -0.59375 C 2.421875 -0.59375 2.421875 -1.171875 2.421875 -1.4375 Z M 2.421875 -4.03125 "/>
</g>
<g id="glyph-0-14">
<path d="M 3.125 -2.421875 L 4.375 -4.03125 L 4.8125 -4.03125 C 4.96875 -4.03125 5.25 -4.03125 5.25 -4.359375 C 5.25 -4.703125 4.96875 -4.703125 4.8125 -4.703125 L 3.53125 -4.703125 C 3.375 -4.703125 3.09375 -4.703125 3.09375 -4.375 C 3.09375 -4.03125 3.34375 -4.03125 3.625 -4.03125 L 2.828125 -2.9375 L 2 -4.03125 C 2.28125 -4.03125 2.515625 -4.03125 2.515625 -4.375 C 2.515625 -4.703125 2.25 -4.703125 2.078125 -4.703125 L 0.8125 -4.703125 C 0.640625 -4.703125 0.359375 -4.703125 0.359375 -4.359375 C 0.359375 -4.03125 0.65625 -4.03125 0.8125 -4.03125 L 1.25 -4.03125 L 2.53125 -2.421875 L 1.171875 -0.671875 L 0.734375 -0.671875 C 0.578125 -0.671875 0.296875 -0.671875 0.296875 -0.328125 C 0.296875 0 0.59375 0 0.734375 0 L 2.015625 0 C 2.1875 0 2.453125 0 2.453125 -0.328125 C 2.453125 -0.671875 2.21875 -0.671875 1.890625 -0.671875 L 2.828125 -2 L 3.796875 -0.671875 C 3.484375 -0.671875 3.25 -0.671875 3.25 -0.328125 C 3.25 0 3.515625 0 3.6875 0 L 4.96875 0 C 5.109375 0 5.40625 0 5.40625 -0.328125 C 5.40625 -0.671875 5.125 -0.671875 4.96875 -0.671875 L 4.53125 -0.671875 Z M 3.125 -2.421875 "/>
</g>
<g id="glyph-0-15">
<path d="M 3.234375 -2.984375 C 3.53125 -2.921875 4.4375 -2.703125 4.4375 -1.75 C 4.4375 -1.1875 3.96875 -0.546875 3.109375 -0.546875 C 2.796875 -0.546875 2.265625 -0.59375 1.828125 -0.890625 C 1.375 -1.171875 1.328125 -1.640625 1.3125 -1.828125 C 1.3125 -2.015625 1.296875 -2.21875 0.953125 -2.21875 C 0.5625 -2.21875 0.5625 -1.984375 0.5625 -1.765625 L 0.5625 -0.328125 C 0.5625 -0.15625 0.5625 0.125 0.890625 0.125 C 1.140625 0.125 1.203125 -0.03125 1.296875 -0.375 C 1.734375 -0.046875 2.40625 0.125 3.09375 0.125 C 4.359375 0.125 5.140625 -0.84375 5.140625 -1.8125 C 5.140625 -2.515625 4.75 -2.96875 4.625 -3.109375 C 4.171875 -3.546875 3.875 -3.625 3.03125 -3.8125 L 2.15625 -4.015625 C 1.6875 -4.140625 1.28125 -4.53125 1.28125 -5.03125 C 1.28125 -5.59375 1.8125 -6.125 2.578125 -6.125 C 3.875 -6.125 4.03125 -5.09375 4.09375 -4.75 C 4.140625 -4.515625 4.25 -4.453125 4.46875 -4.453125 C 4.859375 -4.453125 4.859375 -4.671875 4.859375 -4.890625 L 4.859375 -6.34375 C 4.859375 -6.515625 4.859375 -6.78125 4.53125 -6.78125 C 4.265625 -6.78125 4.203125 -6.59375 4.125 -6.265625 C 3.671875 -6.65625 3.09375 -6.78125 2.59375 -6.78125 C 1.390625 -6.78125 0.5625 -5.921875 0.5625 -5 C 0.5625 -4.265625 1.0625 -3.546875 1.96875 -3.28125 C 2.015625 -3.265625 3.078125 -3.015625 3.234375 -2.984375 Z M 3.234375 -2.984375 "/>
</g>
<g id="glyph-0-16">
<path d="M 4.015625 -4.25 C 4.015625 -4.59375 3.953125 -4.703125 3.578125 -4.703125 L 1.859375 -4.703125 C 1.671875 -4.703125 1.40625 -4.703125 1.40625 -4.359375 C 1.40625 -4.03125 1.671875 -4.03125 1.84375 -4.03125 L 3.265625 -4.03125 L 3.265625 0.421875 C 3.265625 0.609375 3.265625 1.03125 2.984375 1.40625 C 2.6875 1.828125 2.34375 1.828125 2.09375 1.828125 C 1.78125 1.828125 1.640625 1.796875 1.484375 1.78125 C 1.5 1.75 1.5 1.71875 1.5 1.640625 C 1.5 1.34375 1.25 1.15625 1.015625 1.15625 C 0.765625 1.15625 0.53125 1.34375 0.53125 1.65625 C 0.53125 2.484375 1.59375 2.484375 2.046875 2.484375 C 3.625 2.484375 4.015625 1.171875 4.015625 0.484375 Z M 4.015625 -6.125 C 4.015625 -6.4375 3.78125 -6.671875 3.46875 -6.671875 C 3.15625 -6.671875 2.921875 -6.4375 2.921875 -6.125 C 2.921875 -5.828125 3.15625 -5.578125 3.46875 -5.578125 C 3.78125 -5.578125 4.015625 -5.828125 4.015625 -6.125 Z M 4.015625 -6.125 "/>
</g>
<g id="glyph-0-17">
<path d="M 3.125 -2.78125 L 4.46875 -4.03125 L 4.859375 -4.03125 C 5.015625 -4.03125 5.296875 -4.03125 5.296875 -4.359375 C 5.296875 -4.703125 5.015625 -4.703125 4.859375 -4.703125 L 3.171875 -4.703125 C 3 -4.703125 2.734375 -4.703125 2.734375 -4.359375 C 2.734375 -4.03125 3.015625 -4.03125 3.171875 -4.03125 L 3.578125 -4.03125 L 1.8125 -2.375 L 1.8125 -6.21875 C 1.8125 -6.546875 1.75 -6.65625 1.375 -6.65625 L 0.671875 -6.65625 C 0.5 -6.65625 0.234375 -6.65625 0.234375 -6.34375 C 0.234375 -6 0.484375 -6 0.671875 -6 L 1.203125 -6 L 1.203125 -0.671875 L 0.671875 -0.671875 C 0.5 -0.671875 0.234375 -0.671875 0.234375 -0.34375 C 0.234375 0 0.484375 0 0.671875 0 L 2.34375 0 C 2.515625 0 2.78125 0 2.78125 -0.328125 C 2.78125 -0.671875 2.515625 -0.671875 2.34375 -0.671875 L 1.8125 -0.671875 L 1.8125 -1.546875 L 2.6875 -2.359375 L 3.984375 -0.671875 C 3.59375 -0.671875 3.375 -0.671875 3.375 -0.328125 C 3.375 0 3.640625 0 3.8125 0 L 5.09375 0 C 5.25 0 5.546875 0 5.546875 -0.328125 C 5.546875 -0.671875 5.25 -0.671875 5.09375 -0.671875 L 4.75 -0.671875 Z M 3.125 -2.78125 "/>
</g>
<g id="glyph-0-18">
<path d="M 3.234375 -6.21875 C 3.234375 -6.546875 3.171875 -6.65625 2.796875 -6.65625 L 1.078125 -6.65625 C 0.90625 -6.65625 0.625 -6.65625 0.625 -6.328125 C 0.625 -6 0.921875 -6 1.0625 -6 L 2.484375 -6 L 2.484375 -0.671875 L 1.078125 -0.671875 C 0.90625 -0.671875 0.625 -0.671875 0.625 -0.328125 C 0.625 0 0.921875 0 1.0625 0 L 4.65625 0 C 4.828125 0 5.09375 0 5.09375 -0.328125 C 5.09375 -0.671875 4.828125 -0.671875 4.65625 -0.671875 L 3.234375 -0.671875 Z M 3.234375 -6.21875 "/>
</g>
<g id="glyph-0-19">
<path d="M 1.8125 -4.1875 C 1.8125 -4.53125 1.8125 -4.703125 1.375 -4.703125 L 0.578125 -4.703125 C 0.40625 -4.703125 0.125 -4.703125 0.125 -4.359375 C 0.125 -4.03125 0.421875 -4.03125 0.5625 -4.03125 L 1.0625 -4.03125 L 1.0625 -0.671875 L 0.578125 -0.671875 C 0.40625 -0.671875 0.125 -0.671875 0.125 -0.328125 C 0.125 0 0.421875 0 0.5625 0 L 2.296875 0 C 2.453125 0 2.734375 0 2.734375 -0.328125 C 2.734375 -0.671875 2.46875 -0.671875 2.296875 -0.671875 L 1.8125 -0.671875 L 1.8125 -2.59375 C 1.8125 -3.6875 2.625 -4.09375 3.171875 -4.09375 C 3.75 -4.09375 3.90625 -3.796875 3.90625 -3.140625 L 3.90625 -0.671875 L 3.484375 -0.671875 C 3.296875 -0.671875 3.03125 -0.671875 3.03125 -0.328125 C 3.03125 0 3.328125 0 3.484375 0 L 5.140625 0 C 5.296875 0 5.578125 0 5.578125 -0.328125 C 5.578125 -0.671875 5.3125 -0.671875 5.140625 -0.671875 L 4.65625 -0.671875 L 4.65625 -3.203125 C 4.65625 -4.296875 4.09375 -4.765625 3.234375 -4.765625 C 2.515625 -4.765625 2.015625 -4.390625 1.8125 -4.1875 Z M 1.8125 -4.1875 "/>
</g>
</g>
<clipPath id="clip-0">
<path clip-rule="nonzero" d="M 0 0 L 1 0 L 1 174.859375 L 0 174.859375 Z M 0 0 "/>
</clipPath>
<clipPath id="clip-1">
<path clip-rule="nonzero" d="M 0 0 L 174.847656 0 L 174.847656 1 L 0 1 Z M 0 0 "/>
</clipPath>
<clipPath id="clip-2">
<path clip-rule="nonzero" d="M 4 82 L 174.847656 82 L 174.847656 93 L 4 93 Z M 4 82 "/>
</clipPath>
<clipPath id="clip-3">
<path clip-rule="nonzero" d="M 0 173 L 174.847656 173 L 174.847656 174.859375 L 0 174.859375 Z M 0 173 "/>
</clipPath>
<clipPath id="clip-4">
<path clip-rule="nonzero" d="M 173 0 L 174.847656 0 L 174.847656 174.859375 L 173 174.859375 Z M 173 0 "/>
</clipPath>
</defs>
<g clip-path="url(#clip-0)">
<path fill="none" stroke-width="0.398" stroke-linecap="butt" stroke-linejoin="miter" stroke="rgb(0%, 0%, 0%)" stroke-opacity="1" stroke-miterlimit="10" d="M 0.00021875 -0.001375 L 0.00021875 173.858 " transform="matrix(1, 0, 0, -1, 0.699, 174.358)"/>
</g>
<g clip-path="url(#clip-1)">
<path fill="none" stroke-width="0.398" stroke-linecap="butt" stroke-linejoin="miter" stroke="rgb(0%, 0%, 0%)" stroke-opacity="1" stroke-miterlimit="10" d="M 0 0.00078125 L 173.847656 0.00078125 " transform="matrix(1, 0, 0, -1, 0.5, 0.7)"/>
</g>
<g clip-path="url(#clip-2)">
<g fill="rgb(0%, 0%, 0%)" fill-opacity="1">
<use xlink:href="#glyph-0-1" x="4.136" y="90.005"/>
<use xlink:href="#glyph-0-2" x="9.863278" y="90.005"/>
<use xlink:href="#glyph-0-3" x="15.590555" y="90.005"/>
<use xlink:href="#glyph-0-4" x="21.317833" y="90.005"/>
<use xlink:href="#glyph-0-5" x="27.04511" y="90.005"/>
<use xlink:href="#glyph-0-6" x="32.772388" y="90.005"/>
<use xlink:href="#glyph-0-7" x="38.499665" y="90.005"/>
<use xlink:href="#glyph-0-8" x="44.226942" y="90.005"/>
<use xlink:href="#glyph-0-9" x="49.95422" y="90.005"/>
<use xlink:href="#glyph-0-3" x="55.681497" y="90.005"/>
<use xlink:href="#glyph-0-2" x="61.408775" y="90.005"/>
<use xlink:href="#glyph-0-5" x="67.136053" y="90.005"/>
<use xlink:href="#glyph-0-10" x="72.86333" y="90.005"/>
<use xlink:href="#glyph-0-11" x="78.590608" y="90.005"/>
<use xlink:href="#glyph-0-9" x="84.317885" y="90.005"/>
<use xlink:href="#glyph-0-12" x="90.045163" y="90.005"/>
<use xlink:href="#glyph-0-5" x="95.77244" y="90.005"/>
<use xlink:href="#glyph-0-9" x="101.499718" y="90.005"/>
<use xlink:href="#glyph-0-10" x="107.226995" y="90.005"/>
<use xlink:href="#glyph-0-2" x="112.954273" y="90.005"/>
<use xlink:href="#glyph-0-3" x="118.68155" y="90.005"/>
<use xlink:href="#glyph-0-13" x="124.408828" y="90.005"/>
<use xlink:href="#glyph-0-9" x="130.136105" y="90.005"/>
<use xlink:href="#glyph-0-1" x="135.863383" y="90.005"/>
<use xlink:href="#glyph-0-14" x="141.59066" y="90.005"/>
<use xlink:href="#glyph-0-7" x="147.317938" y="90.005"/>
<use xlink:href="#glyph-0-15" x="153.045215" y="90.005"/>
<use xlink:href="#glyph-0-1" x="158.772493" y="90.005"/>
<use xlink:href="#glyph-0-16" x="164.49977" y="90.005"/>
<use xlink:href="#glyph-0-17" x="170.227048" y="90.005"/>
<use xlink:href="#glyph-0-18" x="175.954325" y="90.005"/>
<use xlink:href="#glyph-0-10" x="181.681603" y="90.005"/>
<use xlink:href="#glyph-0-8" x="187.40888" y="90.005"/>
<use xlink:href="#glyph-0-9" x="193.136158" y="90.005"/>
<use xlink:href="#glyph-0-5" x="198.863435" y="90.005"/>
<use xlink:href="#glyph-0-5" x="204.590713" y="90.005"/>
<use xlink:href="#glyph-0-10" x="210.31799" y="90.005"/>
<use xlink:href="#glyph-0-9" x="216.045268" y="90.005"/>
<use xlink:href="#glyph-0-11" x="221.772545" y="90.005"/>
<use xlink:href="#glyph-0-13" x="227.499823" y="90.005"/>
<use xlink:href="#glyph-0-11" x="233.2271" y="90.005"/>
<use xlink:href="#glyph-0-9" x="238.954378" y="90.005"/>
<use xlink:href="#glyph-0-10" x="244.681655" y="90.005"/>
<use xlink:href="#glyph-0-1" x="250.408933" y="90.005"/>
<use xlink:href="#glyph-0-19" x="256.13621" y="90.005"/>
<use xlink:href="#glyph-0-10" x="261.863488" y="90.005"/>
<use xlink:href="#glyph-0-8" x="267.590765" y="90.005"/>
<use xlink:href="#glyph-0-9" x="273.318043" y="90.005"/>
<use xlink:href="#glyph-0-3" x="279.04532" y="90.005"/>
</g>
</g>
<g clip-path="url(#clip-3)">
<path fill="none" stroke-width="0.398" stroke-linecap="butt" stroke-linejoin="miter" stroke="rgb(0%, 0%, 0%)" stroke-opacity="1" stroke-miterlimit="10" d="M 0 -0.00115625 L 173.847656 -0.00115625 " transform="matrix(1, 0, 0, -1, 0.5, 174.159)"/>
</g>
<g clip-path="url(#clip-4)">
<path fill="none" stroke-width="0.398" stroke-linecap="butt" stroke-linejoin="miter" stroke="rgb(0%, 0%, 0%)" stroke-opacity="1" stroke-miterlimit="10" d="M -0.0005625 -0.001375 L -0.0005625 173.858 " transform="matrix(1, 0, 0, -1, 174.149, 174.358)"/>
</g>
</svg>
