<?xml version="1.0" encoding="UTF-8"?>
<svg xmlns="http://www.w3.org/2000/svg" xmlns:xlink="http://www.w3.org/1999/xlink" width="31.452" height="26.772" viewBox="0 0 31.452 26.772">
<defs>
<g>
<g id="glyph-0-0">
</g>
<g id="glyph-0-1">
<path d="M 3.609375 2.625 C 3.609375 2.578125 3.609375 2.5625 3.421875 2.375 C 2.0625 1 1.71875 -1.0625 1.71875 -2.71875 C 1.71875 -4.625 2.125 -6.515625 3.46875 -7.890625 C 3.609375 -8.015625 3.609375 -8.03125 3.609375 -8.078125 C 3.609375 -8.140625 3.5625 -8.171875 3.5 -8.171875 C 3.390625 -8.171875 2.40625 -7.4375 1.765625 -6.046875 C 1.203125 -4.859375 1.078125 -3.640625 1.078125 -2.71875 C 1.078125 -1.875 1.203125 -0.5625 1.796875 0.671875 C 2.453125 2.015625 3.390625 2.71875 3.5 2.71875 C 3.5625 2.71875 3.609375 2.6875 3.609375 2.625 Z M 3.609375 2.625 "/>
</g>
<g id="glyph-0-2">
<path d="M 3.203125 -6.984375 C 3.203125 -7.234375 3.203125 -7.265625 2.953125 -7.265625 C 2.28125 -6.5625 1.3125 -6.5625 0.96875 -6.5625 L 0.96875 -6.234375 C 1.1875 -6.234375 1.828125 -6.234375 2.40625 -6.515625 L 2.40625 -0.859375 C 2.40625 -0.46875 2.359375 -0.34375 1.390625 -0.34375 L 1.03125 -0.34375 L 1.03125 0 C 1.421875 -0.03125 2.359375 -0.03125 2.796875 -0.03125 C 3.234375 -0.03125 4.1875 -0.03125 4.5625 0 L 4.5625 -0.34375 L 4.21875 -0.34375 C 3.234375 -0.34375 3.203125 -0.453125 3.203125 -0.859375 Z M 3.203125 -6.984375 "/>
</g>
<g id="glyph-0-3">
<path d="M 3.15625 -2.71875 C 3.15625 -3.578125 3.03125 -4.890625 2.4375 -6.125 C 1.78125 -7.46875 0.84375 -8.171875 0.734375 -8.171875 C 0.671875 -8.171875 0.625 -8.140625 0.625 -8.078125 C 0.625 -8.03125 0.625 -8.015625 0.828125 -7.8125 C 1.890625 -6.734375 2.515625 -5 2.515625 -2.71875 C 2.515625 -0.859375 2.109375 1.0625 0.765625 2.4375 C 0.625 2.5625 0.625 2.578125 0.625 2.625 C 0.625 2.6875 0.671875 2.71875 0.734375 2.71875 C 0.84375 2.71875 1.828125 1.984375 2.46875 0.59375 C 3.015625 -0.59375 3.15625 -1.8125 3.15625 -2.71875 Z M 3.15625 -2.71875 "/>
</g>
<g id="glyph-0-4">
<path d="M 1.390625 -0.84375 L 2.546875 -1.96875 C 4.25 -3.46875 4.890625 -4.0625 4.890625 -5.140625 C 4.890625 -6.390625 3.921875 -7.265625 2.578125 -7.265625 C 1.359375 -7.265625 0.546875 -6.265625 0.546875 -5.296875 C 0.546875 -4.671875 1.09375 -4.671875 1.125 -4.671875 C 1.3125 -4.671875 1.6875 -4.8125 1.6875 -5.25 C 1.6875 -5.546875 1.5 -5.828125 1.109375 -5.828125 C 1.03125 -5.828125 1 -5.828125 0.96875 -5.8125 C 1.21875 -6.515625 1.8125 -6.921875 2.4375 -6.921875 C 3.4375 -6.921875 3.90625 -6.046875 3.90625 -5.140625 C 3.90625 -4.28125 3.359375 -3.40625 2.765625 -2.734375 L 0.671875 -0.40625 C 0.546875 -0.28125 0.546875 -0.265625 0.546875 0 L 4.59375 0 L 4.890625 -1.890625 L 4.625 -1.890625 C 4.5625 -1.578125 4.5 -1.09375 4.390625 -0.921875 C 4.3125 -0.84375 3.59375 -0.84375 3.34375 -0.84375 Z M 1.390625 -0.84375 "/>
</g>
<g id="glyph-0-5">
<path d="M 1.671875 -2.28125 L 2.09375 -7.25 C 2.09375 -7.609375 1.796875 -7.8125 1.515625 -7.8125 C 1.234375 -7.8125 0.9375 -7.609375 0.9375 -7.25 L 1.359375 -2.296875 C 1.375 -2.125 1.390625 -2.046875 1.515625 -2.046875 C 1.625 -2.046875 1.65625 -2.09375 1.671875 -2.28125 Z M 2.09375 -0.578125 C 2.09375 -0.890625 1.828125 -1.15625 1.515625 -1.15625 C 1.203125 -1.15625 0.9375 -0.890625 0.9375 -0.578125 C 0.9375 -0.265625 1.203125 0 1.515625 0 C 1.828125 0 2.09375 -0.265625 2.09375 -0.578125 Z M 2.09375 -0.578125 "/>
</g>
<g id="glyph-1-0">
</g>
<g id="glyph-1-1">
<path d="M 7.1875 -2.515625 C 7.375 -2.515625 7.5625 -2.515625 7.5625 -2.71875 C 7.5625 -2.9375 7.375 -2.9375 7.1875 -2.9375 L 1.28125 -2.9375 C 1.09375 -2.9375 0.90625 -2.9375 0.90625 -2.71875 C 0.90625 -2.515625 1.09375 -2.515625 1.28125 -2.515625 Z M 7.1875 -2.515625 "/>
</g>
<g id="glyph-2-0">
</g>
<g id="glyph-2-1">
<path d="M 1.59375 -1.3125 C 1.625 -1.421875 1.703125 -1.734375 1.71875 -1.84375 C 1.828125 -2.28125 1.828125 -2.28125 2.015625 -2.546875 C 2.28125 -2.9375 2.65625 -3.296875 3.1875 -3.296875 C 3.46875 -3.296875 3.640625 -3.125 3.640625 -2.75 C 3.640625 -2.3125 3.3125 -1.40625 3.15625 -1.015625 C 3.046875 -0.75 3.046875 -0.703125 3.046875 -0.59375 C 3.046875 -0.140625 3.421875 0.078125 3.765625 0.078125 C 4.546875 0.078125 4.875 -1.03125 4.875 -1.140625 C 4.875 -1.21875 4.8125 -1.25 4.75 -1.25 C 4.65625 -1.25 4.640625 -1.1875 4.625 -1.109375 C 4.4375 -0.453125 4.09375 -0.140625 3.796875 -0.140625 C 3.671875 -0.140625 3.609375 -0.21875 3.609375 -0.40625 C 3.609375 -0.59375 3.671875 -0.765625 3.75 -0.96875 C 3.859375 -1.265625 4.21875 -2.1875 4.21875 -2.625 C 4.21875 -3.234375 3.796875 -3.515625 3.234375 -3.515625 C 2.578125 -3.515625 2.171875 -3.125 1.9375 -2.828125 C 1.875 -3.265625 1.53125 -3.515625 1.125 -3.515625 C 0.84375 -3.515625 0.640625 -3.328125 0.515625 -3.078125 C 0.3125 -2.703125 0.234375 -2.3125 0.234375 -2.296875 C 0.234375 -2.21875 0.296875 -2.1875 0.359375 -2.1875 C 0.46875 -2.1875 0.46875 -2.21875 0.53125 -2.4375 C 0.625 -2.828125 0.765625 -3.296875 1.09375 -3.296875 C 1.3125 -3.296875 1.359375 -3.09375 1.359375 -2.921875 C 1.359375 -2.765625 1.3125 -2.625 1.25 -2.359375 C 1.234375 -2.296875 1.109375 -1.828125 1.078125 -1.71875 L 0.78125 -0.515625 C 0.75 -0.390625 0.703125 -0.203125 0.703125 -0.171875 C 0.703125 0.015625 0.859375 0.078125 0.96875 0.078125 C 1.109375 0.078125 1.234375 -0.015625 1.28125 -0.109375 C 1.3125 -0.15625 1.375 -0.4375 1.40625 -0.59375 Z M 1.59375 -1.3125 "/>
</g>
<g id="glyph-3-0">
</g>
<g id="glyph-3-1">
<path d="M 0.953125 -0.640625 C 0.921875 -0.484375 0.859375 -0.234375 0.859375 -0.171875 C 0.859375 0.015625 1.015625 0.125 1.171875 0.125 C 1.3125 0.125 1.5 0.03125 1.578125 -0.1875 C 1.59375 -0.203125 1.71875 -0.71875 1.78125 -1 L 2.03125 -1.96875 C 2.09375 -2.21875 2.15625 -2.453125 2.21875 -2.703125 C 2.25 -2.890625 2.34375 -3.203125 2.359375 -3.25 C 2.515625 -3.59375 3.09375 -4.578125 4.140625 -4.578125 C 4.625 -4.578125 4.71875 -4.171875 4.71875 -3.8125 C 4.71875 -3.140625 4.1875 -1.75 4.015625 -1.28125 C 3.921875 -1.03125 3.90625 -0.890625 3.90625 -0.78125 C 3.90625 -0.265625 4.28125 0.125 4.796875 0.125 C 5.828125 0.125 6.234375 -1.46875 6.234375 -1.5625 C 6.234375 -1.671875 6.125 -1.671875 6.09375 -1.671875 C 5.984375 -1.671875 5.984375 -1.640625 5.9375 -1.46875 C 5.71875 -0.734375 5.359375 -0.125 4.828125 -0.125 C 4.640625 -0.125 4.5625 -0.234375 4.5625 -0.484375 C 4.5625 -0.75 4.65625 -1.015625 4.75 -1.25 C 4.96875 -1.828125 5.421875 -3.03125 5.421875 -3.65625 C 5.421875 -4.390625 4.953125 -4.828125 4.171875 -4.828125 C 3.1875 -4.828125 2.65625 -4.125 2.46875 -3.875 C 2.40625 -4.484375 1.96875 -4.828125 1.46875 -4.828125 C 0.953125 -4.828125 0.75 -4.390625 0.640625 -4.203125 C 0.46875 -3.828125 0.3125 -3.1875 0.3125 -3.140625 C 0.3125 -3.03125 0.421875 -3.03125 0.453125 -3.03125 C 0.5625 -3.03125 0.5625 -3.046875 0.625 -3.28125 C 0.8125 -4.0625 1.03125 -4.578125 1.421875 -4.578125 C 1.640625 -4.578125 1.765625 -4.4375 1.765625 -4.078125 C 1.765625 -3.84375 1.734375 -3.734375 1.59375 -3.15625 Z M 0.953125 -0.640625 "/>
</g>
</g>
<clipPath id="clip-0">
<path clip-rule="nonzero" d="M 5 15 L 14 15 L 14 26.773438 L 5 26.773438 Z M 5 15 "/>
</clipPath>
<clipPath id="clip-1">
<path clip-rule="nonzero" d="M 20 15 L 27 15 L 27 26.773438 L 20 26.773438 Z M 20 15 "/>
</clipPath>
</defs>
<g fill="rgb(0%, 0%, 0%)" fill-opacity="1">
<use xlink:href="#glyph-0-1" x="1.696" y="8.682"/>
</g>
<g fill="rgb(0%, 0%, 0%)" fill-opacity="1">
<use xlink:href="#glyph-1-1" x="5.938" y="8.682"/>
</g>
<g fill="rgb(0%, 0%, 0%)" fill-opacity="1">
<use xlink:href="#glyph-0-2" x="14.423" y="8.682"/>
<use xlink:href="#glyph-0-3" x="19.87755" y="8.682"/>
</g>
<g fill="rgb(0%, 0%, 0%)" fill-opacity="1">
<use xlink:href="#glyph-2-1" x="24.12" y="4.723"/>
</g>
<path fill="none" stroke-width="0.436" stroke-linecap="butt" stroke-linejoin="miter" stroke="rgb(0%, 0%, 0%)" stroke-opacity="1" stroke-miterlimit="10" d="M -0.0006875 -0.0019375 L 28.061812 -0.0019375 " transform="matrix(1, 0, 0, -1, 1.696, 13.334)"/>
<g clip-path="url(#clip-0)">
<g fill="rgb(0%, 0%, 0%)" fill-opacity="1">
<use xlink:href="#glyph-0-1" x="3.967" y="23.545"/>
<use xlink:href="#glyph-0-4" x="8.209549" y="23.545"/>
</g>
</g>
<g fill="rgb(0%, 0%, 0%)" fill-opacity="1">
<use xlink:href="#glyph-3-1" x="13.664" y="23.545"/>
</g>
<g clip-path="url(#clip-1)">
<g fill="rgb(0%, 0%, 0%)" fill-opacity="1">
<use xlink:href="#glyph-0-3" x="20.212" y="23.545"/>
<use xlink:href="#glyph-0-5" x="24.454549" y="23.545"/>
</g>
</g>
</svg>
