<?xml version="1.0" encoding="UTF-8"?>
<svg xmlns="http://www.w3.org/2000/svg" xmlns:xlink="http://www.w3.org/1999/xlink" width="75.344" height="40.829" viewBox="0 0 75.344 40.829">
<defs>
<g>
<g id="glyph-0-0">
</g>
<g id="glyph-0-1">
<path d="M 3.203125 -6.984375 C 3.203125 -7.234375 3.203125 -7.265625 2.953125 -7.265625 C 2.28125 -6.5625 1.3125 -6.5625 0.96875 -6.5625 L 0.96875 -6.234375 C 1.1875 -6.234375 1.828125 -6.234375 2.40625 -6.515625 L 2.40625 -0.859375 C 2.40625 -0.46875 2.359375 -0.34375 1.390625 -0.34375 L 1.03125 -0.34375 L 1.03125 0 C 1.421875 -0.03125 2.359375 -0.03125 2.796875 -0.03125 C 3.234375 -0.03125 4.1875 -0.03125 4.5625 0 L 4.5625 -0.34375 L 4.21875 -0.34375 C 3.234375 -0.34375 3.203125 -0.453125 3.203125 -0.859375 Z M 3.203125 -6.984375 "/>
</g>
<g id="glyph-0-2">
<path d="M 4.453125 -2.515625 L 7.5 -2.515625 C 7.65625 -2.515625 7.859375 -2.515625 7.859375 -2.71875 C 7.859375 -2.9375 7.65625 -2.9375 7.5 -2.9375 L 4.453125 -2.9375 L 4.453125 -6 C 4.453125 -6.15625 4.453125 -6.359375 4.25 -6.359375 C 4.03125 -6.359375 4.03125 -6.15625 4.03125 -6 L 4.03125 -2.9375 L 0.96875 -2.9375 C 0.8125 -2.9375 0.609375 -2.9375 0.609375 -2.71875 C 0.609375 -2.515625 0.8125 -2.515625 0.96875 -2.515625 L 4.03125 -2.515625 L 4.03125 0.546875 C 4.03125 0.703125 4.03125 0.90625 4.25 0.90625 C 4.453125 0.90625 4.453125 0.703125 4.453125 0.546875 Z M 4.453125 -2.515625 "/>
</g>
<g id="glyph-1-0">
</g>
<g id="glyph-1-1">
<path d="M 5.078125 23.578125 L 2.71875 12.65625 L 1.28125 14.890625 C 1.203125 15 1.203125 15.015625 1.203125 15.03125 C 1.203125 15.078125 1.359375 15.1875 1.359375 15.203125 L 2.109375 14.03125 L 4.625 25.734375 C 4.984375 25.734375 5.015625 25.734375 5.078125 25.453125 L 11.078125 0.015625 C 11.109375 -0.0625 11.125 -0.15625 11.125 -0.21875 C 11.125 -0.34375 11.03125 -0.4375 10.90625 -0.4375 C 10.734375 -0.4375 10.703125 -0.296875 10.671875 -0.140625 Z M 5.078125 23.578125 "/>
</g>
<g id="glyph-2-0">
</g>
<g id="glyph-2-1">
<path d="M 2.9375 -3.15625 C 2.703125 -3.09375 2.671875 -2.90625 2.671875 -2.8125 C 2.671875 -2.59375 2.828125 -2.4375 3.046875 -2.4375 C 3.265625 -2.4375 3.421875 -2.578125 3.421875 -2.828125 C 3.421875 -3.3125 2.890625 -3.546875 2.140625 -3.546875 C 1.03125 -3.546875 0.28125 -2.671875 0.28125 -1.71875 C 0.28125 -0.703125 1.109375 0.078125 2.109375 0.078125 C 3.234375 0.078125 3.515625 -0.859375 3.515625 -0.953125 C 3.515625 -1.046875 3.40625 -1.046875 3.390625 -1.046875 C 3.328125 -1.046875 3.296875 -1.046875 3.265625 -0.96875 C 3.21875 -0.796875 2.984375 -0.171875 2.1875 -0.171875 C 1.703125 -0.171875 0.984375 -0.546875 0.984375 -1.734375 C 0.984375 -2.875 1.578125 -3.3125 2.15625 -3.3125 C 2.234375 -3.3125 2.65625 -3.3125 2.9375 -3.15625 Z M 2.9375 -3.15625 "/>
</g>
<g id="glyph-2-2">
<path d="M 3.984375 -1.703125 C 3.984375 -2.6875 3.15625 -3.546875 2.109375 -3.546875 C 1.0625 -3.546875 0.234375 -2.6875 0.234375 -1.703125 C 0.234375 -0.703125 1.09375 0.078125 2.109375 0.078125 C 3.140625 0.078125 3.984375 -0.703125 3.984375 -1.703125 Z M 2.109375 -0.171875 C 1.6875 -0.171875 1.34375 -0.375 1.171875 -0.65625 C 0.96875 -0.984375 0.953125 -1.375 0.953125 -1.765625 C 0.953125 -2.078125 0.953125 -2.546875 1.1875 -2.890625 C 1.40625 -3.171875 1.734375 -3.328125 2.109375 -3.328125 C 2.53125 -3.328125 2.875 -3.125 3.046875 -2.859375 C 3.265625 -2.515625 3.28125 -2.09375 3.28125 -1.765625 C 3.28125 -1.40625 3.265625 -0.96875 3.03125 -0.625 C 2.828125 -0.3125 2.46875 -0.171875 2.109375 -0.171875 Z M 2.109375 -0.171875 "/>
</g>
<g id="glyph-2-3">
<path d="M 2.84375 -3.34375 C 2.84375 -3.46875 2.84375 -3.546875 2.734375 -3.546875 C 2.6875 -3.546875 2.671875 -3.546875 2.546875 -3.421875 C 2.53125 -3.421875 2.453125 -3.34375 2.4375 -3.34375 C 2.421875 -3.34375 2.40625 -3.34375 2.359375 -3.375 C 2.234375 -3.46875 2 -3.546875 1.640625 -3.546875 C 0.53125 -3.546875 0.28125 -2.953125 0.28125 -2.5625 C 0.28125 -2.171875 0.578125 -1.9375 0.59375 -1.90625 C 0.921875 -1.671875 1.09375 -1.640625 1.640625 -1.546875 C 2.015625 -1.46875 2.625 -1.359375 2.625 -0.828125 C 2.625 -0.515625 2.421875 -0.140625 1.6875 -0.140625 C 0.875 -0.140625 0.640625 -0.765625 0.546875 -1.1875 C 0.515625 -1.296875 0.5 -1.328125 0.40625 -1.328125 C 0.28125 -1.328125 0.28125 -1.265625 0.28125 -1.109375 L 0.28125 -0.125 C 0.28125 0 0.28125 0.078125 0.375 0.078125 C 0.4375 0.078125 0.4375 0.078125 0.578125 -0.078125 C 0.625 -0.125 0.703125 -0.21875 0.75 -0.265625 C 1.109375 0.0625 1.484375 0.078125 1.6875 0.078125 C 2.703125 0.078125 3.046875 -0.5 3.046875 -1.03125 C 3.046875 -1.40625 2.828125 -1.96875 1.875 -2.140625 C 1.8125 -2.15625 1.359375 -2.234375 1.328125 -2.234375 C 1.078125 -2.296875 0.703125 -2.46875 0.703125 -2.78125 C 0.703125 -3.015625 0.890625 -3.359375 1.640625 -3.359375 C 2.53125 -3.359375 2.578125 -2.703125 2.59375 -2.484375 C 2.59375 -2.421875 2.65625 -2.390625 2.703125 -2.390625 C 2.84375 -2.390625 2.84375 -2.453125 2.84375 -2.59375 Z M 2.84375 -3.34375 "/>
</g>
<g id="glyph-2-4">
<path d="M 1.546875 -4.90625 C 1.546875 -5.140625 1.375 -5.359375 1.109375 -5.359375 C 0.875 -5.359375 0.671875 -5.171875 0.671875 -4.921875 C 0.671875 -4.640625 0.90625 -4.46875 1.109375 -4.46875 C 1.390625 -4.46875 1.546875 -4.703125 1.546875 -4.90625 Z M 0.359375 -3.421875 L 0.359375 -3.15625 C 0.875 -3.15625 0.9375 -3.109375 0.9375 -2.71875 L 0.9375 -0.625 C 0.9375 -0.265625 0.84375 -0.265625 0.328125 -0.265625 L 0.328125 0 C 0.640625 -0.03125 1.09375 -0.03125 1.21875 -0.03125 C 1.3125 -0.03125 1.796875 -0.03125 2.078125 0 L 2.078125 -0.265625 C 1.546875 -0.265625 1.515625 -0.296875 1.515625 -0.609375 L 1.515625 -3.515625 Z M 0.359375 -3.421875 "/>
</g>
<g id="glyph-2-5">
<path d="M 3.875 -2.421875 C 3.875 -3.078125 3.5625 -3.515625 2.734375 -3.515625 C 1.9375 -3.515625 1.578125 -2.9375 1.484375 -2.75 L 1.484375 -3.515625 L 0.328125 -3.421875 L 0.328125 -3.15625 C 0.875 -3.15625 0.9375 -3.109375 0.9375 -2.71875 L 0.9375 -0.625 C 0.9375 -0.265625 0.84375 -0.265625 0.328125 -0.265625 L 0.328125 0 C 0.671875 -0.03125 1.015625 -0.03125 1.234375 -0.03125 C 1.46875 -0.03125 1.796875 -0.03125 2.140625 0 L 2.140625 -0.265625 C 1.640625 -0.265625 1.53125 -0.265625 1.53125 -0.625 L 1.53125 -2.0625 C 1.53125 -2.90625 2.171875 -3.296875 2.65625 -3.296875 C 3.140625 -3.296875 3.265625 -2.953125 3.265625 -2.453125 L 3.265625 -0.625 C 3.265625 -0.265625 3.171875 -0.265625 2.65625 -0.265625 L 2.65625 0 C 3 -0.03125 3.359375 -0.03125 3.5625 -0.03125 C 3.796875 -0.03125 4.140625 -0.03125 4.484375 0 L 4.484375 -0.265625 C 3.96875 -0.265625 3.875 -0.265625 3.875 -0.625 Z M 3.875 -2.421875 "/>
</g>
<g id="glyph-3-0">
</g>
<g id="glyph-3-1">
<path d="M 3.21875 -1.125 L 3 -1.125 C 2.984375 -1.03125 2.921875 -0.640625 2.84375 -0.578125 C 2.796875 -0.53125 2.3125 -0.53125 2.21875 -0.53125 L 1.109375 -0.53125 L 1.875 -1.15625 C 2.078125 -1.328125 2.609375 -1.703125 2.796875 -1.890625 C 2.96875 -2.0625 3.21875 -2.375 3.21875 -2.796875 C 3.21875 -3.546875 2.546875 -3.984375 1.734375 -3.984375 C 0.96875 -3.984375 0.4375 -3.46875 0.4375 -2.90625 C 0.4375 -2.609375 0.6875 -2.5625 0.75 -2.5625 C 0.90625 -2.5625 1.078125 -2.671875 1.078125 -2.890625 C 1.078125 -3.015625 1 -3.21875 0.734375 -3.21875 C 0.875 -3.515625 1.234375 -3.75 1.65625 -3.75 C 2.28125 -3.75 2.609375 -3.28125 2.609375 -2.796875 C 2.609375 -2.375 2.328125 -1.9375 1.921875 -1.546875 L 0.5 -0.25 C 0.4375 -0.1875 0.4375 -0.1875 0.4375 0 L 3.03125 0 Z M 3.21875 -1.125 "/>
</g>
<g id="glyph-4-0">
</g>
<g id="glyph-4-1">
<path d="M 3.6875 -5.421875 C 3.6875 -5.515625 3.59375 -5.53125 3.546875 -5.53125 C 3.453125 -5.53125 3.4375 -5.484375 3.40625 -5.359375 L 2.953125 -3.53125 C 1.546875 -3.46875 0.40625 -2.40625 0.40625 -1.375 C 0.40625 -0.578125 1.09375 0.046875 2.046875 0.09375 C 1.984375 0.328125 1.921875 0.59375 1.859375 0.84375 C 1.765625 1.21875 1.703125 1.5 1.703125 1.53125 C 1.703125 1.53125 1.703125 1.625 1.8125 1.625 C 1.921875 1.625 1.921875 1.578125 1.96875 1.4375 L 2.296875 0.09375 C 3.71875 0.03125 4.84375 -1.015625 4.84375 -2.0625 C 4.84375 -2.96875 4.046875 -3.484375 3.21875 -3.515625 Z M 3.15625 -3.3125 C 3.75 -3.265625 4.28125 -2.9375 4.28125 -2.203125 C 4.28125 -1.4375 3.734375 -0.265625 2.359375 -0.140625 Z M 2.109375 -0.125 C 1.84375 -0.140625 0.984375 -0.265625 0.984375 -1.234375 C 0.984375 -2.09375 1.625 -3.171875 2.890625 -3.296875 Z M 2.109375 -0.125 "/>
</g>
<g id="glyph-4-2">
<path d="M 3.8125 -3.90625 C 3.8125 -4.90625 3.4375 -5.609375 2.765625 -5.609375 C 1.578125 -5.609375 0.34375 -3.390625 0.34375 -1.625 C 0.34375 -0.859375 0.609375 0.078125 1.40625 0.078125 C 2.5625 0.078125 3.8125 -2.078125 3.8125 -3.90625 Z M 1.25 -2.90625 C 1.625 -4.515625 2.265625 -5.390625 2.765625 -5.390625 C 3.25 -5.390625 3.25 -4.53125 3.25 -4.375 C 3.25 -3.9375 3.09375 -3.296875 3 -2.90625 Z M 2.9375 -2.625 C 2.5625 -1.03125 1.90625 -0.140625 1.40625 -0.140625 C 0.984375 -0.140625 0.9375 -0.78125 0.9375 -1.140625 C 0.9375 -1.65625 1.078125 -2.296875 1.171875 -2.625 Z M 2.9375 -2.625 "/>
</g>
<g id="glyph-5-0">
</g>
<g id="glyph-5-1">
<path d="M 3.375 -2.359375 C 3.15625 -2.296875 3.109375 -2.125 3.109375 -2.03125 C 3.109375 -1.84375 3.265625 -1.796875 3.34375 -1.796875 C 3.53125 -1.796875 3.703125 -1.9375 3.703125 -2.171875 C 3.703125 -2.5 3.34375 -2.640625 3.046875 -2.640625 C 2.640625 -2.640625 2.40625 -2.328125 2.34375 -2.21875 C 2.265625 -2.375 2.03125 -2.640625 1.578125 -2.640625 C 0.890625 -2.640625 0.484375 -1.921875 0.484375 -1.71875 C 0.484375 -1.6875 0.515625 -1.640625 0.59375 -1.640625 C 0.6875 -1.640625 0.703125 -1.671875 0.71875 -1.71875 C 0.875 -2.203125 1.28125 -2.4375 1.5625 -2.4375 C 1.859375 -2.4375 1.953125 -2.25 1.953125 -2.046875 C 1.953125 -1.984375 1.953125 -1.921875 1.90625 -1.734375 C 1.765625 -1.1875 1.640625 -0.640625 1.609375 -0.5625 C 1.515625 -0.34375 1.296875 -0.140625 1.046875 -0.140625 C 1.015625 -0.140625 0.84375 -0.140625 0.703125 -0.234375 C 0.9375 -0.3125 0.96875 -0.5 0.96875 -0.546875 C 0.96875 -0.703125 0.84375 -0.78125 0.71875 -0.78125 C 0.5625 -0.78125 0.375 -0.65625 0.375 -0.40625 C 0.375 -0.0625 0.75 0.0625 1.03125 0.0625 C 1.375 0.0625 1.625 -0.171875 1.734375 -0.359375 C 1.859375 -0.109375 2.140625 0.0625 2.484375 0.0625 C 3.1875 0.0625 3.578125 -0.671875 3.578125 -0.859375 C 3.578125 -0.875 3.578125 -0.953125 3.46875 -0.953125 C 3.390625 -0.953125 3.375 -0.90625 3.359375 -0.84375 C 3.1875 -0.328125 2.765625 -0.140625 2.5 -0.140625 C 2.28125 -0.140625 2.125 -0.265625 2.125 -0.515625 C 2.125 -0.640625 2.140625 -0.765625 2.203125 -0.96875 L 2.390625 -1.75 C 2.453125 -1.984375 2.484375 -2.09375 2.609375 -2.234375 C 2.6875 -2.328125 2.84375 -2.4375 3.03125 -2.4375 C 3.0625 -2.4375 3.234375 -2.4375 3.375 -2.359375 Z M 3.375 -2.359375 "/>
</g>
<g id="glyph-5-2">
<path d="M 3.5625 -2.296875 C 3.578125 -2.34375 3.578125 -2.359375 3.578125 -2.375 C 3.578125 -2.453125 3.53125 -2.578125 3.375 -2.578125 C 3.265625 -2.578125 3.171875 -2.515625 3.125 -2.421875 C 3.09375 -2.390625 3.0625 -2.203125 3.03125 -2.09375 L 2.71875 -0.84375 C 2.671875 -0.671875 2.65625 -0.578125 2.40625 -0.359375 C 2.34375 -0.296875 2.15625 -0.140625 1.890625 -0.140625 C 1.453125 -0.140625 1.453125 -0.53125 1.453125 -0.640625 C 1.453125 -0.890625 1.53125 -1.171875 1.796875 -1.828125 C 1.84375 -1.96875 1.859375 -2.015625 1.859375 -2.125 C 1.859375 -2.453125 1.5625 -2.640625 1.265625 -2.640625 C 0.65625 -2.640625 0.359375 -1.84375 0.359375 -1.71875 C 0.359375 -1.6875 0.390625 -1.640625 0.46875 -1.640625 C 0.5625 -1.640625 0.578125 -1.671875 0.59375 -1.71875 C 0.765625 -2.296875 1.078125 -2.4375 1.25 -2.4375 C 1.359375 -2.4375 1.40625 -2.359375 1.40625 -2.21875 C 1.40625 -2.09375 1.328125 -1.890625 1.265625 -1.734375 C 1.046875 -1.203125 0.984375 -0.9375 0.984375 -0.71875 C 0.984375 -0.15625 1.40625 0.0625 1.875 0.0625 C 1.953125 0.0625 2.234375 0.0625 2.5625 -0.21875 C 2.484375 0.109375 2.421875 0.34375 2.140625 0.65625 C 2.03125 0.78125 1.765625 1.015625 1.40625 1.015625 C 1.34375 1.015625 1.09375 1.015625 0.953125 0.859375 C 1.21875 0.8125 1.25 0.578125 1.25 0.53125 C 1.25 0.359375 1.125 0.296875 1 0.296875 C 0.859375 0.296875 0.65625 0.421875 0.65625 0.6875 C 0.65625 0.984375 0.9375 1.21875 1.40625 1.21875 C 2.046875 1.21875 2.8125 0.75 2.984375 0 Z M 3.5625 -2.296875 "/>
</g>
</g>
<clipPath id="clip-0">
<path clip-rule="nonzero" d="M 2 14 L 13 14 L 13 40.828125 L 2 40.828125 Z M 2 14 "/>
</clipPath>
</defs>
<g fill="rgb(0%, 0%, 0%)" fill-opacity="1">
<use xlink:href="#glyph-0-1" x="34.945" y="7.531"/>
</g>
<path fill="none" stroke-width="0.436" stroke-linecap="butt" stroke-linejoin="miter" stroke="rgb(0%, 0%, 0%)" stroke-opacity="1" stroke-miterlimit="10" d="M -0.0006875 -0.00059375 L 71.952438 -0.00059375 " transform="matrix(1, 0, 0, -1, 1.696, 12.183)"/>
<g clip-path="url(#clip-0)">
<g fill="rgb(0%, 0%, 0%)" fill-opacity="1">
<use xlink:href="#glyph-1-1" x="1.696" y="14.583"/>
</g>
</g>
<path fill="none" stroke-width="0.436" stroke-linecap="butt" stroke-linejoin="miter" stroke="rgb(0%, 0%, 0%)" stroke-opacity="1" stroke-miterlimit="10" d="M 0.00046875 0.00171875 L 61.043437 0.00171875 " transform="matrix(1, 0, 0, -1, 12.605, 14.365)"/>
<g fill="rgb(0%, 0%, 0%)" fill-opacity="1">
<use xlink:href="#glyph-2-1" x="13.8" y="25.028"/>
<use xlink:href="#glyph-2-2" x="17.563481" y="25.028"/>
<use xlink:href="#glyph-2-3" x="21.797995" y="25.028"/>
</g>
<g fill="rgb(0%, 0%, 0%)" fill-opacity="1">
<use xlink:href="#glyph-3-1" x="25.138" y="22.759"/>
</g>
<g fill="rgb(0%, 0%, 0%)" fill-opacity="1">
<use xlink:href="#glyph-4-1" x="30.701" y="25.028"/>
</g>
<path fill="none" stroke-width="0.436" stroke-linecap="butt" stroke-linejoin="miter" stroke="rgb(0%, 0%, 0%)" stroke-opacity="1" stroke-miterlimit="10" d="M 0.00078125 -0.001375 L 21.934375 -0.001375 " transform="matrix(1, 0, 0, -1, 13.8, 27.233)"/>
<g fill="rgb(0%, 0%, 0%)" fill-opacity="1">
<use xlink:href="#glyph-4-2" x="20.457" y="34.009"/>
</g>
<g fill="rgb(0%, 0%, 0%)" fill-opacity="1">
<use xlink:href="#glyph-3-1" x="24.643" y="31.739"/>
</g>
<g fill="rgb(0%, 0%, 0%)" fill-opacity="1">
<use xlink:href="#glyph-5-1" x="24.408" y="36.001"/>
</g>
<g fill="rgb(0%, 0%, 0%)" fill-opacity="1">
<use xlink:href="#glyph-0-2" x="39.354" y="29.96"/>
</g>
<g fill="rgb(0%, 0%, 0%)" fill-opacity="1">
<use xlink:href="#glyph-2-3" x="51.459" y="25.028"/>
<use xlink:href="#glyph-2-4" x="54.799269" y="25.028"/>
<use xlink:href="#glyph-2-5" x="57.151245" y="25.028"/>
</g>
<g fill="rgb(0%, 0%, 0%)" fill-opacity="1">
<use xlink:href="#glyph-3-1" x="61.856" y="22.146"/>
</g>
<g fill="rgb(0%, 0%, 0%)" fill-opacity="1">
<use xlink:href="#glyph-4-1" x="67.419" y="25.028"/>
</g>
<path fill="none" stroke-width="0.436" stroke-linecap="butt" stroke-linejoin="miter" stroke="rgb(0%, 0%, 0%)" stroke-opacity="1" stroke-miterlimit="10" d="M 0.0019375 -0.001375 L 20.994125 -0.001375 " transform="matrix(1, 0, 0, -1, 51.459, 27.233)"/>
<g fill="rgb(0%, 0%, 0%)" fill-opacity="1">
<use xlink:href="#glyph-4-2" x="57.732" y="34.009"/>
</g>
<g fill="rgb(0%, 0%, 0%)" fill-opacity="1">
<use xlink:href="#glyph-3-1" x="61.918" y="31.739"/>
</g>
<g fill="rgb(0%, 0%, 0%)" fill-opacity="1">
<use xlink:href="#glyph-5-2" x="61.683" y="36.001"/>
</g>
</svg>
