<?xml version="1.0" encoding="UTF-8"?>
<svg xmlns="http://www.w3.org/2000/svg" xmlns:xlink="http://www.w3.org/1999/xlink" width="11.741" height="55.328" viewBox="0 0 11.741 55.328">
<defs>
<g>
<g id="glyph-0-0">
</g>
<g id="glyph-0-1">
<path d="M 6.359375 18.765625 C 6.359375 12.09375 5.171875 8.1875 4.828125 7.09375 C 4.09375 4.671875 2.875 2.109375 1.0625 -0.125 C 0.890625 -0.328125 0.84375 -0.375 0.8125 -0.40625 C 0.78125 -0.421875 0.78125 -0.421875 0.59375 -0.421875 C 0.4375 -0.421875 0.34375 -0.421875 0.34375 -0.3125 C 0.34375 -0.296875 0.34375 -0.265625 0.484375 -0.078125 C 4.28125 5.21875 5.140625 11.765625 5.140625 19.15625 C 5.140625 19.296875 5.21875 19.296875 5.453125 19.296875 L 6.046875 19.296875 C 6.28125 19.296875 6.34375 19.296875 6.359375 19.1875 Z M 6.359375 18.765625 "/>
</g>
<g id="glyph-0-2">
<path d="M 6.359375 0.1875 C 6.359375 -0.09375 6.34375 -0.109375 6.046875 -0.109375 L 5.453125 -0.109375 C 5.15625 -0.109375 5.140625 -0.09375 5.140625 0.1875 L 5.140625 6.359375 C 5.140625 6.640625 5.15625 6.65625 5.453125 6.65625 L 6.046875 6.65625 C 6.34375 6.65625 6.359375 6.640625 6.359375 6.359375 Z M 6.359375 0.1875 "/>
</g>
<g id="glyph-0-3">
<path d="M 6.359375 -0.421875 C 6.34375 -0.546875 6.28125 -0.546875 6.046875 -0.546875 L 5.453125 -0.546875 C 5.21875 -0.546875 5.140625 -0.546875 5.140625 -0.390625 C 5.140625 0.734375 5.140625 3.328125 4.859375 6.046875 C 4.265625 11.6875 2.8125 15.578125 0.421875 18.9375 C 0.34375 19.03125 0.34375 19.046875 0.34375 19.078125 C 0.34375 19.1875 0.4375 19.1875 0.59375 19.1875 C 0.78125 19.1875 0.796875 19.1875 0.8125 19.15625 C 0.859375 19.125 2.25 17.53125 3.34375 15.34375 C 4.78125 12.46875 5.6875 9.15625 6.09375 5.1875 C 6.125 4.859375 6.359375 2.578125 6.359375 0 Z M 6.359375 -0.421875 "/>
</g>
</g>
</defs>
<g fill="rgb(0%, 0%, 0%)" fill-opacity="1">
<use xlink:href="#glyph-0-1" x="1.696" y="0.937"/>
</g>
<g fill="rgb(0%, 0%, 0%)" fill-opacity="1">
<use xlink:href="#glyph-0-2" x="1.696" y="20.137"/>
</g>
<g fill="rgb(0%, 0%, 0%)" fill-opacity="1">
<use xlink:href="#glyph-0-2" x="1.696" y="26.682"/>
</g>
<g fill="rgb(0%, 0%, 0%)" fill-opacity="1">
<use xlink:href="#glyph-0-3" x="1.696" y="33.664"/>
</g>
</svg>
