<?xml version="1.0" encoding="UTF-8"?>
<svg xmlns="http://www.w3.org/2000/svg" xmlns:xlink="http://www.w3.org/1999/xlink" width="34.659" height="34.375" viewBox="0 0 34.659 34.375">
<defs>
<g>
<g id="glyph-0-0">
</g>
<g id="glyph-0-1">
<path d="M 1.484375 31.21875 C 1.953125 31.203125 2.1875 30.875 2.1875 30.53125 C 2.1875 30.046875 1.84375 29.828125 1.5 29.828125 C 1.15625 29.828125 0.796875 30.03125 0.796875 30.53125 C 0.796875 31.265625 1.515625 31.875 2.390625 31.875 C 4.578125 31.875 5.390625 28.515625 6.40625 24.359375 C 7.515625 19.828125 8.453125 15.25 9.21875 10.640625 C 9.75 7.59375 10.28125 4.71875 10.765625 2.875 C 10.9375 2.171875 11.4375 0.3125 11.984375 0.3125 C 12.4375 0.3125 12.796875 0.59375 12.859375 0.640625 C 12.375 0.671875 12.140625 0.984375 12.140625 1.34375 C 12.140625 1.828125 12.5 2.046875 12.828125 2.046875 C 13.171875 2.046875 13.53125 1.84375 13.53125 1.328125 C 13.53125 0.5625 12.75 0 11.96875 0 C 10.875 0 10.0625 1.5625 9.28125 4.484375 C 9.234375 4.640625 7.28125 11.84375 5.703125 21.234375 C 5.328125 23.421875 4.921875 25.8125 4.453125 27.8125 C 4.1875 28.859375 3.53125 31.5625 2.359375 31.5625 C 1.84375 31.5625 1.5 31.21875 1.484375 31.21875 Z M 1.484375 31.21875 "/>
</g>
<g id="glyph-1-0">
</g>
<g id="glyph-1-1">
<path d="M 4.375 -2.90625 C 4.515625 -2.90625 4.578125 -2.90625 4.671875 -2.96875 C 4.75 -3.046875 4.796875 -3.15625 4.796875 -3.21875 C 4.796875 -3.4375 4.59375 -3.4375 4.453125 -3.4375 L 2.5 -3.4375 C 1.265625 -3.4375 0.328125 -2.171875 0.328125 -1.21875 C 0.328125 -0.4375 0.890625 0.078125 1.625 0.078125 C 2.625 0.078125 3.71875 -0.890625 3.71875 -2.078125 C 3.71875 -2.5 3.5625 -2.75 3.484375 -2.90625 Z M 1.640625 -0.140625 C 1.234375 -0.140625 0.890625 -0.40625 0.890625 -0.984375 C 0.890625 -1.328125 1.078125 -2.90625 2.359375 -2.90625 C 3.140625 -2.90625 3.140625 -2.3125 3.140625 -2.15625 C 3.140625 -1.328125 2.578125 -0.140625 1.640625 -0.140625 Z M 1.640625 -0.140625 "/>
</g>
<g id="glyph-2-0">
</g>
<g id="glyph-2-1">
<path d="M 5.21875 -1.8125 C 5.21875 -2.421875 4.859375 -2.640625 4.265625 -2.640625 C 3.703125 -2.640625 3.375 -2.328125 3.25 -2.09375 C 3.109375 -2.640625 2.5 -2.640625 2.328125 -2.640625 C 1.796875 -2.640625 1.453125 -2.34375 1.3125 -2.09375 L 1.296875 -2.09375 L 1.296875 -2.640625 L 0.375 -2.578125 L 0.375 -2.34375 C 0.796875 -2.34375 0.84375 -2.296875 0.84375 -2 L 0.84375 -0.484375 C 0.84375 -0.234375 0.796875 -0.234375 0.375 -0.234375 L 0.375 0 C 0.421875 0 0.828125 -0.03125 1.09375 -0.03125 C 1.359375 -0.03125 1.765625 0 1.8125 0 L 1.8125 -0.234375 C 1.40625 -0.234375 1.34375 -0.234375 1.34375 -0.484375 L 1.34375 -1.546875 C 1.34375 -2.203125 1.921875 -2.453125 2.28125 -2.453125 C 2.6875 -2.453125 2.78125 -2.1875 2.78125 -1.8125 L 2.78125 -0.484375 C 2.78125 -0.234375 2.71875 -0.234375 2.3125 -0.234375 L 2.3125 0 C 2.359375 0 2.765625 -0.03125 3.03125 -0.03125 C 3.296875 -0.03125 3.6875 0 3.75 0 L 3.75 -0.234375 C 3.34375 -0.234375 3.28125 -0.234375 3.28125 -0.484375 L 3.28125 -1.546875 C 3.28125 -2.203125 3.84375 -2.453125 4.21875 -2.453125 C 4.625 -2.453125 4.71875 -2.1875 4.71875 -1.8125 L 4.71875 -0.484375 C 4.71875 -0.234375 4.65625 -0.234375 4.25 -0.234375 L 4.25 0 C 4.28125 0 4.6875 -0.03125 4.96875 -0.03125 C 5.234375 -0.03125 5.625 0 5.6875 0 L 5.6875 -0.234375 C 5.265625 -0.234375 5.21875 -0.234375 5.21875 -0.484375 Z M 5.21875 -1.8125 "/>
</g>
<g id="glyph-2-2">
<path d="M 2.84375 -1.78125 C 2.84375 -2.34375 2.28125 -2.671875 1.609375 -2.671875 C 1.3125 -2.671875 0.609375 -2.640625 0.609375 -2.140625 C 0.609375 -1.96875 0.71875 -1.84375 0.90625 -1.84375 C 1.078125 -1.84375 1.1875 -1.96875 1.1875 -2.125 C 1.1875 -2.234375 1.140625 -2.34375 1.03125 -2.390625 C 1.234375 -2.484375 1.53125 -2.484375 1.59375 -2.484375 C 2.015625 -2.484375 2.34375 -2.21875 2.34375 -1.765625 L 2.34375 -1.609375 C 2.078125 -1.609375 1.59375 -1.59375 1.15625 -1.4375 C 0.765625 -1.296875 0.390625 -1.03125 0.390625 -0.625 C 0.390625 -0.09375 1.015625 0.0625 1.484375 0.0625 C 1.984375 0.0625 2.28125 -0.1875 2.421875 -0.421875 C 2.453125 -0.109375 2.65625 0.03125 2.859375 0.03125 C 2.890625 0.03125 3.53125 0.03125 3.53125 -0.53125 L 3.53125 -0.875 L 3.3125 -0.875 L 3.3125 -0.546875 C 3.3125 -0.484375 3.3125 -0.21875 3.078125 -0.21875 C 2.84375 -0.21875 2.84375 -0.484375 2.84375 -0.546875 Z M 2.34375 -0.84375 C 2.34375 -0.234375 1.734375 -0.125 1.53125 -0.125 C 1.21875 -0.125 0.90625 -0.328125 0.90625 -0.625 C 0.90625 -0.96875 1.234375 -1.40625 2.34375 -1.4375 Z M 2.34375 -0.84375 "/>
</g>
<g id="glyph-2-3">
<path d="M 2.125 -1.40625 L 2.71875 -2.015625 C 3.03125 -2.328125 3.359375 -2.34375 3.515625 -2.34375 L 3.515625 -2.578125 C 3.4375 -2.578125 3.171875 -2.5625 2.984375 -2.5625 C 2.765625 -2.5625 2.40625 -2.578125 2.375 -2.578125 L 2.375 -2.34375 C 2.4375 -2.328125 2.484375 -2.28125 2.484375 -2.21875 C 2.484375 -2.109375 2.4375 -2.0625 2.265625 -1.859375 L 1.96875 -1.5625 L 1.453125 -2.125 C 1.40625 -2.171875 1.390625 -2.1875 1.390625 -2.21875 C 1.390625 -2.3125 1.484375 -2.34375 1.5625 -2.34375 L 1.5625 -2.578125 C 1.40625 -2.5625 1 -2.5625 0.859375 -2.5625 C 0.734375 -2.5625 0.375 -2.5625 0.25 -2.578125 L 0.25 -2.34375 C 0.59375 -2.34375 0.703125 -2.328125 0.84375 -2.171875 L 1.640625 -1.328125 C 1.671875 -1.28125 1.6875 -1.28125 1.6875 -1.265625 C 1.6875 -1.25 1.140625 -0.6875 1.078125 -0.625 C 0.921875 -0.46875 0.703125 -0.234375 0.203125 -0.234375 L 0.203125 0 C 0.28125 0 0.546875 -0.03125 0.734375 -0.03125 C 0.828125 -0.03125 1.234375 -0.015625 1.359375 0 L 1.359375 -0.234375 C 1.28125 -0.234375 1.25 -0.28125 1.25 -0.359375 C 1.25 -0.46875 1.3125 -0.546875 1.34375 -0.578125 C 1.5 -0.765625 1.671875 -0.9375 1.84375 -1.09375 L 2.375 -0.53125 C 2.484375 -0.390625 2.484375 -0.390625 2.484375 -0.359375 C 2.484375 -0.296875 2.4375 -0.234375 2.328125 -0.234375 L 2.328125 0 C 2.53125 -0.015625 2.984375 -0.03125 3.03125 -0.03125 C 3.25 -0.03125 3.5625 0 3.640625 0 L 3.640625 -0.234375 C 3.34375 -0.234375 3.1875 -0.234375 3.03125 -0.40625 Z M 2.125 -1.40625 "/>
</g>
<g id="glyph-3-0">
</g>
<g id="glyph-3-1">
<path d="M 5.5625 -1.8125 C 5.703125 -1.8125 5.875 -1.8125 5.875 -1.984375 C 5.875 -2.171875 5.703125 -2.171875 5.5625 -2.171875 L 1 -2.171875 C 0.875 -2.171875 0.703125 -2.171875 0.703125 -1.984375 C 0.703125 -1.8125 0.875 -1.8125 1 -1.8125 Z M 5.5625 -1.8125 "/>
</g>
</g>
</defs>
<g fill="rgb(0%, 0%, 0%)" fill-opacity="1">
<use xlink:href="#glyph-0-1" x="0.5" y="0.5"/>
</g>
<g fill="rgb(0%, 0%, 0%)" fill-opacity="1">
<use xlink:href="#glyph-1-1" x="14.846" y="4.347"/>
</g>
<g fill="rgb(0%, 0%, 0%)" fill-opacity="1">
<use xlink:href="#glyph-2-1" x="19.686" y="5.343"/>
<use xlink:href="#glyph-2-2" x="25.6636" y="5.343"/>
<use xlink:href="#glyph-2-3" x="29.316511" y="5.343"/>
</g>
<g fill="rgb(0%, 0%, 0%)" fill-opacity="1">
<use xlink:href="#glyph-3-1" x="6.288" y="32.879"/>
</g>
<g fill="rgb(0%, 0%, 0%)" fill-opacity="1">
<use xlink:href="#glyph-1-1" x="12.875" y="32.879"/>
</g>
<g fill="rgb(0%, 0%, 0%)" fill-opacity="1">
<use xlink:href="#glyph-2-1" x="17.714" y="33.875"/>
<use xlink:href="#glyph-2-2" x="23.6916" y="33.875"/>
<use xlink:href="#glyph-2-3" x="27.344511" y="33.875"/>
</g>
</svg>
