<?xml version="1.0" encoding="UTF-8"?>
<svg xmlns="http://www.w3.org/2000/svg" xmlns:xlink="http://www.w3.org/1999/xlink" width="7.196" height="14.887" viewBox="0 0 7.196 14.887">
<defs>
<g>
<g id="glyph-0-0">
</g>
<g id="glyph-0-1">
<path d="M 3.328125 6.109375 C 3.328125 4.5625 3.046875 2.359375 1.625 0.53125 C 1.515625 0.390625 0.8125 -0.4375 0.609375 -0.4375 C 0.5625 -0.4375 0.484375 -0.421875 0.484375 -0.328125 C 0.484375 -0.28125 0.5 -0.25 0.546875 -0.21875 C 1.0625 0.34375 1.78125 1.234375 2.21875 2.96875 C 2.46875 3.953125 2.578125 5.078125 2.578125 6.09375 C 2.578125 7.203125 2.46875 8.3125 2.1875 9.375 C 1.78125 10.90625 1.140625 11.78125 0.578125 12.390625 C 0.484375 12.484375 0.484375 12.515625 0.484375 12.53125 C 0.484375 12.625 0.5625 12.640625 0.609375 12.640625 C 0.78125 12.640625 1.375 11.96875 1.5 11.828125 C 2.625 10.5 3.328125 8.546875 3.328125 6.109375 Z M 3.328125 6.109375 "/>
</g>
</g>
</defs>
<g fill="rgb(0%, 0%, 0%)" fill-opacity="1">
<use xlink:href="#glyph-0-1" x="1.696" y="1.304"/>
</g>
</svg>
