<?xml version="1.0" encoding="UTF-8"?>
<svg xmlns="http://www.w3.org/2000/svg" xmlns:xlink="http://www.w3.org/1999/xlink" width="13.863" height="24.958" viewBox="0 0 13.863 24.958">
<defs>
<g>
<g id="glyph-0-0">
</g>
<g id="glyph-0-1">
<path d="M 5.296875 -4.15625 C 5.34375 -4.3125 5.34375 -4.328125 5.34375 -4.40625 C 5.34375 -4.609375 5.1875 -4.703125 5.03125 -4.703125 C 4.921875 -4.703125 4.75 -4.640625 4.640625 -4.46875 C 4.625 -4.421875 4.53125 -4.078125 4.5 -3.875 C 4.421875 -3.59375 4.34375 -3.296875 4.28125 -3.015625 L 3.78125 -1.046875 C 3.734375 -0.890625 3.265625 -0.125 2.546875 -0.125 C 2 -0.125 1.875 -0.59375 1.875 -1 C 1.875 -1.5 2.0625 -2.1875 2.4375 -3.140625 C 2.609375 -3.59375 2.65625 -3.703125 2.65625 -3.921875 C 2.65625 -4.421875 2.296875 -4.828125 1.75 -4.828125 C 0.71875 -4.828125 0.3125 -3.234375 0.3125 -3.140625 C 0.3125 -3.03125 0.421875 -3.03125 0.453125 -3.03125 C 0.5625 -3.03125 0.5625 -3.046875 0.625 -3.234375 C 0.921875 -4.25 1.359375 -4.578125 1.71875 -4.578125 C 1.8125 -4.578125 2 -4.578125 2 -4.234375 C 2 -3.953125 1.890625 -3.671875 1.8125 -3.46875 C 1.375 -2.3125 1.171875 -1.6875 1.171875 -1.171875 C 1.171875 -0.203125 1.859375 0.125 2.515625 0.125 C 2.9375 0.125 3.296875 -0.0625 3.609375 -0.375 C 3.46875 0.203125 3.34375 0.734375 2.90625 1.3125 C 2.625 1.671875 2.203125 2 1.703125 2 C 1.546875 2 1.0625 1.96875 0.875 1.53125 C 1.046875 1.53125 1.1875 1.53125 1.34375 1.40625 C 1.453125 1.3125 1.5625 1.171875 1.5625 0.953125 C 1.5625 0.625 1.265625 0.578125 1.15625 0.578125 C 0.90625 0.578125 0.546875 0.75 0.546875 1.28125 C 0.546875 1.828125 1.03125 2.234375 1.703125 2.234375 C 2.828125 2.234375 3.953125 1.25 4.25 0.015625 Z M 5.296875 -4.15625 "/>
</g>
<g id="glyph-0-2">
<path d="M 2.609375 -7.453125 C 2.609375 -7.453125 2.609375 -7.5625 2.46875 -7.5625 C 2.21875 -7.5625 1.421875 -7.484375 1.140625 -7.453125 C 1.046875 -7.453125 0.921875 -7.4375 0.921875 -7.234375 C 0.921875 -7.109375 1.03125 -7.109375 1.1875 -7.109375 C 1.71875 -7.109375 1.734375 -7.03125 1.734375 -6.921875 C 1.734375 -6.84375 1.640625 -6.484375 1.578125 -6.25 L 0.6875 -2.6875 C 0.5625 -2.15625 0.515625 -1.96875 0.515625 -1.59375 C 0.515625 -0.5625 1.09375 0.125 1.890625 0.125 C 3.1875 0.125 4.53125 -1.5 4.53125 -3.078125 C 4.53125 -4.0625 3.953125 -4.828125 3.078125 -4.828125 C 2.578125 -4.828125 2.125 -4.5 1.796875 -4.171875 Z M 1.578125 -3.328125 C 1.640625 -3.5625 1.640625 -3.59375 1.75 -3.703125 C 2.28125 -4.421875 2.765625 -4.578125 3.046875 -4.578125 C 3.453125 -4.578125 3.734375 -4.25 3.734375 -3.5625 C 3.734375 -2.90625 3.375 -1.65625 3.1875 -1.25 C 2.828125 -0.515625 2.328125 -0.125 1.890625 -0.125 C 1.53125 -0.125 1.171875 -0.421875 1.171875 -1.21875 C 1.171875 -1.421875 1.171875 -1.640625 1.34375 -2.328125 Z M 1.578125 -3.328125 "/>
</g>
<g id="glyph-1-0">
</g>
<g id="glyph-1-1">
<path d="M 2.25 -1.625 C 2.375 -1.75 2.703125 -2.015625 2.84375 -2.125 C 3.328125 -2.578125 3.796875 -3.015625 3.796875 -3.734375 C 3.796875 -4.6875 3 -5.296875 2.015625 -5.296875 C 1.046875 -5.296875 0.421875 -4.578125 0.421875 -3.859375 C 0.421875 -3.46875 0.734375 -3.421875 0.84375 -3.421875 C 1.015625 -3.421875 1.265625 -3.53125 1.265625 -3.84375 C 1.265625 -4.25 0.859375 -4.25 0.765625 -4.25 C 1 -4.84375 1.53125 -5.03125 1.921875 -5.03125 C 2.65625 -5.03125 3.046875 -4.40625 3.046875 -3.734375 C 3.046875 -2.90625 2.46875 -2.296875 1.515625 -1.34375 L 0.515625 -0.296875 C 0.421875 -0.21875 0.421875 -0.203125 0.421875 0 L 3.5625 0 L 3.796875 -1.421875 L 3.546875 -1.421875 C 3.53125 -1.265625 3.46875 -0.875 3.375 -0.71875 C 3.328125 -0.65625 2.71875 -0.65625 2.59375 -0.65625 L 1.171875 -0.65625 Z M 2.25 -1.625 "/>
</g>
</g>
<clipPath id="clip-0">
<path clip-rule="nonzero" d="M 2 16 L 7 16 L 7 24.957031 L 2 24.957031 Z M 2 16 "/>
</clipPath>
</defs>
<g fill="rgb(0%, 0%, 0%)" fill-opacity="1">
<use xlink:href="#glyph-0-1" x="1.696" y="9.595"/>
</g>
<g fill="rgb(0%, 0%, 0%)" fill-opacity="1">
<use xlink:href="#glyph-1-1" x="7.435" y="5.636"/>
</g>
<path fill="none" stroke-width="0.436" stroke-linecap="butt" stroke-linejoin="miter" stroke="rgb(0%, 0%, 0%)" stroke-opacity="1" stroke-miterlimit="10" d="M -0.0006875 0.00190625 L 10.471969 0.00190625 " transform="matrix(1, 0, 0, -1, 1.696, 14.248)"/>
<g clip-path="url(#clip-0)">
<g fill="rgb(0%, 0%, 0%)" fill-opacity="1">
<use xlink:href="#glyph-0-2" x="2.225" y="24.458"/>
</g>
</g>
<g fill="rgb(0%, 0%, 0%)" fill-opacity="1">
<use xlink:href="#glyph-1-1" x="6.906" y="21.306"/>
</g>
</svg>
