<?xml version="1.0" encoding="UTF-8"?>
<svg xmlns="http://www.w3.org/2000/svg" xmlns:xlink="http://www.w3.org/1999/xlink" width="52.482" height="23.499" viewBox="0 0 52.482 23.499">
<defs>
<g>
<g id="glyph-0-0">
</g>
<g id="glyph-0-1">
<path d="M 2.890625 -4.0625 L 4.125 -4.0625 C 3.765625 -2.453125 3.671875 -1.984375 3.671875 -1.25 C 3.671875 -1.09375 3.671875 -0.796875 3.75 -0.421875 C 3.859375 0.046875 3.984375 0.125 4.140625 0.125 C 4.359375 0.125 4.59375 -0.078125 4.59375 -0.296875 C 4.59375 -0.359375 4.59375 -0.375 4.53125 -0.53125 C 4.203125 -1.3125 4.203125 -2.03125 4.203125 -2.328125 C 4.203125 -2.90625 4.28125 -3.5 4.40625 -4.0625 L 5.65625 -4.0625 C 5.796875 -4.0625 6.1875 -4.0625 6.1875 -4.4375 C 6.1875 -4.703125 5.953125 -4.703125 5.75 -4.703125 L 2.09375 -4.703125 C 1.859375 -4.703125 1.4375 -4.703125 0.953125 -4.1875 C 0.578125 -3.765625 0.296875 -3.265625 0.296875 -3.203125 C 0.296875 -3.203125 0.296875 -3.09375 0.421875 -3.09375 C 0.515625 -3.09375 0.53125 -3.140625 0.59375 -3.234375 C 1.140625 -4.0625 1.765625 -4.0625 1.984375 -4.0625 L 2.609375 -4.0625 C 2.25 -2.75 1.671875 -1.421875 1.203125 -0.4375 C 1.125 -0.265625 1.125 -0.25 1.125 -0.171875 C 1.125 0.03125 1.296875 0.125 1.4375 0.125 C 1.765625 0.125 1.859375 -0.1875 1.984375 -0.59375 C 2.140625 -1.09375 2.140625 -1.109375 2.28125 -1.65625 Z M 2.890625 -4.0625 "/>
</g>
<g id="glyph-0-2">
<path d="M 4.96875 -5.453125 C 4.96875 -6.171875 4.765625 -7.6875 3.65625 -7.6875 C 2.140625 -7.6875 0.453125 -4.609375 0.453125 -2.109375 C 0.453125 -1.09375 0.78125 0.125 1.765625 0.125 C 3.296875 0.125 4.96875 -3.015625 4.96875 -5.453125 Z M 1.609375 -3.953125 C 1.796875 -4.65625 2.015625 -5.53125 2.453125 -6.296875 C 2.75 -6.84375 3.15625 -7.453125 3.640625 -7.453125 C 4.171875 -7.453125 4.25 -6.75 4.25 -6.125 C 4.25 -5.59375 4.15625 -5.03125 3.890625 -3.953125 Z M 3.796875 -3.609375 C 3.671875 -3.109375 3.453125 -2.1875 3.03125 -1.390625 C 2.65625 -0.65625 2.234375 -0.125 1.765625 -0.125 C 1.40625 -0.125 1.171875 -0.4375 1.171875 -1.453125 C 1.171875 -1.90625 1.25 -2.546875 1.53125 -3.609375 Z M 3.796875 -3.609375 "/>
</g>
<g id="glyph-1-0">
</g>
<g id="glyph-1-1">
<path d="M 4 -3.171875 C 3.640625 -3.09375 3.625 -2.78125 3.625 -2.75 C 3.625 -2.578125 3.765625 -2.453125 3.9375 -2.453125 C 4.109375 -2.453125 4.375 -2.59375 4.375 -2.9375 C 4.375 -3.390625 3.875 -3.515625 3.578125 -3.515625 C 3.21875 -3.515625 2.90625 -3.25 2.71875 -2.9375 C 2.546875 -3.359375 2.140625 -3.515625 1.8125 -3.515625 C 0.9375 -3.515625 0.453125 -2.515625 0.453125 -2.296875 C 0.453125 -2.21875 0.515625 -2.1875 0.578125 -2.1875 C 0.671875 -2.1875 0.6875 -2.234375 0.703125 -2.328125 C 0.890625 -2.90625 1.375 -3.296875 1.78125 -3.296875 C 2.09375 -3.296875 2.25 -3.0625 2.25 -2.78125 C 2.25 -2.625 2.15625 -2.25 2.09375 -2 C 2.03125 -1.765625 1.859375 -1.0625 1.8125 -0.90625 C 1.703125 -0.484375 1.421875 -0.140625 1.0625 -0.140625 C 1.03125 -0.140625 0.828125 -0.140625 0.65625 -0.25 C 1.015625 -0.34375 1.015625 -0.671875 1.015625 -0.6875 C 1.015625 -0.875 0.875 -0.984375 0.703125 -0.984375 C 0.484375 -0.984375 0.25 -0.796875 0.25 -0.5 C 0.25 -0.125 0.640625 0.078125 1.046875 0.078125 C 1.46875 0.078125 1.765625 -0.234375 1.90625 -0.5 C 2.09375 -0.109375 2.453125 0.078125 2.84375 0.078125 C 3.703125 0.078125 4.1875 -0.921875 4.1875 -1.140625 C 4.1875 -1.21875 4.125 -1.25 4.0625 -1.25 C 3.96875 -1.25 3.953125 -1.1875 3.921875 -1.109375 C 3.765625 -0.578125 3.3125 -0.140625 2.859375 -0.140625 C 2.59375 -0.140625 2.40625 -0.3125 2.40625 -0.65625 C 2.40625 -0.8125 2.453125 -1 2.5625 -1.4375 C 2.609375 -1.6875 2.78125 -2.375 2.828125 -2.53125 C 2.9375 -2.953125 3.21875 -3.296875 3.578125 -3.296875 C 3.625 -3.296875 3.828125 -3.296875 4 -3.171875 Z M 4 -3.171875 "/>
</g>
<g id="glyph-1-2">
<path d="M 4.125 -3 C 4.15625 -3.109375 4.15625 -3.125 4.15625 -3.1875 C 4.15625 -3.390625 4 -3.4375 3.90625 -3.4375 C 3.859375 -3.4375 3.6875 -3.421875 3.578125 -3.21875 C 3.5625 -3.171875 3.484375 -2.890625 3.453125 -2.71875 L 2.96875 -0.8125 C 2.96875 -0.78125 2.625 -0.140625 2.046875 -0.140625 C 1.65625 -0.140625 1.515625 -0.4375 1.515625 -0.78125 C 1.515625 -1.25 1.78125 -1.953125 1.96875 -2.421875 C 2.046875 -2.625 2.078125 -2.6875 2.078125 -2.84375 C 2.078125 -3.28125 1.71875 -3.515625 1.359375 -3.515625 C 0.5625 -3.515625 0.234375 -2.390625 0.234375 -2.296875 C 0.234375 -2.21875 0.296875 -2.1875 0.359375 -2.1875 C 0.46875 -2.1875 0.46875 -2.234375 0.5 -2.3125 C 0.703125 -3.015625 1.046875 -3.296875 1.328125 -3.296875 C 1.453125 -3.296875 1.515625 -3.21875 1.515625 -3.03125 C 1.515625 -2.859375 1.453125 -2.671875 1.40625 -2.53125 C 1.078125 -1.6875 0.9375 -1.28125 0.9375 -0.90625 C 0.9375 -0.125 1.53125 0.078125 2 0.078125 C 2.375 0.078125 2.640625 -0.09375 2.84375 -0.265625 C 2.71875 0.171875 2.640625 0.484375 2.34375 0.875 C 2.078125 1.1875 1.765625 1.40625 1.40625 1.40625 C 1.265625 1.40625 0.96875 1.375 0.8125 1.140625 C 1.234375 1.109375 1.265625 0.75 1.265625 0.703125 C 1.265625 0.515625 1.109375 0.40625 0.953125 0.40625 C 0.765625 0.40625 0.5 0.546875 0.5 0.9375 C 0.5 1.3125 0.84375 1.625 1.40625 1.625 C 2.21875 1.625 3.125 0.96875 3.375 0.015625 Z M 4.125 -3 "/>
</g>
<g id="glyph-2-0">
</g>
<g id="glyph-2-1">
<path d="M 1.390625 -0.84375 L 2.546875 -1.96875 C 4.25 -3.46875 4.890625 -4.0625 4.890625 -5.140625 C 4.890625 -6.390625 3.921875 -7.265625 2.578125 -7.265625 C 1.359375 -7.265625 0.546875 -6.265625 0.546875 -5.296875 C 0.546875 -4.671875 1.09375 -4.671875 1.125 -4.671875 C 1.3125 -4.671875 1.6875 -4.8125 1.6875 -5.25 C 1.6875 -5.546875 1.5 -5.828125 1.109375 -5.828125 C 1.03125 -5.828125 1 -5.828125 0.96875 -5.8125 C 1.21875 -6.515625 1.8125 -6.921875 2.4375 -6.921875 C 3.4375 -6.921875 3.90625 -6.046875 3.90625 -5.140625 C 3.90625 -4.28125 3.359375 -3.40625 2.765625 -2.734375 L 0.671875 -0.40625 C 0.546875 -0.28125 0.546875 -0.265625 0.546875 0 L 4.59375 0 L 4.890625 -1.890625 L 4.625 -1.890625 C 4.5625 -1.578125 4.5 -1.09375 4.390625 -0.921875 C 4.3125 -0.84375 3.59375 -0.84375 3.34375 -0.84375 Z M 1.390625 -0.84375 "/>
</g>
<g id="glyph-2-2">
<path d="M 3.15625 -3.84375 C 4.0625 -4.140625 4.6875 -4.890625 4.6875 -5.765625 C 4.6875 -6.65625 3.734375 -7.265625 2.6875 -7.265625 C 1.578125 -7.265625 0.75 -6.609375 0.75 -5.78125 C 0.75 -5.421875 1 -5.21875 1.3125 -5.21875 C 1.640625 -5.21875 1.859375 -5.453125 1.859375 -5.765625 C 1.859375 -6.3125 1.359375 -6.3125 1.1875 -6.3125 C 1.53125 -6.84375 2.25 -6.984375 2.640625 -6.984375 C 3.09375 -6.984375 3.6875 -6.75 3.6875 -5.765625 C 3.6875 -5.640625 3.671875 -5 3.375 -4.53125 C 3.046875 -4 2.6875 -3.96875 2.40625 -3.953125 C 2.328125 -3.953125 2.0625 -3.921875 1.984375 -3.921875 C 1.890625 -3.921875 1.828125 -3.90625 1.828125 -3.796875 C 1.828125 -3.671875 1.890625 -3.671875 2.078125 -3.671875 L 2.5625 -3.671875 C 3.453125 -3.671875 3.859375 -2.9375 3.859375 -1.859375 C 3.859375 -0.375 3.109375 -0.0625 2.625 -0.0625 C 2.15625 -0.0625 1.34375 -0.25 0.953125 -0.890625 C 1.34375 -0.84375 1.671875 -1.078125 1.671875 -1.5 C 1.671875 -1.890625 1.390625 -2.109375 1.0625 -2.109375 C 0.8125 -2.109375 0.453125 -1.953125 0.453125 -1.46875 C 0.453125 -0.484375 1.46875 0.234375 2.65625 0.234375 C 3.984375 0.234375 4.984375 -0.75 4.984375 -1.859375 C 4.984375 -2.765625 4.296875 -3.609375 3.15625 -3.84375 Z M 3.15625 -3.84375 "/>
</g>
<g id="glyph-2-3">
<path d="M 3.203125 -1.796875 L 3.203125 -0.84375 C 3.203125 -0.453125 3.1875 -0.34375 2.375 -0.34375 L 2.15625 -0.34375 L 2.15625 0 C 2.59375 -0.03125 3.15625 -0.03125 3.625 -0.03125 C 4.078125 -0.03125 4.65625 -0.03125 5.109375 0 L 5.109375 -0.34375 L 4.875 -0.34375 C 4.0625 -0.34375 4.046875 -0.453125 4.046875 -0.84375 L 4.046875 -1.796875 L 5.140625 -1.796875 L 5.140625 -2.140625 L 4.046875 -2.140625 L 4.046875 -7.09375 C 4.046875 -7.3125 4.046875 -7.390625 3.875 -7.390625 C 3.78125 -7.390625 3.734375 -7.390625 3.65625 -7.25 L 0.3125 -2.140625 L 0.3125 -1.796875 Z M 3.265625 -2.140625 L 0.609375 -2.140625 L 3.265625 -6.203125 Z M 3.265625 -2.140625 "/>
</g>
<g id="glyph-2-4">
<path d="M 5.015625 -3.484375 C 5.015625 -4.359375 4.96875 -5.234375 4.578125 -6.046875 C 4.078125 -7.09375 3.1875 -7.265625 2.71875 -7.265625 C 2.078125 -7.265625 1.28125 -6.984375 0.828125 -5.96875 C 0.484375 -5.21875 0.421875 -4.359375 0.421875 -3.484375 C 0.421875 -2.671875 0.46875 -1.6875 0.921875 -0.859375 C 1.390625 0.015625 2.1875 0.234375 2.71875 0.234375 C 3.296875 0.234375 4.140625 0.015625 4.609375 -1.03125 C 4.96875 -1.78125 5.015625 -2.625 5.015625 -3.484375 Z M 2.71875 0 C 2.296875 0 1.640625 -0.265625 1.453125 -1.3125 C 1.328125 -1.96875 1.328125 -2.984375 1.328125 -3.625 C 1.328125 -4.3125 1.328125 -5.03125 1.421875 -5.625 C 1.625 -6.921875 2.4375 -7.03125 2.71875 -7.03125 C 3.078125 -7.03125 3.796875 -6.828125 4 -5.75 C 4.109375 -5.140625 4.109375 -4.3125 4.109375 -3.625 C 4.109375 -2.796875 4.109375 -2.0625 3.984375 -1.359375 C 3.828125 -0.328125 3.203125 0 2.71875 0 Z M 2.71875 0 "/>
</g>
</g>
<clipPath id="clip-0">
<path clip-rule="nonzero" d="M 2 15 L 51 15 L 51 23.5 L 2 23.5 Z M 2 15 "/>
</clipPath>
</defs>
<g fill="rgb(0%, 0%, 0%)" fill-opacity="1">
<use xlink:href="#glyph-0-1" x="12.697" y="8.075"/>
</g>
<g fill="rgb(0%, 0%, 0%)" fill-opacity="1">
<use xlink:href="#glyph-0-2" x="19.307915" y="8.075"/>
</g>
<g fill="rgb(0%, 0%, 0%)" fill-opacity="1">
<use xlink:href="#glyph-1-1" x="24.428" y="9.712"/>
</g>
<g fill="rgb(0%, 0%, 0%)" fill-opacity="1">
<use xlink:href="#glyph-0-2" x="29.694" y="8.075"/>
</g>
<g fill="rgb(0%, 0%, 0%)" fill-opacity="1">
<use xlink:href="#glyph-1-2" x="34.815" y="9.712"/>
</g>
<path fill="none" stroke-width="0.436" stroke-linecap="butt" stroke-linejoin="miter" stroke="rgb(0%, 0%, 0%)" stroke-opacity="1" stroke-miterlimit="10" d="M -0.0006875 -0.0000625 L 49.089156 -0.0000625 " transform="matrix(1, 0, 0, -1, 1.696, 12.789)"/>
<g clip-path="url(#clip-0)">
<g fill="rgb(0%, 0%, 0%)" fill-opacity="1">
<use xlink:href="#glyph-2-1" x="1.696" y="22.999"/>
<use xlink:href="#glyph-2-2" x="7.15055" y="22.999"/>
<use xlink:href="#glyph-2-1" x="12.6051" y="22.999"/>
<use xlink:href="#glyph-2-1" x="18.05965" y="22.999"/>
<use xlink:href="#glyph-2-3" x="23.5142" y="22.999"/>
<use xlink:href="#glyph-2-2" x="28.96875" y="22.999"/>
<use xlink:href="#glyph-2-1" x="34.4233" y="22.999"/>
<use xlink:href="#glyph-2-4" x="39.87785" y="22.999"/>
<use xlink:href="#glyph-2-4" x="45.3324" y="22.999"/>
</g>
</g>
</svg>
