<?xml version="1.0" encoding="UTF-8"?>
<svg xmlns="http://www.w3.org/2000/svg" xmlns:xlink="http://www.w3.org/1999/xlink" width="20.993" height="34.209" viewBox="0 0 20.993 34.209">
<defs>
<g>
<g id="glyph-0-0">
</g>
<g id="glyph-0-1">
<path d="M 1.484375 31.21875 C 1.953125 31.203125 2.1875 30.875 2.1875 30.53125 C 2.1875 30.046875 1.84375 29.828125 1.5 29.828125 C 1.15625 29.828125 0.796875 30.03125 0.796875 30.53125 C 0.796875 31.265625 1.515625 31.875 2.390625 31.875 C 4.578125 31.875 5.390625 28.515625 6.40625 24.359375 C 7.515625 19.828125 8.453125 15.25 9.21875 10.640625 C 9.75 7.59375 10.28125 4.71875 10.765625 2.875 C 10.9375 2.171875 11.4375 0.3125 11.984375 0.3125 C 12.4375 0.3125 12.796875 0.59375 12.859375 0.640625 C 12.375 0.671875 12.140625 0.984375 12.140625 1.34375 C 12.140625 1.828125 12.5 2.046875 12.828125 2.046875 C 13.171875 2.046875 13.53125 1.84375 13.53125 1.328125 C 13.53125 0.5625 12.75 0 11.96875 0 C 10.875 0 10.0625 1.5625 9.28125 4.484375 C 9.234375 4.640625 7.28125 11.84375 5.703125 21.234375 C 5.328125 23.421875 4.921875 25.8125 4.453125 27.8125 C 4.1875 28.859375 3.53125 31.5625 2.359375 31.5625 C 1.84375 31.5625 1.5 31.21875 1.484375 31.21875 Z M 1.484375 31.21875 "/>
</g>
<g id="glyph-1-0">
</g>
<g id="glyph-1-1">
<path d="M 2.265625 -2.90625 L 3.171875 -2.90625 C 3.015625 -2.1875 2.875 -1.59375 2.875 -1 C 2.875 -0.953125 2.875 -0.609375 2.953125 -0.3125 C 3.0625 0.015625 3.140625 0.078125 3.28125 0.078125 C 3.453125 0.078125 3.640625 -0.078125 3.640625 -0.265625 C 3.640625 -0.3125 3.640625 -0.328125 3.609375 -0.40625 C 3.4375 -0.765625 3.3125 -1.15625 3.3125 -1.8125 C 3.3125 -1.984375 3.3125 -2.328125 3.4375 -2.90625 L 4.40625 -2.90625 C 4.53125 -2.90625 4.609375 -2.90625 4.6875 -2.96875 C 4.796875 -3.0625 4.8125 -3.15625 4.8125 -3.21875 C 4.8125 -3.4375 4.609375 -3.4375 4.484375 -3.4375 L 1.609375 -3.4375 C 1.4375 -3.4375 1.125 -3.4375 0.734375 -3.046875 C 0.453125 -2.765625 0.234375 -2.40625 0.234375 -2.34375 C 0.234375 -2.265625 0.28125 -2.25 0.34375 -2.25 C 0.4375 -2.25 0.453125 -2.265625 0.5 -2.328125 C 0.890625 -2.90625 1.359375 -2.90625 1.53125 -2.90625 L 2 -2.90625 C 1.765625 -2.0625 1.34375 -1.09375 1.046875 -0.515625 C 1 -0.390625 0.921875 -0.234375 0.921875 -0.171875 C 0.921875 0 1.046875 0.078125 1.171875 0.078125 C 1.484375 0.078125 1.5625 -0.21875 1.734375 -0.875 Z M 2.265625 -2.90625 "/>
</g>
<g id="glyph-2-0">
</g>
<g id="glyph-2-1">
<path d="M 5.5625 -1.8125 C 5.703125 -1.8125 5.875 -1.8125 5.875 -1.984375 C 5.875 -2.171875 5.703125 -2.171875 5.5625 -2.171875 L 1 -2.171875 C 0.875 -2.171875 0.703125 -2.171875 0.703125 -1.984375 C 0.703125 -1.8125 0.875 -1.8125 1 -1.8125 Z M 5.5625 -1.8125 "/>
</g>
</g>
</defs>
<g fill="rgb(0%, 0%, 0%)" fill-opacity="1">
<use xlink:href="#glyph-0-1" x="0.5" y="0.5"/>
</g>
<g fill="rgb(0%, 0%, 0%)" fill-opacity="1">
<use xlink:href="#glyph-1-1" x="14.846" y="4.347"/>
</g>
<g fill="rgb(0%, 0%, 0%)" fill-opacity="1">
<use xlink:href="#glyph-2-1" x="6.288" y="32.879"/>
</g>
<g fill="rgb(0%, 0%, 0%)" fill-opacity="1">
<use xlink:href="#glyph-1-1" x="12.875" y="32.879"/>
</g>
</svg>
