<?xml version="1.0" encoding="UTF-8"?>
<svg xmlns="http://www.w3.org/2000/svg" xmlns:xlink="http://www.w3.org/1999/xlink" width="289.084" height="122.943" viewBox="0 0 289.084 122.943">
<defs>
<g>
<g id="glyph-0-0">
</g>
<g id="glyph-0-1">
<path d="M 4.078125 19.296875 C 4.3125 19.296875 4.390625 19.296875 4.390625 19.15625 C 4.40625 11.5 5.296875 5.15625 9.109375 -0.171875 C 9.1875 -0.265625 9.1875 -0.296875 9.1875 -0.3125 C 9.1875 -0.421875 9.109375 -0.421875 8.9375 -0.421875 C 8.75 -0.421875 8.734375 -0.421875 8.71875 -0.40625 C 8.671875 -0.375 7.28125 1.21875 6.1875 3.40625 C 4.75 6.296875 3.84375 9.59375 3.4375 13.5625 C 3.40625 13.90625 3.171875 16.171875 3.171875 18.765625 L 3.171875 19.1875 C 3.1875 19.296875 3.25 19.296875 3.484375 19.296875 Z M 4.078125 19.296875 "/>
</g>
<g id="glyph-0-2">
<path d="M 4.390625 0.1875 C 4.390625 -0.09375 4.375 -0.109375 4.078125 -0.109375 L 3.484375 -0.109375 C 3.1875 -0.109375 3.171875 -0.09375 3.171875 0.1875 L 3.171875 6.359375 C 3.171875 6.640625 3.1875 6.65625 3.484375 6.65625 L 4.078125 6.65625 C 4.375 6.65625 4.390625 6.640625 4.390625 6.359375 Z M 4.390625 0.1875 "/>
</g>
<g id="glyph-0-3">
<path d="M 3.484375 -0.546875 C 3.25 -0.546875 3.1875 -0.546875 3.171875 -0.421875 L 3.171875 0 C 3.171875 6.65625 4.359375 10.5625 4.703125 11.671875 C 5.4375 14.09375 6.65625 16.640625 8.46875 18.890625 C 8.640625 19.078125 8.6875 19.140625 8.71875 19.15625 C 8.75 19.171875 8.75 19.1875 8.9375 19.1875 C 9.109375 19.1875 9.1875 19.1875 9.1875 19.078125 C 9.1875 19.046875 9.1875 19.03125 9.125 18.9375 C 5.484375 13.890625 4.390625 7.828125 4.390625 -0.390625 C 4.390625 -0.546875 4.3125 -0.546875 4.078125 -0.546875 Z M 3.484375 -0.546875 "/>
</g>
<g id="glyph-0-4">
<path d="M 6.359375 18.765625 C 6.359375 12.09375 5.171875 8.1875 4.828125 7.09375 C 4.09375 4.671875 2.875 2.109375 1.0625 -0.125 C 0.890625 -0.328125 0.84375 -0.375 0.8125 -0.40625 C 0.78125 -0.421875 0.78125 -0.421875 0.59375 -0.421875 C 0.4375 -0.421875 0.34375 -0.421875 0.34375 -0.3125 C 0.34375 -0.296875 0.34375 -0.265625 0.484375 -0.078125 C 4.28125 5.21875 5.140625 11.765625 5.140625 19.15625 C 5.140625 19.296875 5.21875 19.296875 5.453125 19.296875 L 6.046875 19.296875 C 6.28125 19.296875 6.34375 19.296875 6.359375 19.1875 Z M 6.359375 18.765625 "/>
</g>
<g id="glyph-0-5">
<path d="M 6.359375 0.1875 C 6.359375 -0.09375 6.34375 -0.109375 6.046875 -0.109375 L 5.453125 -0.109375 C 5.15625 -0.109375 5.140625 -0.09375 5.140625 0.1875 L 5.140625 6.359375 C 5.140625 6.640625 5.15625 6.65625 5.453125 6.65625 L 6.046875 6.65625 C 6.34375 6.65625 6.359375 6.640625 6.359375 6.359375 Z M 6.359375 0.1875 "/>
</g>
<g id="glyph-0-6">
<path d="M 6.359375 -0.421875 C 6.34375 -0.546875 6.28125 -0.546875 6.046875 -0.546875 L 5.453125 -0.546875 C 5.21875 -0.546875 5.140625 -0.546875 5.140625 -0.390625 C 5.140625 0.734375 5.140625 3.328125 4.859375 6.046875 C 4.265625 11.6875 2.8125 15.578125 0.421875 18.9375 C 0.34375 19.03125 0.34375 19.046875 0.34375 19.078125 C 0.34375 19.1875 0.4375 19.1875 0.59375 19.1875 C 0.78125 19.1875 0.796875 19.1875 0.8125 19.15625 C 0.859375 19.125 2.25 17.53125 3.34375 15.34375 C 4.78125 12.46875 5.6875 9.15625 6.09375 5.1875 C 6.125 4.859375 6.359375 2.578125 6.359375 0 Z M 6.359375 -0.421875 "/>
</g>
<g id="glyph-1-0">
</g>
<g id="glyph-1-1">
<path d="M 3.203125 -6.984375 C 3.203125 -7.234375 3.203125 -7.265625 2.953125 -7.265625 C 2.28125 -6.5625 1.3125 -6.5625 0.96875 -6.5625 L 0.96875 -6.234375 C 1.1875 -6.234375 1.828125 -6.234375 2.40625 -6.515625 L 2.40625 -0.859375 C 2.40625 -0.46875 2.359375 -0.34375 1.390625 -0.34375 L 1.03125 -0.34375 L 1.03125 0 C 1.421875 -0.03125 2.359375 -0.03125 2.796875 -0.03125 C 3.234375 -0.03125 4.1875 -0.03125 4.5625 0 L 4.5625 -0.34375 L 4.21875 -0.34375 C 3.234375 -0.34375 3.203125 -0.453125 3.203125 -0.859375 Z M 3.203125 -6.984375 "/>
</g>
<g id="glyph-1-2">
<path d="M 5.015625 -3.484375 C 5.015625 -4.359375 4.96875 -5.234375 4.578125 -6.046875 C 4.078125 -7.09375 3.1875 -7.265625 2.71875 -7.265625 C 2.078125 -7.265625 1.28125 -6.984375 0.828125 -5.96875 C 0.484375 -5.21875 0.421875 -4.359375 0.421875 -3.484375 C 0.421875 -2.671875 0.46875 -1.6875 0.921875 -0.859375 C 1.390625 0.015625 2.1875 0.234375 2.71875 0.234375 C 3.296875 0.234375 4.140625 0.015625 4.609375 -1.03125 C 4.96875 -1.78125 5.015625 -2.625 5.015625 -3.484375 Z M 2.71875 0 C 2.296875 0 1.640625 -0.265625 1.453125 -1.3125 C 1.328125 -1.96875 1.328125 -2.984375 1.328125 -3.625 C 1.328125 -4.3125 1.328125 -5.03125 1.421875 -5.625 C 1.625 -6.921875 2.4375 -7.03125 2.71875 -7.03125 C 3.078125 -7.03125 3.796875 -6.828125 4 -5.75 C 4.109375 -5.140625 4.109375 -4.3125 4.109375 -3.625 C 4.109375 -2.796875 4.109375 -2.0625 3.984375 -1.359375 C 3.828125 -0.328125 3.203125 0 2.71875 0 Z M 2.71875 0 "/>
</g>
<g id="glyph-1-3">
<path d="M 3.609375 2.625 C 3.609375 2.578125 3.609375 2.5625 3.421875 2.375 C 2.0625 1 1.71875 -1.0625 1.71875 -2.71875 C 1.71875 -4.625 2.125 -6.515625 3.46875 -7.890625 C 3.609375 -8.015625 3.609375 -8.03125 3.609375 -8.078125 C 3.609375 -8.140625 3.5625 -8.171875 3.5 -8.171875 C 3.390625 -8.171875 2.40625 -7.4375 1.765625 -6.046875 C 1.203125 -4.859375 1.078125 -3.640625 1.078125 -2.71875 C 1.078125 -1.875 1.203125 -0.5625 1.796875 0.671875 C 2.453125 2.015625 3.390625 2.71875 3.5 2.71875 C 3.5625 2.71875 3.609375 2.6875 3.609375 2.625 Z M 3.609375 2.625 "/>
</g>
<g id="glyph-1-4">
<path d="M 1.390625 -0.84375 L 2.546875 -1.96875 C 4.25 -3.46875 4.890625 -4.0625 4.890625 -5.140625 C 4.890625 -6.390625 3.921875 -7.265625 2.578125 -7.265625 C 1.359375 -7.265625 0.546875 -6.265625 0.546875 -5.296875 C 0.546875 -4.671875 1.09375 -4.671875 1.125 -4.671875 C 1.3125 -4.671875 1.6875 -4.8125 1.6875 -5.25 C 1.6875 -5.546875 1.5 -5.828125 1.109375 -5.828125 C 1.03125 -5.828125 1 -5.828125 0.96875 -5.8125 C 1.21875 -6.515625 1.8125 -6.921875 2.4375 -6.921875 C 3.4375 -6.921875 3.90625 -6.046875 3.90625 -5.140625 C 3.90625 -4.28125 3.359375 -3.40625 2.765625 -2.734375 L 0.671875 -0.40625 C 0.546875 -0.28125 0.546875 -0.265625 0.546875 0 L 4.59375 0 L 4.890625 -1.890625 L 4.625 -1.890625 C 4.5625 -1.578125 4.5 -1.09375 4.390625 -0.921875 C 4.3125 -0.84375 3.59375 -0.84375 3.34375 -0.84375 Z M 1.390625 -0.84375 "/>
</g>
<g id="glyph-1-5">
<path d="M 3.15625 -2.71875 C 3.15625 -3.578125 3.03125 -4.890625 2.4375 -6.125 C 1.78125 -7.46875 0.84375 -8.171875 0.734375 -8.171875 C 0.671875 -8.171875 0.625 -8.140625 0.625 -8.078125 C 0.625 -8.03125 0.625 -8.015625 0.828125 -7.8125 C 1.890625 -6.734375 2.515625 -5 2.515625 -2.71875 C 2.515625 -0.859375 2.109375 1.0625 0.765625 2.4375 C 0.625 2.5625 0.625 2.578125 0.625 2.625 C 0.625 2.6875 0.671875 2.71875 0.734375 2.71875 C 0.84375 2.71875 1.828125 1.984375 2.46875 0.59375 C 3.015625 -0.59375 3.15625 -1.8125 3.15625 -2.71875 Z M 3.15625 -2.71875 "/>
</g>
<g id="glyph-2-0">
</g>
<g id="glyph-2-1">
<path d="M 2.046875 -2.515625 C 2.359375 -2.515625 3.15625 -2.546875 3.703125 -2.765625 C 4.46875 -3.09375 4.53125 -3.734375 4.53125 -3.890625 C 4.53125 -4.375 4.109375 -4.828125 3.359375 -4.828125 C 2.15625 -4.828125 0.5 -3.765625 0.5 -1.859375 C 0.5 -0.734375 1.140625 0.125 2.21875 0.125 C 3.78125 0.125 4.6875 -1.03125 4.6875 -1.171875 C 4.6875 -1.234375 4.625 -1.3125 4.5625 -1.3125 C 4.5 -1.3125 4.484375 -1.28125 4.421875 -1.203125 C 3.5625 -0.125 2.359375 -0.125 2.234375 -0.125 C 1.390625 -0.125 1.28125 -1.03125 1.28125 -1.390625 C 1.28125 -1.515625 1.296875 -1.859375 1.46875 -2.515625 Z M 1.53125 -2.765625 C 1.953125 -4.421875 3.078125 -4.578125 3.359375 -4.578125 C 3.875 -4.578125 4.171875 -4.265625 4.171875 -3.890625 C 4.171875 -2.765625 2.421875 -2.765625 1.96875 -2.765625 Z M 1.53125 -2.765625 "/>
</g>
<g id="glyph-2-2">
<path d="M 2.890625 -4.0625 L 4.125 -4.0625 C 3.765625 -2.453125 3.671875 -1.984375 3.671875 -1.25 C 3.671875 -1.09375 3.671875 -0.796875 3.75 -0.421875 C 3.859375 0.046875 3.984375 0.125 4.140625 0.125 C 4.359375 0.125 4.59375 -0.078125 4.59375 -0.296875 C 4.59375 -0.359375 4.59375 -0.375 4.53125 -0.53125 C 4.203125 -1.3125 4.203125 -2.03125 4.203125 -2.328125 C 4.203125 -2.90625 4.28125 -3.5 4.40625 -4.0625 L 5.65625 -4.0625 C 5.796875 -4.0625 6.1875 -4.0625 6.1875 -4.4375 C 6.1875 -4.703125 5.953125 -4.703125 5.75 -4.703125 L 2.09375 -4.703125 C 1.859375 -4.703125 1.4375 -4.703125 0.953125 -4.1875 C 0.578125 -3.765625 0.296875 -3.265625 0.296875 -3.203125 C 0.296875 -3.203125 0.296875 -3.09375 0.421875 -3.09375 C 0.515625 -3.09375 0.53125 -3.140625 0.59375 -3.234375 C 1.140625 -4.0625 1.765625 -4.0625 1.984375 -4.0625 L 2.609375 -4.0625 C 2.25 -2.75 1.671875 -1.421875 1.203125 -0.4375 C 1.125 -0.265625 1.125 -0.25 1.125 -0.171875 C 1.125 0.03125 1.296875 0.125 1.4375 0.125 C 1.765625 0.125 1.859375 -0.1875 1.984375 -0.59375 C 2.140625 -1.09375 2.140625 -1.109375 2.28125 -1.65625 Z M 2.890625 -4.0625 "/>
</g>
<g id="glyph-2-3">
<path d="M 6.59375 -4.0625 C 6.59375 -4.546875 6.40625 -4.828125 6.15625 -4.828125 C 5.875 -4.828125 5.578125 -4.5625 5.578125 -4.3125 C 5.578125 -4.203125 5.640625 -4.078125 5.75 -3.984375 C 5.9375 -3.8125 6.125 -3.515625 6.125 -3.0625 C 6.125 -2.625 5.921875 -2 5.578125 -1.5 C 5.25 -1.03125 4.859375 -0.671875 4.34375 -0.671875 C 3.71875 -0.671875 3.375 -1.0625 3.28125 -1.640625 C 3.40625 -1.9375 3.65625 -2.625 3.65625 -2.9375 C 3.65625 -3.0625 3.59375 -3.171875 3.453125 -3.171875 C 3.375 -3.171875 3.25 -3.15625 3.15625 -2.984375 C 3.046875 -2.765625 2.90625 -2.0625 2.90625 -1.671875 C 2.546875 -1.15625 2.109375 -0.671875 1.421875 -0.671875 C 0.703125 -0.671875 0.484375 -1.3125 0.484375 -1.921875 C 0.484375 -3.28125 1.59375 -4.421875 1.59375 -4.5625 C 1.59375 -4.6875 1.5 -4.78125 1.390625 -4.78125 C 1.25 -4.78125 1.171875 -4.640625 1.09375 -4.53125 C 0.546875 -3.734375 0.125 -2.4375 0.125 -1.4375 C 0.125 -0.6875 0.375 0.125 1.28125 0.125 C 2.046875 0.125 2.5625 -0.421875 2.953125 -1.03125 C 3.046875 -0.390625 3.484375 0.125 4.15625 0.125 C 5 0.125 5.53125 -0.546875 5.921875 -1.359375 C 6.1875 -1.890625 6.59375 -3.375 6.59375 -4.0625 Z M 6.59375 -4.0625 "/>
</g>
<g id="glyph-3-0">
</g>
<g id="glyph-3-1">
<path d="M 5.5625 -1.8125 C 5.703125 -1.8125 5.875 -1.8125 5.875 -1.984375 C 5.875 -2.171875 5.703125 -2.171875 5.5625 -2.171875 L 1 -2.171875 C 0.875 -2.171875 0.703125 -2.171875 0.703125 -1.984375 C 0.703125 -1.8125 0.875 -1.8125 1 -1.8125 Z M 5.5625 -1.8125 "/>
</g>
<g id="glyph-4-0">
</g>
<g id="glyph-4-1">
<path d="M 2.5 -5.078125 C 2.5 -5.296875 2.484375 -5.296875 2.265625 -5.296875 C 1.9375 -4.984375 1.515625 -4.796875 0.765625 -4.796875 L 0.765625 -4.53125 C 0.984375 -4.53125 1.40625 -4.53125 1.875 -4.734375 L 1.875 -0.65625 C 1.875 -0.359375 1.84375 -0.265625 1.09375 -0.265625 L 0.8125 -0.265625 L 0.8125 0 C 1.140625 -0.03125 1.828125 -0.03125 2.1875 -0.03125 C 2.546875 -0.03125 3.234375 -0.03125 3.5625 0 L 3.5625 -0.265625 L 3.28125 -0.265625 C 2.53125 -0.265625 2.5 -0.359375 2.5 -0.65625 Z M 2.5 -5.078125 "/>
</g>
<g id="glyph-4-2">
<path d="M 2.25 -1.625 C 2.375 -1.75 2.703125 -2.015625 2.84375 -2.125 C 3.328125 -2.578125 3.796875 -3.015625 3.796875 -3.734375 C 3.796875 -4.6875 3 -5.296875 2.015625 -5.296875 C 1.046875 -5.296875 0.421875 -4.578125 0.421875 -3.859375 C 0.421875 -3.46875 0.734375 -3.421875 0.84375 -3.421875 C 1.015625 -3.421875 1.265625 -3.53125 1.265625 -3.84375 C 1.265625 -4.25 0.859375 -4.25 0.765625 -4.25 C 1 -4.84375 1.53125 -5.03125 1.921875 -5.03125 C 2.65625 -5.03125 3.046875 -4.40625 3.046875 -3.734375 C 3.046875 -2.90625 2.46875 -2.296875 1.515625 -1.34375 L 0.515625 -0.296875 C 0.421875 -0.21875 0.421875 -0.203125 0.421875 0 L 3.5625 0 L 3.796875 -1.421875 L 3.546875 -1.421875 C 3.53125 -1.265625 3.46875 -0.875 3.375 -0.71875 C 3.328125 -0.65625 2.71875 -0.65625 2.59375 -0.65625 L 1.171875 -0.65625 Z M 2.25 -1.625 "/>
</g>
<g id="glyph-4-3">
<path d="M 3.890625 -2.546875 C 3.890625 -3.390625 3.8125 -3.90625 3.546875 -4.421875 C 3.203125 -5.125 2.546875 -5.296875 2.109375 -5.296875 C 1.109375 -5.296875 0.734375 -4.546875 0.625 -4.328125 C 0.34375 -3.75 0.328125 -2.953125 0.328125 -2.546875 C 0.328125 -2.015625 0.34375 -1.21875 0.734375 -0.578125 C 1.09375 0.015625 1.6875 0.171875 2.109375 0.171875 C 2.5 0.171875 3.171875 0.046875 3.578125 -0.734375 C 3.875 -1.3125 3.890625 -2.03125 3.890625 -2.546875 Z M 2.109375 -0.0625 C 1.84375 -0.0625 1.296875 -0.1875 1.125 -1.015625 C 1.03125 -1.46875 1.03125 -2.21875 1.03125 -2.640625 C 1.03125 -3.1875 1.03125 -3.75 1.125 -4.1875 C 1.296875 -5 1.90625 -5.078125 2.109375 -5.078125 C 2.375 -5.078125 2.9375 -4.9375 3.09375 -4.21875 C 3.1875 -3.78125 3.1875 -3.171875 3.1875 -2.640625 C 3.1875 -2.171875 3.1875 -1.453125 3.09375 -1 C 2.921875 -0.171875 2.375 -0.0625 2.109375 -0.0625 Z M 2.109375 -0.0625 "/>
</g>
<g id="glyph-4-4">
<path d="M 3.140625 -5.15625 C 3.140625 -5.3125 3.140625 -5.375 2.96875 -5.375 C 2.875 -5.375 2.859375 -5.375 2.78125 -5.265625 L 0.234375 -1.5625 L 0.234375 -1.3125 L 2.484375 -1.3125 L 2.484375 -0.640625 C 2.484375 -0.34375 2.46875 -0.265625 1.84375 -0.265625 L 1.671875 -0.265625 L 1.671875 0 C 2.34375 -0.03125 2.359375 -0.03125 2.8125 -0.03125 C 3.265625 -0.03125 3.28125 -0.03125 3.953125 0 L 3.953125 -0.265625 L 3.78125 -0.265625 C 3.15625 -0.265625 3.140625 -0.34375 3.140625 -0.640625 L 3.140625 -1.3125 L 3.984375 -1.3125 L 3.984375 -1.5625 L 3.140625 -1.5625 Z M 2.546875 -4.515625 L 2.546875 -1.5625 L 0.515625 -1.5625 Z M 2.546875 -4.515625 "/>
</g>
<g id="glyph-5-0">
</g>
<g id="glyph-5-1">
<path d="M 6.359375 -4.796875 C 6.453125 -5.109375 6.46875 -5.171875 7.015625 -5.171875 C 7.203125 -5.171875 7.296875 -5.171875 7.296875 -5.328125 C 7.296875 -5.34375 7.296875 -5.4375 7.15625 -5.4375 C 7.015625 -5.4375 6.828125 -5.421875 6.671875 -5.421875 L 6.171875 -5.421875 C 5.40625 -5.421875 5.203125 -5.4375 5.140625 -5.4375 C 5.109375 -5.4375 4.984375 -5.4375 4.984375 -5.296875 C 4.984375 -5.171875 5.078125 -5.171875 5.21875 -5.171875 C 5.46875 -5.171875 5.703125 -5.171875 5.703125 -5.046875 C 5.703125 -5.015625 5.703125 -5.015625 5.671875 -4.90625 L 5.203125 -2.96875 L 2.625 -2.96875 L 3.09375 -4.828125 C 3.15625 -5.109375 3.171875 -5.171875 3.765625 -5.171875 C 3.921875 -5.171875 4.015625 -5.171875 4.015625 -5.328125 C 4.015625 -5.34375 4.015625 -5.4375 3.875 -5.4375 C 3.734375 -5.4375 3.53125 -5.421875 3.390625 -5.421875 L 2.890625 -5.421875 C 2.125 -5.421875 1.90625 -5.4375 1.859375 -5.4375 C 1.828125 -5.4375 1.703125 -5.4375 1.703125 -5.296875 C 1.703125 -5.171875 1.796875 -5.171875 1.921875 -5.171875 C 2.1875 -5.171875 2.421875 -5.171875 2.421875 -5.046875 C 2.421875 -5.015625 2.421875 -5.015625 2.390625 -4.90625 L 1.328125 -0.625 C 1.25 -0.328125 1.234375 -0.265625 0.640625 -0.265625 C 0.5 -0.265625 0.390625 -0.265625 0.390625 -0.109375 C 0.390625 -0.078125 0.421875 0 0.53125 0 C 0.671875 0 0.875 -0.015625 1.015625 -0.03125 L 1.53125 -0.03125 C 2.296875 -0.03125 2.5 0 2.5625 0 C 2.609375 0 2.71875 0 2.71875 -0.15625 C 2.71875 -0.265625 2.609375 -0.265625 2.484375 -0.265625 C 2.453125 -0.265625 2.3125 -0.265625 2.171875 -0.28125 C 2.015625 -0.296875 1.984375 -0.3125 1.984375 -0.390625 C 1.984375 -0.4375 2.015625 -0.484375 2.015625 -0.515625 L 2.5625 -2.703125 L 5.125 -2.703125 C 4.890625 -1.765625 4.578125 -0.515625 4.578125 -0.515625 C 4.5 -0.265625 4.359375 -0.265625 3.875 -0.265625 C 3.78125 -0.265625 3.6875 -0.265625 3.6875 -0.109375 C 3.6875 -0.078125 3.703125 0 3.8125 0 C 3.953125 0 4.15625 -0.015625 4.296875 -0.03125 L 4.8125 -0.03125 C 5.578125 -0.03125 5.78125 0 5.84375 0 C 5.890625 0 6 0 6 -0.15625 C 6 -0.265625 5.890625 -0.265625 5.765625 -0.265625 C 5.734375 -0.265625 5.59375 -0.265625 5.453125 -0.28125 C 5.296875 -0.296875 5.28125 -0.3125 5.28125 -0.390625 C 5.28125 -0.4375 5.296875 -0.484375 5.296875 -0.515625 Z M 6.359375 -4.796875 "/>
</g>
</g>
</defs>
<g fill="rgb(0%, 0%, 0%)" fill-opacity="1">
<use xlink:href="#glyph-0-1" x="0.5" y="2.998"/>
</g>
<g fill="rgb(0%, 0%, 0%)" fill-opacity="1">
<use xlink:href="#glyph-0-2" x="0.5" y="22.199"/>
</g>
<g fill="rgb(0%, 0%, 0%)" fill-opacity="1">
<use xlink:href="#glyph-0-2" x="0.5" y="28.744"/>
</g>
<g fill="rgb(0%, 0%, 0%)" fill-opacity="1">
<use xlink:href="#glyph-0-2" x="0.5" y="35.29"/>
</g>
<g fill="rgb(0%, 0%, 0%)" fill-opacity="1">
<use xlink:href="#glyph-0-2" x="0.5" y="41.835"/>
</g>
<g fill="rgb(0%, 0%, 0%)" fill-opacity="1">
<use xlink:href="#glyph-0-2" x="0.5" y="48.381"/>
</g>
<g fill="rgb(0%, 0%, 0%)" fill-opacity="1">
<use xlink:href="#glyph-0-2" x="0.5" y="54.926"/>
</g>
<g fill="rgb(0%, 0%, 0%)" fill-opacity="1">
<use xlink:href="#glyph-0-2" x="0.5" y="61.472"/>
</g>
<g fill="rgb(0%, 0%, 0%)" fill-opacity="1">
<use xlink:href="#glyph-0-2" x="0.5" y="68.017"/>
</g>
<g fill="rgb(0%, 0%, 0%)" fill-opacity="1">
<use xlink:href="#glyph-0-2" x="0.5" y="74.563"/>
</g>
<g fill="rgb(0%, 0%, 0%)" fill-opacity="1">
<use xlink:href="#glyph-0-2" x="0.5" y="81.108"/>
</g>
<g fill="rgb(0%, 0%, 0%)" fill-opacity="1">
<use xlink:href="#glyph-0-2" x="0.5" y="87.654"/>
</g>
<g fill="rgb(0%, 0%, 0%)" fill-opacity="1">
<use xlink:href="#glyph-0-2" x="0.5" y="94.199"/>
</g>
<g fill="rgb(0%, 0%, 0%)" fill-opacity="1">
<use xlink:href="#glyph-0-3" x="0.5" y="101.181"/>
</g>
<g fill="rgb(0%, 0%, 0%)" fill-opacity="1">
<use xlink:href="#glyph-1-1" x="10.045" y="9.985"/>
</g>
<g fill="rgb(0%, 0%, 0%)" fill-opacity="1">
<use xlink:href="#glyph-1-2" x="25.459558" y="9.985"/>
</g>
<g fill="rgb(0%, 0%, 0%)" fill-opacity="1">
<use xlink:href="#glyph-1-2" x="40.885026" y="9.985"/>
</g>
<g fill="rgb(0%, 0%, 0%)" fill-opacity="1">
<use xlink:href="#glyph-1-2" x="66.608683" y="9.985"/>
</g>
<g fill="rgb(0%, 0%, 0%)" fill-opacity="1">
<use xlink:href="#glyph-1-2" x="102.663259" y="9.985"/>
</g>
<g fill="rgb(0%, 0%, 0%)" fill-opacity="1">
<use xlink:href="#glyph-1-2" x="138.717835" y="9.985"/>
</g>
<g fill="rgb(0%, 0%, 0%)" fill-opacity="1">
<use xlink:href="#glyph-1-2" x="185.08151" y="9.985"/>
</g>
<g fill="rgb(0%, 0%, 0%)" fill-opacity="1">
<use xlink:href="#glyph-1-2" x="231.456094" y="9.985"/>
</g>
<g fill="rgb(0%, 0%, 0%)" fill-opacity="1">
<use xlink:href="#glyph-1-2" x="265.383395" y="9.985"/>
</g>
<g fill="rgb(0%, 0%, 0%)" fill-opacity="1">
<use xlink:href="#glyph-1-2" x="10.045" y="23.534"/>
</g>
<g fill="rgb(0%, 0%, 0%)" fill-opacity="1">
<use xlink:href="#glyph-1-1" x="25.459558" y="23.534"/>
</g>
<g fill="rgb(0%, 0%, 0%)" fill-opacity="1">
<use xlink:href="#glyph-1-2" x="40.885026" y="23.534"/>
</g>
<g fill="rgb(0%, 0%, 0%)" fill-opacity="1">
<use xlink:href="#glyph-1-2" x="66.608683" y="23.534"/>
</g>
<g fill="rgb(0%, 0%, 0%)" fill-opacity="1">
<use xlink:href="#glyph-1-2" x="102.663259" y="23.534"/>
</g>
<g fill="rgb(0%, 0%, 0%)" fill-opacity="1">
<use xlink:href="#glyph-1-2" x="138.717835" y="23.534"/>
</g>
<g fill="rgb(0%, 0%, 0%)" fill-opacity="1">
<use xlink:href="#glyph-1-2" x="185.08151" y="23.534"/>
</g>
<g fill="rgb(0%, 0%, 0%)" fill-opacity="1">
<use xlink:href="#glyph-1-2" x="231.456094" y="23.534"/>
</g>
<g fill="rgb(0%, 0%, 0%)" fill-opacity="1">
<use xlink:href="#glyph-1-2" x="265.383395" y="23.534"/>
</g>
<g fill="rgb(0%, 0%, 0%)" fill-opacity="1">
<use xlink:href="#glyph-1-2" x="10.045" y="37.083"/>
</g>
<g fill="rgb(0%, 0%, 0%)" fill-opacity="1">
<use xlink:href="#glyph-1-2" x="25.459558" y="37.083"/>
</g>
<g fill="rgb(0%, 0%, 0%)" fill-opacity="1">
<use xlink:href="#glyph-1-1" x="40.885026" y="37.083"/>
</g>
<g fill="rgb(0%, 0%, 0%)" fill-opacity="1">
<use xlink:href="#glyph-1-2" x="66.608683" y="37.083"/>
</g>
<g fill="rgb(0%, 0%, 0%)" fill-opacity="1">
<use xlink:href="#glyph-1-2" x="102.663259" y="37.083"/>
</g>
<g fill="rgb(0%, 0%, 0%)" fill-opacity="1">
<use xlink:href="#glyph-1-2" x="138.717835" y="37.083"/>
</g>
<g fill="rgb(0%, 0%, 0%)" fill-opacity="1">
<use xlink:href="#glyph-1-2" x="185.08151" y="37.083"/>
</g>
<g fill="rgb(0%, 0%, 0%)" fill-opacity="1">
<use xlink:href="#glyph-1-2" x="231.456094" y="37.083"/>
</g>
<g fill="rgb(0%, 0%, 0%)" fill-opacity="1">
<use xlink:href="#glyph-1-2" x="265.383395" y="37.083"/>
</g>
<g fill="rgb(0%, 0%, 0%)" fill-opacity="1">
<use xlink:href="#glyph-1-2" x="10.045" y="50.632"/>
</g>
<g fill="rgb(0%, 0%, 0%)" fill-opacity="1">
<use xlink:href="#glyph-1-2" x="25.459558" y="50.632"/>
</g>
<g fill="rgb(0%, 0%, 0%)" fill-opacity="1">
<use xlink:href="#glyph-1-2" x="40.885026" y="50.632"/>
</g>
<g fill="rgb(0%, 0%, 0%)" fill-opacity="1">
<use xlink:href="#glyph-1-1" x="56.299584" y="50.632"/>
</g>
<g fill="rgb(0%, 0%, 0%)" fill-opacity="1">
<use xlink:href="#glyph-2-1" x="61.752" y="50.632"/>
</g>
<g fill="rgb(0%, 0%, 0%)" fill-opacity="1">
<use xlink:href="#glyph-3-1" x="66.831" y="46.673"/>
</g>
<g fill="rgb(0%, 0%, 0%)" fill-opacity="1">
<use xlink:href="#glyph-4-1" x="73.418" y="46.673"/>
<use xlink:href="#glyph-4-2" x="77.652514" y="46.673"/>
</g>
<g fill="rgb(0%, 0%, 0%)" fill-opacity="1">
<use xlink:href="#glyph-1-2" x="102.663" y="50.632"/>
</g>
<g fill="rgb(0%, 0%, 0%)" fill-opacity="1">
<use xlink:href="#glyph-1-2" x="138.717576" y="50.632"/>
</g>
<g fill="rgb(0%, 0%, 0%)" fill-opacity="1">
<use xlink:href="#glyph-1-2" x="185.081251" y="50.632"/>
</g>
<g fill="rgb(0%, 0%, 0%)" fill-opacity="1">
<use xlink:href="#glyph-1-2" x="231.455835" y="50.632"/>
</g>
<g fill="rgb(0%, 0%, 0%)" fill-opacity="1">
<use xlink:href="#glyph-1-2" x="265.383136" y="50.632"/>
</g>
<g fill="rgb(0%, 0%, 0%)" fill-opacity="1">
<use xlink:href="#glyph-1-2" x="10.045" y="64.181"/>
</g>
<g fill="rgb(0%, 0%, 0%)" fill-opacity="1">
<use xlink:href="#glyph-1-2" x="25.459558" y="64.181"/>
</g>
<g fill="rgb(0%, 0%, 0%)" fill-opacity="1">
<use xlink:href="#glyph-1-2" x="40.885026" y="64.181"/>
</g>
<g fill="rgb(0%, 0%, 0%)" fill-opacity="1">
<use xlink:href="#glyph-1-2" x="66.608684" y="64.181"/>
</g>
<g fill="rgb(0%, 0%, 0%)" fill-opacity="1">
<use xlink:href="#glyph-1-1" x="92.34325" y="64.181"/>
</g>
<g fill="rgb(0%, 0%, 0%)" fill-opacity="1">
<use xlink:href="#glyph-2-1" x="97.801" y="64.181"/>
</g>
<g fill="rgb(0%, 0%, 0%)" fill-opacity="1">
<use xlink:href="#glyph-3-1" x="102.881" y="60.223"/>
</g>
<g fill="rgb(0%, 0%, 0%)" fill-opacity="1">
<use xlink:href="#glyph-4-1" x="109.467" y="60.223"/>
<use xlink:href="#glyph-4-2" x="113.701514" y="60.223"/>
</g>
<g fill="rgb(0%, 0%, 0%)" fill-opacity="1">
<use xlink:href="#glyph-1-2" x="138.713" y="64.181"/>
</g>
<g fill="rgb(0%, 0%, 0%)" fill-opacity="1">
<use xlink:href="#glyph-1-2" x="185.087584" y="64.181"/>
</g>
<g fill="rgb(0%, 0%, 0%)" fill-opacity="1">
<use xlink:href="#glyph-1-2" x="231.451259" y="64.181"/>
</g>
<g fill="rgb(0%, 0%, 0%)" fill-opacity="1">
<use xlink:href="#glyph-1-2" x="265.389469" y="64.181"/>
</g>
<g fill="rgb(0%, 0%, 0%)" fill-opacity="1">
<use xlink:href="#glyph-1-2" x="10.045" y="77.731"/>
</g>
<g fill="rgb(0%, 0%, 0%)" fill-opacity="1">
<use xlink:href="#glyph-1-2" x="25.459558" y="77.731"/>
</g>
<g fill="rgb(0%, 0%, 0%)" fill-opacity="1">
<use xlink:href="#glyph-1-2" x="40.885026" y="77.731"/>
</g>
<g fill="rgb(0%, 0%, 0%)" fill-opacity="1">
<use xlink:href="#glyph-1-2" x="66.608684" y="77.731"/>
</g>
<g fill="rgb(0%, 0%, 0%)" fill-opacity="1">
<use xlink:href="#glyph-1-2" x="102.663259" y="77.731"/>
</g>
<g fill="rgb(0%, 0%, 0%)" fill-opacity="1">
<use xlink:href="#glyph-1-1" x="128.397826" y="77.731"/>
</g>
<g fill="rgb(0%, 0%, 0%)" fill-opacity="1">
<use xlink:href="#glyph-2-1" x="133.851" y="77.731"/>
</g>
<g fill="rgb(0%, 0%, 0%)" fill-opacity="1">
<use xlink:href="#glyph-3-1" x="138.931" y="73.772"/>
</g>
<g fill="rgb(0%, 0%, 0%)" fill-opacity="1">
<use xlink:href="#glyph-4-1" x="145.517" y="73.772"/>
<use xlink:href="#glyph-4-2" x="149.751514" y="73.772"/>
</g>
<g fill="rgb(0%, 0%, 0%)" fill-opacity="1">
<use xlink:href="#glyph-1-2" x="185.082" y="77.731"/>
</g>
<g fill="rgb(0%, 0%, 0%)" fill-opacity="1">
<use xlink:href="#glyph-1-2" x="231.456584" y="77.731"/>
</g>
<g fill="rgb(0%, 0%, 0%)" fill-opacity="1">
<use xlink:href="#glyph-1-2" x="265.383885" y="77.731"/>
</g>
<g fill="rgb(0%, 0%, 0%)" fill-opacity="1">
<use xlink:href="#glyph-1-2" x="10.045" y="91.28"/>
</g>
<g fill="rgb(0%, 0%, 0%)" fill-opacity="1">
<use xlink:href="#glyph-1-2" x="25.459558" y="91.28"/>
</g>
<g fill="rgb(0%, 0%, 0%)" fill-opacity="1">
<use xlink:href="#glyph-1-2" x="40.885026" y="91.28"/>
</g>
<g fill="rgb(0%, 0%, 0%)" fill-opacity="1">
<use xlink:href="#glyph-1-2" x="66.608684" y="91.28"/>
</g>
<g fill="rgb(0%, 0%, 0%)" fill-opacity="1">
<use xlink:href="#glyph-1-2" x="102.663259" y="91.28"/>
</g>
<g fill="rgb(0%, 0%, 0%)" fill-opacity="1">
<use xlink:href="#glyph-1-2" x="138.717835" y="91.28"/>
</g>
<g fill="rgb(0%, 0%, 0%)" fill-opacity="1">
<use xlink:href="#glyph-1-3" x="164.441492" y="91.28"/>
<use xlink:href="#glyph-1-4" x="168.684041" y="91.28"/>
</g>
<g fill="rgb(0%, 0%, 0%)" fill-opacity="1">
<use xlink:href="#glyph-2-2" x="174.143" y="91.28"/>
</g>
<g fill="rgb(0%, 0%, 0%)" fill-opacity="1">
<use xlink:href="#glyph-2-3" x="180.753915" y="91.28"/>
</g>
<g fill="rgb(0%, 0%, 0%)" fill-opacity="1">
<use xlink:href="#glyph-5-1" x="187.544" y="92.968"/>
</g>
<g fill="rgb(0%, 0%, 0%)" fill-opacity="1">
<use xlink:href="#glyph-1-5" x="195.612" y="91.28"/>
</g>
<g fill="rgb(0%, 0%, 0%)" fill-opacity="1">
<use xlink:href="#glyph-3-1" x="199.854" y="87.321"/>
</g>
<g fill="rgb(0%, 0%, 0%)" fill-opacity="1">
<use xlink:href="#glyph-4-2" x="206.441" y="87.321"/>
</g>
<g fill="rgb(0%, 0%, 0%)" fill-opacity="1">
<use xlink:href="#glyph-1-2" x="231.452" y="91.28"/>
</g>
<g fill="rgb(0%, 0%, 0%)" fill-opacity="1">
<use xlink:href="#glyph-1-2" x="265.39021" y="91.28"/>
</g>
<g fill="rgb(0%, 0%, 0%)" fill-opacity="1">
<use xlink:href="#glyph-1-2" x="10.045" y="104.829"/>
</g>
<g fill="rgb(0%, 0%, 0%)" fill-opacity="1">
<use xlink:href="#glyph-1-2" x="25.459558" y="104.829"/>
</g>
<g fill="rgb(0%, 0%, 0%)" fill-opacity="1">
<use xlink:href="#glyph-1-2" x="40.885026" y="104.829"/>
</g>
<g fill="rgb(0%, 0%, 0%)" fill-opacity="1">
<use xlink:href="#glyph-1-2" x="66.608684" y="104.829"/>
</g>
<g fill="rgb(0%, 0%, 0%)" fill-opacity="1">
<use xlink:href="#glyph-1-2" x="102.663259" y="104.829"/>
</g>
<g fill="rgb(0%, 0%, 0%)" fill-opacity="1">
<use xlink:href="#glyph-1-2" x="138.717835" y="104.829"/>
</g>
<g fill="rgb(0%, 0%, 0%)" fill-opacity="1">
<use xlink:href="#glyph-1-2" x="185.08151" y="104.829"/>
</g>
<g fill="rgb(0%, 0%, 0%)" fill-opacity="1">
<use xlink:href="#glyph-1-1" x="221.136085" y="104.829"/>
</g>
<g fill="rgb(0%, 0%, 0%)" fill-opacity="1">
<use xlink:href="#glyph-2-1" x="226.59" y="104.829"/>
</g>
<g fill="rgb(0%, 0%, 0%)" fill-opacity="1">
<use xlink:href="#glyph-3-1" x="231.67" y="100.87"/>
</g>
<g fill="rgb(0%, 0%, 0%)" fill-opacity="1">
<use xlink:href="#glyph-4-1" x="238.256" y="100.87"/>
<use xlink:href="#glyph-4-3" x="242.490514" y="100.87"/>
</g>
<g fill="rgb(0%, 0%, 0%)" fill-opacity="1">
<use xlink:href="#glyph-1-2" x="265.385" y="104.829"/>
</g>
<g fill="rgb(0%, 0%, 0%)" fill-opacity="1">
<use xlink:href="#glyph-1-2" x="10.045" y="118.378"/>
</g>
<g fill="rgb(0%, 0%, 0%)" fill-opacity="1">
<use xlink:href="#glyph-1-2" x="25.459558" y="118.378"/>
</g>
<g fill="rgb(0%, 0%, 0%)" fill-opacity="1">
<use xlink:href="#glyph-1-2" x="40.885026" y="118.378"/>
</g>
<g fill="rgb(0%, 0%, 0%)" fill-opacity="1">
<use xlink:href="#glyph-1-2" x="66.608684" y="118.378"/>
</g>
<g fill="rgb(0%, 0%, 0%)" fill-opacity="1">
<use xlink:href="#glyph-1-2" x="102.663259" y="118.378"/>
</g>
<g fill="rgb(0%, 0%, 0%)" fill-opacity="1">
<use xlink:href="#glyph-1-2" x="138.717835" y="118.378"/>
</g>
<g fill="rgb(0%, 0%, 0%)" fill-opacity="1">
<use xlink:href="#glyph-1-2" x="185.08151" y="118.378"/>
</g>
<g fill="rgb(0%, 0%, 0%)" fill-opacity="1">
<use xlink:href="#glyph-1-2" x="231.456094" y="118.378"/>
</g>
<g fill="rgb(0%, 0%, 0%)" fill-opacity="1">
<use xlink:href="#glyph-1-1" x="257.190661" y="118.378"/>
</g>
<g fill="rgb(0%, 0%, 0%)" fill-opacity="1">
<use xlink:href="#glyph-2-1" x="262.64" y="118.378"/>
</g>
<g fill="rgb(0%, 0%, 0%)" fill-opacity="1">
<use xlink:href="#glyph-3-1" x="267.72" y="114.419"/>
</g>
<g fill="rgb(0%, 0%, 0%)" fill-opacity="1">
<use xlink:href="#glyph-4-4" x="274.306" y="114.419"/>
</g>
<g fill="rgb(0%, 0%, 0%)" fill-opacity="1">
<use xlink:href="#glyph-0-4" x="279.038" y="2.998"/>
</g>
<g fill="rgb(0%, 0%, 0%)" fill-opacity="1">
<use xlink:href="#glyph-0-5" x="279.038" y="22.199"/>
</g>
<g fill="rgb(0%, 0%, 0%)" fill-opacity="1">
<use xlink:href="#glyph-0-5" x="279.038" y="28.744"/>
</g>
<g fill="rgb(0%, 0%, 0%)" fill-opacity="1">
<use xlink:href="#glyph-0-5" x="279.038" y="35.29"/>
</g>
<g fill="rgb(0%, 0%, 0%)" fill-opacity="1">
<use xlink:href="#glyph-0-5" x="279.038" y="41.835"/>
</g>
<g fill="rgb(0%, 0%, 0%)" fill-opacity="1">
<use xlink:href="#glyph-0-5" x="279.038" y="48.381"/>
</g>
<g fill="rgb(0%, 0%, 0%)" fill-opacity="1">
<use xlink:href="#glyph-0-5" x="279.038" y="54.926"/>
</g>
<g fill="rgb(0%, 0%, 0%)" fill-opacity="1">
<use xlink:href="#glyph-0-5" x="279.038" y="61.472"/>
</g>
<g fill="rgb(0%, 0%, 0%)" fill-opacity="1">
<use xlink:href="#glyph-0-5" x="279.038" y="68.017"/>
</g>
<g fill="rgb(0%, 0%, 0%)" fill-opacity="1">
<use xlink:href="#glyph-0-5" x="279.038" y="74.563"/>
</g>
<g fill="rgb(0%, 0%, 0%)" fill-opacity="1">
<use xlink:href="#glyph-0-5" x="279.038" y="81.108"/>
</g>
<g fill="rgb(0%, 0%, 0%)" fill-opacity="1">
<use xlink:href="#glyph-0-5" x="279.038" y="87.654"/>
</g>
<g fill="rgb(0%, 0%, 0%)" fill-opacity="1">
<use xlink:href="#glyph-0-5" x="279.038" y="94.199"/>
</g>
<g fill="rgb(0%, 0%, 0%)" fill-opacity="1">
<use xlink:href="#glyph-0-6" x="279.038" y="101.181"/>
</g>
</svg>
