<?xml version="1.0" encoding="UTF-8"?>
<svg xmlns="http://www.w3.org/2000/svg" xmlns:xlink="http://www.w3.org/1999/xlink" width="57.372" height="12.368" viewBox="0 0 57.372 12.368">
<defs>
<g>
<g id="glyph-0-0">
</g>
<g id="glyph-0-1">
<path d="M 4.015625 -6.09375 C 3.265625 -5.703125 2.328125 -5.078125 2.328125 -4.234375 C 2.328125 -4.03125 2.828125 -3.390625 2.90625 -3.296875 C 3.109375 -3.078125 3.265625 -2.796875 3.265625 -2.5 C 3.265625 -1.765625 2.21875 -1.453125 1.515625 -1.453125 C 1.03125 -1.046875 0.625 -0.5625 0.34375 0 L 0.53125 0.171875 C 0.78125 -0.234375 1.1875 -0.703125 1.6875 -0.703125 C 2.375 -0.703125 3.203125 -0.359375 3.890625 -0.09375 C 4.25 0.046875 4.890625 0.296875 5.109375 0.296875 C 5.765625 0.296875 6.84375 -0.84375 7.53125 -1.609375 C 7.90625 -2.578125 8.140625 -3.421875 8.140625 -4.46875 C 8.140625 -5.765625 7.234375 -6.953125 6.015625 -7.3125 C 5.296875 -7.5 4.734375 -7.53125 4.0625 -7.53125 C 3.078125 -7.53125 1.9375 -7.171875 1.21875 -6.46875 C 0.578125 -5.828125 0.296875 -5.015625 0.296875 -4.125 L 0.53125 -4 C 0.5625 -4.640625 0.78125 -5.359375 1.25 -5.84375 C 1.890625 -6.5 2.875 -6.671875 3.78125 -6.671875 C 4.796875 -6.671875 5.828125 -6.421875 6.5625 -5.6875 C 7.125 -5.125 7.3125 -4.3125 7.3125 -3.546875 C 7.3125 -2.828125 7.234375 -2.03125 6.859375 -1.453125 C 6.484375 -0.890625 6.28125 -0.53125 5.578125 -0.53125 C 5.359375 -0.53125 4.5625 -0.8125 4.09375 -1 C 3.625 -1.15625 3.09375 -1.328125 2.625 -1.421875 C 3.296875 -1.71875 4.25 -2.234375 4.25 -3.015625 C 4.25 -3.546875 3.265625 -4.390625 3.265625 -4.828125 C 3.265625 -5.234375 3.90625 -5.796875 4.1875 -5.984375 Z M 4.015625 -6.09375 "/>
</g>
<g id="glyph-1-0">
</g>
<g id="glyph-1-1">
<path d="M 4.125 -3 C 4.15625 -3.109375 4.15625 -3.125 4.15625 -3.1875 C 4.15625 -3.390625 4 -3.4375 3.90625 -3.4375 C 3.859375 -3.4375 3.6875 -3.421875 3.578125 -3.21875 C 3.5625 -3.171875 3.484375 -2.890625 3.453125 -2.71875 L 2.96875 -0.8125 C 2.96875 -0.78125 2.625 -0.140625 2.046875 -0.140625 C 1.65625 -0.140625 1.515625 -0.4375 1.515625 -0.78125 C 1.515625 -1.25 1.78125 -1.953125 1.96875 -2.421875 C 2.046875 -2.625 2.078125 -2.6875 2.078125 -2.84375 C 2.078125 -3.28125 1.71875 -3.515625 1.359375 -3.515625 C 0.5625 -3.515625 0.234375 -2.390625 0.234375 -2.296875 C 0.234375 -2.21875 0.296875 -2.1875 0.359375 -2.1875 C 0.46875 -2.1875 0.46875 -2.234375 0.5 -2.3125 C 0.703125 -3.015625 1.046875 -3.296875 1.328125 -3.296875 C 1.453125 -3.296875 1.515625 -3.21875 1.515625 -3.03125 C 1.515625 -2.859375 1.453125 -2.671875 1.40625 -2.53125 C 1.078125 -1.6875 0.9375 -1.28125 0.9375 -0.90625 C 0.9375 -0.125 1.53125 0.078125 2 0.078125 C 2.375 0.078125 2.640625 -0.09375 2.84375 -0.265625 C 2.71875 0.171875 2.640625 0.484375 2.34375 0.875 C 2.078125 1.1875 1.765625 1.40625 1.40625 1.40625 C 1.265625 1.40625 0.96875 1.375 0.8125 1.140625 C 1.234375 1.109375 1.265625 0.75 1.265625 0.703125 C 1.265625 0.515625 1.109375 0.40625 0.953125 0.40625 C 0.765625 0.40625 0.5 0.546875 0.5 0.9375 C 0.5 1.3125 0.84375 1.625 1.40625 1.625 C 2.21875 1.625 3.125 0.96875 3.375 0.015625 Z M 4.125 -3 "/>
</g>
<g id="glyph-1-2">
<path d="M 1.15625 -0.6875 C 1.4375 -0.984375 1.53125 -1.078125 2.234375 -1.65625 C 2.3125 -1.734375 2.875 -2.1875 3.09375 -2.40625 C 3.59375 -2.890625 3.90625 -3.328125 3.90625 -3.421875 C 3.90625 -3.484375 3.84375 -3.515625 3.78125 -3.515625 C 3.703125 -3.515625 3.703125 -3.5 3.625 -3.375 C 3.375 -3.015625 3.203125 -2.953125 3.046875 -2.953125 C 2.90625 -2.953125 2.8125 -3.015625 2.640625 -3.171875 C 2.4375 -3.375 2.28125 -3.515625 2.03125 -3.515625 C 1.390625 -3.515625 0.984375 -2.796875 0.984375 -2.578125 C 0.984375 -2.578125 0.984375 -2.484375 1.109375 -2.484375 C 1.1875 -2.484375 1.21875 -2.515625 1.25 -2.609375 C 1.34375 -2.84375 1.6875 -2.921875 1.921875 -2.921875 C 2.109375 -2.921875 2.296875 -2.875 2.5 -2.8125 C 2.828125 -2.71875 2.90625 -2.71875 3.078125 -2.71875 C 2.921875 -2.546875 2.6875 -2.328125 2.078125 -1.828125 C 1.75 -1.546875 1.40625 -1.28125 1.1875 -1.0625 C 0.609375 -0.484375 0.34375 -0.09375 0.34375 -0.015625 C 0.34375 0.0625 0.40625 0.078125 0.46875 0.078125 C 0.546875 0.078125 0.5625 0.0625 0.609375 0 C 0.765625 -0.234375 1.015625 -0.484375 1.3125 -0.484375 C 1.5 -0.484375 1.578125 -0.421875 1.734375 -0.265625 C 1.984375 -0.015625 2.125 0.078125 2.359375 0.078125 C 3.1875 0.078125 3.6875 -0.90625 3.6875 -1.15625 C 3.6875 -1.234375 3.640625 -1.265625 3.5625 -1.265625 C 3.484375 -1.265625 3.46875 -1.21875 3.4375 -1.125 C 3.28125 -0.734375 2.84375 -0.515625 2.453125 -0.515625 C 2.296875 -0.515625 2.125 -0.5625 1.875 -0.625 C 1.546875 -0.703125 1.46875 -0.703125 1.34375 -0.703125 C 1.265625 -0.703125 1.21875 -0.703125 1.15625 -0.6875 Z M 1.15625 -0.6875 "/>
</g>
<g id="glyph-2-0">
</g>
<g id="glyph-2-1">
<path d="M 4.453125 -2.515625 L 7.5 -2.515625 C 7.65625 -2.515625 7.859375 -2.515625 7.859375 -2.71875 C 7.859375 -2.9375 7.65625 -2.9375 7.5 -2.9375 L 4.453125 -2.9375 L 4.453125 -6 C 4.453125 -6.15625 4.453125 -6.359375 4.25 -6.359375 C 4.03125 -6.359375 4.03125 -6.15625 4.03125 -6 L 4.03125 -2.9375 L 0.96875 -2.9375 C 0.8125 -2.9375 0.609375 -2.9375 0.609375 -2.71875 C 0.609375 -2.515625 0.8125 -2.515625 0.96875 -2.515625 L 4.03125 -2.515625 L 4.03125 0.546875 C 4.03125 0.703125 4.03125 0.90625 4.25 0.90625 C 4.453125 0.90625 4.453125 0.703125 4.453125 0.546875 Z M 4.453125 -2.515625 "/>
</g>
<g id="glyph-2-2">
<path d="M 3.15625 -2.71875 C 3.15625 -3.578125 3.03125 -4.890625 2.4375 -6.125 C 1.78125 -7.46875 0.84375 -8.171875 0.734375 -8.171875 C 0.671875 -8.171875 0.625 -8.140625 0.625 -8.078125 C 0.625 -8.03125 0.625 -8.015625 0.828125 -7.8125 C 1.890625 -6.734375 2.515625 -5 2.515625 -2.71875 C 2.515625 -0.859375 2.109375 1.0625 0.765625 2.4375 C 0.625 2.5625 0.625 2.578125 0.625 2.625 C 0.625 2.6875 0.671875 2.71875 0.734375 2.71875 C 0.84375 2.71875 1.828125 1.984375 2.46875 0.59375 C 3.015625 -0.59375 3.15625 -1.8125 3.15625 -2.71875 Z M 3.15625 -2.71875 "/>
</g>
<g id="glyph-2-3">
<path d="M 1.390625 -0.84375 L 2.546875 -1.96875 C 4.25 -3.46875 4.890625 -4.0625 4.890625 -5.140625 C 4.890625 -6.390625 3.921875 -7.265625 2.578125 -7.265625 C 1.359375 -7.265625 0.546875 -6.265625 0.546875 -5.296875 C 0.546875 -4.671875 1.09375 -4.671875 1.125 -4.671875 C 1.3125 -4.671875 1.6875 -4.8125 1.6875 -5.25 C 1.6875 -5.546875 1.5 -5.828125 1.109375 -5.828125 C 1.03125 -5.828125 1 -5.828125 0.96875 -5.8125 C 1.21875 -6.515625 1.8125 -6.921875 2.4375 -6.921875 C 3.4375 -6.921875 3.90625 -6.046875 3.90625 -5.140625 C 3.90625 -4.28125 3.359375 -3.40625 2.765625 -2.734375 L 0.671875 -0.40625 C 0.546875 -0.28125 0.546875 -0.265625 0.546875 0 L 4.59375 0 L 4.890625 -1.890625 L 4.625 -1.890625 C 4.5625 -1.578125 4.5 -1.09375 4.390625 -0.921875 C 4.3125 -0.84375 3.59375 -0.84375 3.34375 -0.84375 Z M 1.390625 -0.84375 "/>
</g>
<g id="glyph-3-0">
</g>
<g id="glyph-3-1">
<path d="M 4.78125 -7.765625 C 4.84375 -7.90625 4.84375 -7.953125 4.84375 -7.96875 C 4.84375 -8.078125 4.75 -8.171875 4.625 -8.171875 C 4.546875 -8.171875 4.46875 -8.140625 4.4375 -8.078125 L 0.65625 2.3125 C 0.59375 2.453125 0.59375 2.5 0.59375 2.515625 C 0.59375 2.625 0.703125 2.71875 0.8125 2.71875 C 0.953125 2.71875 1 2.65625 1.0625 2.46875 Z M 4.78125 -7.765625 "/>
</g>
</g>
</defs>
<g fill="rgb(0%, 0%, 0%)" fill-opacity="1">
<use xlink:href="#glyph-0-1" x="0.5" y="8.682"/>
</g>
<g fill="rgb(0%, 0%, 0%)" fill-opacity="1">
<use xlink:href="#glyph-1-1" x="9.572" y="10.318"/>
</g>
<g fill="rgb(0%, 0%, 0%)" fill-opacity="1">
<use xlink:href="#glyph-2-1" x="16.966" y="8.682"/>
</g>
<g fill="rgb(0%, 0%, 0%)" fill-opacity="1">
<use xlink:href="#glyph-0-1" x="27.875" y="8.682"/>
</g>
<g fill="rgb(0%, 0%, 0%)" fill-opacity="1">
<use xlink:href="#glyph-1-2" x="36.947" y="10.318"/>
</g>
<g fill="rgb(0%, 0%, 0%)" fill-opacity="1">
<use xlink:href="#glyph-2-2" x="41.72" y="8.682"/>
</g>
<g fill="rgb(0%, 0%, 0%)" fill-opacity="1">
<use xlink:href="#glyph-3-1" x="45.963" y="8.682"/>
</g>
<g fill="rgb(0%, 0%, 0%)" fill-opacity="1">
<use xlink:href="#glyph-2-3" x="51.417" y="8.682"/>
</g>
</svg>
